2006-11-10T13:38:38Z,$ 317 Million,in,Share Sale
2006-11-10T13:38:38Z,Evraz 's Raspadskaya,Raises,Million
2006-11-10T23:02:40Z,Mills,Sets,Shareholder Meeting After Gazit-Globe
2006-11-10T23:02:40Z,Shareholder,Meeting After,Gazit-Globe
