2007-02-27T04:08:49Z,Merrill,Hires,Deutsche Bank 's Magnus
2007-02-27T21:12:31Z,Its 13th Loss,in,17 Quarters
2007-02-27T21:13:10Z,Dynegy,Has,Million 4th-Quarter Loss on Unit Sales
2007-02-27T23:21:08Z,Watson,Has,Loss on Research Writedown
