2007-10-04T16:38:46Z,Russia,Boosts,Estimate
2007-10-04T18:39:39Z,Drugs,May Get,Faster Review
2007-10-04T18:39:39Z,Generic Drugs,May Get,Faster Review Under New Rules
2007-10-04T20:12:37Z,Wet Seal Shares,Have,Biggest Drop
