2008-04-23T10:33:56Z,China,Orders,Refiners
2008-04-23T12:00:10Z,Carlsberg Will,Buy Stake in,Vietnamese Brewer Habeco
2008-04-23T15:18:32Z,French Regulator,Faces,Appeal of Sacyr 's Eiffage Sale
2008-04-23T15:18:32Z,Regulator,Faces,Appeal
2008-04-23T15:18:32Z,Sacyr,of,Eiffage Sale
