2010-11-06T00:00:01Z,Fed Stimulus Plan,Offsets,Debt Repayment Concerns
2010-11-06T00:38:03Z,China,in,Plan
2010-11-06T00:40:09Z,IMF,Approves China as,Weakening Influence
2010-11-06T00:40:09Z,Third-Biggest Power,Influence of,Europe
2010-11-06T00:50:15Z,Magazine,Focus to,Digital
2010-11-06T01:01:26Z,General Sales Tax,Changes to,Energy Industry
2010-11-06T01:01:26Z,Pakistan,Supports,Changes to Energy Industry
2010-11-06T01:02:41Z,Asian Stocks,Have,Biggest Weekly Gain
2010-11-06T01:02:41Z,Fed,After,Monetary Plan
2010-11-06T01:02:41Z,Stocks,Have,Weekly Gain
2010-11-06T02:12:53Z,Cities,Take,Lead
2010-11-06T02:12:53Z,New York 's Bloomberg,Urges,Cities
2010-11-06T02:16:51Z,M&T,Buys,Maryland Bank
2010-11-06T02:16:51Z,Year,in,U.S. Eclipse Total
2010-11-06T02:36:53Z,China,Forecasts,Snowstorms
2010-11-06T02:36:53Z,Snowstorms,in,Northern Provinces
2010-11-06T02:38:04Z,China,'s Growth,Liu
2010-11-06T02:38:04Z,Growth,Liu 's,State Council
2010-11-06T02:42:43Z,2011,in Output,Ganling
2010-11-06T02:42:43Z,Palm Oil Output,in,2011
2010-11-06T03:48:23Z,Grain,Pricing in,Five-Year Plan
2010-11-06T03:48:23Z,Improve Pricing,in,Five-Year Plan
2010-11-06T03:53:53Z,Thailand,Splits With,Markets
2010-11-06T04:00:01Z,Bernanke,Defends,Bond Purchases
2010-11-06T04:00:01Z,U.S. Initial Public Offerings,Extend,Rebound
2010-11-06T04:00:01Z,U.S. Public Offerings,Extend,Rebound
2010-11-06T04:00:19Z,Fed,on,Plan to Purchase $ 600 Billion
2010-11-06T04:00:19Z,Treasury Yields,Tumble on,Fed 's Plan to Purchase $ 600 Billion
2010-11-06T04:00:42Z,Mares,Seek,Breeders ' Cup Record
2010-11-06T04:00:42Z,Zenyatta,Joins,Goldikova
2010-11-06T04:00:57Z,Belle,Win,Ladies
2010-11-06T04:00:57Z,Unrivaled Belle,Win,Ladies
2010-11-06T04:01:07Z,October Payroll Increase Points,in,U.S. Consumer
2010-11-06T04:01:38Z,Stocks,in,U.S. Rally
2010-11-06T04:01:38Z,U.S. Rally,Dow to,Highest
2010-11-06T07:18:57Z,China Electric Cars Strategic Industry,in,5-Year Plan
2010-11-06T07:44:48Z,Huge Fundraising Needs,in,Next Few Years
2010-11-06T09:02:06Z,China Inflation May,Reach,4 %
2010-11-06T10:00:00Z,Room,With,Congress
2010-11-06T10:17:15Z,Political Reporter Kashin Attacked,Put into,Coma
2010-11-06T10:17:15Z,Reporter Kashin Attacked,Put into,Coma
2010-11-06T10:17:15Z,Russian Political Reporter Kashin Attacked,Put into,Coma
2010-11-06T10:17:15Z,Russian Reporter Kashin Attacked,Put into,Coma
2010-11-06T10:48:52Z,BBC Journalists,' Strike,Programs Disrupted
2010-11-06T10:48:52Z,Pension,Enters,Second Day
2010-11-06T11:22:38Z,Obama,Says at,Taj Hotel Shrine
2010-11-06T11:22:38Z,Opposing Terrorism,in U.S.,India United
2010-11-06T11:22:38Z,U.S.,in,Opposing Terrorism
2010-11-06T11:34:47Z,Sudan,'s Nile,CAMC Build
2010-11-06T12:27:54Z,Tanzania ’s Kikwete,Is,Sworn in for Presidential Term
2010-11-06T13:10:24Z,GM Shares,in,IPO
2010-11-06T13:20:34Z,Collahuasi Mine Strike,Enters Day,Talks Stall
2010-11-06T13:38:22Z,Yemen Militant Cleric Al-Awlaki 's Arrest,Ordered by,State Security Court
2010-11-06T13:38:57Z,Minister,Says,Safe
2010-11-06T13:38:57Z,No Health Risk,Completely Says,Safe
2010-11-06T13:38:57Z,Sydney 's Drinking Water,Says,Safe
2010-11-06T13:53:42Z,No. 1 Men,as,Doubles Team for Record Sixth Time
2010-11-06T14:45:00Z,Fed,With,Inflation Effort
2010-11-06T14:50:31Z,BP Signing South China Sea Exploration Deal,With,CNOOC
2010-11-06T14:53:13Z,Bolton,Defeats,Tottenham 4-2 in Premier League
2010-11-06T14:53:13Z,Tottenham 4-2,in,Premier League
2010-11-06T15:21:02Z,Egypt,in,Second IPO
2010-11-06T15:31:10Z,Death Toll,Reaches,116
2010-11-06T15:57:06Z,Aramco Names Al-Dabbagh Treasurer,VP of,Business Development
2010-11-06T17:07:58Z,Saudi Arabia,Urges,Strengthening of Global Anti-Terrorism Cooperation
2010-11-06T17:25:06Z,Bolton,Defeats,Spurs
2010-11-06T18:06:29Z,Williams 's Hulkenberg,Wins,Brazilian Grand Prix Pole Ahead of Red Bulls
2010-11-06T18:20:26Z,Mark Wells 's 1980 Olympic Hockey Gold Medal,Sold at,Auction
2010-11-06T18:20:26Z,Mark Wells 's Olympic Hockey Gold Medal,Sold at,Auction
2010-11-06T19:47:20Z,Mexican Violence May Escalate,in,Shootout
2010-11-06T21:12:27Z,Derby Favorite,With,Juvenile Win
2010-11-06T21:50:06Z,Filly Goldikova,Wins,Breeders ' Cup Mile
2010-11-06T22:00:00Z,Greece,Holds,Local Elections
2010-11-06T22:57:49Z,Ends,Win Streak at,19
2010-11-06T23:02:11Z,New Zealand,Beats,England 26-16
2010-11-06T23:02:11Z,Top-Ranked New Zealand,Beats,England 26-16
2010-11-06T23:07:55Z,Penn State 's Joe Paterno,Wins,400th Game
2010-11-06T23:07:55Z,Third,Coach,Overall
2010-11-06T23:42:41Z,Goldikova,Wins,Breeders ' Cup Mile
2010-11-06T23:42:41Z,Irish-born Goldikova,Wins,Breeders ' Cup Mile
2010-11-06T23:53:00Z,Promotes Trade,Democracy on,First Asia Tour Stop
2010-11-07T04:00:01Z,Bernanke,Invokes,Friedman 's Inflation-Fighting Legacy
2010-11-07T10:01:54Z,Myanmar Votes,in,20 Years as Army Maintains Grip on Power
2010-11-07T16:08:37Z,Biden,in,New Orleans
