2010-07-09T00:01:27Z,Garmin,Ruling on,SP Technologies Touch Screen Keyboard Patent
2010-07-09T00:11:34Z,Copper,in,London Gains
2010-07-09T00:15:09Z,Kasai Kogyo,Rises With,Chery
2010-07-09T00:19:51Z,Gradual Yuan Appreciation,Is Good for,Former PBOC Advisor Yu
2010-07-09T00:19:51Z,Yuan Appreciation,Is,Good
2010-07-09T00:34:22Z,WT Sea Air,Genesis for,132
2010-07-09T00:43:13Z,China,in,Inner Mongolia
2010-07-09T00:43:13Z,Corn Crops,in,China 's Inner Mongolia
2010-07-09T00:47:05Z,Korean Won,Strengthens,Bonds Decline
2010-07-09T01:00:00Z,Flawed Financial Bill,Contains,Huge Surprise
2010-07-09T01:08:02Z,Gloucester Coal,Buy,Some of Noble 's Australian Assets
2010-07-09T01:08:02Z,Noble,of,Australian Assets
2010-07-09T01:24:10Z,Honda Factory Workers,Disrupting,Output
2010-07-09T01:26:15Z,Fall,to Bonds,Mizuho
2010-07-09T01:26:15Z,Japan,'s Bonds,Mizuho
2010-07-09T01:26:15Z,Profits Rise,as Bonds,Mizuho
2010-07-09T01:26:15Z,Yields,May Reach,1.4 %
2010-07-09T01:33:16Z,South Korea 's Won,Extends Gains After,Unexpected Interest-Rate Increase
2010-07-09T01:39:56Z,Brunei,of,Seria Light Oil
2010-07-09T01:50:49Z,Citigroup,Hires,Goldman 's Osmond
2010-07-09T01:52:10Z,2.1 %,in,Hong Kong Premarket
2010-07-09T02:34:41Z,Thai Swaps,Rise as,Odds of Rate Increase
2010-07-09T02:45:28Z,China Stocks,Rebound After,Finding Bottom
2010-07-09T02:57:28Z,CTV,of,National News
2010-07-09T03:18:38Z,China Stocks Rise,Set for,Weekly Gain
2010-07-09T03:35:54Z,Rubber Futures,Erasing,Earlier Decline
2010-07-09T03:39:14Z,Itochu,Buys Stake in,Uranium Explorer Extract Resources
2010-07-09T03:41:49Z,Shiv-Vani Oil Gains,in,Mumbai Trading on Plan
2010-07-09T04:00:00Z,Economy,in,U.S.
2010-07-09T04:00:00Z,Survey,Shows,Consumers Spend Less
2010-07-09T04:01:00Z,GE,Loom Over,Avid 's Lead Creating
2010-07-09T04:01:00Z,Iger,Tell,Moguls
2010-07-09T04:01:00Z,Leduc,Tops,93 %
2010-07-09T04:01:00Z,Moonves,Tell,Moguls
2010-07-09T04:01:00Z,Rum-Tax Bonds,Attract,Closing U.S. Virgin Islands Budget Gap
2010-07-09T04:01:00Z,Russia Spy-Swap Handling,Shows,Ties
2010-07-09T04:01:01Z,Skadden Arps,Retains,Acquisitions
2010-07-09T04:07:55Z,Heart,at Staff,Wall Street Journal
2010-07-09T04:09:43Z,JR East,Raises,$ 339 Million Selling Bonds
2010-07-09T04:16:03Z,FSC,Says in,China Stocks
2010-07-09T04:17:40Z,Vanderbilt,Survived,Rail Disaster
2010-07-09T04:19:46Z,Mall Operator General Growth,Has,Deal for New Barclays Bankruptcy Loan
2010-07-09T04:27:11Z,China,Holds,Meeting
2010-07-09T04:42:27Z,Two Nickel Plants,in,Ontario
2010-07-09T04:42:27Z,Vale Workers,End,Year-Long Strike
2010-07-09T04:44:50Z,5.9 %,in,2011
2010-07-09T04:44:50Z,Rwanda,'s Economy,IMF Forecasts
2010-07-09T04:45:33Z,Soccer World Cup,at,Closing Ceremony Uncertain
2010-07-09T04:47:04Z,GDF Suez Chief,Wants,La Tribune Reports
2010-07-09T04:53:41Z,Asia,Leads,Recovery
2010-07-09T04:54:43Z,LeBron James,Be Good for,Miami
2010-07-09T04:54:43Z,Miami,Bad for,NBA
2010-07-09T04:57:15Z,Heat Are Favorite,in,Las Vegas
2010-07-09T05:00:01Z,MegaFon CEO,Seeks,Two Acquisitions Year
2010-07-09T05:09:51Z,May,Have Been to,Yankees
2010-07-09T05:16:41Z,Desertec Project Planning First Power Plant,in,Morocco
2010-07-09T05:20:17Z,Infineon,Die,Welt
2010-07-09T05:20:57Z,Government,Wins,Time
2010-07-09T05:20:57Z,Time,Reply to,Petition
2010-07-09T05:34:40Z,Bank,Hires Ex-Goldman Banker Tachibana for,Fixed Income Sales
2010-07-09T05:35:27Z,Spain 's Caixa,Have,Alternatives
2010-07-09T05:35:30Z,Shale Gas Exploration,in,Poland
2010-07-09T05:53:52Z,Poland,Adviser 's,Prime Minister
2010-07-09T05:54:47Z,AccessKenya,Says,Daniel Ndonye
2010-07-09T05:54:47Z,Daniel Ndonye,Become,Chairman
2010-07-09T05:55:31Z,Vestas,Hires,Ex-Chilean Energy Minister
2010-07-09T05:55:31Z,Wind,in,Latin America
2010-07-09T05:59:22Z,UniCredit,'s Plans,HN
2010-07-09T06:00:00Z,Merck KGaA Seeks Second Cancer Vaccine,in,BB Biotech Vaximm Joint Venture
2010-07-09T06:04:34Z,Billion,in,First Half
2010-07-09T06:05:18Z,Soccer,'s Italian,No Matter
2010-07-09T06:05:18Z,Team,Wins,Final
2010-07-09T06:05:19Z,Blast,in,Pakistan 's Mohmand Tribal
2010-07-09T06:05:19Z,Pakistan,in,Mohmand Tribal
2010-07-09T06:08:42Z,Banca Generali Chief Executive,Sees,MF Reports
2010-07-09T06:10:12Z,Inflation,Slowed as,Cheaper Clothes
2010-07-09T06:20:05Z,Corporate Bond Risk Declines,in,Europe
2010-07-09T06:21:56Z,Google,Assess Privacy in,Australia
2010-07-09T06:22:05Z,Bovis Homes,Says,Sales Rose 6 % in First Half
2010-07-09T06:22:05Z,Sales Rose 6 %,in,First Half
2010-07-09T06:31:33Z,Iberdrola Renovables Second-Quarter Power Production,Rises on,Wind
2010-07-09T06:51:12Z,William Hill,Is,Raised
2010-07-09T06:59:33Z,Copper Advances,in,London
2010-07-09T07:00:01Z,16th Consecutive Monthly Trade,Surplus in,May
2010-07-09T07:00:01Z,16th Consecutive Trade,Surplus on,Exports
2010-07-09T07:00:01Z,16th Monthly Trade,Surplus in,May
2010-07-09T07:00:01Z,16th Trade,Surplus in,May
2010-07-09T07:00:01Z,Consecutive Monthly Trade,Surplus on,Exports
2010-07-09T07:00:01Z,Consecutive Trade,Surplus in,May
2010-07-09T07:00:01Z,Hungary,Recorded,16th Trade Surplus on Exports
2010-07-09T07:00:01Z,Monthly Trade,Surplus on,Exports
2010-07-09T07:00:01Z,Trade,Surplus on,Exports
2010-07-09T07:00:01Z,in Nine Years,in,May
2010-07-09T07:10:22Z,Bharti Airtel,Gain in,Mumbai
2010-07-09T07:10:22Z,Idea Cellular Gain,in,Mumbai
2010-07-09T07:19:05Z,Henderson Land,on,Home Sales
2010-07-09T07:22:23Z,Bunker Fuel,of Supply,Al-Ittihad
2010-07-09T07:22:23Z,Ships,to Supply,Al-Ittihad
2010-07-09T07:23:20Z,Austerity,Complicated by,Return
2010-07-09T07:23:20Z,Latvian Austerity,Complicated by,Return to Inflation
2010-07-09T07:24:32Z,PTC,in,Talks With SAIF Partners
2010-07-09T07:24:32Z,Talks,With,SAIF Partners
2010-07-09T07:29:02Z,Copper Gains,in,Seven Months on Demand
2010-07-09T07:38:46Z,Inpex,Sell,Billion
2010-07-09T07:43:56Z,Australian Greens Pary,Urges,Gillard
2010-07-09T07:43:56Z,Greens Pary,Set,Price
2010-07-09T07:51:22Z,Brazil,at,Brejo Grande Field
2010-07-09T07:51:22Z,Petrobras Discovers Oil,in,Onshore Well
2010-07-09T07:52:07Z,German Solar-Power Subsidy Reductions,Passed by,Upper House
2010-07-09T07:52:07Z,Solar-Power Subsidy Reductions,Passed by,Upper House Parliament
2010-07-09T08:04:19Z,Sarkozy,Would Lose Election to,Poll
2010-07-09T08:14:44Z,Standard Chartered,Says,South Africa Likely
2010-07-09T08:27:22Z,Rothschild 's Vallar IPO,Raises,Billion
2010-07-09T08:30:01Z,$ 1.2 Billion,in,Chinese Joint Venture
2010-07-09T08:34:09Z,Pawar,Ending,Controls
2010-07-09T08:34:09Z,Sugar Stocks,Jump,Pawar Proposes
2010-07-09T08:34:37Z,Kumba Iron Ore,Climbs,Saying
2010-07-09T08:34:43Z,Commodities Demand,in,Asia Surging on Infrastructure Boom
2010-07-09T08:37:36Z,FTSE 100 Index,Is Little Changed as,Glaxo Declines
2010-07-09T08:37:36Z,FTSE Index,Is,Little Changed
2010-07-09T08:39:15Z,AccessKenya,Rises for,First Day
2010-07-09T08:39:15Z,Ndonye,Is Named,Chairman
2010-07-09T08:39:28Z,Advance,in,Pakistan
2010-07-09T08:39:28Z,Pakistan,in Advance,Brokers ' Group
2010-07-09T08:39:28Z,Record,to Advance,Brokers ' Group
2010-07-09T08:43:28Z,39-Month Pay Deal,Threat of,Strike
2010-07-09T08:43:28Z,BT Group,Agrees to,39-Month Pay Deal With Union
2010-07-09T08:44:15Z,Producer Prices,Drop in,19 Months
2010-07-09T08:48:54Z,African Stocks,Heading in,Three
2010-07-09T08:48:54Z,South African Stocks,Heading in,Three
2010-07-09T08:48:54Z,Stocks,Heading For,First Weekly Advance
2010-07-09T08:49:07Z,China 's E Fund,Hires,Acadian Asset 's Charles Wang
2010-07-09T08:51:23Z,Indonesia,Look,Overseas
2010-07-09T08:51:23Z,Sukuk Auction Failures,Prompt,Indonesia
2010-07-09T08:54:12Z,Passenger-Car Demand,Grows at,Slowest Pace
2010-07-09T08:54:12Z,Wholesale Passenger-Car Demand,Grows at,Slowest Pace
2010-07-09T09:01:58Z,Brent Crude Shipments,Rise,2 %
2010-07-09T09:02:10Z,Gold May Bottom,in,Next Week on Low Cycle
2010-07-09T09:02:10Z,Next Week,in Bottom,Then Rise
2010-07-09T09:06:15Z,Tightening,Boosts,Appeal
2010-07-09T09:22:28Z,Chance Aid Package,Will,Will Tapped
2010-07-09T09:22:28Z,Chance European Aid Package,Will,Will Tapped
2010-07-09T09:22:28Z,High Chance Aid Package,Will,Will Tapped
2010-07-09T09:22:28Z,High Chance European Aid Package,Will,Will Tapped
2010-07-09T09:25:43Z,Deutsche Bank,Hires Alan Ruskin as,Head
2010-07-09T09:26:10Z,Black,by,Apollo
2010-07-09T09:26:10Z,Evertec,Seeks,$ 625 Million
2010-07-09T09:26:41Z,May Spark Trade Dispute,With,U.S.
2010-07-09T09:26:41Z,Rare Earth Export Quota,Dispute With,U.S.
2010-07-09T09:40:55Z,France,to Visit,Le Monde
2010-07-09T09:49:10Z,Octopus Oracle Picks Spain,in,Soccer 's World Cup Final
2010-07-09T09:49:10Z,Soccer,in,World Cup Final
2010-07-09T09:50:40Z,Nigeria 's Bank,Buy Lenders Bailed Out,Year
2010-07-09T09:50:40Z,Nigeria 's Biggest Bank,Buy,Lenders Bailed
2010-07-09T09:51:15Z,Kiernan,After,Withdrawal
2010-07-09T09:52:24Z,U.K. Natural Gas,Rises,Ahead
2010-07-09T09:57:34Z,$ 1.2 Billion,in,Chinese Carmaking Joint Venture
2010-07-09T09:59:27Z,London 's Bow Bells House,Is,Sold by Japanese Owners for About $ 213 Million
2010-07-09T10:10:49Z,Iran Cuts Crude Oil Stored,in,Supertankers
2010-07-09T10:36:01Z,U.K.,'s Years,Nielsen
2010-07-09T10:40:14Z,Kenolkobil,Says,First-Half Results
2010-07-09T10:43:46Z,Fiat,Proceed With,Pomigliano Car Factory Plan
2010-07-09T10:47:35Z,Telenor Names Brekke,Replacing,Founder Vellan
2010-07-09T10:53:27Z,Safety,in,Europe
2010-07-09T10:59:37Z,Chicago,Advance Since,November
2010-07-09T10:59:37Z,Wheat Declines,in,Chicago
2010-07-09T11:05:44Z,Lloyd,Sees,Prices Rising
2010-07-09T11:05:44Z,Prices,Rising,as Much as 30 %
2010-07-09T11:09:18Z,Rothschild,'s Ore,Coal Acquisitions
2010-07-09T11:12:37Z,Taking Part,in,14-Spy Swap
2010-07-09T11:14:05Z,Rise,Head for,Biggest Weekly Gain
2010-07-09T11:14:05Z,Year,in Rise,Head for Biggest Weekly Gain
2010-07-09T11:16:08Z,Euro Libor,Reaches,High
2010-07-09T11:16:08Z,Three-Month Euro Libor,Reaches,BBA Figures Show
2010-07-09T11:21:42Z,Duvernay Shale Gas Land Sale,Sets,Alberta Auction Record
2010-07-09T11:23:37Z,Central Bank Intervenes,Buys,Dollars
2010-07-09T11:23:37Z,Mauritian Central Bank Intervenes,Buys,Dollars
2010-07-09T11:27:42Z,Commodities,Head for,Weekly Advance
2010-07-09T11:27:45Z,Brazil 's Paranagua Port,Wins,Injunction
2010-07-09T11:31:45Z,Suicide Bomber,Kills,46 People
2010-07-09T11:36:44Z,Bank Bond Risk Falls,in,Europe
2010-07-09T11:43:51Z,Canada,'s Hurt,Globe
2010-07-09T11:43:51Z,Canada 's AECL Sale Hurt,With,Areva
2010-07-09T11:43:51Z,New Brunswick,by,Contract
2010-07-09T11:43:51Z,New Brunswick 's Contract,by Hurt,Globe
2010-07-09T11:45:02Z,Asia Interest-Rate Increases,May Attract,Investors
2010-07-09T12:00:45Z,Taking Part,in,14-Spy Swap
2010-07-09T12:04:31Z,Villa,Nominations for,World Cup 's Golden Ball Award
2010-07-09T12:04:31Z,World Cup,for,Golden Ball Award
2010-07-09T12:08:48Z,Dutch Supreme Court,Dismisses,Probe Into ASM International Management
2010-07-09T12:22:58Z,Octopus Oracle Picks Spain,in,Soccer 's World Cup Final
2010-07-09T12:22:58Z,Soccer,in,World Cup Final
2010-07-09T12:23:57Z,Swiss Franc Surge Versus Forint Compounds Hungary,'s Headwinds,Nomura
2010-07-09T12:24:50Z,Friends,Dreams of,NBA Titles
2010-07-09T12:26:04Z,Russia,of,Ruble Bond Sales
2010-07-09T12:26:04Z,TransCredit Stake,Control,35 % of Russia 's Ruble Bond Sales
2010-07-09T12:26:04Z,VTB,Seeks,TransCredit Stake
2010-07-09T12:30:05Z,Commodity Shipping Slumps,in,Almost Nine Years on China Steel
2010-07-09T12:33:19Z,U.S. Soybean Reserves,in,2011 Trail Analysts ' Estimates
2010-07-09T12:41:42Z,Gold,Fluctuates in,Row Spurs Purchases
2010-07-09T12:43:41Z,Demand Outlook,Delays at,Ports
2010-07-09T12:43:41Z,Sugar,Rises on,Demand Outlook
2010-07-09T12:48:29Z,Sri Lanka Central Bank,Reduces,Reverse Repurchase Rate
2010-07-09T12:49:16Z,Nigerian President,Buy,Banks ' Toxic Debt
2010-07-09T12:49:16Z,President,Buy,Banks ' Toxic Debt
2010-07-09T12:51:48Z,CBOE,Starr in,Court News
2010-07-09T12:51:48Z,Kenneth Starr,in,Court News
2010-07-09T12:55:12Z,Soybeans Futures,May,Fall 2 Cents to 4 Cents
2010-07-09T13:01:36Z,Reliance Industries,Borrows Billion for,Seven Years
2010-07-09T13:11:45Z,Iraq 's Senior Shiite Clergy,Help,Break Post-Election Deadlock
2010-07-09T13:11:45Z,Iraq 's Shiite Clergy,Help,Break Post-Election Deadlock
2010-07-09T13:15:53Z,Guinea,Postpones,Agence France Reports
2010-07-09T13:15:53Z,its,Election,Agence France Reports
2010-07-09T13:16:33Z,Will,Keep,Tax Preparer Independent
2010-07-09T13:19:03Z,Bonds,Decline on,Speculation Central Bank May Raise Interest Rates
2010-07-09T13:27:43Z,Crude Oil,Fluctuates as,Equities Retreat
2010-07-09T13:27:43Z,Oil,Fluctuates as,Dollar Gains Versus Euro
2010-07-09T13:30:28Z,End,Stocks to,Jump
2010-07-09T13:40:13Z,Sri Lanka,Unexpectedly Cuts,Interest Rates
2010-07-09T13:48:59Z,Fiat Chief Marchionne,Commits to,Naples Plant
2010-07-09T13:49:47Z,Canadian Housing,Starts,Decline
2010-07-09T13:49:47Z,Housing,Starts Decline After,Earlier Revisions
2010-07-09T13:53:43Z,Heathrow Airport,at,Cargo Area
2010-07-09T13:57:55Z,U.S Hawks,Created,Spy Scandal
2010-07-09T13:59:31Z,Ahold,Probed by,Czech Regulator
2010-07-09T14:00:37Z,PGNiG,Starts,First Polish Shale Gas Well
2010-07-09T14:07:05Z,Schneider Electric,Seeks,800 Million Euros
2010-07-09T14:13:06Z,Extreme Pessimism,Sets,Stage
2010-07-09T14:23:59Z,C$ 764 Million,in,Public-Private Hospital Bonds
2010-07-09T14:30:55Z,Parliamentary Battle,With,Compromise
2010-07-09T14:44:18Z,From Six-Month High,in,Chicago
2010-07-09T14:44:18Z,Jump,in,U.S. Inventory
2010-07-09T14:53:03Z,Spain,Reducing,Political Influence
2010-07-09T15:03:25Z,Hockfield,Sees Obama Converge With,Immelt
2010-07-09T15:06:04Z,ADP,Will Acquire,Cobalt
2010-07-09T15:11:29Z,Angolan Oil-Region Rebels,Seek,Peace Talks
2010-07-09T15:11:29Z,Oil-Region Rebels,Declare End to,Civil War
2010-07-09T15:19:56Z,HSBC CEO,Raises,Concern Over U.S. Administration Commitment to Free Trade
2010-07-09T15:23:00Z,LeBron James Announcement,Receives,7.3 Overnight Rating
2010-07-09T15:23:00Z,LeBron James Announcement Special,Receives,7.3 Overnight Rating
2010-07-09T15:26:04Z,Koruna,Heads Czech Economic Data for,Best Week
2010-07-09T15:32:22Z,Rand Gain,in,Three
2010-07-09T15:32:22Z,South African Stocks,Gain on,Growth Outlook
2010-07-09T15:34:38Z,Concern U.K. Economic Growth May Slow,on Advance,Outperform Bunds
2010-07-09T15:43:32Z,Cancellara,Keeps,Lead
2010-07-09T15:43:32Z,Cavendish,Wins Straight Tour de France Stage,Cancellara Keeps
2010-07-09T15:44:14Z,May,Sell,Assets
2010-07-09T15:48:27Z,BASF,Gains in,Frankfurt
2010-07-09T15:48:27Z,HeidelbergCement Lead Gains,in,Frankfurt
2010-07-09T15:49:09Z,It,Plans,China Applications Expansion
2010-07-09T15:49:09Z,Research,Rises on,Report
2010-07-09T15:49:24Z,Inventories,Increased,0.5 %
2010-07-09T15:49:24Z,Wholesale Inventories,Increased,0.5 %
2010-07-09T15:51:07Z,Canada Job Creation,Is,Five Times Economist Forecasts
2010-07-09T15:53:15Z,Glaxo,of,Avandia
2010-07-09T15:53:47Z,Stocks,Increase for,Fourth Day
2010-07-09T15:53:47Z,Swiss Stocks,Increase for,Fourth Day
2010-07-09T15:55:44Z,Daimler,Say World Truck Market May Recover in,as Few as Two Years
2010-07-09T15:55:44Z,MAN SE,Say World Truck Market May Recover in,as Few as Two Years
2010-07-09T15:57:29Z,Russia Stocks,Have Weekly Gain Since,May
2010-07-09T16:01:44Z,Iran Cuts Crude Oil Stored,in,Supertankers
2010-07-09T16:04:09Z,Rise,Posting,Biggest Weekly Gain
2010-07-09T16:13:26Z,European Stocks,Extending,Biggest Weekly Gain
2010-07-09T16:13:26Z,Stocks,Extending,Weekly Gain
2010-07-09T16:13:38Z,Xstrata,Starts,Construction of $ 151 Million Bracemac-Mcleod Mine
2010-07-09T16:33:00Z,El-Erian,Emerging,Widen
2010-07-09T16:42:22Z,Cancellara,Keeps,Lead
2010-07-09T16:42:22Z,Cavendish,Wins Straight Tour de France Stage,Cancellara Keeps
2010-07-09T16:45:51Z,Ferrous Chairman Toll,Quits,Shelved
2010-07-09T16:45:51Z,Iron-Ore Company 's IPO,Is,Shelved
2010-07-09T16:45:51Z,Iron-Ore Company 's Second IPO,Is,Shelved
2010-07-09T17:20:07Z,Obama,Seeks,$ 5 Billion
2010-07-09T17:24:02Z,British Columbia,Goes for,Winter Olympic Games
2010-07-09T17:38:31Z,New Jersey 's Booker,Says,U.S. Mayors Face Choices
2010-07-09T17:46:05Z,Cleveland NBA Owner 's Putdown,Brings Support to,James
2010-07-09T17:47:14Z,Spy Swap,Protects Improved Relationship With,U.S.
2010-07-09T17:49:41Z,Goldman Sachs,Sued on,Fannie Mae Offering
2010-07-09T17:59:08Z,May,Pass,Stress Tests
2010-07-09T18:04:53Z,Face Suit,Must Claiming,Overcharges
2010-07-09T18:04:53Z,Verisign,Must Claiming,Overcharges
2010-07-09T18:12:16Z,Stockpile Drop Signals,as Rises,Caps Weekly Gain
2010-07-09T18:14:55Z,Chile 's Government Plans,Ease,Price Swings
2010-07-09T18:23:57Z,Bumper Crops,in,Brazil
2010-07-09T18:23:57Z,May,Ease,Tight Supply
2010-07-09T18:24:19Z,Gold,Climbs,Most
2010-07-09T18:31:43Z,Harper,Appoints,Ataullahjan for Senate Seat
2010-07-09T18:53:10Z,Extension Plea,Build,America Bond Program 's Impending End
2010-07-09T18:53:34Z,Exit Recession,to Venezuela,Central Bank 's Leon
2010-07-09T18:53:34Z,Venezuela,Leon 's,Central Bank
2010-07-09T19:18:19Z,Credit Unit,Team With,Up Banks
2010-07-09T19:18:19Z,May Team,With,Up Banks
2010-07-09T19:27:59Z,LeBron James Fathead Price Cut,Is Sparked by,Birthyear of Benedict Arnold
2010-07-09T19:42:03Z,Sister,Gets,6-Month Prison Sentence
2010-07-09T19:48:11Z,Peru,'s Growth,Inflation Under Control
2010-07-09T19:48:11Z,Peru 's Monetary Policy Seeks Growth,Inflation Under,Control
2010-07-09T19:49:08Z,China,Says,UN Response to Korean Warship Sinking
2010-07-09T19:49:08Z,May,Defuse,Tensions
2010-07-09T20:08:21Z,Allergan,Wins,U.K. Clearance
2010-07-09T20:11:09Z,Continental Resources,Exploit,Oil-Rich Shale
2010-07-09T20:12:59Z,Diamond Offshore,Is Moving,Rig
2010-07-09T20:12:59Z,Restrictions,in,Gulf of Mexico
2010-07-09T20:25:29Z,Air Products,Will Probably Increase,Analysts
2010-07-09T20:46:17Z,Research,In,Motion Advances
2010-07-09T20:50:03Z,Bets,Drop,Most Since April 2009
2010-07-09T20:51:15Z,Treasury 10-Year Notes,Have Weekly Decline Since,April
2010-07-09T21:06:36Z,Stocks,in,U.S. Advance
2010-07-09T21:12:46Z,Fitch,Dismiss,Investors ' Negligence Suit
2010-07-09T21:19:01Z,Children,Over,Cold Medicines
2010-07-09T21:19:01Z,J&J,Sued by,Consumers Over Children 's Cold Medicines
2010-07-09T21:22:05Z,Bets,Corn-Rally Jump Since,Most 2006 in Chicago
2010-07-09T21:22:22Z,Canadian Currency,Heads in,Month on Job Increase
2010-07-09T21:22:22Z,Currency,Heads for,Weekly Gain
2010-07-09T21:24:04Z,Mexican Peso 's Weekly Increase,Is Biggest Since,January
2010-07-09T21:24:04Z,Peso 's Weekly Increase,Is,Biggest
2010-07-09T21:29:18Z,Intuit Blackout,Shows,Challenges
2010-07-09T21:37:27Z,Japan,'s Fall,Post First Weekly Loss in Month
2010-07-09T21:37:27Z,Japan 's Bonds Fall,Loss in,Month
2010-07-09T21:37:27Z,Post First Weekly Loss,in,Month
2010-07-09T21:37:27Z,Recovery Signs,on Fall,Post First Weekly Loss in Month
2010-07-09T21:43:33Z,Emerging-Market Stocks Advance,in,Best Week Since December
2010-07-09T21:53:38Z,Asian Currencies Rally,Led by,Korea Won
2010-07-09T21:53:38Z,Currencies Rally,Led by,Korea Won
2010-07-09T21:53:38Z,Korea,by,Won
2010-07-09T21:54:27Z,Ex-Hostage Betancourt,Seeks,$ 7 Million Damages
2010-07-09T21:59:21Z,Asian Stocks,Have,Biggest Weekly Gain
2010-07-09T21:59:21Z,Stocks,Have,IMF
2010-07-09T22:00:45Z,World Cup,After,Vuvuzela
2010-07-09T22:10:07Z,BP,Placing Cap on,Leaking Gulf
2010-07-09T22:24:07Z,Belo Monte Dam,in,Amazon
2010-07-09T22:24:07Z,Brazil Pension Funds,Investing in,Belo Monte Dam Amazon
2010-07-09T22:33:13Z,Legislative Session,Urged on,Byrd Seat
2010-07-09T22:33:13Z,Session,Urged on,Byrd Seat
2010-07-09T23:00:01Z,European Stocks,Post Weekly Gain,Recovery Doubts Ease
2010-07-09T23:00:01Z,European Stocks Post,in,Year
2010-07-09T23:00:01Z,Stocks,Post Weekly Gain in,Year
2010-07-09T23:19:48Z,International Power 's Hazelwood,Faces,Government Restrictions
2010-07-09T23:37:11Z,Australian Soldier,Killed By,Blast Patrol
2010-07-09T23:37:11Z,Blast,in,Afghanistan
2010-07-09T23:37:11Z,Soldier,Killed By,Blast Patrol
2010-07-10T00:00:00Z,Lebanon,Reinforces,Army
2010-07-10T04:01:00Z,Vanderbilt,Survived Disaster,First Tycoon
2010-07-10T05:38:07Z,Toyota Chief,Rebuild,Consumer Trust
2010-07-13T09:49:02Z,Russian Spies Head Home,in,Swap Echoing
2010-07-18T23:56:27Z,Growth,Boosts,Safety Demand
2010-07-18T23:56:27Z,Slowing Growth,Boosts,Safety Demand
