2010-12-07T00:00:01Z,Kylie Gyrates,Down at,Jingle Bell Ball
2010-12-07T00:00:01Z,London,Out,Kopapa
2010-12-07T00:00:01Z,Taleb,Mocks,Boring
2010-12-07T00:01:00Z,Clegg,Tries to,Head
2010-12-07T00:01:00Z,Emissions Curbs,Cut by,60 %
2010-12-07T00:01:00Z,London,of,Construction Lull Ends
2010-12-07T00:01:00Z,Rents,Drive,Developments
2010-12-07T00:01:00Z,Rising Rents,Drive,Developments
2010-12-07T00:01:00Z,U.K.,Should Tighten,Emissions Curbs
2010-12-07T00:02:01Z,First Fast Broadband Contracts,in,Northern Provinces
2010-12-07T00:02:38Z,High Level,in,Central
2010-12-07T00:02:38Z,Hong Kong Air Pollution,Hits,Very High Level in Central
2010-12-07T00:32:08Z,Gunze,Rises After,Report of China Touch-Panel Production
2010-12-07T01:07:08Z,Sewage,Awaits,Cabinet Approval
2010-12-07T01:29:30Z,Ghana Cocoa Purchases Increase,in,Seven Weeks to Nov. 18
2010-12-07T01:30:00Z,Mumbai Hotel Attacked,in,Deadly Seige
2010-12-07T02:00:00Z,China,Needs,U.S. Lesson
2010-12-07T02:00:00Z,Ireland,Must End,Trust-Me Banking System
2010-12-07T02:00:47Z,Asia,Should Consider,Regional Exchange-Rate Cooperation
2010-12-07T02:55:49Z,Google,Starts Translation to,Exporters
2010-12-07T02:55:49Z,Translation,Service to,Boost Ad Sales
2010-12-07T03:05:25Z,Samsung Electronics Shares Advance,Raises,Estimate
2010-12-07T03:14:25Z,100 China Branches,in,2-3 Years
2010-12-07T03:21:46Z,May,Pay Million for,Singapore 's Verigy
2010-12-07T03:21:46Z,Singapore,for,Verigy
2010-12-07T03:22:09Z,Japan,'s Bonds,Survey of Traders
2010-12-07T03:22:09Z,Japan 's 30-Year Bonds,Survey of,Traders
2010-12-07T03:29:14Z,Boats Collide,in,Hong Kong
2010-12-07T03:51:33Z,Gasoil,Snap,Three-Day Rally
2010-12-07T04:09:22Z,Ashes,Is,Doubtful
2010-12-07T04:09:22Z,Over,Is,Doubtful
2010-12-07T04:20:04Z,Beat China A Shares,Mio 's,Robeco
2010-12-07T04:44:41Z,Eveready East Africa,Says,Counterfeit Cells
2010-12-07T04:56:42Z,Clover Industries Share Sale Oversubscribed,Citing,CEO
2010-12-07T05:00:00Z,Population,Grew Slowly in,Census Estimates Show
2010-12-07T05:00:01Z,Congress,Discard,Own Budget Law
2010-12-07T05:00:01Z,Extension,Will Prompt,Congress
2010-12-07T05:00:01Z,Studesville,Takes Charge for,Rest of Season
2010-12-07T05:00:02Z,Bank,Keeps Risks on,Exports
2010-12-07T05:00:08Z,Clout,Gains as,U.S. Redraws House Seats
2010-12-07T05:01:00Z,Amazon.com,on,Help in Groupon Gunfight
2010-12-07T05:01:00Z,Amazon.com 's Help,in,Groupon Gunfight
2010-12-07T05:01:00Z,Boost Employment,to Plan,Manpower
2010-12-07T05:01:00Z,Broadway ’s Bloody Winter,Sees Closings as,Elf
2010-12-07T05:01:00Z,Canada Companies Plan,in,First Quarter
2010-12-07T05:01:00Z,LivingSocial,Counts on,Amazon.com 's Help in Groupon Gunfight
2010-12-07T05:01:00Z,Manpower,Hiring Intentions at,U.S. Employers
2010-12-07T05:01:01Z,Energy Credits Prove Inflated,With,Green Claims Seen
2010-12-07T05:03:02Z,Revised Share Sale,in,Shanghai
2010-12-07T05:08:46Z,Kenya,Sell,364-Day Treasury Bills
2010-12-07T05:14:03Z,First-Half Results,in,Line
2010-12-07T05:16:43Z,Japan,Develop,Minerals Including Earth
2010-12-07T05:32:10Z,RBA,Keeps,Rate Unchanged
2010-12-07T05:35:09Z,U.S.,Pressed for,Deeper Greenhouse Gas Reductions by China
2010-12-07T05:36:04Z,Usmanov May,Seek,Million
2010-12-07T06:00:31Z,Cabinet,Qualify for,Bailout
2010-12-07T06:00:31Z,Romanian Cabinet,Backs,2011 Budget
2010-12-07T06:02:32Z,$ 2 Billion,in,Retail Trust Share Offering
2010-12-07T06:02:32Z,Westfield,Raises,Billion in Retail Trust Share Offering
2010-12-07T06:17:58Z,Their Worst Defeat,in,24 Years
2010-12-07T06:24:24Z,China 's Stocks,Rebound as,Property Developers
2010-12-07T06:34:59Z,Deacons,Says,its Share Sale Falls Short
2010-12-07T06:48:31Z,South African House Prices Increase,in,November
2010-12-07T06:52:36Z,Cotton Rally May Fail,in,China
2010-12-07T07:00:00Z,Air Berlin Passenger Traffic Increases,in,November
2010-12-07T07:08:20Z,Floods,Disrupt Output in,Exporter Australia
2010-12-07T07:25:40Z,South African Reserves Drop,in,Three Months on Dollar Rally
2010-12-07T07:30:04Z,Japanese Stocks,Fall on,Concern Yen
2010-12-07T07:30:04Z,Stocks,Fall on,Concern Yen
2010-12-07T07:33:40Z,Rex Ryan,Is Handed by,Patriots ' Belichick
2010-12-07T07:39:47Z,China 's Stocks,Drop on,Concern Central Bank May Raise Rates
2010-12-07T07:47:34Z,Sinopec Group,Boosts,Oil Processing
2010-12-07T07:48:05Z,Thai Price,Climbs,Record
2010-12-07T08:00:01Z,Hungarian Industry Output Growth,Slows on,Weaker Domestic Demand
2010-12-07T08:00:01Z,Industry Output Growth,Slows on,Weaker Domestic Demand
2010-12-07T08:02:09Z,Mediation,End,Walkout
2010-12-07T08:03:09Z,2-Year High,in,New York
2010-12-07T08:03:09Z,Copper,Jumps,Record
2010-12-07T08:03:09Z,London,High on,Currency Risk
2010-12-07T08:03:31Z,Unilever,Climb as,Mediaset Declines
2010-12-07T08:09:30Z,Lenihan,Raises,Ireland 's Taxes
2010-12-07T08:14:19Z,Crude Oil,Pares Losses to,Trade Near Highest
2010-12-07T08:14:19Z,Oil,Pares,Losses
2010-12-07T08:23:58Z,Wheat,Approaching,Bollinger Band
2010-12-07T09:08:39Z,Ochoa,Oversee Management Talks With,Employees
2010-12-07T09:08:39Z,Philippine Airlines,Says,Ochoa
2010-12-07T09:16:56Z,Advances,in,Afghanistan Show NATO Pullout Plan
2010-12-07T09:29:56Z,Copper,Faces,Trafigura
2010-12-07T09:29:56Z,Two-Year Shortage,Peak at,Over
2010-12-07T09:37:27Z,WikiLeaks 's Assange,Negotiating Over,Swedish Rape Case
2010-12-07T09:45:07Z,Deutsche Bank Office,in,Hong Kong
2010-12-07T09:45:07Z,South Korea Will,Send Investigators to,Deutsche Bank Office in Hong Kong
2010-12-07T09:47:13Z,Canada 's Oil Sands Companies,Join,Forces
2010-12-07T10:04:52Z,Inflation Expectations,in,South Africa
2010-12-07T10:18:50Z,Middle East Crude,Rises as,Alternative Supplies Priced
2010-12-07T10:20:49Z,EDP Renovaveis,Climb Following,UBS Analyst Upgrades
2010-12-07T10:20:49Z,Iberdrola Renovables,Climb Following,UBS Analyst Upgrades
2010-12-07T10:27:04Z,Julian Assange,Is Arrested on Behalf of,Authorities
2010-12-07T10:30:51Z,Asian Stocks,Rise on,Signs Economic Recovery
2010-12-07T10:30:51Z,Stocks,Rise on,Signs Recovery
2010-12-07T10:33:09Z,Polish Stocks,Climb to,30-Month High
2010-12-07T10:33:09Z,Stocks,Climb to,30-Month High
2010-12-07T10:38:11Z,C-Class,in,South Africa
2010-12-07T10:38:11Z,Mercedes-Benz,Investing,$ 290 Million
2010-12-07T10:51:38Z,Syria,Chooses Mitsui for,First Private Power Plant
2010-12-07T11:00:41Z,Philippine Venture,With,Cojuangco
2010-12-07T11:04:47Z,Talks,With,Gazprom on Lower Gas Prices
2010-12-07T11:12:52Z,Greek Public Transport Workers,Protest,Wage Cuts
2010-12-07T11:12:52Z,Public Transport Workers,Set to,Strike Tomorrow
2010-12-07T11:23:33Z,Demand,Spurs Rise,Recovery Broadens
2010-12-07T11:23:33Z,Domestic Demand,Spurs Rise in,Factory Orders
2010-12-07T11:24:47Z,BP,Weigh,Sale
2010-12-07T11:25:22Z,Factory Production,in,U.K.
2010-12-07T11:29:49Z,Widest Yield Gap,With,Russia
2010-12-07T11:30:52Z,Tullett,in,Court News
2010-12-07T11:30:52Z,Wal-Mart,Tullett in,Court News
2010-12-07T11:31:52Z,$ 2.4 Billion,in,Cash
2010-12-07T11:36:13Z,Fifth Day,for Gain,Metal Price Rally
2010-12-07T11:40:29Z,Google,Says,China Sales Rising
2010-12-07T12:05:26Z,EU,Speed Up,Protection of Witnesses to 2008 Vote Violence
2010-12-07T12:14:15Z,Iran Nuclear Talks,Meet,Next Month
2010-12-07T12:14:15Z,Next Month,in,Turkey
2010-12-07T12:16:46Z,Re,Sees,Risk Debt Crisis May Derail Economic Rebound
2010-12-07T12:16:46Z,Swiss Re,Sees,Risk Debt Crisis May Derail Economic Rebound
2010-12-07T12:31:24Z,$ 30 Million,in,CDO Dispute
2010-12-07T12:31:24Z,Highland Capital,in,London Court
2010-12-07T12:31:24Z,RBS,Wins,$ 30 Million in CDO Dispute
2010-12-07T13:03:56Z,Estonian Inflation,Accelerates to,Fastest
2010-12-07T13:03:56Z,Inflation,Accelerates in,Two Years
2010-12-07T13:09:32Z,3.3 Percent,in,November
2010-12-07T13:09:32Z,Moody,Says,Global Junk Bond Default Rate Fell
2010-12-07T13:10:09Z,Latvia 's Rating,Raised From,BB
2010-12-07T13:13:18Z,Nigeria,in,Talks With Technip
2010-12-07T13:13:18Z,Talks,With,Technip
2010-12-07T13:14:25Z,Supply Concerns,in,Ivory Coast
2010-12-07T13:20:06Z,African Leaders,Meet to,Debate Ivory Coast 's Post Election Crisis
2010-12-07T13:20:06Z,Debate Ivory Coast,to,Post Election Crisis
2010-12-07T13:20:06Z,Leaders,Meet to,Debate Ivory Coast 's Post Election Crisis
2010-12-07T13:20:06Z,West African Leaders,Meet to,Debate Ivory Coast 's Post Election Crisis
2010-12-07T13:30:31Z,Explosion,Injures,Times Now Reports
2010-12-07T13:30:31Z,India,in,Varanasi City
2010-12-07T13:32:05Z,Martin Kaymer,Co-Winners of,European Golfer
2010-12-07T13:48:41Z,Investors,Seek,Alternative
2010-12-07T13:59:59Z,Bank,Keeps,Its Benchmark Interest Rate
2010-12-07T14:00:46Z,Berkshire Hathaway Hog-Products Unit Founder Howard Brembeck,Dies at,100
2010-12-07T14:12:26Z,India,in,Varanasi
2010-12-07T14:12:26Z,India 's Varanasi,in Blast,Pillai
2010-12-07T14:12:26Z,Low Intensity Blast,in,India 's Varanasi
2010-12-07T14:25:12Z,Romanian Parliament,Adopts,Pension Law Raising Retirement Age
2010-12-07T14:34:45Z,Tesco U.K. Sales Growth,Accelerates,Ahead of Holiday
2010-12-07T14:39:36Z,Warburg 's Targa Resources,Increasing IPO by,25 %
2010-12-07T14:45:09Z,Longest Bonds Beating Treasuries Show Inflation,in,Control
2010-12-07T14:49:29Z,100,by Rose,Census
2010-12-07T14:49:29Z,Mountain Gorilla Population Rose,in,Past Seven Years
2010-12-07T14:54:41Z,Bonus,Pay Gains at,Canada Banks Slow
2010-12-07T14:56:45Z,Latvia 's Sovereign Rating,Raised on,Return to Growth
2010-12-07T14:56:45Z,Lower Deficit,Return to,Growth
2010-12-07T15:00:00Z,BMW,Appeal of,Tokyo ’s Middle-Aged Marathon Men
2010-12-07T15:00:00Z,Tokyo,of,Middle-Aged Marathon Men
2010-12-07T15:01:00Z,BOK,Lags Behind,Inflation Bonds
2010-12-07T15:01:00Z,South Korea Price Expectations,Climb,BOK Lags
2010-12-07T15:01:29Z,China,With,Bright Food Group to Purchase GNC
2010-12-07T15:04:49Z,WikiLeaks ' Assange,Denied Bail as,Sweden Seeks Extradition
2010-12-07T15:12:11Z,Obama,Confronts,Democrats ' Pushback
2010-12-07T15:12:33Z,Crude Oil,Is,Changed
2010-12-07T15:12:33Z,Oil,Is Little Changed in,New York
2010-12-07T15:19:38Z,U.S. Government,Increase Trusted Travelers Amid,Terror Threats
2010-12-07T15:32:29Z,Crude Oil,Pares Losses to,Trade Near Highest
2010-12-07T15:32:29Z,Oil,Pares,Losses
2010-12-07T15:33:58Z,Poland,Makes Progress in,Brussels
2010-12-07T15:38:39Z,Explosion,Followed by,Stampede
2010-12-07T15:38:39Z,India,in,Varanasi
2010-12-07T15:38:39Z,Injures,25 in,India 's Varanasi
2010-12-07T15:50:27Z,Iran Nuclear Talks,Meet,Next Month
2010-12-07T15:50:27Z,Next Month,in,Turkey
2010-12-07T15:52:50Z,Derek Jeter Signs Three-Year Contract,With,Yankees
2010-12-07T15:55:40Z,Copper Premium Rises,in,London
2010-12-07T16:02:50Z,Further Social Welfare Cuts,in,Irish Budget
2010-12-07T16:10:48Z,Bank,Keeps Risks on,Exports
2010-12-07T16:20:33Z,Natural Gas Futures Little Changed,in,New York
2010-12-07T16:23:16Z,Euro,Pares,Increase
2010-12-07T16:23:16Z,Ireland,Nears Vote on,Aid Package
2010-12-07T16:25:23Z,ECB,Buys,Bonds
2010-12-07T16:25:23Z,Legal Fund,Shuns,Debt
2010-12-07T16:26:37Z,Investec,Increased,its Marketing Spending
2010-12-07T16:26:37Z,its Marketing Spending,Adding,Derby
2010-12-07T16:27:00Z,Tombini,Approved by,Senate Committee
2010-12-07T16:41:11Z,Ghana 's Parliament,Approves,2011 Budget
2010-12-07T16:45:20Z,Jeter Signs Three-Year Deal,With,Yankees
2010-12-07T16:51:32Z,Citigroup 's Pandit,Sees Africa as,New Growth Driver
2010-12-07T17:00:03Z,German Stocks,Rise to,30-Month High
2010-12-07T17:00:03Z,Stocks,Rise to,30-Month High
2010-12-07T17:02:31Z,Glaxo,in,Cash
2010-12-07T17:03:23Z,Cotton Futures Drop,in,New York
2010-12-07T17:04:06Z,European Stocks Rise,in,Two Years
2010-12-07T17:04:43Z,U.S. Teens,Lag on,International Test
2010-12-07T17:08:39Z,Year-End Flood,Buying Opportunity for,U.S. Wealthy
2010-12-07T17:10:20Z,Cold,Triggers,Oil-Fueled Generators
2010-12-07T17:10:20Z,U.K. Power,Jumps to,2-Year High
2010-12-07T17:13:01Z,Jamie McCourt,Be Co-Owner of,Dodgers
2010-12-07T17:24:43Z,Schrager,Buying,Manhattan 's Hotel Chelsea
2010-12-07T17:27:45Z,Swaps Show Economy,Keeps,LBOs
2010-12-07T17:27:48Z,Arctic,Shipping May Benefit as,Australian Rains Disrupt Coal Exports
2010-12-07T17:34:59Z,Dollar,Yen in,2011
2010-12-07T17:34:59Z,Yen,in,2011
2010-12-07T17:38:29Z,Koch,Buys,Naphtha
2010-12-07T17:39:06Z,North Korea,for,Kim
2010-12-07T17:54:30Z,Irish Lawmakers ' Backing,in,First Ballot
2010-12-07T17:54:30Z,Lenihan,Wins,Irish Lawmakers ' Backing in First Ballot
2010-12-07T18:06:42Z,Bail,in,U.K. Extradition
2010-12-07T18:06:42Z,WikiLeaks ’ Assange,Denied,Bail in U.K. Extradition
2010-12-07T18:27:27Z,New Jersey Turnpike 30-Year Build Americas,Offered at,288 Basis Points
2010-12-07T18:28:16Z,Citigroup Stake,Is Sold for,About $ 10.5
2010-12-07T18:31:42Z,New York Mets ' Owners,Are,Sued
2010-12-07T18:34:26Z,Birds,Fetches,Record Million
2010-12-07T18:47:24Z,Buffett 's Berkshire Trims Borrowing Costs,Used by,Clayton Homes
2010-12-07T18:47:37Z,35 Years,in,Neuquen Province
2010-12-07T18:47:37Z,Argentina 's Largest Gas,Find in,35 Years in Neuquen Province
2010-12-07T18:59:26Z,UN Assessing Report Haiti Cholera Outbreak,Started at,Peacekeepers ' Camp
2010-12-07T19:04:13Z,Scotiabank Cuts Suggested Stock Weighting,Citing,Slow Economic Recovery
2010-12-07T19:28:39Z,Capital,Improved in,Past
2010-12-07T19:28:39Z,Hartford ’s McGee,Says,Capital
2010-12-07T19:28:39Z,Investments Improved,in,Past
2010-12-07T19:30:21Z,UPS,Expands Photo ID Rule as,Bombs Spur Security Boost
2010-12-07T19:34:13Z,Former Reebok CEO,Retakes Ownership From,Members
2010-12-07T19:35:51Z,MasterCard,Payments to,WikiLeaks
2010-12-07T19:36:24Z,Lets Users,Make,Do-Not-Call
2010-12-07T19:36:54Z,Codelco CEO,Says,Demand Climbs
2010-12-07T19:40:01Z,Daikin Said,in,Talks Buy After $ 3.6 Billion Bid
2010-12-07T19:41:48Z,Post First Gain,To Revenue,Fitch
2010-12-07T19:41:53Z,Half,Say at,Least Two Years
2010-12-07T19:46:55Z,Fibonacci Level,Surpassed as,S&P 500
2010-12-07T19:48:50Z,Allen Stanford Too Drugged,in,Prison for Trial
2010-12-07T19:48:50Z,Lawyer,Says in,Bail Bid
2010-12-07T19:51:06Z,U.S.,Raises,2011 Oil Price Estimate
2010-12-07T20:02:59Z,Copper,Rises to,High in New York
2010-12-07T20:02:59Z,Record Price,in,London
2010-12-07T20:10:01Z,Oil Supply Falls,in,Survey on Refinery Demand
2010-12-07T20:13:36Z,Cuts,Topping,Million
2010-12-07T20:13:36Z,Texas Leaders Demand,Spending,Cuts
2010-12-07T20:15:30Z,Wheat Drops,in,Two Weeks
2010-12-07T20:25:28Z,Stocks,in,U.S. Pare Advance
2010-12-07T20:30:35Z,Statistics Canada,Paying,Clients
2010-12-07T20:34:25Z,Columbia University Students,Arrested for,Drug Sales
2010-12-07T20:45:26Z,Natural Gas Futures Decline,in,New York
2010-12-07T20:47:59Z,Rain May Aid Crops,in,South America
2010-12-07T20:47:59Z,Soybeans,Drop,Corn
2010-12-07T20:53:28Z,New York-Area Port Authority,Approves,2011 Budget
2010-12-07T21:01:27Z,Two Drugmakers,Pay,$ 421 Million
2010-12-07T21:02:48Z,Stock Rally,in,U.S.
2010-12-07T21:08:06Z,Halliburton Worker,Missed,BP Well Data
2010-12-07T21:10:21Z,$ 2.4 Billion,in,Cash
2010-12-07T21:13:22Z,Borrowers,Could,Could Losers
2010-12-07T21:13:22Z,Muni Borrowers,Could,Could Losers
2010-12-07T21:13:24Z,Obama Tax Deal,Wins,Praise From Business-Lobby Critics
2010-12-07T21:16:46Z,Myeloma,in,Study
2010-12-07T21:16:46Z,Onyx Drug,Reduced With,Myeloma in Study
2010-12-07T21:19:50Z,Christie,Erase New Jersey Budget Deficits by,End of First Term
2010-12-07T21:23:51Z,Microsoft,Says,Yahoo Deal Working Better
2010-12-07T21:24:43Z,Accord,Gives In to,Moneyed Interests
2010-12-07T21:24:43Z,Tax-Cut Accord,Gives In to,Moneyed Interests
2010-12-07T21:27:47Z,Rare Lymphoma,in,New Study
2010-12-07T21:27:47Z,Seattle Genetics,Guided,Missile ' Drug Blasts
2010-12-07T21:30:39Z,Consumer Credit,in,U.S. Increases for Second Month
2010-12-07T21:32:12Z,Universal Music,Hires,Sony Executive Barry Weiss
2010-12-07T21:33:01Z,Netflix Names Wells,Replacing,McCarthy
2010-12-07T21:33:13Z,New York Times,Says,Print-Ad Drop
2010-12-07T21:33:13Z,Print-Ad Drop,Help,Increase 2010 Earnings
2010-12-07T21:33:13Z,Smaller Print-Ad Drop,Help,Increase 2010 Earnings
2010-12-07T21:33:36Z,U.S. Oil Supplies,Dropped,7.34 Million Barrels
2010-12-07T21:38:56Z,Pelosi,Criticizes,Obama Tax Deal
2010-12-07T21:40:49Z,DBSD Bankruptcy Plan,Partly Reversed by,Court
2010-12-07T21:43:16Z,CBS Chief Moonves Expects,Continued,Increases in Advertising Sales
2010-12-07T21:43:16Z,Increases,in,Local Advertising Sales
2010-12-07T21:44:33Z,Canadian Western Bank,Raises,Dividend
2010-12-07T21:44:33Z,Profit,Rises to,Record
2010-12-07T21:44:40Z,Caterpillar,Gets,$ 8.6 Billion Loan
2010-12-07T21:45:17Z,Job Openings,Increased to,Two-Year High
2010-12-07T21:50:46Z,Montreal Profit Tops Estimates,of Bank,Trading Revenue
2010-12-07T21:57:09Z,Stocks,in,U.S. Pare Advance
2010-12-07T22:04:41Z,South Korea,Confirms Flu Outbreak in,Wild Birds
2010-12-07T22:09:27Z,U.S. Treasury,Sets Trillion for,Debt Sales
2010-12-07T22:14:33Z,Canadian Stocks,Fall as,Gold Drops
2010-12-07T22:14:33Z,Stocks,Fall as,Gold Drops
2010-12-07T22:15:03Z,Citigroup 's Friedlander,Gets on,Build Americas
2010-12-07T22:18:48Z,Treasury 10-Year Yield,Rises,Most
2010-12-07T22:20:59Z,Montreal,of,Chief Downe
2010-12-07T22:22:38Z,Central Bank,Keeps,Rates Steady
2010-12-07T22:28:36Z,Stumpf,Tells,Conference
2010-12-07T22:29:01Z,Google,Unveils,Laptop
2010-12-07T22:33:48Z,Lehman Retirement Plan,Sues,Former Chief Fuld
2010-12-07T22:39:02Z,Senate,Denies,Rescue Plan
2010-12-07T22:43:46Z,Afghan War Coalition,Completes,Battle in Marjah
2010-12-07T22:43:46Z,Battle,in,Marjah
2010-12-07T22:43:46Z,U.S.,Assesses,Strategy
2010-12-07T22:54:49Z,Mexico Senate,Approves Antitrust Legislation in,55-53 Vote
2010-12-07T22:59:31Z,BlackRock May,Lose,Massachusetts Pension Assets
2010-12-07T22:59:43Z,Republicans,Said to,Back Bachus
2010-12-07T23:00:01Z,Dick Cheney,Halliburton Over,Bribery Case
2010-12-07T23:06:39Z,Rogers,Picked to,Head House Appropriations Panel
2010-12-07T23:10:58Z,Brady Bond Swap Offer,Paves,Way for International Sale
2010-12-07T23:12:54Z,New Zealand 's Bollard May,Keep,Rate Unchanged
2010-12-07T23:19:35Z,Coty,Pays,$ 400 Million
2010-12-07T23:20:13Z,Lions Gate,Is,Denied
2010-12-07T23:30:43Z,Elizabeth Edwards,Dies at,61
2010-12-07T23:30:43Z,Political Wife,Shaped by,Losses
2010-12-07T23:39:28Z,High Level,in,Central
2010-12-07T23:39:28Z,Hong Kong Air Pollution,Hits,High Level for Third Day
2010-12-07T23:43:59Z,Aegon Expects Lower Interest Rates,in,U.S.
2010-12-07T23:55:31Z,China 's Government,Buys,262.5 Billion Yen in Bonds
2010-12-07T23:55:31Z,Net 262.5 Billion Yen,in,Japanese Bonds
2010-12-07T23:57:16Z,New Zealand,'s Construction,Signaling Weak Recovery
2010-12-07T23:57:32Z,CO2 Capture May Boost Trade,in,UN Emissions Credits
2010-12-08T01:41:08Z,China,in,Pledges
2010-12-08T01:41:08Z,Game-Changer,in,China 's Pledges
2010-12-08T01:41:08Z,No,Game-Changer in,China 's Pledges
2010-12-08T02:25:30Z,Economists,Push,Back Rate-Rise Calls
2010-12-08T02:25:30Z,RBA,Sees,Inflation
2010-12-08T02:40:27Z,Salesforce,Taking On,Oracle
2010-12-08T03:12:45Z,It,May,May Acquired
2010-12-08T03:34:45Z,Copenhagen Advances,in,Champions League
2010-12-08T03:58:07Z,Herpes Virus,Blamed in,New Zealand 's North Island
2010-12-08T03:58:07Z,New Zealand,in,North Island
2010-12-08T05:00:00Z,Limit,Extend,Fed Purchases
2010-12-08T05:00:13Z,Leaders,Choose Rogers as,Head
2010-12-08T05:00:13Z,Republican Leaders,Choose,Rogers
2010-12-08T05:01:00Z,ING,for,Real Estate Unit
2010-12-08T05:01:01Z,Dodgers Team May,Be Sold After,Divorce Dispute Ruling
2010-12-08T05:01:01Z,Obama,Says Tax-Cut Deal Will Make Difference,Democrats Balk
2010-12-08T05:01:01Z,Trustee,Sues,Mets Owners
2010-12-08T07:37:35Z,Japan 5-Year Yields,Soar,Most in Two Years
2010-12-08T08:17:31Z,Tata Power,Says,Projects
2010-12-08T08:53:39Z,Toyota,Adopts,Tesla Laptop Battery Strategy
2010-12-08T11:26:12Z,Air France-KLM,Faces,EasyJet
2010-12-08T11:49:38Z,Palestinians,Lure Banks With,First Sukuk Bill Sale
2010-12-08T13:34:01Z,Google,Asked,Apple
2010-12-08T14:16:30Z,Face Tighter Filing Rules,to Dodgers,Draft
2010-12-08T14:16:30Z,German Tax Dodgers,in,Crackdown
2010-12-08T16:54:35Z,Carl Zeiss Drop,in,Frankfurt
2010-12-08T16:54:35Z,Shares,Drop in,Frankfurt
2010-12-08T21:24:45Z,Orexigen 's Diet Pill Victory,Shows,Benefit
2010-12-08T21:48:55Z,Canada,Stocks,Fall
2010-12-09T09:21:32Z,U.S. Returning,in,Talks for Israeli-Palestinian Peace
2011-02-06T20:45:57Z,N.Z. Selects Telecom,Vodafone for,Rural Broadband
