2010-10-08T00:11:36Z,Aerodynamic Treats,in,Car of Future
2010-10-08T00:11:36Z,Lamborghini,Sees,Aerodynamic Treats in Car of Future
2010-10-08T00:20:19Z,PG&E,Sued By,Residents
2010-10-08T00:27:26Z,U.S. Navy,Cancels,Aircraft Carrier Visit
2010-10-08T01:00:03Z,Leonard Green,Said,Join
2010-10-08T01:12:45Z,Limit Home Purchases,to Shanghai,Government
2010-10-08T01:26:47Z,Greenspan,Says,Fed Asset Purchases May
2010-10-08T01:27:26Z,North Korea,Moving With,Post Reports
2010-10-08T01:38:09Z,Shanghai,Introduces,Property Curbs
2010-10-08T01:38:09Z,Vanke,Leads,Declines
2010-10-08T01:42:54Z,Chevron Targets China,Singapore as,Markets for Australian LNG
2010-10-08T02:01:00Z,Volkswagen Brands May Race,in,Formula One
2010-10-08T02:14:23Z,Uganda 's Coffee Exports,Fell,Season
2010-10-08T02:20:00Z,China 's Credit Rating May,Be Raised on,Fiscal Strength
2010-10-08T02:34:22Z,New York Times,Applications for,Samsung Tablet
2010-10-08T02:37:02Z,China Yuan,Climbs Since,1993
2010-10-08T02:54:30Z,Singh,',Minuscule Reforms Underscored by Games Missteps
2010-10-08T02:54:30Z,Singh 's Minuscule Reforms,Underscored by,Games Missteps
2010-10-08T02:54:30Z,Singh 's Reforms,Underscored by,Games Missteps
2010-10-08T03:00:34Z,$ 60 Billion,in,Debt Markets
2010-10-08T03:09:49Z,China,of,Foreign Reserves
2010-10-08T03:09:51Z,South Korea,by,Bank Regulator
2010-10-08T03:12:05Z,Goldwind,Selling,Shares
2010-10-08T03:18:27Z,China 's Credit Rating May,Be Raised on,Fiscal Strength
2010-10-08T03:33:46Z,Kuwait Petroleum,Reaches,Price Agreement
2010-10-08T03:33:51Z,Orient Green Power,Starts Trading at,43 Pence
2010-10-08T03:33:51Z,Trading,in,Mumbai
2010-10-08T03:37:00Z,Dollar,Rally on,Ichimoku
2010-10-08T03:38:18Z,60 Billion Yen,in,Five-Year Convertible Bonds
2010-10-08T03:41:08Z,King,Buy,Singapore Rubber Trader
2010-10-08T03:41:24Z,Limit Home Purchases,to Shanghai,Government
2010-10-08T03:51:56Z,JPMorgan,Say in,Five-Year Plan
2010-10-08T04:00:01Z,LaHood,Weighs Urging Ban on,Driver Phone Use in Cars
2010-10-08T04:00:07Z,Technology,Replaces Banks as,Better Dividend Bet for Investors
2010-10-08T04:00:47Z,Pitchman,as Doubles,Web Film
2010-10-08T04:01:00Z,Buying,Beats,Renting
2010-10-08T04:01:00Z,Cool ' Logo,Irks,Designers
2010-10-08T04:01:00Z,Foreclosures Cut Home Prices,in,Texas
2010-10-08T04:01:00Z,Gap,'s Modern,Sexy
2010-10-08T04:01:00Z,Gap 's New Modern,Irks,Shoppers
2010-10-08T04:01:00Z,Greenspan,Says,U.S. Creating
2010-10-08T04:01:00Z,Guy Fieri Cooks,Closes Out,New York Food Festival
2010-10-08T04:01:00Z,Stolichnaya,in,First Sports Deal
2010-10-08T04:12:14Z,Samsung Asset Management,Likes China Consumer Stocks as,Spending
2010-10-08T04:14:07Z,QR National,Completes,$ 2.9 Billion Loan Facility
2010-10-08T04:22:22Z,Rentenbank,Adds,A$ 400 Million
2010-10-08T04:29:14Z,Banking Lobby,Opposes,Cabinet 's Resurrection of Privatization Bill
2010-10-08T04:39:02Z,Kan 's Cabinet,Protect,Japan 's Recovery
2010-10-08T04:40:58Z,Yankees Beat Twins 5-2,Rays for,2-0
2010-10-08T04:50:42Z,Russian Spy Anna Chapman,Shows Up for,Space Station Blast Off
2010-10-08T04:50:42Z,Spy Anna Chapman,Shows Up for,Space Station Blast
2010-10-08T04:50:57Z,Copper Rallies,Heads for,Weekly Gain
2010-10-08T04:58:58Z,Fewer Employees,in,Coming Years
2010-10-08T05:01:00Z,3 %,in,Surprise Bid
2010-10-08T05:01:00Z,Limit Sol,to,Advance
2010-10-08T05:05:26Z,Energy,Buy Refinery,May
2010-10-08T05:10:04Z,Weak Dollar,Boosts,Demand
2010-10-08T05:32:50Z,Finance Minister,Tells,Lidove
2010-10-08T05:34:49Z,Authority,Recommends,Cuts
2010-10-08T05:40:50Z,Kenya Railways,Extends Deadline for,Submissions on Rail Line
2010-10-08T05:42:35Z,BNP,in,Korea
2010-10-08T05:42:35Z,JPMorgan,BNP Among,Banks Facing Audit
2010-10-08T05:43:41Z,Lost Vivaldi Composition Found,in,Scotland
2010-10-08T05:47:44Z,African Finance Minister Gordhan,Says,Reuters
2010-10-08T05:47:44Z,Finance Minister Gordhan,Says,Rand Strong
2010-10-08T05:47:44Z,South African Finance Minister Gordhan,Says,Rand Too Strong
2010-10-08T05:49:11Z,One General Manager,in,New Structure
2010-10-08T06:00:00Z,Euros Next Year,in Bonds,Pankin
2010-10-08T06:00:00Z,Exports,Fell in,August
2010-10-08T06:00:00Z,German Exports,Fell as,Euro Rose
2010-10-08T06:00:00Z,Russia Corporate Debt Bubble May,Be Forming,Bonds Sell
2010-10-08T06:00:00Z,Russia May Sell Bonds,in,Euros Next Year
2010-10-08T06:04:11Z,German Government Bonds,Open,Little Changed With Yield at 2.26 %
2010-10-08T06:04:11Z,Government Bonds,Open,Little Changed With Yield
2010-10-08T06:05:52Z,May,Build,Six Power Plants
2010-10-08T06:08:33Z,Tanzania Mine Accident,Leaves,Two Daily News Reports
2010-10-08T06:13:55Z,New Hope,Offers,A$ 193 Million
2010-10-08T06:26:47Z,Second Day,in,London
2010-10-08T06:30:00Z,French Business Confidence,Highest in,September
2010-10-08T06:47:27Z,Petropavlovsk,Announces,Delay
2010-10-08T06:52:01Z,Bulgarian Premier Borissov,Survives,Opposition No-Confidence Vote Motion
2010-10-08T06:52:01Z,Premier Borissov,Survives,Opposition No-Confidence Vote Motion
2010-10-08T07:00:34Z,Oil Trims Losses,Increasing,Commodity Investment Appeal
2010-10-08T07:07:11Z,$ 135 Million Rights Offer,Is Priced at,Discount
2010-10-08T07:07:11Z,$ Million Rights Offer,Is Priced at,Discount
2010-10-08T07:07:11Z,Fonciere Des Murs $ 135 Million Rights Offer,Is,Priced
2010-10-08T07:07:11Z,Fonciere Des Murs $ Million Rights Offer,Is,Priced
2010-10-08T07:07:11Z,Fonciere Des Murs Million Rights Offer,Is Priced at,Discount
2010-10-08T07:07:11Z,Million Rights Offer,Is Priced at,Discount of 21 %
2010-10-08T07:08:08Z,Thomas Cook,Announcing Deal With,Co-op Group
2010-10-08T07:32:19Z,China Yuan,Climbs Since,1993
2010-10-08T07:34:18Z,Feb. 22,in,New York
2010-10-08T07:35:45Z,Nation Media,in,Rwanda
2010-10-08T07:39:42Z,Hanoi 's Millennial Celebrations,Showcase,Vietnam 's Economic Advance
2010-10-08T07:46:48Z,Marseille Port Strike,Enters,Inchcape
2010-10-08T07:48:27Z,It,Offered Genzyme Price Range at,Sept. 20
2010-10-08T07:48:27Z,Sanofi-Aventis,Denies,Meeting
2010-10-08T07:50:53Z,Ex-Arcandor Chief Middelhoff ’s Home,Searched in,Probe
2010-10-08T07:50:53Z,Office Searched,in,Probe
2010-10-08T07:50:59Z,Oil Trims Losses,Increasing,Commodity Investment Appeal
2010-10-08T07:54:32Z,August Output,Jumped,Most
2010-10-08T07:54:32Z,Turkish August Output,Jumped,Most in 10 Months
2010-10-08T07:59:18Z,Congo,Wants Companies After,United Nations War Crimes Report
2010-10-08T08:05:58Z,Rice Land,in,Vietnam
2010-10-08T08:09:26Z,Carmakers,in,India
2010-10-08T08:17:20Z,Amadeus Shareholders,Selling,$ 876 Million Stake
2010-10-08T08:26:41Z,Malaysian Sukuk Yields,Drop on,Asian Currency
2010-10-08T08:26:41Z,Sukuk Yields,Drop on,Currency
2010-10-08T08:30:16Z,Deutsche Bank ’s Private Wealth Management Division,Hires,Apffel
2010-10-08T08:30:16Z,Deutsche Bank ’s Wealth Management Division,Hires,Apffel
2010-10-08T08:37:22Z,Gazprom,Says,German Partners Interested
2010-10-08T08:41:48Z,Producer Prices,Increase,Raw-Material Costs Jump
2010-10-08T08:57:51Z,BP,Lift Profit on,Fast-Growing Markets
2010-10-08T09:00:00Z,17 % Gain,Boosted by,Main Brand
2010-10-08T09:00:00Z,BMW Reports 17 % Gain,in,September Group Deliveries
2010-10-08T09:00:00Z,BMW Reports Gain,Boosted by,Main Brand
2010-10-08T09:00:00Z,Gain,Boosted by,Main Brand
2010-10-08T09:01:38Z,Sinochem Bid,Would Depend From,Harper
2010-10-08T09:03:54Z,Actelion,Surges on,Report
2010-10-08T09:03:54Z,It,Selling,Itself
2010-10-08T09:11:48Z,Dunant,Award in,1901
2010-10-08T09:11:48Z,Passy Won Award,in,1901
2010-10-08T09:15:50Z,Sugar Jumps,Be,Curbed
2010-10-08T09:20:32Z,China Credit-Rating Upgrade,Looms as,Sword
2010-10-08T09:25:19Z,Daimler 's Mercedes-Benz Main-Brand Unit Sales,Increased,13 %
2010-10-08T09:27:58Z,Banks,in,Reserve
2010-10-08T09:28:27Z,German-U.S. 10-Year Bond Yield Spread,Narrows,Least Since November 2009
2010-10-08T09:28:43Z,14-Month High,to Increases,EBF
2010-10-08T09:39:20Z,Doctors,Approve,Commonwealth Games Swimming Pools
2010-10-08T09:42:02Z,Rubber,in,Tokyo
2010-10-08T09:42:02Z,Shanghai,Sets,2-Year High
2010-10-08T09:54:11Z,Turkcell Plans German Virtual Network,With,Deutsche Telekom
2010-10-08T09:56:04Z,Ericsson,'s Kavveri,U.S.
2010-10-08T10:01:00Z,Malaysia 's Export Growth Slowed,in,Sign Global Demand
2010-10-08T10:08:06Z,China Deals,With,Mallesons
2010-10-08T10:08:06Z,Hong Kong,Deals With,Mallesons
2010-10-08T10:08:06Z,Milbank Targets Listings,in,Hong Kong
2010-10-08T10:08:11Z,Gold Declines,in,London
2010-10-08T10:08:11Z,London,Retreats for,Second Day
2010-10-08T10:11:21Z,UniCredit ’s Pioneer,Is,Ready
2010-10-08T10:17:22Z,Euro,Extends,Declines
2010-10-08T10:21:38Z,Stricken Chemical Tanker,in,Atlantic Will
2010-10-08T10:27:05Z,Yield,Rises,2 Basis Points
2010-10-08T10:30:01Z,Gillibrand,Takes,21-Point
2010-10-08T10:30:01Z,Republican DioGuardi,in,New York Race
2010-10-08T10:32:27Z,Manchester United,Has,83.6 Million Pound Fiscal Year Loss on Player Sales
2010-10-08T10:34:50Z,Dubai 's Alliance Medical,Hires,New CEO
2010-10-08T10:34:50Z,New CEO,Accelerate,Debt Restructuring
2010-10-08T10:36:06Z,Soros,Says,Currency War Concerns
2010-10-08T10:38:52Z,6.6 %,in,September
2010-10-08T10:43:28Z,230 Million Euros,in,IPO
2010-10-08T10:48:03Z,Thomas Cook,Announcing Deal With,Co-op Group
2010-10-08T10:55:22Z,Electrification,Hires,RBS
2010-10-08T10:55:22Z,Rural Electrification,Hires,RBS
2010-10-08T11:00:01Z,Bearish Charles Schwab Option Trading Volume,Rises Before,Earnings Report
2010-10-08T11:00:01Z,Charles Schwab Option Trading Volume,Rises Before,Earnings Report
2010-10-08T11:00:01Z,S&P 500 Rally,Has,Authority
2010-10-08T11:00:01Z,S&P Rally,Has,Authority
2010-10-08T11:05:57Z,Milk,Rising,66 %
2010-10-08T11:13:12Z,Yield,Rises,2 Basis Points
2010-10-08T11:14:11Z,Hansenet Units,in,Germany
2010-10-08T11:14:11Z,Telefonica,Units in,Germany
2010-10-08T11:23:10Z,Wealthy Indians May Double Assets,in,Next Five Years
2010-10-08T11:25:14Z,of 6 %,Than Growth,Minister
2010-10-08T11:33:51Z,Sensex Index Falls,Retreating Near,Record High
2010-10-08T11:47:40Z,Credit Suisse 's Shiret Ends Three-Year,Ranking on,Marks
2010-10-08T11:48:14Z,Bonds,in,International Markets
2010-10-08T12:03:12Z,Allianz,Says,Its Unit Insured Plant
2010-10-08T12:04:21Z,Jobs Report,Stirs,Speculation Fed
2010-10-08T12:04:21Z,Speculation Fed,Stimulate,Economy
2010-10-08T12:21:47Z,SG Hambros,Buy Stocks as,Central Banks Prop Up Economy
2010-10-08T12:28:01Z,South Africa,Build,Six Power Plants
2010-10-08T12:30:04Z,Favorable Weather,Boosts,Texas Yields
2010-10-08T12:30:04Z,Weather,Boosts,Texas Yields
2010-10-08T12:30:05Z,U.S. Soybean-Harvest Crop,Reduced as,Rains Fail to Boost Oilseed Yields
2010-10-08T12:31:44Z,America,of Bank,Zurich in Court News
2010-10-08T12:31:44Z,Bank,Zurich in,Court News
2010-10-08T12:31:44Z,Zurich,in,Court News
2010-10-08T12:33:26Z,3M,Wins,52 %
2010-10-08T12:39:13Z,Hongkong Bank,Seng for,Rating Bump
2010-10-08T12:39:13Z,Moody,Puts,Hang Seng for Rating Bump
2010-10-08T12:42:23Z,U.S.,Reduces,Crop Outlook
2010-10-08T12:45:47Z,Merkel,Turns Off,Voters
2010-10-08T12:45:47Z,Sexy German Greens,Record,Merkel Turns Off Voters
2010-10-08T12:45:47Z,Sexy Greens,Record,Merkel Turns
2010-10-08T12:45:59Z,U.S. Stock Futures Erase Losses,Boosts,Fed Speculation
2010-10-08T12:46:35Z,Sensex Index Falls,Retreating Near,Record High
2010-10-08T12:48:31Z,Hong Kong 's Arculli,Sees,IPOs
2010-10-08T12:48:31Z,IPOs,Beating,Foreign Company Listings
2010-10-08T12:49:25Z,EU Official,Says Over,Entry of Reporters
2010-10-08T12:50:31Z,Northstar,Say on,U.S. Crop
2010-10-08T12:58:58Z,New Car Sales,Jump Economy on,Incentive Program
2010-10-08T12:58:58Z,Russian New Car Sales,Jump,55 %
2010-10-08T13:03:49Z,Yuan,Is,More Than Undervalued
2010-10-08T13:06:44Z,Canadian Housing,Starts Beat Expectations in,September
2010-10-08T13:06:44Z,Housing,Starts,Beat Expectations
2010-10-08T13:07:25Z,Bets Fed,Buy,Assets
2010-10-08T13:17:07Z,GDF Suez,Is,Said to Plan Gas-Supply Agreement With China National Offshore
2010-10-08T13:17:07Z,Said,With,China National Offshore
2010-10-08T13:18:32Z,Vodafone Lose U.K.,Ruling Up,3G Spectrum
2010-10-08T13:22:25Z,Toshiba,Bank of,America
2010-10-08T13:23:54Z,Egypt,Must End,Police Killing of African Migrants
2010-10-08T13:32:47Z,Arkema,Is Considering Bond Sales to,Fund Expansion in China
2010-10-08T13:32:47Z,Fund Expansion,in,China
2010-10-08T13:34:14Z,Enel,Making,Reactor Bid
2010-10-08T13:34:25Z,Pakistan Trade Gap,Widens,27.4 %
2010-10-08T13:38:29Z,Gold Income,Jumps,62 %
2010-10-08T13:38:29Z,Tanzanian Gold Income,Jumps,62 %
2010-10-08T13:56:17Z,Nigeria 's Debt,Rises,21 Percent
2010-10-08T13:59:49Z,Russia Stocks,Drop for,Day
2010-10-08T14:01:36Z,Pakistan Tax Office,Exempts Traders From,Duty on Imports of Raw Sugar
2010-10-08T14:03:08Z,6.4 %,of Growth,Finance Minister
2010-10-08T14:03:43Z,Manchester United,Has,83.6 Million Pound Fiscal Year Loss on Player Sales
2010-10-08T14:10:08Z,Bill Ackman,Named,Chairman of General Growth Spinoff Howard Hughes Corp
2010-10-08T14:12:49Z,Morgan Stanley-Backed Oberoi IPO,Attracts,Demand 12 Times Size Offering
2010-10-08T14:14:33Z,Wholesale Inventories,in,U.S. Rose 0.8 %
2010-10-08T14:22:59Z,American Apparel,Hires,Former Blockbuster CFO Thomas Casey
2010-10-08T14:22:59Z,Apparel,Hires,Former Blockbuster CFO Thomas Casey
2010-10-08T14:30:00Z,Bank,Polls,Show Investment
2010-10-08T14:33:58Z,Corn,Surge as,U.S. Cuts Supply Outlook
2010-10-08T14:38:03Z,Burger King LBO Propels Fivefold Leveraged-Loan Gain,in,2010
2010-10-08T14:40:15Z,Latvian Shipping,Builds,Fence Around Office
2010-10-08T14:40:15Z,Shipping,Builds Fence,It Blocks
2010-10-08T14:47:32Z,Emerging Stocks,Weighed Down by,Disappointing Earnings
2010-10-08T14:47:32Z,Stocks,Weighed,Down
2010-10-08T14:49:45Z,Start Pre-Open Call Auctions,to Exchanges,Express
2010-10-08T14:52:04Z,$ 1.4 Billion Stake,in,Power Utility PGE
2010-10-08T15:00:27Z,Premier League,Approves,Red Sox 's John Henry
2010-10-08T15:06:11Z,Franc,Strengthens,Dollar
2010-10-08T15:06:11Z,Swiss Franc,Strengthens Dollar After,U.S. Payrolls Tumble
2010-10-08T15:07:33Z,U.S. Jobs Data,Boosts,Appeal of Higher-Yielding Assets
2010-10-08T15:08:18Z,More,Than,$ 1 Billion
2010-10-08T15:09:32Z,China,in,Interest Have
2010-10-08T15:10:12Z,SABMiller,Uses,Success
2010-10-08T15:10:12Z,Target Ethiopia,to,Beer Market
2010-10-08T15:13:25Z,Abengoa,Sell,Million of 7-Year Senior Bonds
2010-10-08T15:17:09Z,German Government Bonds,Lowering,Bund Yield
2010-10-08T15:17:09Z,Government Bonds,Lowering,Bund Yield
2010-10-08T15:17:42Z,China,Release,Nobel Peace-Prize
2010-10-08T15:17:42Z,Obama,Urges,China
2010-10-08T15:18:52Z,Wheat Prices,Surge as,U.S. Cuts Supply Outlook
2010-10-08T15:20:42Z,Yield,Abroad Exceeds,Spain
2010-10-08T15:23:24Z,Johnson,Named U.K. Labour Party Shadow Chancellor in,Surprise
2010-10-08T15:35:08Z,Lebanon,Must Tighten,IMF Report
2010-10-08T15:38:06Z,Rainfall Propels Argentina Past Pakistan,in,Bond Market
2010-10-08T15:46:21Z,Morgan Stanley,Buying,Government Bonds
2010-10-08T15:46:49Z,EU 2011 Government Bond Sales,Falling 2.8 % From,2010
2010-10-08T15:46:49Z,Morgan Stanley,Sees,EU 2011 Government Bond Sales Falling From 2010
2010-10-08T15:47:45Z,Antofagasta,Says to,Start Output
2010-10-08T15:47:45Z,Start Output,in,November
2010-10-08T15:51:20Z,Nobel Peace Prize,Has,China Warning Norway
2010-10-08T15:51:24Z,Ghana,'s Growth,Kofi Wampah
2010-10-08T15:51:24Z,Growth,Wampah 's,Central Bank
2010-10-08T15:52:23Z,Half,by Cut,FAA
2010-10-08T15:53:19Z,Demag Cranes Shares,Reach,Two-Year High
2010-10-08T15:53:19Z,Konecranes,Expresses,Interest
2010-10-08T15:55:26Z,Lawyer,Argues at,Trial
2010-10-08T15:55:31Z,Naspers,Are,Active
2010-10-08T15:55:31Z,Stocks,in,South Africa
2010-10-08T15:57:24Z,Brazil,Argentina After,Vale Deal
2010-10-08T15:57:24Z,Hydro Studies Acquisitions,in,Brazil
2010-10-08T16:05:22Z,Bonuses,in,Immediate Cash
2010-10-08T16:05:22Z,EU Bankers May,Get,25 % of Bonuses
2010-10-08T16:08:45Z,$ 858 Million,in,Stake Sale
2010-10-08T16:08:45Z,Amadeus 's Owners,Raise,Million in Stake Sale
2010-10-08T16:11:24Z,Currency War,',Part of IMF Discussions
2010-10-08T16:13:00Z,Algeria,Rejects,VimpelCom ’s Djezzy Price
2010-10-08T16:13:00Z,VimpelCom,’s Price,El Watan Reports
2010-10-08T16:23:57Z,Abu Dhabi Sheikh,Buys,Protection on Stock
2010-10-08T16:26:22Z,Brazil Will Protect Economy,Real From,Inflows
2010-10-08T16:26:22Z,Meirelles,Says,Real From Inflows
2010-10-08T16:28:14Z,Singapore,Pushing,Scientists From Coconut Shell ' for R&D Gains
2010-10-08T16:29:16Z,Reed,Says,Senate Will Debate China Bill
2010-10-08T16:29:16Z,Senate Will Debate China Bill,in,Lame-Duck Session
2010-10-08T16:29:50Z,Mantega,',Currency War
2010-10-08T16:29:50Z,Mantega 's Currency War,Backfires,Real Volatility Jumps
2010-10-08T16:35:16Z,General Growth,Wins Approval,Proceed With Stock Plan
2010-10-08T16:38:19Z,Kim Jong Il 's Son Will,Be,New Leader
2010-10-08T16:52:53Z,Meet Investors,in,Washington
2010-10-08T17:07:43Z,Brazilian Real,Headed Since,2004
2010-10-08T17:07:43Z,Real,Headed for,Longest Winning Streak
2010-10-08T17:09:57Z,Energizer,Wins,Auction
2010-10-08T17:18:27Z,Credit Access Helping Recovery,in,Auto Sales
2010-10-08T17:18:27Z,Dealers,Say,Credit Access Recovery in Auto Sales
2010-10-08T17:18:27Z,Ford,Say,Credit Access Recovery in Auto Sales
2010-10-08T17:50:34Z,Miners ' Ordeal,Nears End in,Chile
2010-10-08T18:05:39Z,Antofagasta Mining CEO,Says,Widen on U.S.
2010-10-08T18:05:39Z,Copper Shortage,Widen on,U.S.
2010-10-08T18:21:25Z,Copper,Rises to,Boost Stimulus
2010-10-08T18:21:58Z,Corn,Surge as,U.S. Cuts Supply Outlook
2010-10-08T18:22:45Z,Dollar,on,Drop
2010-10-08T18:22:45Z,Gold,Rises on,Dollar 's Drop
2010-10-08T18:32:29Z,Afghan Mosque Bomb,Including,Governor of Kunduz Province
2010-10-08T18:41:11Z,Inflation Discrepancies,in,Argentina
2010-10-08T18:44:18Z,UConn Men 's Basketball,Recruiting,Violations
2010-10-08T18:56:56Z,Sugar Jumps,Be,Curbed
2010-10-08T18:59:15Z,Canadian Economy Cooling,Raises,Odds of Central Bank Interest-Rate Pause
2010-10-08T19:30:58Z,China Will Avoid Shock Therapy,in,Currency
2010-10-08T19:34:03Z,Liu Xiaobo,Awarded,Nobel Peace Prize
2010-10-08T19:39:29Z,Chilean Inflation Quickens,Bolstering,Interest Rate Increase Expectations
2010-10-08T19:39:29Z,Inflation Quickens,Bolstering,Interest Rate Increase Expectations
2010-10-08T19:40:54Z,Treasury Two,Cut by,Barclays
2010-10-08T19:45:20Z,Cotton Futures Jump,Rises on,USDA Estimates
2010-10-08T19:47:18Z,Gasoline,Rise as,Jobs Report Signals Fed
2010-10-08T19:47:18Z,Heating Oil Rise,Spurring of,Economy
2010-10-08T19:50:45Z,Obama,as,National Security Adviser
2010-10-08T20:11:22Z,Dow,Tops,Treasuries Rise on Fed Easing Bets
2010-10-08T20:11:50Z,Leuthold,Boosts Allocation to,Stocks
2010-10-08T20:13:30Z,Abbott Pulls Diet Pill,in,U.S.
2010-10-08T20:15:19Z,Canadian Dollar,Strengthens After,Reports Show Job Cuts
2010-10-08T20:15:19Z,Dollar,Strengthens After,Reports Show Job Cuts
2010-10-08T20:15:19Z,Reports Show Job Cuts,in,U.S.
2010-10-08T20:15:46Z,Sanofi,Spar Over,Accounts of Chiefs
2010-10-08T20:16:32Z,Estimate,Reduced on,U.S. Production
2010-10-08T20:16:32Z,Global Estimate,Reduced on,Smaller U.S. Production
2010-10-08T20:16:32Z,Global Wheat-Inventory Estimate,Reduced on,U.S. Production
2010-10-08T20:16:32Z,Wheat-Inventory Estimate,Reduced on,U.S. Production
2010-10-08T20:17:39Z,Adobe Shares Rise,With,Microsoft
2010-10-08T20:22:11Z,U.S.,More Jobs Than,Forecast
2010-10-08T20:23:55Z,Bovespa Rises,in,11 Months
2010-10-08T20:24:18Z,Ford ’s Credit Rating,Raised,Two Levels
2010-10-08T20:25:10Z,BofA,Extends Freeze on,Foreclosures
2010-10-08T20:28:00Z,Cuts,in,Payrolls
2010-10-08T20:30:50Z,Vranos IPO,Raises,$ 101 Million
2010-10-08T20:38:47Z,Feinberg Firm,Paid,More Than $ 2.5 Million
2010-10-08T20:48:27Z,Canadian Stocks,Rise as,Commodities Gain
2010-10-08T20:48:27Z,Stocks,Rise as,Commodities Gain on Fed Speculation
2010-10-08T20:56:19Z,Ackman 's Pershing,Discloses,Stakes in J.C. Penney
2010-10-08T20:56:19Z,Stakes,in,J.C. Penney
2010-10-08T20:57:32Z,China,Pledges in,Climate-Change Accord
2010-10-08T20:57:32Z,Pledges,in,Climate-Change Accord
2010-10-08T21:10:01Z,Arab Nations Support Abbas,in,Linking Peace Talks to Israel Settlement Ban
2010-10-08T21:24:26Z,Editor Marimow Will,Become,Reporter
2010-10-08T21:26:45Z,J.C. Penney,Jump After,Ackman Stakes
2010-10-08T21:27:47Z,U.S. May,Buy,More Debt
2010-10-08T21:43:55Z,Attorneys General,in,40 States
2010-10-08T22:06:31Z,Netherlands Remain Perfect,in,Euro 2012
2010-10-08T22:06:31Z,Spain,Perfect in,Euro 2012
2010-10-08T22:15:36Z,N.J. Governor,Agrees to,Two-Week Study
2010-10-08T22:28:39Z,U.S. Airlines,Get,Lithium Battery Warning
2010-10-08T23:56:24Z,Local Government Employment,in,U.S. Falls to Lowest
2010-10-09T00:26:54Z,Petters Bankruptcy Trustee,Sues,Florida Investor 's Firms
2010-10-09T04:01:00Z,California Legislature,Passes,Main Budget Measure
2010-10-09T04:01:00Z,Ditzy Ricci,Joins,Linney
2010-10-09T04:01:00Z,Nude Koons,Angels ’s,Tony
2010-10-09T04:01:00Z,Rothschild Sowed Dragon,to,Teeth
2010-11-12T20:30:06Z,Brazil 's Real,Completes,Weekly Drop
