2010-10-11T00:05:49Z,Copper,in,London Advances
2010-10-11T00:06:01Z,Yuan 2010 Gains,Be Capped at,3 % Year
2010-10-11T00:06:01Z,Yuan Gains,Be Capped at,3 % Year
2010-10-11T00:13:34Z,Blue,Sees,Outages
2010-10-11T00:13:34Z,Outages,Cutting Pre-Tax Profit as,Million
2010-10-11T00:13:34Z,Virgin Blue,Sees,Outages
2010-10-11T00:22:21Z,Microsoft Japan,in,Cloud Computing
2010-10-11T00:22:21Z,NTT Unit,Japan to,Partner
2010-10-11T00:30:49Z,1 %,in,August
2010-10-11T00:40:29Z,Thai Leader,Visits,Myanmar
2010-10-11T00:59:31Z,New South Wales State,Sets as,Deadline
2010-10-11T01:00:25Z,Fed ’s Hoenig,Urges,Force
2010-10-11T01:07:14Z,Kyodo,Says on,Japan Economic
2010-10-11T01:12:49Z,AU Optronics Falls,in,Taipei
2010-10-11T01:19:15Z,Fed Policy Outlook,Boosts,Inflows
2010-10-11T01:19:15Z,Korean Won,Rises to,Five-Month High
2010-10-11T01:19:15Z,Won,Rises to,Five-Month High
2010-10-11T01:23:43Z,Cotton Futures Contract,Climbs by,Exchange-Posed Daily Limit
2010-10-11T01:35:25Z,Cairn Energy,in,Talks with Indian Government on Vedanta Purchase
2010-10-11T01:35:25Z,Talks,with,Indian Government on Vedanta Purchase
2010-10-11T01:35:54Z,1 %,in,August
2010-10-11T01:45:48Z,India,Refinance,Airbus Debt
2010-10-11T02:01:08Z,China Regulator Liu,Urges,Global Division
2010-10-11T02:31:51Z,Coffee Companies,in,Vietnam
2010-10-11T02:37:07Z,Iron-Ore Venture,With,BHP
2010-10-11T02:37:07Z,Venture,Is,Live
2010-10-11T02:38:46Z,Thai Bonds,Drop After,Report Nation Plans
2010-10-11T03:05:17Z,Copper,in,London
2010-10-11T03:35:40Z,Profit,Moe ',Goldman Sachs
2010-10-11T03:35:40Z,South Korea,Extend,Gains on Profit
2010-10-11T03:38:22Z,Nirma,Surges on,Plan to Buyback Shares
2010-10-11T03:43:25Z,China 's Unipec,Reduces,Diesel Exports
2010-10-11T03:57:13Z,China Currency Reserves May,Hit,Stoking Tensions
2010-10-11T04:00:01Z,ECB 's Mersch,Sees,FT Deutschland Reports
2010-10-11T04:00:01Z,Television Blackouts,in,U.S.
2010-10-11T04:04:23Z,Queensland Rains Disrupting Coal Mines,in,Australia
2010-10-11T04:09:19Z,Increase,in,Coal Production
2010-10-11T04:09:19Z,Pike River,Rises,Most
2010-10-11T04:20:15Z,Asian Currencies,Gain on,Speculation Fed Easing Policy Will Spur Inflows
2010-10-11T04:20:15Z,Currencies,Gain on,Speculation Fed Easing Policy Will Spur Inflows
2010-10-11T04:26:59Z,$ 654 Million,in,Stock Offer
2010-10-11T04:33:39Z,Wall Street,of,Top Athlete
2010-10-11T04:48:09Z,Beneteau Expects 2010-11 Sales,Says to,Rise
2010-10-11T04:48:09Z,Beneteau Expects Sales,Says to,Rise
2010-10-11T05:00:11Z,Daily Beast 's Tina Brown May Edit Newsweek,in,Merged Project
2010-10-11T05:05:11Z,Citic Securities,Jumps,10 %
2010-10-11T05:09:09Z,Improved Maritime Communications,With,China
2010-10-11T05:14:13Z,Alliot-Marie,Sees Duty,Ready
2010-10-11T05:18:36Z,Foreign Funds,Buy,Indian Stocks
2010-10-11T05:21:41Z,Emerging-Market Stocks,Climb for,First Day
2010-10-11T05:35:10Z,Mozambique 's City,Decelerates in,September
2010-10-11T05:38:51Z,Fortis Start Outpatient Clinics,in,India
2010-10-11T05:39:17Z,ICAP 's Asia,Heads,Brokers
2010-10-11T05:48:27Z,Abortion,Sales in,Debate
2010-10-11T05:48:27Z,Asset Sales,in,Debate
2010-10-11T05:49:29Z,France,Scrapping,La Tribune
2010-10-11T05:49:51Z,Fiat,Divisions in,Turkey Plan Record Production
2010-10-11T05:49:51Z,Renault Divisions,in,Turkey Plan Record Production
2010-10-11T05:59:18Z,Fortescue Metals,Rises,Highest
2010-10-11T06:00:00Z,2011,in Sales,Pankin
2010-10-11T06:00:00Z,May,Allow to,Default
2010-10-11T06:00:00Z,Russia May Scale Down Debt Sales,in,2011
2010-10-11T06:00:37Z,Gnudi,Tells,Giornale
2010-10-11T06:04:32Z,10-Year Government Bonds,Lifting,Yield 1 Basis Point
2010-10-11T06:04:32Z,German 10-Year Government Bonds,Lifting,Yield 1 Basis Point
2010-10-11T06:04:32Z,German Government Bonds,Lifting,Yield 1 Basis Point
2010-10-11T06:04:32Z,Government Bonds,Lifting,Yield 1 Basis Point
2010-10-11T06:19:04Z,Copper,in,London
2010-10-11T06:19:32Z,Australia,in,Talks
2010-10-11T06:26:21Z,Hochtief Defense,Gets Support from,Hermes Hedge Fund
2010-10-11T06:36:00Z,Bayer 's Qlaira,Gets EU Approval for,Treatment of Heavy Bleeding
2010-10-11T06:39:04Z,Pakistan 's Inflation,Accelerates to,High of 15.71 %
2010-10-11T06:43:53Z,South Africa,in,Nuclear Power Plans
2010-10-11T06:43:53Z,Toshiba 's Westinghouse,Is,Interested
2010-10-11T06:48:10Z,PZ Cussons,Raised,Buy
2010-10-11T06:53:32Z,Oando,Buy at,RenCap
2010-10-11T07:02:19Z,Nokia Advances,in,Helsinki
2010-10-11T07:02:57Z,U.S.,Citing,Tensions
2010-10-11T07:03:01Z,Account Gap,Widens for,Eighth Consecutive Month
2010-10-11T07:03:01Z,Current Account Gap,Widens in,August
2010-10-11T07:03:01Z,Turkish Account Gap,Widens for,Eighth Consecutive Month
2010-10-11T07:03:01Z,Turkish Current Account Gap,Widens for,Eighth Consecutive Month
2010-10-11T07:09:53Z,Dollar Weakness,Leads,Philippines
2010-10-11T07:09:53Z,Philippines,Consider,Diversification
2010-10-11T07:10:38Z,China Fall,to Exports,India Imports Rise
2010-10-11T07:10:38Z,South Africa,'s Exports,India Imports Rise
2010-10-11T07:10:38Z,South Africa 's Coal Exports,in,September
2010-10-11T07:14:18Z,Copper,Jumps to,High
2010-10-11T07:17:28Z,LDK,Raises,Third Quarter Outlook
2010-10-11T07:22:56Z,100 Million Dirhams,in,U.A.E.
2010-10-11T07:22:56Z,Contracts,Totaling,100 Million Dirhams in U.A.E.
2010-10-11T07:22:56Z,Depa Venture,Wins,Contracts
2010-10-11T07:24:53Z,Nigeria 's 100-Meter Winner Oludamola,Fails,Commonwealth Games Drugs Test
2010-10-11T07:33:52Z,Euro,Erases,Advance Against U.S. Dollar
2010-10-11T07:34:03Z,Draghi,Urges,Global Supervision
2010-10-11T07:35:13Z,FTSE 100 Benchmark,Is Little Changed in,London
2010-10-11T07:35:13Z,FTSE Benchmark,Is Changed in,London
2010-10-11T07:36:23Z,European Stocks,Pare,Gains
2010-10-11T07:36:23Z,Stocks,Pare,Gains
2010-10-11T07:37:21Z,Swiss Stocks,Erase,Gains
2010-10-11T07:44:03Z,China,Raises Reuters Reports by,Half
2010-10-11T07:46:39Z,ETF Securities Preparing,in,Industrial Metals
2010-10-11T07:47:51Z,Australia,With,Cool nrg in Clean Developments
2010-10-11T07:47:51Z,Australia 's Cool nrg,in,Clean Developments
2010-10-11T07:47:51Z,Standard Bank,Partnering With,Australia 's Cool nrg in Developments
2010-10-11T07:48:01Z,Cotton Futures Increase,in,China on Dollar
2010-10-11T07:53:55Z,Petrofac,Wins,U.A.E. Sharjah Sajaa Gas Plant Contract Worth
2010-10-11T08:00:00Z,1.6 %,in,August
2010-10-11T08:01:24Z,EU Carbon,Permits in,Than Month
2010-10-11T08:04:16Z,0.5 %,to Gap,BSF
2010-10-11T08:04:16Z,Narrow,to Gap,BSF
2010-10-11T08:05:00Z,Franklins,Pick,n Pay
2010-10-11T08:14:02Z,French Industrial Production Unchanged,Gain After,July
2010-10-11T08:25:03Z,Hong Kong Stocks,Headed for,Two-Year-High Close
2010-10-11T08:27:51Z,Japanese Ship,Surrounded by,Pirates
2010-10-11T08:27:51Z,Ship,Surrounded in,Waters
2010-10-11T08:29:59Z,Constancio,Tells,Market News
2010-10-11T08:29:59Z,May,Decide Exit Moves in,First Quarter
2010-10-11T08:36:38Z,List,in,London
2010-10-11T08:36:38Z,Mail.Ru,Part-Owned by,Naspers
2010-10-11T08:43:07Z,Pirates,Seize,Nippon Yusen-Operated Vessel
2010-10-11T08:56:04Z,Iraq Sunni Groups,Unite to,Boost Negotiating Power
2010-10-11T08:56:04Z,Two Iraq Sunni Groups,Unite to,Boost Negotiating Power
2010-10-11T09:00:00Z,Rose 4.4 %,in,September
2010-10-11T09:00:27Z,Lombard Odier,Hires,Selectium Europe 's Marc Bataillon
2010-10-11T09:01:27Z,Standard Chartered Saadiq,Sees U.A.E. Central Bank Murabahah Issue in,2010
2010-10-11T09:04:01Z,Bunds Drop,Points to,2.28 %
2010-10-11T09:16:04Z,Fiat,Shows,Serbian Government Two New Models Planned
2010-10-11T09:34:59Z,Rosneft Vice President,Leaves,Company
2010-10-11T09:36:01Z,ECM Real Estate,Tumbles,14 %
2010-10-11T09:40:59Z,Bicycle Thieves Target Muenster,Study by,Geld.de
2010-10-11T09:43:56Z,Lufthansa,Says,Flight Yields
2010-10-11T09:46:11Z,Japan,Says,Vessel Operated by NYK-Hinode Boarded by Pirates
2010-10-11T09:49:06Z,England,Sell,Tickets for Montenegro Game
2010-10-11T09:50:16Z,Plan Sukuk Sale,Managers for,Issue
2010-10-11T09:51:05Z,China National Chemicals May,Take,Israel 's Makhteshim-Agan Private
2010-10-11T09:56:30Z,Deutsche Bank,Advises Government Notes,Debt Fears Wane
2010-10-11T10:08:08Z,Yuan Forwards Surge,in,Two Years on Demands of Trade Partners
2010-10-11T10:09:05Z,Makhteshim,Surges,Most on Record
2010-10-11T10:18:07Z,Aluminum,Most Likely for,Survey
2010-10-11T10:20:00Z,Royal Bafokeng Platinum,List,Talks End
2010-10-11T10:24:45Z,Kuwaiti Inflation,Accelerates to,4.4 %
2010-10-11T10:29:34Z,BP,UBS in,Court News
2010-10-11T10:29:34Z,UBS,in,Court News
2010-10-11T10:44:33Z,Yunnan Copper,Says,Profit for First Nine Months Than Doubles
2010-10-11T10:51:11Z,Palm Oil,Jumps to,26-Month High
2010-10-11T10:55:31Z,Commodities Rise,in,Two Years Led by Agriculture Futures
2010-10-11T10:58:48Z,ECB Funding,in,September
2010-10-11T11:02:10Z,Lufthansa Brand Passenger Count,Rises in,September
2010-10-11T11:04:00Z,GDF,Raises,2 Billion Euros
2010-10-11T11:04:00Z,Its First Bonds,in,Currency
2010-10-11T11:04:36Z,China,Reopen Market to,Argentine Soybean Oil Imports
2010-10-11T11:04:42Z,Lehman Brothers 's U.K. Unit Seeks Court Ruling,in,Securities
2010-10-11T11:10:37Z,Greece,Leads Drop in,Sovereign Debt Risk
2010-10-11T11:18:29Z,Central Bank,Are Buying,Dollars
2010-10-11T11:20:06Z,Zimbabwe,’s Zisco,Herald Reports
2010-10-11T11:28:21Z,Cairn India,Selling,Bonds
2010-10-11T11:39:36Z,Nobel Winner Liu,'s Wife,Group
2010-10-11T11:43:34Z,Sugar Advances,in,London
2010-10-11T11:52:55Z,Agreement,in,Talks on Gas Supplies
2010-10-11T11:52:55Z,EU,Says,Poland Close to Agreement in Talks on Gas Supplies
2010-10-11T11:52:55Z,Poland,Very Close to,Agreement in Talks
2010-10-11T11:57:14Z,China,Cancels,Meeting With Norwegian Fishery Minister After Nobel for Liu
2010-10-11T12:00:00Z,U.S. Undersecretary Brainard,Urges,Cooperation
2010-10-11T12:01:23Z,Iveco Chief Executive Monferino,Appointed,Piedmont Region Health Director
2010-10-11T12:15:00Z,2 %,in,Third Quarter
2010-10-11T12:15:00Z,Gates,Says,U.S.
2010-10-11T12:15:00Z,Hydro,Output as,Gas Drops
2010-10-11T12:15:00Z,U.S.,Committed to,Asian Security
2010-10-11T12:15:40Z,Kenya Airways,Are,Active
2010-10-11T12:16:20Z,Mercedes-Benz,Says,September China Sales Rise
2010-10-11T12:23:37Z,Stolichnaya,Bank of,America
2010-10-11T12:27:23Z,Battersea Power Station Owner,Gets,Payment Deferral
2010-10-11T12:34:20Z,About Fed Policy,Weighs on,Dollar
2010-10-11T12:34:20Z,Fed Policy,Weighs on,Dollar
2010-10-11T12:37:36Z,Reliance Communications May Borrow,Sell,Bonds
2010-10-11T12:42:26Z,Egypt 's Garranah,Sees Than,More 17 % Increase in Tourism Revenue Year
2010-10-11T12:56:47Z,Ukraine Rating Outlook,Raised to,Stable
2010-10-11T13:09:39Z,Aid Worker,Held,Hostage
2010-10-11T13:14:23Z,Picard Buyouts,Spur,LBOs Funded With Loan
2010-10-11T13:15:15Z,Berlusconi Will,Need,Few Days Rest Following Surgery on Left
2010-10-11T13:15:18Z,Brazilian Economists,Raise,Up From 4.92 %
2010-10-11T13:15:18Z,Economists,Raise,2011 Inflation Forecast
2010-10-11T13:16:37Z,Brazilian Real,Strengthens,Commodity Prices Increase to Two-Year High
2010-10-11T13:16:37Z,Commodity Prices,Increase to,Two-Year High
2010-10-11T13:16:37Z,Real,Strengthens,Commodity Prices Increase to Two-Year High
2010-10-11T13:26:03Z,49th Test,Lifts,India
2010-10-11T13:26:03Z,49th Test 100,Lifts India to,435-5
2010-10-11T13:26:03Z,Tendulkar 's 49th Test,Lifts India in,Reply
2010-10-11T13:26:03Z,Tendulkar 's 49th Test 100,Lifts India in,Reply
2010-10-11T13:26:05Z,General Motors Sales,in,China
2010-10-11T13:26:05Z,General Motors Sales Rise,in,First Nine Months of Year
2010-10-11T13:27:00Z,SocGen Calls Claim Bank,Lied to,Defamatory
2010-10-11T13:32:42Z,Gymboree,Be,Bought by Bain Capital for About $ 1.8
2010-10-11T13:36:50Z,Microsoft,Unveils Phones in,Bid
2010-10-11T13:41:11Z,Novartis 's Afinitor,Slow,Form of Cancer
2010-10-11T13:42:32Z,British Airways Staff Cuts,Be,Blocked
2010-10-11T13:42:32Z,Cabin-Crew Union,Tells,Court
2010-10-11T13:47:39Z,13 Years,in,Cairo
2010-10-11T13:47:39Z,Olympic,Surges,Most in 13 Years
2010-10-11T13:53:41Z,Merck KGaA 's Serono Unit,Says,Primary Endpoint
2010-10-11T13:55:27Z,Prokhorov,Flies Nets for,Pep Talk on Ambitions
2010-10-11T13:59:43Z,Sarkozy,Faces,New Clash
2010-10-11T14:07:15Z,Africa,',New Gold Rush
2010-10-11T14:10:18Z,NATO,Endorses,Afghan Government 's Bid
2010-10-11T14:24:53Z,Sam Woo,Says,Substantial Holder
2010-10-11T14:30:56Z,Bulgarians Germany,Join,Schengen Zone
2010-10-11T14:41:12Z,Emerging-Market Stocks,Climb for,First Day
2010-10-11T14:50:28Z,Gain,in,Retail Sales
2010-10-11T14:50:28Z,Gerry Weber,Says,Company on Track Reach Targets
2010-10-11T15:04:58Z,Asian Citrus Will,Buy,Juice Maker BPG Food
2010-10-11T15:04:58Z,Citrus Will,Buy,Juice Maker BPG Food
2010-10-11T15:05:09Z,De Beers Diamond Trading Unit,in,Botswana
2010-10-11T15:06:06Z,Fuel,Shipped Overland as,Refineries Shut
2010-10-11T15:10:15Z,Records,Gains on,Deficit Reduction
2010-10-11T15:10:15Z,Stocks,Head for,Lira Gains on Deficit Reduction
2010-10-11T15:19:15Z,Israel 's TA-25 Index,Record on,Economic Growth
2010-10-11T15:26:47Z,Soybeans,Climb on,Brazil Supply
2010-10-11T15:33:58Z,General Motors ' Buick-GMC,Build,Brand Awareness
2010-10-11T15:48:20Z,Japan,of,Takeover Offer
2010-10-11T15:50:49Z,Carstens ' Reserve Accumulation Comment Signals Mexico,in,Currency War
2010-10-11T15:50:51Z,African Stocks,Climb For,Day
2010-10-11T15:50:51Z,South African Stocks,Climb For,Second Day
2010-10-11T15:50:51Z,Stocks,Climb For,Day
2010-10-11T15:58:14Z,Salzgitter,Shares of,Merck Decline
2010-10-11T16:06:30Z,Goldman Sachs,Raises,Price Target
2010-10-11T16:06:30Z,Nokia,Climbs in,Helsinki
2010-10-11T16:10:10Z,EasyJet,Settles Brand-Name Dispute With,Airline Founder Stelios
2010-10-11T16:11:25Z,Dollar,Euro as,Osborne Stokes BOE Easing Concern
2010-10-11T16:13:25Z,Petters Trustee,Sues,JPMorgan Chase
2010-10-11T16:29:04Z,Accused,Meeting With,Son
2010-10-11T16:29:04Z,Iran,Holds,2 Foreigners
2010-10-11T16:33:51Z,Impala Platinum,Pares,Gains
2010-10-11T16:35:26Z,Fiat,Appoints,Altavilla
2010-10-11T16:35:26Z,Monferino,Takes,Position
2010-10-11T16:47:30Z,Barnier,Says Talks,Continue
2010-10-11T16:56:45Z,Catastrophic Foreclosure Halt,Meets,White House Opposition
2010-10-11T17:01:00Z,Asian Security,Test,U.S. Approach
2010-10-11T17:01:00Z,China,Approach on,Disputes
2010-10-11T17:21:29Z,$ 22.3 Million,in,U.K. Trial Over Notes
2010-10-11T18:04:15Z,Eastern U.S. Temperatures May Drop Below,Normal in,Last Two Weeks
2010-10-11T18:07:12Z,Mexico,Expects,22.6 Million Foreign Visitors
2010-10-11T18:10:14Z,Car,Heads to,Record
2010-10-11T18:20:22Z,Gold,Resume,Slump
2010-10-11T18:28:18Z,Motorola Unit,Sues,Apple
2010-10-11T18:34:24Z,Eight Police Officers,in,Mexico 's Sinaloa State
2010-10-11T18:34:24Z,Mexico,in,Sinaloa State
2010-10-11T18:37:29Z,Arabian Inflation,Slows to,5.9 %
2010-10-11T18:37:29Z,Inflation,Slows on,Lower Food Prices
2010-10-11T18:37:29Z,Saudi Arabian Inflation,Slows to,5.9 %
2010-10-11T18:37:29Z,Saudi Inflation,Slows on,Lower Food Prices
2010-10-11T18:39:34Z,Hungary,Takes,Control
2010-10-11T18:42:19Z,Banks,Lean Against,Wind
2010-10-11T18:42:19Z,People 's Bank Chief Zhou,Says,Easier
2010-10-11T18:46:42Z,AIG,in,Talks
2010-10-11T19:09:19Z,Ba2 Credit Rating,Same as,Ford
2010-10-11T19:09:19Z,From Moody,’s Rating,Same as Ford
2010-10-11T19:09:19Z,GM,Gets,Same
2010-10-11T19:14:55Z,Reduced Spending,in,Latin America
2010-10-11T19:15:25Z,Thailand,'s Sugar,USDA Unit
2010-10-11T19:36:31Z,Calpers Cuts Ties,With,Pacific Corporate Group in Overhaul of Pension Fund
2010-10-11T19:36:31Z,Pacific Corporate Group,in,Overhaul of Pension Fund
2010-10-11T19:39:50Z,Venture Funding,Leaving,Scores of Walking Firms
2010-10-11T19:40:57Z,U.S. Stocks,Drop as,Financial Shares Lead Declines
2010-10-11T19:45:34Z,Week,in,Chicago
2010-10-11T19:51:04Z,Australia,'s Investment,Financial Review
2010-10-11T19:58:49Z,Carlyle,Name,Banks For Healthscope Hybrid Debt
2010-10-11T19:58:49Z,Name,Banks For,Healthscope Hybrid Debt
2010-10-11T20:00:00Z,Baby Boomers Pushing Surge,in,Therapies
2010-10-11T20:03:13Z,Most Popular NFL Team,in,Row
2010-10-11T20:03:39Z,Kraft Foods,Loses,Two More Former Cadbury Executives in Europe
2010-10-11T20:03:39Z,Two More Former Cadbury Executives,in,Europe
2010-10-11T20:07:50Z,U.S.,Is,Headed
2010-10-11T20:08:48Z,Stake,in,Texas Shale Gas Project
2010-10-11T20:12:07Z,Crude Oil Futures Decline,in,N.Y.
2010-10-11T20:12:07Z,N.Y.,in Decline,Yen
2010-10-11T20:16:04Z,Frontier May,Seek Marketing Deal With,Major Airline
2010-10-11T20:16:45Z,Geron,Starts,First Human Embryonic Stem-Cell Study
2010-10-11T20:17:11Z,J&J Drug,Extends Lives in,Study
2010-10-11T20:18:26Z,Corn,Jumps to,Two-Year High
2010-10-11T20:21:50Z,Stockland,in,Talks
2010-10-11T20:24:53Z,Packer,Lifts,50 %
2010-10-11T20:28:34Z,Cotton Futures Surge Exchange Limit,in,N.Y.
2010-10-11T20:31:07Z,Fed 's Yellen,Says,Low Rates May Prompt Risk-Taking
2010-10-11T20:32:25Z,Gymboree,Be,Bought by Bain Capital for About $ 1.8
2010-10-11T20:35:48Z,Lime Brokerage CEO Jeffrey Wecker Resigns,Replaced by,Co-Founder Brown
2010-10-11T20:39:43Z,GM,Defends,Volt
2010-10-11T20:47:19Z,Talks,With,Lenders
2010-10-11T20:47:19Z,Title Insurers,in,Talks With Lenders on Warranties
2010-10-11T20:50:15Z,Australia,'s Party,Newspoll
2010-10-11T21:00:01Z,Hariri Probe May Spark Violence,in,Lebanon
2010-10-11T21:02:21Z,U.S. Farmers,Deliver,Newly Harvested Crops
2010-10-11T21:13:15Z,Date,in,Air Products Dispute
2010-10-11T21:20:13Z,Mexico Peso Bond Yields,Drop to,Record Low
2010-10-11T21:30:00Z,Australia,in Investment,Fitch
2010-10-11T21:30:00Z,Gas Power Plant Investment,in,Australia
2010-10-11T21:34:20Z,Nike May,Become,Official NFL Apparel Maker Starting in 2012
2010-10-11T21:34:20Z,Official NFL Apparel Maker,Starting in,2012
2010-10-11T21:38:46Z,Drill,Cicsa ',Drill
2010-10-11T21:38:47Z,New Zealand,'s Slow,Fragile
2010-10-11T21:43:38Z,New Zealand 's Dollar,Weakens,Bollard Says
2010-10-11T22:01:00Z,Faster-Acting Stimulus Such,Ivanovitch 's,MSI
2010-10-11T22:21:12Z,Wal-Mart de Mexico Profit,Rises in,Third Quarter
2010-10-11T22:43:22Z,Hedge Funds,Pulled,Highest Level in Six Months
2010-10-11T22:43:22Z,Highest Level,in,Six Months
2010-10-11T22:44:13Z,200 Billion Yuan,Loans by,China 's 4 Biggest Banks
2010-10-11T22:44:13Z,China,by,4 Biggest Banks
2010-10-11T22:47:07Z,Hines Group,Wins California State Office Properties With,$ 2.33 Billion Bid
2010-10-11T23:00:01Z,Artist,Fills Tate With,100 Million Seeds
2010-10-11T23:00:01Z,Chinese Artist,Fills Tate With,100 Million Seeds
2010-10-11T23:00:01Z,Exxon,Risk From,State Curbs
2010-10-11T23:00:01Z,John Lennon ’s Boozy Pain,Revealed on,New CDs
2010-10-11T23:00:01Z,Schwarzman,Finds,LBO Gold Mine
2010-10-11T23:07:53Z,Most,Among Bartz,Proxy Advisory Firm
2010-10-11T23:14:29Z,Soybeans,in,Chicago Advance
2010-10-11T23:15:10Z,California Tax Revenue,Beats,Schwarzenegger Estimate
2010-10-11T23:21:52Z,China Needs,Writes in,Daily
2010-10-11T23:21:52Z,Researcher,Writes in,Daily
2010-10-11T23:27:49Z,Big Problems,in,Property Insurers Management
2010-10-11T23:27:49Z,China,Finds,Big Problems in Property Insurers Management
2010-10-11T23:30:25Z,GD Midea Electric,Says,Net Income for Nine Month May Much
2010-10-11T23:41:35Z,Australian Stocks,Decline on,Commodities Prices
2010-10-11T23:41:35Z,Stocks,Decline on,Commodities Prices
2010-10-11T23:42:07Z,Japan Ready,Take,Bold Action
2010-10-11T23:42:07Z,Noda,Says,Japan Ready
2010-10-12T00:27:00Z,Cairn Energy,Says,Delay in India
2010-10-12T00:27:00Z,Delay,in,Vedanta Deal May Deter Oil Exploration
2010-10-12T01:33:02Z,Fed,With,Help
2010-10-12T01:33:02Z,Goldman,Says U.S. to,Skirt Recession With Fed 's Help
2010-10-12T01:33:02Z,Skirt Recession,With,Fed 's Help
2010-10-12T01:49:04Z,Surplus,Poised to,Cap Biggest Quarter
2010-10-12T05:43:18Z,Wen Fighting Prices,Converges With,Obama
2010-10-12T05:49:28Z,Combet,Says,Australian Government
2010-10-12T06:26:09Z,Crude Oil Futures Decline,in,N.Y.
2010-10-12T06:26:09Z,N.Y.,in Decline,Yen
2010-10-12T06:49:56Z,Japan,'s Rise,Deflation Prospects
2010-10-12T06:49:56Z,Second Day,for Rise,Deflation Prospects
2010-10-12T07:44:01Z,Hong Kong,Boosts,Fish Ball ' Wages
2010-10-12T09:51:24Z,French Unions,Threaten,Open-Ended Strikes Over Pensions
2010-10-12T09:51:24Z,Unions,Threaten,Open-Ended Strikes
2010-10-12T10:14:09Z,Borrowing Costs,Drop at,Sale
2010-10-12T10:14:09Z,Greek Borrowing Costs,Drop After,IMF Offer
2010-10-12T11:18:56Z,Israel Building Freeze Terms,Rejected by,Palestinians
2010-10-12T11:34:12Z,Court,Considers,Ownership
2010-10-12T12:22:43Z,Faults Hurd,in,Letter
2010-10-12T12:22:43Z,HP,’s Apotheker,Faults Hurd in Letter
2010-10-12T12:22:43Z,HP ’s Lane Defends New CEO Apotheker,Hurd in,Letter
2010-10-12T12:54:10Z,Options Show No Black Swan,in,Emerging Markets
2010-10-12T14:08:38Z,Scotland 's Priciest Home,Gets Cheaper After,Second Cut
2010-10-12T16:31:51Z,Chile,Makes,Final Preparations
2010-10-12T16:31:54Z,Loan Issues,Narrowing,Spread
2010-10-12T16:52:16Z,Scottish Wind May Gain,in,Overdue Cost Review
2010-10-13T00:50:59Z,$ 805 Million,in,Bonds to Fund Deals
