2010-10-17T01:27:34Z,Dexus Fund,Buys,Flags Million Share Sale
2010-10-17T01:30:35Z,Rangers Beat Yankees 7-2,Evening Baseball 's AL Championship Series at,1-1
2010-10-17T01:59:10Z,China,'s Market,Gao
2010-10-17T03:02:48Z,Coal Mine Accident,Kills,Xinhua Reports
2010-10-17T04:00:33Z,Production,Driving,U.S. Recovery
2010-10-17T04:22:07Z,Goldman Sachs,Is in,Stage of Study on DFM
2010-10-17T04:29:42Z,Texas,Beats,No. 5 Nebraska 20-13
2010-10-17T05:17:41Z,Yankees,Lose to,Rangers
2010-10-17T05:31:39Z,Study Social,Effects of,Murray Basin Plan
2010-10-17T07:16:36Z,First Trading Day,in,Doha
2010-10-17T07:36:02Z,Contact,Renewed With,Negotiator on Hamas Prisoner Swap
2010-10-17T07:36:02Z,Netanyahu,Says,Contact Renewed With Negotiator on Hamas Prisoner Swap
2010-10-17T07:41:07Z,Guardian,Studying,$ 3.2 Billion Sale of Auto Trader
2010-10-17T08:07:17Z,$ 175 Million,in,Share Sale
2010-10-17T08:07:17Z,Gulf Keystone,Raises,Million in Share Sale
2010-10-17T11:14:51Z,It,Preparing,Rocket
2010-10-17T11:21:20Z,India-Australia One-Day Match,Is Abandoned Because of,Rain in Kochi
2010-10-17T11:21:20Z,Rain,in,Kochi
2010-10-17T11:28:51Z,Israel Economy,Grows as,Exports
2010-10-17T11:40:09Z,Miss Estimates,Retreat in,Crude
2010-10-17T11:40:09Z,Retreat,in,Crude
2010-10-17T11:57:25Z,Amer Group,in,Egypt
2010-10-17T11:57:25Z,Arabtec Unit,Wins,$ 53 Million Property Contract
2010-10-17T12:00:00Z,Blindness,Slowed by,Study
2010-10-17T12:39:33Z,Andy Murray,Defeats Roger Federer in,Shanghai Masters Tennis
2010-10-17T13:11:09Z,Etihad Etisalat Third-Quarter Net,Jumps,41 %
2010-10-17T15:57:52Z,2010 Revenue,Falling in,U.A.E.
2010-10-17T15:57:52Z,Arabtec,Sees,2010 Revenue
2010-10-17T16:01:00Z,Hong Kong,Losing to,Shanghai Means Goodbye
2010-10-17T16:01:00Z,Second Half,From Dividend,Prospectus
2010-10-17T16:59:45Z,FIFA,Investigating,Vote-Selling Claims Linked
2010-10-17T17:15:09Z,Colorado,'s Bennet,Buck Trade Allegations Over Rape Case
2010-10-17T17:15:09Z,Colorado 's Senate Candidates Bennet,Allegations Over,Rape Case
2010-10-17T17:38:05Z,Green,Wins in,Portugal
2010-10-17T17:48:20Z,Possible Terror Attack,of Warns,France
2010-10-17T17:48:49Z,FDIC Chairwoman Bair,Opposes National Foreclosure Freeze Without,Reviews
2010-10-17T17:59:52Z,News Corp.,Talks,Monday
2010-10-17T18:39:26Z,Biarritz Win,in,European Rugby 's Heineken Cup
2010-10-17T18:39:26Z,European Rugby,in,Heineken Cup
2010-10-17T18:39:26Z,Perpignan,Win in,European Rugby 's Heineken Cup
2010-10-17T19:00:00Z,We,Will Pay for,Zero Rates
2010-10-17T19:04:17Z,Brazil,Party ',Silva Will Stay`Independent in Presidential Runoff
2010-10-17T19:04:17Z,Brazil 's Green Party,Stay`Independent in,Presidential Runoff
2010-10-17T19:04:17Z,Silva Will Stay`Independent,in,Presidential Runoff
2010-10-17T19:54:53Z,De Wever,End,Belgian Political Stalemate
2010-10-17T20:00:54Z,Roethlisberger,on,Return to NFL
2010-10-17T20:01:01Z,King 's Battle,With,Clerics Dictates Fate of Saudi 's Oil Economy
2010-10-17T20:01:01Z,Saudi,of,Oil Economy
2010-10-17T20:12:32Z,Detroit Lions,in,NFL
2010-10-17T20:12:32Z,New York Giants End 20-Year,Wait Over,Detroit Lions
2010-10-17T20:14:34Z,Rinehart,in,Talks
2010-10-17T20:42:44Z,News Corp.,Progress on,Dispute
2010-10-17T20:42:44Z,Talks,Resume,Monday
2010-10-17T21:17:57Z,Hitachi,With,Johnson Controls on Battery Development
2010-10-17T21:44:09Z,Japan,Plan for,Security Pact
2010-10-17T21:49:26Z,New Zealand 's Third-Quarter Consumer Prices,Rise,1.1 %
2010-10-17T21:49:54Z,Inflation Report,Meets,Estimates
2010-10-17T21:49:54Z,New Zealand 's Dollar,Is,Little Changed
2010-10-17T22:00:01Z,ECB 's Trichet,End,Bond Purchase Program
2010-10-17T22:01:00Z,AC Milan,Inter to,Top Italy 's Serie A
2010-10-17T22:01:00Z,Top Italy,to,Serie A
2010-10-17T22:24:41Z,Covepoint 's Ko,Reaps,Gain on Emerging Currencies
2010-10-17T22:41:51Z,Sigma Pharma,Extends Exclusivity Pact With,Aspen Pharmacare
2010-10-17T22:48:28Z,China Testing Political,Reform in,City of Shenzhen
2010-10-17T22:48:28Z,Social Reform,in,City of Shenzhen
2010-10-17T22:55:56Z,Aussie-Dollar Parity March,Set on,Export Drag
2010-10-17T23:00:00Z,Aliens,Get,Brushoff
2010-10-17T23:00:01Z,AK-47,Gave,Vodka
2010-10-17T23:00:01Z,Ai Weiwei,Takes,China Battle
2010-10-17T23:00:01Z,Berlin,Shows,Toy Soldiers
2010-10-17T23:00:23Z,New Zealand 's Third-Quarter Consumer Prices,Rise,1.1 %
2010-10-17T23:01:00Z,Manchester City,Goes,Second
2010-10-17T23:01:00Z,South Korea No. 1,in,Cisco Broadband Rankings
2010-10-17T23:01:00Z,U.K.,With,Two Aircraft Carriers
2010-10-17T23:01:00Z,U.S.,Ranks,South Korea No. 1 in Cisco Broadband Rankings
2010-10-17T23:19:40Z,Banco Bilbao May Offer Car Financing,in,China
2010-10-17T23:26:21Z,Business News,Says in,November
2010-10-17T23:26:21Z,Disney Shanghai Park,Says in,November
2010-10-17T23:30:30Z,New Zealand Opposition Party,Urges,Tighter Foreign Investment Restrictions
2010-10-17T23:32:39Z,Australian Stocks,Decline While,Japanese Futures Advance
2010-10-17T23:32:39Z,Stocks,Decline on,Commodities
2010-10-18T01:41:56Z,David Jones Ex-CEO McInnes,Settles,Harassment Charges
2010-10-18T01:55:43Z,Kepco,Are,Preferred Bidders
2010-10-18T04:12:50Z,Rutgers Lineman LeGrand,Is,Paralyzed
2010-10-18T04:19:56Z,Treasurer Swan,Rejects Intervention in,Australian Currency
2010-10-18T05:06:32Z,Jets Rally,Pushing,NFL
2010-10-18T05:06:32Z,NFL,Winning,Streak
2010-10-18T07:09:46Z,Yen,on,Strength
2010-10-18T10:09:56Z,Philippines Issues Top Storm Alert,Brace for,Typhoon
2010-10-18T10:10:53Z,Eurostar,Services on,Belgian Strike
2010-10-18T10:20:44Z,Rupee Bond Yields,Are,Poised
2010-10-18T12:26:11Z,He,Tackles,U.K. Welfare State
2010-10-18T15:45:28Z,Top Film,With,$ 50 Million
2010-10-18T16:36:29Z,BHP,Venture as,Regulators
2010-10-18T17:46:41Z,Bondholders,Losing to,Shareholders
2010-10-18T17:46:41Z,Shareholders,With,Mergers
2010-10-18T20:12:10Z,Contractors,See,Election Peril
2010-10-18T20:12:10Z,Lockheed-to-Tenet Tumble Contractors,See,Election Peril
2010-10-18T20:12:10Z,Lockheed-to-Tenet Tumble Showing Contractors,See,Election Peril
2010-10-18T20:12:10Z,Showing Contractors,See,Election Peril
2010-10-18T20:35:35Z,Crop Surge,Drives U.S. Export Boom as,Obama Channels Kansas Corn
