2010-12-22T00:00:01Z,He Plans,in,April
2010-12-22T00:00:01Z,Man,in,Iron Mask Haunt Bastille Show
2010-12-22T00:00:01Z,Marquis de Sade,Man in,Iron Mask Haunt Bastille Show
2010-12-22T00:01:00Z,Global Regulators,Dilute,New Capital Rules
2010-12-22T00:01:00Z,Secure Yields,Say Politics Top Economy in,2011
2010-12-22T00:01:00Z,U.K. Housing Shortage Will Limit Price Drop,in,2011
2010-12-22T00:01:01Z,King George VI Chase,After Retire,Owner
2010-12-22T00:05:04Z,Wheat Crop Forecast,Is Reduced by,New South Wales
2010-12-22T00:13:16Z,Henderson Cuts Height,Says After,Objection
2010-12-22T00:13:16Z,Ming Pao,Says After,Objection
2010-12-22T00:52:32Z,Chicago Rallies,in Corn,Argentina
2010-12-22T00:52:32Z,Corn,in,Chicago Rallies
2010-12-22T00:52:32Z,Six-Week High,to Corn,Argentina
2010-12-22T00:52:32Z,Weather,on Corn,Argentina
2010-12-22T01:07:02Z,Copper Advances,Climbs,Record in New York on Outlook
2010-12-22T01:14:59Z,Euro,Strengthens Against,Dollar
2010-12-22T01:14:59Z,Euro Strengthens,Was,Excessive
2010-12-22T01:21:29Z,Worst Rain,Snow of,California Winter Storm
2010-12-22T01:48:06Z,China,'s Rise,Oil Price Increase
2010-12-22T01:56:48Z,Australian Coal Mines Will Force Gains,in,Global Prices
2010-12-22T01:59:09Z,Copper Futures Decline,in,Four
2010-12-22T02:00:00Z,Meredith Whitney,Overreaches With,Muni Meltdown Call
2010-12-22T02:00:00Z,South Korea,Intends to,Overseas Crude Oil
2010-12-22T02:02:17Z,United Micro 's Venture Unit Invests,in,Smart-Grid Operator Trilliant
2010-12-22T02:05:40Z,1.5 %,in,2011
2010-12-22T02:06:46Z,Treasuries ' Worst Drop,in,2010 Driven by Central Bank Sales
2010-12-22T02:24:17Z,Japan 's Copper-Alloy Product Output,Extends,Monthly Rise
2010-12-22T02:39:09Z,Australia Regulator,Sues,Bank of Queensland
2010-12-22T02:39:09Z,Macquarie,Bank Over,Storm Collapse
2010-12-22T03:30:00Z,De Niro,Slum in,Ghastly
2010-12-22T03:30:00Z,Hoffman Slum,in,Ghastly
2010-12-22T03:46:23Z,Tata Consultancy Signs Multi-Year Services Accord,With,Hilton Worldwide
2010-12-22T03:46:41Z,China,Spend,Trillion
2010-12-22T03:52:18Z,Japanese Stocks,Increase on,S&P Recovery
2010-12-22T03:52:18Z,Stocks,Increase on,Commodity Prices
2010-12-22T04:03:47Z,It,Blames on,Kan Spending
2010-12-22T04:07:07Z,Investment Budget,Prices in,2011
2010-12-22T04:07:07Z,PTT Aromatics,Reviewing,Investment Budget
2010-12-22T04:07:07Z,Projects Higher Prices,in,2011
2010-12-22T04:27:15Z,Gold May,Climb After,Record
2010-12-22T05:00:00Z,Toyota,Introduces New Vitz Car,Market Shrinks
2010-12-22T05:00:05Z,Telus May,Sell Commercial Paper,Benefit From Rates
2010-12-22T05:00:10Z,U.S. Population Shift,Accelerates to,West States
2010-12-22T05:00:12Z,India 's GDP Growth May,Lure,IDBI Federal
2010-12-22T05:01:00Z,Medicaid,Pushes,U.S. States
2010-12-22T05:01:01Z,Sugar Beet Crop ’s Destruction,Put by,Court
2010-12-22T05:01:09Z,Market,Struggled,Recover
2010-12-22T05:04:01Z,U.S. Stocks,Erasing,Loss
2010-12-22T05:06:24Z,China,’,Risk-Weighting Rule May Cut Banks
2010-12-22T05:06:43Z,Asian Stocks,Rise to,Two-Year Highs
2010-12-22T05:22:00Z,British Supermarkets,Buying,Less African Wine
2010-12-22T05:22:00Z,Supermarkets,Buying,Less African Wine
2010-12-22T05:43:59Z,Pakistan,of Bank,Raza
2010-12-22T05:54:19Z,Song Da,Starts,Work
2010-12-22T05:54:19Z,Song Da 5,Starts,Work
2010-12-22T05:56:29Z,Supply Xstrata,to,Mount Isa Operations
2010-12-22T06:08:11Z,Asian Stock Rally,Reduces,Demand for Safety
2010-12-22T06:08:43Z,Kenya Police,Name,Main Suspect
2010-12-22T06:08:43Z,Main Suspect,in,Nairobi Bus Terminal Blast Investigation
2010-12-22T06:09:27Z,$ 3.77 Billion,in,Australia Iron Ore Venture
2010-12-22T06:09:27Z,Mitsui Will,Invest,$ 3.77 Billion in Australia Iron Ore Venture
2010-12-22T06:19:03Z,ASIC,Sues,Macquarie
2010-12-22T06:19:03Z,Macquarie,Bank Over,Storm Collapse
2010-12-22T06:57:42Z,South Korea,Prepares for,Military Exercises
2010-12-22T07:06:01Z,South African Reserve Bank 's Indicator,Dropped in,October
2010-12-22T07:06:01Z,South African Reserve Bank 's Leading Indicator,Dropped in,October
2010-12-22T07:37:02Z,La Nina Event,Is,Peaking
2010-12-22T07:44:06Z,Saudi Arabia 's King Abdullah,Leaves,New York Hospital
2010-12-22T08:08:54Z,Cheesegrater Skyscraper Tower,in,London
2010-12-22T08:15:21Z,Deutsche Post Signs Agreement,With,Banks
2010-12-22T08:15:41Z,Oil,Rises for,Day
2010-12-22T08:16:24Z,Etisalat,Mobily Among,7 Firms
2010-12-22T08:25:06Z,Its Stake,in,720
2010-12-22T08:30:00Z,Italy Consumer Confidence,Rises to,High
2010-12-22T08:33:20Z,South African Wheat Declines,in,Johannesburg
2010-12-22T08:35:46Z,Fuel-Oil Loss,in,Asia
2010-12-22T08:40:29Z,Five Months,in,Tokyo
2010-12-22T08:49:16Z,ICAP,Loses,Bid
2010-12-22T09:01:00Z,Nigerian Senate,Approves,Plan
2010-12-22T09:01:00Z,Senate,Approves,Plan
2010-12-22T09:35:52Z,Its First Syndicated Loan,With,$ 2.6 Billion Agreement
2010-12-22T09:42:08Z,Its 25-Megawatt Solar Plant,in,India
2010-12-22T09:42:08Z,Tata Power,Sell Power From,Its Solar Plant in India
2010-12-22T09:51:19Z,UN Carbon Regulator,Sees,Pace
2010-12-22T09:56:08Z,Facebook ’s Zuckerberg Reviews Sina Microblog,in,China
2010-12-22T10:19:08Z,Vodacom Unit,Explore,Options For Congolese Operation
2010-12-22T10:23:48Z,Cause Harm,With,Policy
2010-12-22T10:49:13Z,Asian Stocks,Advance on,Commodity Prices
2010-12-22T10:49:13Z,Stocks,Advance on,Commodity Prices
2010-12-22T10:51:47Z,English Soccer,of,F.A.
2010-12-22T11:01:15Z,$ 196.8 Billion,Meet,Year-End Needs
2010-12-22T11:01:15Z,ECB,Lends,$ 196.8 Billion
2010-12-22T11:02:09Z,Manchester City May,Spend,$ 77 Million
2010-12-22T11:08:58Z,Mediaset,Wins,Free-To-Air Broadcasting Rights
2010-12-22T11:09:04Z,2022 Soccer World Cup,in,Qatar Will
2010-12-22T11:18:27Z,Cable 's Survival May Weaken Liberal Democrats,in,Cameron 's U.K. Coalition
2010-12-22T11:18:27Z,Cameron,in,U.K. Coalition
2010-12-22T11:24:01Z,Bank,Splits,Three Ways
2010-12-22T11:27:13Z,Loans,Plows,Surge
2010-12-22T11:28:16Z,Kuwaiti Court,Allows,Etisalat 's Diligence for Zain Stake
2010-12-22T11:32:02Z,S&P 500,Vulnerable for,Setback
2010-12-22T11:34:58Z,Nigeria,Evacuates,Diplomats ' Families From Ivory Coast
2010-12-22T11:47:03Z,David Bernstein,Is,Named
2010-12-22T11:47:03Z,English Soccer,of,Ruling Body
2010-12-22T11:50:10Z,Turkey ’s $ 1.4 Billion Hotel,Has,Power Cut Over Unpaid Bills
2010-12-22T11:50:10Z,Turkey ’s $ Billion Hotel,Has,Power Cut
2010-12-22T11:50:10Z,Turkey ’s Billion Hotel,Has,Power Cut Over Unpaid Bills
2010-12-22T12:02:18Z,Fitch,Puts Rating on,Watch
2010-12-22T12:02:18Z,Greece,Leads,Increase
2010-12-22T12:02:18Z,Increase,in,Sovereign Debt Risk
2010-12-22T12:03:53Z,Vodacom May,Resolve,Funding Dispute
2010-12-22T12:32:27Z,Gold,Climbs for,Fourth Day
2010-12-22T12:32:27Z,IMF,Completes,Sale of Reserves
2010-12-22T12:35:31Z,Geely Holding,for,Volvo Cars
2010-12-22T12:43:37Z,FTN Cocoa,Retreats,Most
2010-12-22T12:46:22Z,Czech Policy Makers,Keep Interest Rates,Hold
2010-12-22T12:46:22Z,Inflation,Matches,Goal
2010-12-22T12:54:28Z,Euro Member Exit Probability,in,2011
2010-12-22T12:54:28Z,IHS,Says,EU Steps In
2010-12-22T13:11:59Z,GKN Shares Gain,in,London
2010-12-22T13:11:59Z,Holdings,Gain in,London
2010-12-22T13:25:54Z,Emerging-Market Stocks,Climb,Second Day on Oil
2010-12-22T13:35:46Z,U.S. Stock-Index Futures Fluctuate,Revised,Higher
2010-12-22T13:38:58Z,GE Alternative F-35 Engine,Included in,Stopgap Government Funding Measure
2010-12-22T13:40:01Z,Canadian Currency,Erases,Advance
2010-12-22T13:40:01Z,Currency,Erases,Advance
2010-12-22T13:45:26Z,Oil,Rises for,Day
2010-12-22T14:06:05Z,Stricter Biofuel Controls May,Be,Outlined by European Union in 2011
2010-12-22T14:11:05Z,Etisalat Egypt,Gets Billion Syndicated Loan for,Infrastructure Growth
2010-12-22T14:11:34Z,Enstar,Acquire,Hannover Re 's Clarendon Insurer
2010-12-22T14:12:15Z,Benefits,Add Million in,Revenue
2010-12-22T14:12:15Z,Marsh,Buys,Trion
2010-12-22T14:12:15Z,McLennan,Buys,Trion
2010-12-22T14:13:30Z,First Day,For Falls,Reversing Gains
2010-12-22T14:13:30Z,South Africa,'s Falls,Reversing Gains
2010-12-22T14:13:30Z,South Africa 's Benchmark Bond Falls,in,Four
2010-12-22T14:23:28Z,Spain Power Debt,Infects,Enel
2010-12-22T14:27:22Z,Vessel Traffic,is,Halted
2010-12-22T14:27:55Z,Agency Fund Request,Enforce,Dodd-Frank
2010-12-22T14:27:55Z,U.S. Congress,Blunts,Agency Fund Request
2010-12-22T14:46:44Z,Blackburn Rovers,Say Steve Kean Will Remain Manager Until,End
2010-12-22T14:47:02Z,Gold,Is,Little Changed
2010-12-22T15:00:00Z,Fed,Disclose,Payment Change
2010-12-22T15:25:33Z,Home Prices,in,U.S. Fell 3.4 %
2010-12-22T15:25:33Z,U.S. Fell 3.4 %,in,October
2010-12-22T15:27:10Z,African Bonds Yields,Fall to,1 1/2 Week Low on Rate Bets
2010-12-22T15:27:10Z,Bonds Yields,Fall to,1 1/2 Week Low
2010-12-22T15:27:10Z,South African Bonds Yields,Fall to,1 1/2 Week Low
2010-12-22T15:27:12Z,Ethiopia,Allow,First Non-Government TV
2010-12-22T15:32:10Z,Discretion,Grows,Costly for U.S. Consumer Stocks
2010-12-22T15:45:16Z,Czech Republic,Hold Interest Rates,Poland
2010-12-22T15:48:49Z,Coffee Futures Drop,Erasing Advance to,13-Year High
2010-12-22T15:50:46Z,New World Resources,Has Longest Rally as,Coal Price Advances
2010-12-22T16:00:00Z,Asia Buyout Firms,Sell,Faster as Competition
2010-12-22T16:02:53Z,World Bank,Freezes Loans to,Zoellick
2010-12-22T16:12:01Z,Canada,'s Stimulus,IMF
2010-12-22T16:14:51Z,More Prison Time,in,Trading Case
2010-12-22T16:16:56Z,Beatles ' Abbey Road Crosswalk,Listed by,U.K. Government
2010-12-22T16:21:37Z,Lawmakers,Call on,GAO Report
2010-12-22T16:33:04Z,Treasuries,Decline,U.S. Economy Expands
2010-12-22T16:33:04Z,U.S. Economy,Existing,Home Sales
2010-12-22T16:34:00Z,U.K. Pound Drops Versus Euro,Grew at,Pace
2010-12-22T16:38:07Z,Natural Gas Futures Fluctuate,in,New York
2010-12-22T16:41:27Z,Bond Yield,Is Near,Two-Week Low
2010-12-22T16:41:27Z,ECB,Lends to,Banks
2010-12-22T16:41:27Z,German Bond Yield,Is,ECB Lends to Banks
2010-12-22T16:41:27Z,German Two-Year Bond Yield,Is,ECB Lends
2010-12-22T16:41:27Z,Two-Year Bond Yield,Is,ECB Lends to Banks
2010-12-22T16:43:03Z,Ex-UBS Banker Poteroba Pleads Guilty,in,New York
2010-12-22T16:44:25Z,Central Banker Belka,Says,Higher Risk May Justify Polish Rate Increase
2010-12-22T16:49:44Z,Bloomberg,Sues,ECB
2010-12-22T16:51:20Z,Telus,Weighs Commercial-Paper Wager on,Interest Rates
2010-12-22T16:51:43Z,Copper,Fluctuates as,Home Sales Trail Forecasts
2010-12-22T16:59:33Z,Buyers,Seek,Yield
2010-12-22T17:11:41Z,European Stocks,Climb for,Third Day
2010-12-22T17:11:41Z,Stocks,Climb for,Third Day
2010-12-22T17:15:22Z,Emerging-Market Stocks,Climb,Second Day on Oil
2010-12-22T17:18:10Z,Lebedev,With,Moscow-Based Newspaper Novaya Gazeta
2010-12-22T17:18:10Z,WikiLeaks,Joins Forces With,Lebedev 's Moscow-Based Newspaper Novaya Gazeta
2010-12-22T17:21:05Z,Yields,Hit,Four-Month High
2010-12-22T17:21:48Z,Conservative Hunt,Is Given,Review
2010-12-22T17:21:48Z,Hunt,Is Given,Review
2010-12-22T17:28:57Z,U.S. Treasury 's Home Loan Modifications,Pass,Short
2010-12-22T17:31:09Z,Gays,in,Military
2010-12-22T17:34:06Z,Brown-Forman May,Sell Fetzer Brand in,Review
2010-12-22T17:38:08Z,Skype,Says,Users
2010-12-22T17:47:30Z,Shell,Buys,Europe Jet Fuel Barge
2010-12-22T17:48:04Z,Economy,in,U.S.
2010-12-22T17:48:04Z,Price Rise,Is,Slowest
2010-12-22T17:53:45Z,Argentina,'s Aims,Lorenzino
2010-12-22T17:57:14Z,It,Made Offer,Play in Brazil
2010-12-22T17:58:30Z,CEO Bates Targets New Products,Partnerships For,Growth
2010-12-22T17:59:50Z,Plosser,Says,Economy May Grow Next Year
2010-12-22T18:03:41Z,Biogen,Seek,Permission
2010-12-22T18:03:41Z,Tysabri,to,Label
2010-12-22T18:08:00Z,Tampa Bay Rays,Hire,Ex-Yankees
2010-12-22T18:20:45Z,U.S. Tennis Player Wayne Odesnik,Has,12 Months
2010-12-22T18:24:30Z,Saab,Venture for,Development of Auto Transmission Systems
2010-12-22T18:30:02Z,Bats,in,Exclusive Talks With Chi-X Europe
2010-12-22T18:30:02Z,Exclusive Talks,With,Chi-X Europe
2010-12-22T18:36:38Z,Corporate Yield Gap,Rises Since,2007
2010-12-22T18:36:38Z,Yield Gap,Rises on,Loan Curbs
2010-12-22T19:14:02Z,Canadian Stocks,Fluctuate as,Silver Wheaton Decline
2010-12-22T19:14:02Z,Stocks,Fluctuate as,Barrick
2010-12-22T19:23:41Z,Ex-UBS Banker Gadola Pleads Guilty,Hide,Assets
2010-12-22T19:30:33Z,JPMorgan,Pay Million to,Muni Fund
2010-12-22T20:04:29Z,Natural Gas Futures Advance,in,New York
2010-12-22T20:34:19Z,Continental,Combined,Fines
2010-12-22T20:38:13Z,Most Money,in,Two Years
2010-12-22T20:41:03Z,Bernanke,Backs,Moody 's Critic
2010-12-22T20:50:20Z,Cattle,Rise on,Signs of Increased U.S. Demand for Beef
2010-12-22T20:53:40Z,Charlotte Bobcats,Meeting With,Jordan
2010-12-22T20:54:55Z,Oil,Rises to,Two-Year High
2010-12-22T20:54:55Z,U.S. Inventories,Drop,More Than Forecast
2010-12-22T21:01:00Z,Kuwaiti Government,Meeting,Strongest Challenge
2010-12-22T21:06:36Z,Abbott Labs,Recalls,359 Million Glucose Test Strips
2010-12-22T21:07:40Z,Ukraine,Gets,$ 1.5 Billion
2010-12-22T21:08:00Z,Motorola,Make,Content Portable
2010-12-22T21:10:03Z,IBM,Creates,Cloud-Computing System
2010-12-22T21:11:08Z,Wheat,Climbs,May Gain
2010-12-22T21:11:43Z,Walgreen Profit,Exceeding,Estimates
2010-12-22T21:13:47Z,Tanker Traffic,Is,Halted
2010-12-22T21:23:48Z,Stocks,in,U.S.
2010-12-22T21:30:26Z,Google,Completes,Purchase New York Office Building
2010-12-22T21:30:26Z,Purchase New York Office Building,in,Manhattan Expansion
2010-12-22T21:38:58Z,Airgas Rejects Air Products,',Final $ 5.89 Billion Takeover Bid as Too Low
2010-12-22T21:39:55Z,Jacobs Engineering,Buying,Aker Unit
2010-12-22T21:48:17Z,Hancock,Expand,Banking
2010-12-22T21:56:35Z,Executive,Pay,Plan Changes
2010-12-22T21:56:35Z,Office Depot,Surges on,Buyout Speculation
2010-12-22T21:59:30Z,California Storms May Rot Strawberries,Planting by,Month
2010-12-22T22:00:00Z,Pfizer,Beats,Sanofi Drug
2010-12-22T22:04:14Z,Japan,of,Bonin Islands
2010-12-22T22:04:37Z,U.S. Economic Pace,Trails,Forecasts
2010-12-22T22:08:22Z,VIX,Decreases to,3-Year Low
2010-12-22T22:10:09Z,Canada 's 10-Year Government Securities Decline,in,Six Days
2010-12-22T22:10:31Z,S&P,Revises Slovenia Outlook From,Stable
2010-12-22T22:10:31Z,Slovenia Outlook,Citing,Budget Policy
2010-12-22T22:14:34Z,Treasuries,Decline,U.S. Economy Expands
2010-12-22T22:14:34Z,U.S. Economy,Existing,Home Sales
2010-12-22T22:22:25Z,Credit-Default Swaps,Come,Circle
2010-12-22T22:29:45Z,Medications,Alleges in,Lawsuit
2010-12-22T22:32:57Z,Boeing-EADS Tanker Data Gaffe,Prompts,Senate Inquiry
2010-12-22T22:39:41Z,Bed Bath,Boosts,2010 Earnings
2010-12-22T22:39:41Z,Beyond,Boosts,2010 Earnings
2010-12-22T22:46:21Z,Murata,Loses Patent Ruling Over,Samsung Electro 's Mobile-Phone Components
2010-12-22T22:46:21Z,Samsung Electro,Over,Mobile-Phone Components
2010-12-22T22:48:09Z,Potential Carcinogen Found,in,U.S. Tap Water
2010-12-22T23:28:32Z,HCA,Refiles,Billion IPO Plan
2010-12-22T23:46:55Z,Judge,to,Finding on Postnuptial Agreement
2010-12-23T00:01:00Z,Purchase Advent,to,Takko
2010-12-23T00:04:17Z,Earthquake,Undermines,Growth
2010-12-23T01:05:42Z,California,Declares State as,Winds Batter State
2010-12-23T02:07:16Z,Concern Europe,on,Banks
2010-12-23T02:07:16Z,Euro Trades,Need,More Funds
2010-12-23T02:36:29Z,China Merchants Seeks Overseas Ports,in,2010
2010-12-23T04:47:07Z,Australia,Has,Record Quarter
2010-12-23T05:00:02Z,Charlotte Bobcats,Coach Following,9-19 NBA Star
2010-12-23T05:00:02Z,Larry Brown,Steps,Down
2010-12-23T05:01:00Z,Obama,Cites,Season
2010-12-23T05:01:01Z,Bank,in,Court
2010-12-23T05:01:01Z,Court,Told by,Attorney
2010-12-23T05:01:01Z,Ex-UBS Executives,Put,Spotlight
2010-12-23T05:01:01Z,Royal DSM,Before,Deal
2010-12-23T05:01:01Z,SEC,Sues,Martek Biosciences Shares Buyers
2010-12-23T05:01:01Z,Spotlight,Bank in,Court
2010-12-23T05:01:19Z,Bank,Loses,Bid
2010-12-23T05:01:19Z,MBIA,Using,Statistics
2010-12-23T05:01:19Z,Statistics,in,Fraud Lawsuit
2010-12-23T05:01:19Z,Using,Statistics in,Fraud Lawsuit
2010-12-23T05:37:06Z,Johannesburg,on,Bourse
2010-12-23T05:37:06Z,Platmin May,Move in,Early Trading
2010-12-23T06:15:58Z,Ex-Stark Managers ' Hedge Fund,Grows,14-Fold
2010-12-23T07:17:26Z,Billionaire Ambani,Borrows With,Local Rates Surging
2010-12-23T09:14:23Z,Old Mutual,Climbs as,ARM Slides
2010-12-23T10:49:47Z,Greek Parliament,Approves,$ 18 Billion Deficit-Reduction Plan
2010-12-23T10:49:47Z,Parliament,Approves,2011 Budget
2010-12-23T11:18:01Z,Dubai May,Sell Assets as,Billion
2010-12-23T13:20:22Z,Czech Bond Yield Gap,With,Bunds
2010-12-23T13:20:22Z,Euro Snub,Boosts,Poland 's Zloty
2010-12-23T14:12:22Z,Top Returns,With,Yield Lowest
2010-12-23T14:26:29Z,Bulgari Gold Succumbs,With,Jewelry Hostage
2010-12-23T16:24:08Z,Alcoholics,May Stop at,One Drink
2010-12-23T16:52:17Z,Lufthansa 's Franz,Faces Strategy Test Over,Plan
2010-12-23T22:42:24Z,Overnight,Sues Ex-President Over,Black Swan
