2010-12-29T00:00:01Z,2010,to,Best CD
2010-12-29T00:00:01Z,2010 ’s Top Sales,in Giacometti,Chinese Vase
2010-12-29T00:00:01Z,Arcade Fire,Beats Robert Plant to,2010 ’s CD
2010-12-29T00:00:01Z,Giacometti,in,2010 ’s Top Sales
2010-12-29T00:00:01Z,Picasso Nude,Beats,Giacometti in 2010 ’s Top Sales
2010-12-29T00:15:54Z,CNPC 's Northeastern Pipeline Network Links,With,Up Russian Crude Oil Line
2010-12-29T01:06:21Z,Copper,in,London Advances
2010-12-29T01:06:21Z,Market,Reopens After,Holidays
2010-12-29T01:20:07Z,ITE,Rises After,Report HTC May Acquire Company
2010-12-29T01:26:40Z,Hong Kong Air Pollution,Hits Level at,3 Roadside Stations
2010-12-29T01:49:37Z,ETFs,in,Shanghai
2010-12-29T02:40:23Z,Palm Oil Declines,Snapping,Seven-Day Winning Streak
2010-12-29T02:43:22Z,BYD,Says,2010 Auto Sales
2010-12-29T03:23:22Z,Gold Declines,in,Four Days
2010-12-29T03:52:10Z,Australia Bowler Harris,Requires,Ankle Surgery
2010-12-29T03:55:10Z,South Korea Will,Raise Foot-And-Mouth Disease Alert to,Highest Level
2010-12-29T03:56:21Z,KPIT Cummins,Has,About 1 %
2010-12-29T03:56:21Z,Single Block,in,Mumbai
2010-12-29T04:22:13Z,Norilsk,Reach,Agreement
2010-12-29T04:44:47Z,Global E-Commerce Hub,in,China
2010-12-29T05:00:29Z,IBM,Gain on,U.S. Food-Safety Law ’s Tracking Mandate
2010-12-29T05:00:29Z,U.S. Food-Safety Law,on,Tracking Mandate
2010-12-29T05:00:30Z,Atlanta,Leads NFL With,Seven Selections
2010-12-29T05:01:00Z,Courtesan,in,Sexy Red Dress Menaced
2010-12-29T05:01:00Z,U.S. Companies,Bring,Home Cash
2010-12-29T05:01:01Z,Oracle Owed Interest,in,Infringement Case
2010-12-29T05:01:36Z,Dwyane Wade,Heat to,106-98 Defeat of N.Y. Knicks
2010-12-29T05:16:42Z,Dai-Ichi,After,$ 1.2 Billion Takeover Offer
2010-12-29T05:16:42Z,Tower Australia Shares,Climb After,Dai-Ichi 's $ 1.2 Billion Takeover Offer
2010-12-29T05:27:40Z,Joe Webb,Leads Vikings in,His First NFL Start
2010-12-29T05:28:14Z,Businessman Majali,From,Estate
2010-12-29T06:10:57Z,Navin Fluorine,Winning UN Credits for,HFC Project
2010-12-29T06:21:30Z,$ 23 Million,Gear From,Marketech
2010-12-29T06:21:30Z,Taiwan Semiconductor,Buys,Million of Facilities
2010-12-29T06:24:33Z,Kenya PM Odinga,Says Kisumu Molasses to,Trade
2010-12-29T06:24:33Z,Trade,in,Nairobi
2010-12-29T06:31:57Z,2011 Sales,Rising,10 %
2010-12-29T06:31:57Z,Budimex,Sees,2011 Sales Rising
2010-12-29T06:33:07Z,30 %,Above Growth,Rzeczpospolita Reports
2010-12-29T06:46:21Z,Germany,Issued Debt in,2010 Than Expected
2010-12-29T06:58:09Z,Corn Drops,in,Gains After Eight-Day Advance
2010-12-29T07:08:03Z,Topix,Erases,2010 Loss
2010-12-29T07:28:16Z,$ 68 Million,in,Touch-Panel Supply
2010-12-29T07:48:24Z,Mahindra Reva Electric Car Unit,Sued by,New York-Based Bannon
2010-12-29T07:48:31Z,Emerging-Market,Stocks,Gain
2010-12-29T08:00:18Z,Copper,in,London Advances
2010-12-29T08:09:31Z,Treasuries,Rebound From,Loss
2010-12-29T08:12:19Z,Interfax,Citing,Arsenyuk
2010-12-29T08:13:45Z,Vestas,Wins China Order With,Combined Capacity
2010-12-29T08:13:58Z,Yesterday,by,Price Tumble
2010-12-29T08:18:39Z,CVC Unit,Extends,Its Takeover Offer for Brit Insurance
2010-12-29T08:28:41Z,Sale,in,Chile
2010-12-29T08:36:42Z,German Government Bonds,Decline as,Gains by Stocks
2010-12-29T08:36:42Z,Government Bonds,Decline as,Gains by Stocks
2010-12-29T08:42:32Z,U.K. Mortgage Affordability Improved,in,2010
2010-12-29T08:43:09Z,Cnooc,Climbs on,Oil
2010-12-29T08:47:45Z,Skanska 's 50 % Stake,in,Chile Highway
2010-12-29T08:50:07Z,Apple,on,iPod Touch
2010-12-29T08:50:07Z,Samsung Will Unveil Music Player,in,January
2010-12-29T08:52:24Z,5 Million Pounds,in,Domestic Market
2010-12-29T08:53:11Z,China Carmakers,Say,Demand Growth
2010-12-29T08:53:52Z,Rwandan Authorities,Hold,54 Bangladeshis Found
2010-12-29T08:54:30Z,Sudan President al-Bashir Will Remain,in,Power
2010-12-29T09:50:58Z,Protests,Amid Arrest,News
2010-12-29T10:08:26Z,Real Madrid,for,Lassana Diarra
2010-12-29T10:31:25Z,Company,as,Finance Chief
2010-12-29T10:36:57Z,CEO Tenure,Saw,Shares
2010-12-29T10:38:14Z,Asian Stocks,Climb as,Oil
2010-12-29T10:38:14Z,Most Asian Stocks,Climb as,Oil
2010-12-29T10:38:45Z,Nakheel,Reaches,Accord
2010-12-29T10:43:51Z,Goldman Sachs,Says Than,South Africa
2010-12-29T10:43:51Z,South Korea Better BRIC Candidate,Says Than,South Africa
2010-12-29T11:09:46Z,LLX Iron Ore Port Project,With,Anglo Will
2010-12-29T11:19:32Z,Kenyan Shilling,Pares Loss to,Dollar on Tourist Currency Demand
2010-12-29T11:19:32Z,Shilling,Pares,Earlier Loss
2010-12-29T11:24:42Z,He,Quits,Ivory Coast Presidency
2010-12-29T12:29:09Z,Nokia May,Have,Delivered 4 Million N8 Smartphones
2010-12-29T12:35:20Z,Simon Property,Secures,$ 4.6 Billion Loan
2010-12-29T12:47:06Z,Solar Millennium,Gets,Trough Order
2010-12-29T12:47:26Z,Ugandan Exchange,Approves Listing by,Centum Investment of Kenya
2010-12-29T13:10:34Z,Austria,With,Kioto
2010-12-29T13:20:10Z,Prices,Jump,Most in Eight Years
2010-12-29T13:26:40Z,Comex,in,New York
2010-12-29T13:26:40Z,Gold Futures Decline,in,Three Days on Comex
2010-12-29T13:30:29Z,China,Says,Interest Rate Liberalization May Curb Inflation
2010-12-29T13:49:04Z,Bank Law,Avoid Too Big to,Fail Scenario
2010-12-29T14:01:53Z,Blackstone,Gets,Mezzanine Debt
2010-12-29T14:01:53Z,Funds,Fill,$ 70 Billion Void
2010-12-29T14:02:38Z,U.S. Natural Gas Futures,Are,Little Changed
2010-12-29T14:05:19Z,Putin Bans Vacations,Create Travel Chaos at,Airports
2010-12-29T14:28:22Z,Rand,Weakens From,Three-Year High Versus Dollar
2010-12-29T14:35:41Z,Italian Police,Say Package Found at,U.S. Embassy
2010-12-29T14:35:41Z,Police,Say to,Vatican
2010-12-29T15:01:00Z,Japan Buyouts,Go as,Locals Lead Private-Equity Revival
2010-12-29T15:12:32Z,Suspicious Parcel,in,Rome
2010-12-29T15:54:00Z,Plunge,Makes Patriarch Sperling Rail at,Obama
2010-12-29T15:59:42Z,Equities,in,Advance
2010-12-29T16:13:12Z,Militant Islamists ' Planning Attack,in,Denmark
2010-12-29T16:21:59Z,Buyback Offer,Tops,Market Price
2010-12-29T16:21:59Z,Norilsk,Reaches,Two-Year High in Moscow
2010-12-29T16:21:59Z,Two-Year High,in,Moscow
2010-12-29T16:23:47Z,Fiat,Reach,Pact
2010-12-29T16:23:47Z,Pomigliano Factory,Way for,Investments
2010-12-29T16:23:47Z,Unions,Reach,Pact
2010-12-29T16:56:13Z,European Stocks,Rise for,Day
2010-12-29T16:56:13Z,Stocks,Rise for,Second Day
2010-12-29T16:58:03Z,Killing,Wanted With,$ 2.5 Million Bounty
2010-12-29T16:58:55Z,Reyal Urbis Shares,Move in,Madrid Trading
2010-12-29T17:07:09Z,Simon Property,Obtains,$ 4.6 Billion Loan
2010-12-29T17:09:10Z,March Delivery Surge 50-Cent Exchange Limit,in,Chicago
2010-12-29T17:13:01Z,Liberia,Expecting,Ivory Coast Refugees
2010-12-29T17:51:11Z,Mortgage Modifications,in,U.S. Decline
2010-12-29T18:01:45Z,Southern California,Dealing With,Rain
2010-12-29T18:01:56Z,May Face Delay,With,Jan. 1
2010-12-29T18:01:56Z,NHL Winter Classic,in,Pittsburgh
2010-12-29T18:28:18Z,49ers,Consult With,Bill Parcells on General Manager
2010-12-29T18:30:01Z,Fee,Squeeze,Seen Continuing
2010-12-29T19:00:22Z,Power,in,Ivory Coast
2010-12-29T19:17:06Z,Copper Futures Decline,in,New York
2010-12-29T19:47:39Z,Portugal Bond Sales,in,2011
2010-12-29T19:48:33Z,FDA,Warning on,Manufacturing Site
2010-12-29T19:53:45Z,Storm,Snarls,U.S. Travel
2010-12-29T20:29:00Z,Israeli Parliament,Passes,Two-Year Budget 63-33
2010-12-29T20:42:29Z,Rice Prices,Soar,Most Allowed by Chicago Exchange
2010-12-29T20:50:37Z,Corn,Extends,Advance
2010-12-29T20:50:37Z,Demand,Ebbs After,December Rally
2010-12-29T20:52:25Z,Pittsburgh Council,Passes Tax Plan to,Avoid State Takeover
2010-12-29T20:57:01Z,Wheat,Rises to,Three-Week High
2010-12-29T21:06:45Z,Gasoline Futures,Slip in,New York
2010-12-29T21:19:50Z,Iracema,Hold,8.3 Billion Oil Barrels
2010-12-29T21:20:31Z,Facebook,Trading in,Private Spurs Questions
2010-12-29T21:20:31Z,Twitter Trading,in,Private Spurs Questions
2010-12-29T21:32:02Z,Potash,Rises as,Soybeans Seen Extending Gains
2010-12-29T21:34:37Z,U.S. Stocks Rise,Extending Biggest December Rally Since,1991
2010-12-29T21:36:40Z,Endo Pharmaceuticals ' Gel,Wins,FDA Marketing Approval
2010-12-29T21:37:55Z,Canadian Stocks,Rise as,Commodity Shares Gain
2010-12-29T21:37:55Z,Stocks,Rise as,Commodity Shares Gain
2010-12-29T21:53:07Z,Nunavut,Boosts,Baffinland Bid Ahead of Rival Deadline
2010-12-29T21:54:13Z,Giants ' Playoff Chances,Slip With,Eagles ' Loss to Minnesota Vikings
2010-12-29T22:01:00Z,Shanghai Gold,Shut,Mines
2010-12-29T22:01:00Z,Shanghai Pushing Gold,Thwarts,Fight
2010-12-29T22:04:06Z,Loonie,Reaches,Parity
2010-12-29T22:13:36Z,Collahuasi Seeks,Permits for,Alternative Copper Port
2010-12-29T22:16:31Z,Investors,Seek,Assets
2010-12-29T22:20:26Z,Auction,Attracts,Foreign Central Banks
2010-12-29T22:23:57Z,Discovery,Cancel,Autopsy Re-Enactment Show
2010-12-29T22:23:57Z,Michael Jackson Estate,Asks,Discovery
2010-12-29T22:30:57Z,U.S. Bond Mutual Funds,Received,Redemptions of Billion Last Week
2010-12-29T22:40:07Z,JPMorgan,Sued by,Petters Group Trustee
2010-12-29T22:41:27Z,From 26-Month High,Near Falls,Demand Outlook
2010-12-29T22:54:00Z,Boston Properties,Completes,$ 930 Million Purchase of John Hancock Tower
2010-12-29T23:01:30Z,Cockatoo Coal,Says,Queensland ’s Baralaba Mine Flooded
2010-12-29T23:07:47Z,U.S. Files New Insider Charges,Says,Hedge Funds Got Data
2010-12-29T23:16:31Z,Obama,Appoints,Bypassing Republican Opposition
2010-12-29T23:21:40Z,U.S. Bond Funds,See Week as,Money Moves Into Stocks
2010-12-29T23:49:06Z,Hong Kong 's New Home Sales,Drop to,South China Post Reports
2010-12-29T23:50:40Z,Christine O'Donnell 's Senate Campaign Spending,Draws,Federal Investigation
2010-12-30T00:02:19Z,Chelsea,Beats,Liverpool
2010-12-30T03:41:48Z,South Korea,'s Output,Current-Account Surplus Signal Higher Rates
2010-12-30T04:30:00Z,U.S.,Revokes,Ambassador 's Visa Amid Diplomatic Feud
2010-12-30T04:48:39Z,$ 7 Billion,in,Wealth Assets Via Barclays Tie-up
2010-12-30T04:48:50Z,Indonesia,Tightens,Rules on Foreign Exchange Holdings
2010-12-30T05:01:01Z,N.Y. Rule,Struck,Down
2010-12-30T05:09:30Z,Construction Bank Unit,in,Mutual Fund Sales
2010-12-30T05:09:30Z,Mutual Fund Sales,in,Hong Kong
2010-12-30T05:15:02Z,Australia,in,Centro Properties
2010-12-30T05:15:02Z,Bidders Interested,in,Australia 's Centro Properties
2010-12-30T07:29:51Z,China,on,Growth
2010-12-30T07:29:51Z,Copper,Rises,Record
2010-12-30T12:34:42Z,Hedge Funds,Got,Inside Data
2010-12-30T12:34:42Z,Three Hedge Funds,Got Inside Data From,Consultant
2010-12-30T13:32:00Z,Dollar,Weakens as,Global Recovery Signs Boost Demand for Yields
2010-12-30T14:56:49Z,Fiat Split,in,Two Set for Volatile Debut on Industrial Spinoff
2010-12-31T04:03:54Z,Coal Shipments,May Resume From,Queensland Ports
2012-07-03T08:20:45Z,Companies,Qualified,Institutional Placement
2012-07-03T08:20:45Z,Indian Companies,Qualified,Institutional Placement
