2010-06-22T00:00:01Z,Australia,Raises,2011 Commodity Exports Earnings Forecast
2010-06-22T00:03:04Z,54 %,in,May
2010-06-22T00:06:20Z,Deutsche Bank,Securities in,Kangaroo Bond Sale
2010-06-22T00:06:20Z,KfW Group,Hires,TD Securities to Aid
2010-06-22T00:06:20Z,TD Securities,in,Kangaroo Bond Sale
2010-06-22T00:08:39Z,Copper,in,London Drops
2010-06-22T00:12:35Z,July 9 Hearing,Set by,Judge
2010-06-22T00:12:35Z,July Hearing,Set by,Judge
2010-06-22T00:12:35Z,Texas Rangers Disclosure Statement Approved,Set by,Judge
2010-06-22T00:13:01Z,Property Tax May Curb Governments,' Reliance,Newspaper Reports
2010-06-22T00:15:17Z,Death Toll,Climbs Xinhua Reports to,47
2010-06-22T00:18:43Z,FTC,in,Discussions
2010-06-22T00:18:43Z,Intel,FTC in,Discussions
2010-06-22T00:40:57Z,Kia Motors May,Enter,Economic Times Reports
2010-06-22T00:41:36Z,Asia-Pacific Bond Risk Rises,Show on,Opening
2010-06-22T00:41:51Z,Ranbaxy,'s Operating,Daiichi Sankyo
2010-06-22T00:48:21Z,China,'s Plan,Messmacher
2010-06-22T00:54:17Z,Reliance Industries,in,Talks With MTNL for 3G Franchise
2010-06-22T00:54:17Z,Talks,With,MTNL for 3G Franchise
2010-06-22T00:55:35Z,Defend News Service,in,Bank Research Lawsuit
2010-06-22T00:55:35Z,Twitter,Help,Defend News Service
2010-06-22T01:00:00Z,Deflation,Is,Recipe
2010-06-22T01:00:00Z,Little Deflation,Is,Recipe
2010-06-22T01:00:00Z,Wall Street,Gets Close to,Stiffing Overhaul
2010-06-22T01:00:00Z,Wayne Rooney,Power of,Sports
2010-06-22T01:04:32Z,$ 296 Million,in,Hong Kong First Offer
2010-06-22T01:08:54Z,Enel,Spending,Billion
2010-06-22T01:11:00Z,Regulator,Fines for,False Statements
2010-06-22T01:30:21Z,BP,'s Withdraws,Times
2010-06-22T01:32:54Z,Goldman Cuts Three-Month Copper,Target on,Europe
2010-06-22T01:43:20Z,Advance,Stronger,0.43 %
2010-06-22T01:43:20Z,Biggest Advance,Stronger,0.43 %
2010-06-22T01:43:20Z,China,Sets,Stronger Biggest Advance
2010-06-22T01:45:32Z,Copper,Recovering Earlier From,Decline
2010-06-22T01:58:51Z,Cable Shipments,Climb for,5th Straight Month
2010-06-22T02:10:58Z,Google,Flyonthewall in,Bank Suit
2010-06-22T02:10:58Z,Reports,Over Google,Twitter Support Flyonthewall in Bank Suit
2010-06-22T02:10:58Z,Twitter Support Flyonthewall,in,Bank Suit
2010-06-22T02:11:26Z,North,of,7-0 Defeat to Portugal at World Cup
2010-06-22T02:13:59Z,Solar Cell Factory,in,Taiwan
2010-06-22T02:42:54Z,Power Use,in,China
2010-06-22T02:44:27Z,Shenzhen Topraysolar,Climbs,Most
2010-06-22T03:01:24Z,May,Buy Back,Shares
2010-06-22T03:16:48Z,14 Salvadorans,Are,Killed
2010-06-22T03:16:48Z,Funes,Vows,Gang Crackdown
2010-06-22T03:16:48Z,Salvadorans,Are Killed in,Bus Burning
2010-06-22T03:19:30Z,Assets,in,South
2010-06-22T03:19:30Z,South,in Assets,Hire Bankers
2010-06-22T03:23:41Z,South Korea May Pass Law,in,2010
2010-06-22T03:33:02Z,Shanghai Composite,Rises on,Steelmakers
2010-06-22T03:46:57Z,10/Bushel,to Advance,ANZ 's Scott Briggs
2010-06-22T03:46:57Z,Advance,Briggs 's,ANZ
2010-06-22T03:52:43Z,Yuan Gain May Alter,Shape of,Growth
2010-06-22T03:54:08Z,India 's Inflation,Slow by,End
2010-06-22T04:00:00Z,Lower Inflation Expectations,in,U.S. Signal No Rush Fed Raise
2010-06-22T04:00:03Z,Harvard 's Former Quarterback Priore,Faces,SEC Fraud Suit
2010-06-22T04:01:00Z,$ 1.4 Billion,in,Value
2010-06-22T04:01:00Z,Airline Passenger,Be,Highest
2010-06-22T04:01:00Z,BP Oil Spill,Pares,N.Y. Menus
2010-06-22T04:01:00Z,Christie,Agree on,$ 29.4 Billion New Jersey Budget
2010-06-22T04:01:00Z,Democratic Lawmakers,Agree on,$ 29.4 Billion New Jersey Budget
2010-06-22T04:01:00Z,Existing Homes,in,U.S.
2010-06-22T04:01:00Z,Grockit,Takes in,$ 1 Billion Test-Prep Market
2010-06-22T04:01:00Z,Lawmakers,Agree on,$ 29.4 Billion New Jersey Budget
2010-06-22T04:01:00Z,Sales,Climbed on,Tax Credit
2010-06-22T04:01:01Z,Station Casinos Judge,Refuses to,Block Bankruptcy Auction
2010-06-22T04:01:01Z,Wells Fargo,Cross-Sales as,Loans
2010-06-22T04:01:10Z,Anti-Washington Trend Threatens South Carolina Lawmaker Inglis,in,Runoff
2010-06-22T04:29:11Z,Bouygues,Wins,Marseille Velodrome Contract
2010-06-22T04:30:21Z,Mazda Plant,in,Japan
2010-06-22T04:36:33Z,Talks,With,Apax on Cetelem Belgique Sale
2010-06-22T04:42:48Z,$ 3.8 Billion Gas Hub,in,Sunrise Dispute
2010-06-22T04:42:48Z,East Timor,Proposes Billion Gas Hub With,Woodside
2010-06-22T04:48:14Z,Concern India,on,Central Bank Will Raise Rates
2010-06-22T04:50:29Z,Kenya,'s TPS,Serena Chain Owner
2010-06-22T04:50:29Z,Kenya 's TPS,Gets,Regulatory Approval For Bonus Shares
2010-06-22T04:52:11Z,Belarus,to Supplies,Interfax
2010-06-22T04:54:00Z,Rp.pl,Says,May Bid
2010-06-22T04:54:00Z,Stakes,in,Chemiczne Police
2010-06-22T04:56:28Z,Aluminum Production Cuts Loom,in,China
2010-06-22T04:56:28Z,Record Output,End of,Yuan 's Peg
2010-06-22T04:56:28Z,Yuan,of,Peg
2010-06-22T04:56:41Z,Bundesbank,'s Backed,Handelsblatt
2010-06-22T04:56:41Z,Kiel Institute,by Backed,Handelsblatt
2010-06-22T05:00:01Z,Peru,Raises,Reserve Requirements
2010-06-22T05:11:23Z,2010 Budget Deficit,Be,Below Target
2010-06-22T05:11:23Z,Kotecki,Says,2010 Budget Deficit
2010-06-22T05:11:23Z,Polish 2010 Budget Deficit,Be,Below Target
2010-06-22T05:13:15Z,Sale,in,Paz Oil
2010-06-22T05:14:14Z,20 % Renewable Energy Target,in,Amended Legislation
2010-06-22T05:14:33Z,Istanbul Bomb,Kills,Four
2010-06-22T05:19:14Z,U.A.E.,Kept as,Frontier Markets
2010-06-22T05:26:18Z,China,Die,Welt
2010-06-22T05:28:01Z,Funds,in,Korea
2010-06-22T05:28:01Z,Pimco Favors Brazil,Offers,Funds in Korea
2010-06-22T05:30:10Z,$ 1.2 Billion,in,Enel Green Power
2010-06-22T05:30:10Z,Sintonia May,Invest,$ 1.2 Billion
2010-06-22T05:30:31Z,Skoda Auto,Investigates,New Production Locations
2010-06-22T05:34:07Z,China,Strengthens,Yuan Rate
2010-06-22T05:39:11Z,Rainstorms,in,Southern China
2010-06-22T05:43:19Z,China 's Exim Bank,Lends,Mozambique Million
2010-06-22T05:45:18Z,China,After,Stronger Yuan Fixing Saps Safety Demand
2010-06-22T05:56:23Z,New Zealand Dollars Drop,Woes 's,Europe
2010-06-22T05:59:35Z,Franc,Strengthens,Trading at Record Level
2010-06-22T05:59:35Z,Swiss Franc,Strengthens,Trading at Record Level of 1.3651
2010-06-22T05:59:35Z,Versus Euro,Trading at,Record Level of 1.3651
2010-06-22T05:59:52Z,Region 's Biggest Appliance Unit,in,Egypt
2010-06-22T06:02:14Z,Dr. Reddy,in,U.S
2010-06-22T06:02:14Z,Drug Patent Expiry May,Open,$ 90 Billion Market
2010-06-22T06:03:32Z,Germany,'s Borrowing,Bild Reports
2010-06-22T06:04:06Z,Amlak First-Quarter Loss,Narrows as,U.A.E. Mortgage Lender Cuts Provisions
2010-06-22T06:05:09Z,Air China,Surges in,Hong Kong
2010-06-22T06:13:30Z,Copper,Extend,Gains
2010-06-22T06:14:26Z,Munich Re Shares May,Be,Active
2010-06-22T06:23:23Z,U.S. Treasuries,Leaving,Yield Little Changed at 3.25 %
2010-06-22T06:25:57Z,Tamweel Returns,in,First Quarter
2010-06-22T06:34:48Z,Banca Marche,Is in,Talks
2010-06-22T06:34:48Z,Chairman,Tells,MF
2010-06-22T06:34:48Z,Talks,With,Groupama on Buying Stake
2010-06-22T06:36:37Z,Longkou Port,in,Shandong
2010-06-22T06:39:07Z,Aegon May,Consider,Plans
2010-06-22T06:39:07Z,Selling Life Reinsurance Unit,Plans to,Cut U.K. Costs
2010-06-22T06:44:16Z,$ 409 Million,in,Deposits Ahead
2010-06-22T06:52:25Z,China,Expands Yuan Settlement to,18 Provinces
2010-06-22T06:58:27Z,Deutsche Bahn,SNCF in,Two Logistics Companies
2010-06-22T06:58:27Z,SNCF,in,Two Logistics Companies
2010-06-22T07:00:20Z,3i,for,Commodity-Testing Unit
2010-06-22T07:00:20Z,Bureau Veritas,Pay,Million
2010-06-22T07:07:41Z,2.7 %,in,London Trade
2010-06-22T07:10:10Z,Emerging-Market Stocks,Halting,Longest Rally
2010-06-22T07:15:22Z,Belarus Threatened,Take,Europe-Bound Russian Gas Exports
2010-06-22T07:15:22Z,Gazprom,Says,Belarus Threatened
2010-06-22T07:16:11Z,Japan 's Fiscal Plan,Fails,Curtail
2010-06-22T07:16:11Z,Japan 's Plan,Fails,Curtail
2010-06-22T07:18:42Z,2.6 %,in,London
2010-06-22T07:21:55Z,Kazakhstan Security Agency Charges Astana Finance Ex-Executives,With,Theft
2010-06-22T07:25:39Z,Top U.S. Commander,Apologizes for,AP
2010-06-22T07:25:39Z,U.S. Commander,Apologizes for,Magazine Article
2010-06-22T07:25:41Z,Argentina 's Debt Swap May,Reach,66 % Participation Today
2010-06-22T07:29:00Z,Whitbread First-Quarter Sales Gain,Led by,Premier Inn Budget-Hotel Chain
2010-06-22T07:34:50Z,Listings,Rebounding,Year
2010-06-22T07:34:50Z,Oslo Exchange,Sees,Listings
2010-06-22T07:36:45Z,Japanese Stocks,Drop on,European Bank Outlook
2010-06-22T07:36:45Z,Stocks,Drop on,Weakening Euro
2010-06-22T07:37:15Z,$ 800 Million,in,China AgriBank IPO
2010-06-22T07:37:40Z,China,Stocks,Rise as Yuan Outlook Spurs Rally for Automakers
2010-06-22T07:41:20Z,Copper Declines,Are,Seen
2010-06-22T07:43:56Z,Crude Oil Retreats,Optimism On,Chinese Currency
2010-06-22T07:57:48Z,German Stocks,Pare,Earlier Decline
2010-06-22T07:57:48Z,Stocks,Pare,Decline
2010-06-22T07:58:25Z,Switzerland,'s Franc,Canadian Dollar
2010-06-22T07:58:25Z,UBS,Raises,One-Month Predictions for Switzerland 's Franc
2010-06-22T08:00:06Z,Japanese Banks,in,New Post
2010-06-22T08:03:49Z,Bank,Levies as,Test of G-20 Unity
2010-06-22T08:03:49Z,Germany,Sees,Bank
2010-06-22T08:06:55Z,China Yuan Policy Shift,Lures,Pengana
2010-06-22T08:06:55Z,Pengana,Capital to,Commodity Shares
2010-06-22T08:09:51Z,Congo Republic Rail Accident,Leaves,AFP
2010-06-22T08:10:27Z,Yield,Rises,Five Basis Points
2010-06-22T08:11:53Z,Decline,in,U.S. Benchmark
2010-06-22T08:16:28Z,Kenya,Starts Electricity Generation at,New 35-Megawatt Geothermal Plant
2010-06-22T08:20:15Z,Greek Railway Employees,Hold,Strikes in Protest
2010-06-22T08:20:15Z,Railway Employees,Hold,Strikes in Protest Over Planned Sale of Stake
2010-06-22T08:25:59Z,Philippine Budget Deficit,Exceeds,First-Half Target
2010-06-22T08:39:04Z,54 Seats,in,July 's Election
2010-06-22T08:39:04Z,July,in,Election
2010-06-22T08:39:04Z,Kan,Says,Ruling Democrats Aim
2010-06-22T08:45:09Z,Vale May,Spend,$ 90 Billion
2010-06-22T08:47:14Z,Bonds,in,City
2010-06-22T08:47:14Z,Foreign Companies,Sell,Bonds
2010-06-22T08:47:14Z,Shanghai,Is Preparing,Let
2010-06-22T08:47:14Z,Shares,Bonds in,City
2010-06-22T08:48:11Z,Gold,',Little Brother
2010-06-22T08:51:35Z,South African Equities Decline,Led By,BHP
2010-06-22T08:53:05Z,Ind-Barath Power Infra,Raise,11.4 Billion Rupees
2010-06-22T08:54:08Z,Spain 's Solar Manufacturing Plants,Operated at,25 %
2010-06-22T08:55:54Z,Hong Kong Stocks,Drop on,Debt Concerns
2010-06-22T08:56:27Z,Tons,in,Khodorkovsky Case
2010-06-22T08:58:59Z,Growth,in,Plastics Market
2010-06-22T09:02:03Z,Finans,Gets,Million IFC Loan for Energy Efficiency
2010-06-22T09:02:08Z,Blame Game,Over,Economy at Summit
2010-06-22T09:10:52Z,TeliaSonera,Says Court Rules to,Company Will Appeal
2010-06-22T09:12:19Z,Six More Corn Cargoes,in,Past
2010-06-22T09:13:58Z,Company Bond Risk,Rises From,Six-Week Low
2010-06-22T09:18:12Z,$ 27 Billion,in,Untaxed Income
2010-06-22T09:18:12Z,Finance Police,Find Billion in,Five Months
2010-06-22T09:18:12Z,Italian Finance Police,Find Billion in,Five Months
2010-06-22T09:25:35Z,Lee Paper 's Controlling Shareholder,Will Sell Stake to,Nippon Paper
2010-06-22T09:27:39Z,May,in Fall,IIFL
2010-06-22T09:27:39Z,Mumbai Apartment Registrations Fall,in,May
2010-06-22T09:28:31Z,Leveraged Loans,Bonds as,Yields Fall
2010-06-22T09:29:04Z,Central Bank,Leave,Benchmark Rate
2010-06-22T09:29:04Z,Serbian Central Bank,Leave Benchmark Rate at,Record-Low
2010-06-22T09:29:51Z,U.S. Index Futures,Extend,Decline
2010-06-22T09:32:05Z,Medicine,Avoid,Stagnation Like Japan
2010-06-22T09:32:05Z,U.K. Needs,King 's,HSBC
2010-06-22T09:51:26Z,Siemens,Wins,111 Offshore Wind-Turbine Order
2010-06-22T09:53:13Z,G-20,Faces,Test Case
2010-06-22T10:07:09Z,BNP Paribas Chief,Warns,G-20 New Capital Rules Risk Economic Car Crash
2010-06-22T10:08:52Z,Syngenta,Faces,EU Investigation
2010-06-22T10:09:54Z,Bharat Petroleum Plans,Unit in,2014
2010-06-22T10:09:54Z,LPG Unit,in,2014
2010-06-22T10:14:23Z,$ 156 Million,in,Malaysia
2010-06-22T10:16:12Z,Berlin,Arrest in,Probe of People-Smuggling Group
2010-06-22T10:16:12Z,Dresden Arrest Five,in,Probe of People-Smuggling Group
2010-06-22T10:16:12Z,Police,in,Berlin
2010-06-22T10:31:50Z,Asian Stocks,Fall in,Nine Days on Europe
2010-06-22T10:31:50Z,Asian Stocks Fall,in,Nine Days on Europe
2010-06-22T10:31:50Z,Stocks,Fall in,Nine Days
2010-06-22T10:39:39Z,McChrystal,Apologizes for,Remarks on Administration Officials in Magazine
2010-06-22T10:39:39Z,Remarks,in,Magazine
2010-06-22T10:55:44Z,U.K.,of,Peel Airports
2010-06-22T10:55:59Z,2010 Deficit,Be,Billion
2010-06-22T10:55:59Z,2010 Structural Deficit,Be,Billion
2010-06-22T10:55:59Z,Germany,Says,2010 Deficit
2010-06-22T10:57:14Z,Credit Agricole,in,Court News
2010-06-22T10:57:14Z,ICP,Agricole in,Court News
2010-06-22T10:57:29Z,Israel,'s Level,Fall to July Low
2010-06-22T10:57:29Z,Israel 's Shekel May Breach 4 Level,Fall to,July Low
2010-06-22T10:57:55Z,Hong Kong Bourses,in,Talks About Offshore Initial Public Offers
2010-06-22T10:58:58Z,Gold May Rise,Rebound From,Biggest Drop
2010-06-22T10:58:58Z,Rebound,in,Month
2010-06-22T11:02:32Z,Pests Damage Crop,in,India
2010-06-22T11:11:36Z,Argentina,'s Drivers,Cronista
2010-06-22T11:14:35Z,Belarus Interested,in,Lithuanian LNG Terminal Project
2010-06-22T11:20:02Z,African Economy,Undermining,Recovery
2010-06-22T11:20:02Z,Economy,Undermining,Recovery
2010-06-22T11:20:02Z,South African Economy,Undermining,Recovery
2010-06-22T11:20:08Z,Gazprom Cuts 2010 Export Target,Sees,Sales
2010-06-22T11:20:08Z,Gazprom Cuts Export Target,Sees,Sales
2010-06-22T11:22:07Z,U.K. Gilts,Pushing Yield Down to,3.443 %
2010-06-22T11:33:47Z,Billionaire 's Delek Group,Buy,BP 's French Gas Stations
2010-06-22T11:33:47Z,Israeli Billionaire 's Delek Group,Buy,BP 's French Gas Stations
2010-06-22T11:37:18Z,Toronto,'s Venue,CP Reports
2010-06-22T11:46:37Z,UBS,Hires Anthony Iliya as,Chief Executive for Middle East
2010-06-22T11:51:34Z,Polish Minister,Supports,PKO 's Attempt
2010-06-22T12:02:11Z,Intesa,Reaches Agreement to,Credit Agricole
2010-06-22T12:02:23Z,Brazilian Mid-Month Consumer Price Index,Climbs,0.19 %
2010-06-22T12:02:23Z,Mid-Month Consumer Price Index,Climbs,0.19 %
2010-06-22T12:17:20Z,Rand,Snaps,Gain
2010-06-22T12:32:32Z,HeidelbergCement,Sell,500 Million Euro Junk Bonds
2010-06-22T12:32:37Z,Copper Declines,Was,Exaggerated
2010-06-22T12:41:31Z,Czech Central Banker,Scared by,Vows Euro Will
2010-06-22T12:44:28Z,Month,in,Cairo
2010-06-22T12:46:30Z,Merrill Lynch,Says,Markets Overreacted
2010-06-22T12:47:48Z,WestLB Aid Approval,Is Delayed Amid,Complicated Probe
2010-06-22T12:50:31Z,Mauritius,Reduces,Growth Forecast on Euro Crisis
2010-06-22T12:53:27Z,Minister,Quits After,Deadly Riots
2010-06-22T12:53:38Z,Adecco,Declines in,Zurich
2010-06-22T12:53:38Z,Credit Suisse Lead Declines,in,Zurich
2010-06-22T12:56:34Z,Canada 's Annual Inflation Rate,Slows Clothing to,1.4 %
2010-06-22T12:56:34Z,Canada 's Inflation Rate,Slows Clothing on,Gasoline
2010-06-22T12:57:22Z,Rabobank Sells 11 % Stake,in,Yes Bank
2010-06-22T12:59:00Z,U.S. Stock-Index Futures Pare,Declines to,Trade Little
2010-06-22T13:00:00Z,Challenge,in Store,Apple
2010-06-22T13:00:00Z,Sears Plans Film-Download Store,in,Challenge
2010-06-22T13:01:03Z,Kremlin-Backed Witnesses,Reveal,Divisions
2010-06-22T13:01:03Z,Witnesses,Reveal,Divisions
2010-06-22T13:17:37Z,Share,Exceeds,Analysts ' Estimates
2010-06-22T13:17:38Z,Gold Declines,Was,Overdone
2010-06-22T13:28:01Z,World Cup May,be Attended After,1994 Edition
2010-06-22T13:29:46Z,Dutch Court,Says,Utility Unbundling Conflicts
2010-06-22T13:29:46Z,Utility Unbundling Conflicts,With,European Union Laws
2010-06-22T13:31:57Z,Central Bank,in,Survey
2010-06-22T13:31:57Z,Turkish 12-Month Inflation Expectations Increase,in,Central Bank 's Survey
2010-06-22T13:36:31Z,China 's Currency,Move,Offsets Europe Debt Crisis
2010-06-22T13:40:45Z,Aramco,Rejects,Allegations of Oil Spill
2010-06-22T13:40:50Z,Abbott,Coach,Li Peng 's Diary
2010-06-22T13:45:11Z,China Government,Bans,Online Virtual-Currency Dealing Platforms
2010-06-22T13:45:53Z,Bovespa Stock Index Advances,Led by,Vale
2010-06-22T13:46:55Z,Dubai Shares Drop,in,most 2 Weeks
2010-06-22T13:52:47Z,Ruble,Weakens,Most in Two Weeks
2010-06-22T13:52:47Z,Versus Dollar,Fall as,Oil Declines
2010-06-22T13:53:33Z,Yen,Strengthens on,Concern Over European Bank Funding
2010-06-22T14:00:00Z,Consumer Confidence,Holds on,Cloudy Outlook
2010-06-22T14:00:00Z,European Consumer Confidence,Holds Near,Nine-Month Low
2010-06-22T14:01:01Z,Gold,Rise on,Speculation Dollar
2010-06-22T14:03:50Z,U.S. Stocks,Erase Gains,Home Sales Unexpectedly Retreat
2010-06-22T14:05:03Z,European Stocks,Ending,Nine-Day Rally
2010-06-22T14:05:03Z,Stocks,Ending,Nine-Day Rally
2010-06-22T14:05:09Z,Central Bank,Leaves,Benchmark Interest Rate Unchanged
2010-06-22T14:05:09Z,Mauritian Central Bank,Leaves Benchmark Interest Rate Unchanged at,5.75 %
2010-06-22T14:24:25Z,Unexpected Drop,in,U.S. Housing Sales
2010-06-22T14:24:25Z,Yen,Rises After,Drop
2010-06-22T14:29:11Z,Osborne Will Cut Welfare,Credits by,16.3
2010-06-22T14:41:37Z,City,in,First Attack
2010-06-22T14:41:37Z,Istanbul Bomb,Kills,Four
2010-06-22T14:44:49Z,Poland,Raises,$ 1.28 Billion From IPO
2010-06-22T14:45:14Z,CIBC World Markets,Hires,Former RBC Banker Cioffi for New York Trading
2010-06-22T14:50:12Z,Natura,Extends,Record
2010-06-22T14:50:12Z,Raymond James,Cites,Momentum
2010-06-22T14:57:35Z,Gilt-Bund Yield Spread,Narrowing Trend to,Slow
2010-06-22T15:00:17Z,New World Resources Falls,With,ArcelorMittal
2010-06-22T15:06:41Z,Charges,Dropped in,South Africa
2010-06-22T15:10:46Z,Kerviel 's Trades,Were,Ex-CEO Bouton
2010-06-22T15:20:08Z,South Africa,Leads,France 2-0
2010-06-22T15:22:57Z,Nasdaq OMX Group Ends Talks,With,Equiduct Platform Over Neuro Customers
2010-06-22T15:24:00Z,Gilt Sales,Will Decline,28 %
2010-06-22T15:25:00Z,1 Billion Dirhams,in,New Stock
2010-06-22T15:25:00Z,Investment,in,Wireless Network
2010-06-22T15:25:31Z,Colombia 's Uribe,Says,Canada Trade May Jumpstart Other Commerce Accords
2010-06-22T15:26:54Z,New York,Pass,No-Fault Divorce
2010-06-22T15:30:00Z,Customers,Rebuild,Inventories
2010-06-22T15:30:18Z,Leading 10-Man France 2-1,in,Second Half of World Cup Match
2010-06-22T15:32:59Z,Egypt,Investigates,Source of Red Sea Resort Oil Spill
2010-06-22T15:36:45Z,Belarus,Lowering,Supplies
2010-06-22T15:40:45Z,Nokia May,Be Downgraded on,Declining Profit Margins
2010-06-22T15:41:56Z,Government,on,Smaller-Than-Expected Tax Increase
2010-06-22T15:42:17Z,Japan,Against,Nishikori
2010-06-22T15:42:17Z,Rafael Nadal,Wins,Wimbledon First Round Match
2010-06-22T15:43:18Z,Apple,Leads Rally in,Tech
2010-06-22T15:43:18Z,U.S. Stocks,Extend,Advance
2010-06-22T15:49:33Z,Airlines,Operating in,U.K. Escape Immediate Change
2010-06-22T15:50:16Z,Bulgari,Are,Active
2010-06-22T15:52:27Z,Bunds Advance,Decline as,Stock Drop Outweighs Confidence
2010-06-22T15:58:49Z,BP Lead Drop,in,London
2010-06-22T15:58:49Z,Billiton,Drop in,London
2010-06-22T15:59:58Z,European Stocks,Ending,Nine-Day Rally
2010-06-22T15:59:58Z,Stocks,Ending,Nine-Day Rally
2010-06-22T16:00:01Z,Month High,May,May Raised
2010-06-22T16:01:00Z,May,Hold,1.25 %
2010-06-22T16:05:15Z,Bahrain See Rise,in,Number of Millionaires
2010-06-22T16:05:15Z,Saudi Arabia,Rise in,Number of Millionaires
2010-06-22T16:10:19Z,EDF,Says Sales to,Rivals
2010-06-22T16:12:59Z,Poland,to,Inflation Target
2010-06-22T16:17:26Z,Google,Named by,U.K. Privacy Group
2010-06-22T16:20:59Z,Barclays Analysts,Say as,Again ECB Fund Winds Down
2010-06-22T16:20:59Z,Libor Rates,Say as,Again ECB Fund Winds Down
2010-06-22T16:25:09Z,Brazil,Sell,2041 Bonds
2010-06-22T16:29:55Z,Osborne Levies Banks,Raises,Sales Tax
2010-06-22T16:33:11Z,Toshiba,Wins Contract for,Hybrids
2010-06-22T16:33:53Z,Sundance Executives,Crashed in,C-212 Bush Plane
2010-06-22T16:34:28Z,Kagan,Gets,Bipartisan Support From Ex-Solicitors General Ahead
2010-06-22T16:37:46Z,J&J 's Weldon,Asked,Come
2010-06-22T16:39:25Z,African Equities,Slide,0.4 %
2010-06-22T16:39:25Z,Equities,Slide,0.4 %
2010-06-22T16:39:25Z,South African Equities,Slide,0.4 %
2010-06-22T16:42:39Z,Barclays Bought Lehman,in,Riskiest Week of My Life
2010-06-22T16:43:21Z,Brazil,in,Northeast
2010-06-22T16:43:21Z,Flooding,Leaves,38 Dead
2010-06-22T16:54:47Z,Court Officials,Say on,Bond Today
2010-06-22T16:58:48Z,Geithner,Says,Credit Access Improving
2010-06-22T16:59:50Z,Democrat Brown,Pushes to,Manufacturers
2010-06-22T16:59:50Z,Manufacturers,in,Energy Measure
2010-06-22T17:00:00Z,California House Price,Rises on,Use
2010-06-22T17:00:00Z,California Median House Price,Rises on,Use of Tax Credits
2010-06-22T17:09:59Z,JPMorgan,Shuffles Executives as,Part of Succession Plan
2010-06-22T17:12:32Z,$ 110 Million Stake,in,Tokyo Star Bank
2010-06-22T17:41:49Z,Uruguay,Advance at,World Cup Tournament
2010-06-22T17:43:32Z,McChrystal Summoned,With,Job on Line
2010-06-22T17:43:55Z,World,of,Happy Stories
2010-06-22T17:56:56Z,KGHM Joint Venture,Approved by,Abacus Shareholders
2010-06-22T18:09:27Z,4 %,in,Chicago
2010-06-22T18:09:27Z,Oat Futures Rise,in,Five Months
2010-06-22T18:15:38Z,Morgan,Say on,Tight Supply
2010-06-22T18:19:26Z,Three Weeks,in,New York
2010-06-22T18:29:04Z,Copper Prices Rise,in,N.Y.
2010-06-22T18:37:27Z,Labor Board,Full for,Time
2010-06-22T18:37:27Z,U.S. Senate,Confirms,Nominees
2010-06-22T18:41:21Z,Patriot,Plunges on,West Virginia Mine Closure
2010-06-22T18:48:00Z,Cattle,Climb After,U.S. Meat Prices Advance
2010-06-22T18:53:13Z,Gold,Ease,Enhancing Investment Appeal
2010-06-22T19:03:05Z,Buffett,Wins World Cup Bet as,France Falls
2010-06-22T19:03:18Z,U.S. Interest-Rate Swap Spreads,Increase,Bond Issuance Slows
2010-06-22T19:21:50Z,First Time,in,Six Days
2010-06-22T19:21:52Z,NHL,of,Edmonton Oilers
2010-06-22T19:21:52Z,Tom Renney,Is Coach of,NHL 's Edmonton Oilers
2010-06-22T19:22:05Z,Portuguese Mortgage-Backed Bonds,Get,Moody 's Review for Possible Downgrade
2010-06-22T19:23:22Z,Mukherjee,Says,India Economic Growth May Exceed
2010-06-22T19:35:53Z,Soybean Prices,Meet,Expectations
2010-06-22T19:38:08Z,Colombia 's Peso,Strengthens on,End
2010-06-22T19:48:21Z,Layton,Says to,Debate Potential Budget Windfalls
2010-06-22T19:50:59Z,Exempt Auto Dealers,in,Finance Bill
2010-06-22T19:57:29Z,Oats Rise,Thwarts,Planting
2010-06-22T19:57:29Z,Wet Weather,in,Canada
2010-06-22T20:06:17Z,Meltdown,in,Urs Fischer Show
2010-06-22T20:06:17Z,Mogul Peter Brant,Has,Meltdown in Urs Fischer Show
2010-06-22T20:09:00Z,Steven Cohen 's Manet,Fetches,Record $ 33.2 Million
2010-06-22T20:09:02Z,Oil Companies,in,Limbo
2010-06-22T20:12:16Z,Drop,in,Home Sales
2010-06-22T20:12:16Z,Record Low Two-Year Auction Yield,Drop in,Home Sales
2010-06-22T20:13:41Z,BP May Use Cheaper Arbitration,Resolve,Clash
2010-06-22T20:14:22Z,Gaps,in,Health Data
2010-06-22T20:14:22Z,Health Data,Panelists at,Hearing
2010-06-22T20:17:48Z,Prosecutors,Seek Million Forfeiture in,Lawsuit
2010-06-22T20:18:45Z,Lan May,Generate,30 % Cargo Traffic Increase
2010-06-22T20:21:39Z,Plunge,in,VIX
2010-06-22T20:21:39Z,Stock Returns,in,U.S.
2010-06-22T20:28:46Z,Canada,Says,Hogs Negative for Foot
2010-06-22T20:28:46Z,Hogs,Negative for,Foot
2010-06-22T20:28:46Z,Pork Plant,in,Alberta Test
2010-06-22T20:41:13Z,U.S. Lawmakers,Approve,Two-Year Extension
2010-06-22T20:45:55Z,Oil Falls,in,New York
2010-06-22T20:50:27Z,Canadian Stocks,Decline as,Commodity Producers Fall on U.S. Home Resales
2010-06-22T20:50:27Z,Stocks,Decline as,Commodity Producers Fall
2010-06-22T20:52:25Z,JPMorgan Said Barclays,Misled,Judge
2010-06-22T20:53:20Z,Treasury Sells Two-Year Notes,With,Inflation Subdued
2010-06-22T20:55:59Z,Global Stocks,End,Longest Rally
2010-06-22T20:55:59Z,Stocks,End Longest Rally in,11 Months
2010-06-22T21:01:50Z,Google,Sued Over,Google Voice
2010-06-22T21:03:23Z,Borders,Offers Card as,Rivals Cut Prices
2010-06-22T21:09:49Z,Yen,Rises,Unexpected U.S. Home Sales Drop
2010-06-22T21:14:26Z,South Korea,Move to,World Cup Round of 16 With Mexico
2010-06-22T21:14:26Z,World Cup Round,With,Mexico
2010-06-22T21:14:35Z,BP Default Swaps Rise,in,Gulf
2010-06-22T21:14:49Z,BOJ,for,New Lending Program
2010-06-22T21:14:49Z,Sumitomo Mitsui,Apply for,BOJ 's New Lending Program
2010-06-22T21:15:44Z,Home Sales,Spur,Recovery Concern
2010-06-22T21:19:42Z,Risk-Retention Rule,Debated by,U.S. House Negotiators
2010-06-22T21:21:47Z,New York City 's Stuyvesant Town Foreclosure,Wins,Federal Court Approval
2010-06-22T21:22:19Z,Elizabeth Warren,Should Head,Consumer Agency
2010-06-22T21:25:51Z,Mexican Peso Falls,in,Four Days on U.S. Growth Concern
2010-06-22T21:26:17Z,Adobe Sales Forecast,Tops Estimates on,Demand
2010-06-22T21:28:05Z,Australian Rules Football,Seeks,Review Reports
2010-06-22T21:28:05Z,New York City,Gets,Buffett Yield
2010-06-22T21:28:05Z,Rules Football,Seeks,Review Reports
2010-06-22T21:28:05Z,Water System,Boosts,Debt Sale
2010-06-22T21:32:12Z,England Beats Australia,in,First One-Day Cricket Match
2010-06-22T21:35:11Z,Rehab,Aim at,Mid-July Return
2010-06-22T21:37:13Z,Australia May,Be Considering,Change
2010-06-22T21:42:53Z,Osaka Exchange Seeks Merger,With,Tokyo Commodity Exchange
2010-06-22T21:47:27Z,Extra,From Retirement,Nikkei
2010-06-22T21:53:45Z,Fannie Mae Mortgage Bond Yields Decline,in,Year
2010-06-22T22:00:58Z,Argentine Bonds,Fall on,Billion Debt Swap
2010-06-22T22:00:58Z,Bonds,Fall on,Billion Debt Swap
2010-06-22T22:01:35Z,Serena Williams Opens Wimbledon Defense,With,Win Over Larcher de Brito
2010-06-22T22:12:00Z,Canada,Discuss,First Quantum Expropriation
2010-06-22T22:24:29Z,BP,Adds Lobbyists to,Washington Team
2010-06-22T22:24:29Z,Lobbyists,With,Gulf Lawmaker Ties
2010-06-22T22:27:05Z,Biggest Discounter,in,Germany
2010-06-22T22:27:05Z,GM 's Opel,Passes Fiat After,Sales
2010-06-22T22:27:44Z,Hulu Said,in,Talks With CBS
2010-06-22T22:27:44Z,Talks,With,CBS
2010-06-22T22:38:58Z,U.S.,Clinch,Spot
2010-06-22T22:39:06Z,Petrobras $ 25 Billion Share Sale May,Be Delayed,Reserves Price Set
2010-06-22T22:39:06Z,Petrobras $ Billion Share Sale May,Be Delayed,Reserves Price Set
2010-06-22T22:39:06Z,Petrobras Billion Share Sale May,Be,Delayed
2010-06-22T22:42:30Z,Dish Network Customers,Lose Access to,Four Disney High-Definition Channels
2010-06-22T22:45:19Z,Employees ' Role,in,$ 30 Million Fraud Case
2010-06-22T22:51:22Z,Argentina,Move Uruguay to,World Cup Round With Mexico
2010-06-22T22:51:22Z,World Cup Round,With,Mexico
2010-06-22T22:56:06Z,2.80,at Shares,21st Reports
2010-06-22T23:00:01Z,Water-Resources Market,Expands With,Study Reports
2010-06-22T23:01:02Z,BP 's Gulf Oil Spill Costs,Accelerate as,Cleanup Work Peaks
2010-06-22T23:03:27Z,Eastern New Century Aims,in,5 Years
2010-06-22T23:04:34Z,Mexico,Vows,Revenge for 2006 World Cup Elimination
2010-06-22T23:10:01Z,China,on,Offshore Pipelines
2010-06-22T23:31:24Z,BMW Dealership Workers,in,China
2010-06-22T23:32:34Z,Australia,From,Newcastle Port Rise
2010-06-22T23:38:06Z,State Economist,Writes in,Daily
2010-06-22T23:38:06Z,Yuan,Global Currency,State Economist Writes
2010-06-22T23:40:38Z,Tokyo,Most Expensive for,Foreigners
2010-06-22T23:56:40Z,Texas Rangers,Agree on,Restructuring Officer
2010-06-23T01:02:32Z,New Zealand May Record 0.6 % Growth,in,Recovery
2010-06-23T01:17:30Z,Argentina 's Lionel Messi Plots World Cup,Win to,Match Maradona 's Success
2010-06-23T01:17:30Z,Match Maradona,to,Success
2010-06-23T03:28:04Z,Storms,May Strengthen in,Hampering Oil Cleanup
2010-06-23T04:01:01Z,Deepwater Drilling Ban,Lifted by,New Orleans Federal Judge
2010-06-23T04:01:01Z,DiPascali,Free on,Bail
2010-06-23T04:18:38Z,Second Day,for Declines,Stock Losses
2010-06-23T05:15:46Z,BHP,Quashes,Retailers
2010-06-23T05:15:46Z,China,Divides,Australia Into Two-Speed Economy
2010-06-23T06:50:31Z,Aderans,Enlists,1978 Beauty Queen
2010-06-23T07:01:12Z,Japan 's Bond Yields,Decline to,Lowest
2010-06-23T07:53:55Z,Yuan,Holds,Advance
2010-06-23T08:20:27Z,Norway May,Leave,Benchmark Rate Unchanged
2010-06-23T09:50:17Z,More Factories,in,Indonesia
2010-06-23T09:50:17Z,P&G,Steps Up,Competition
2010-06-23T11:24:26Z,Shopper 's Stop,Rises,Highest
2010-06-23T12:05:37Z,Bankers,Find,Prime Minister 's New Politics ' Comes
2010-06-23T16:13:18Z,Carbon Spread,Narrows,Traders Bet On Fewer UN Credits
2010-06-23T16:13:18Z,Traders,Bet On,Fewer UN Credits
2010-06-23T16:48:02Z,Salzgitter 's Europipe,Share,Cost Risks
2010-06-23T17:28:19Z,French Team,Improve,Its Image
2010-06-23T17:28:19Z,Team,Faces,Fight
2010-06-23T18:18:14Z,Emirates Growth Splurge,Rattles,Long-Haul Rivals
2010-06-23T18:28:45Z,Junk Bonds,Revive on,Bernanke Economy
2010-06-23T19:29:20Z,Canwest,of,Television Unit
2010-06-23T20:26:17Z,Honda 's Ito,Defends,Fuel Efficiency Lead
2010-06-23T20:54:26Z,Canada,Stocks,Rise
2010-06-23T20:54:26Z,Gold Shares,Research In,Motion Advance
2010-06-23T20:54:26Z,Research,In,Motion Advance
2010-06-23T22:36:17Z,U.K. Banks Dodge Bullet,With,Lower-Than-Expected
2010-06-24T04:35:43Z,Nissan Factories,Halted by,Strikes
2010-06-24T15:54:00Z,Dana Petroleum Fall,in,London
2010-06-24T15:54:00Z,Rio Tinto,Fall in,London
2010-06-24T15:55:02Z,British Airways,Advertises,Labor Dispute Goes On
2010-06-25T20:39:37Z,World Cup Collated,Schedule,Results Through June 25
2010-09-21T23:23:41Z,New Zealand Current-Account Deficit,Widens to,3 %
