2010-06-28T00:03:42Z,Copper,in,London Gains
2010-06-28T00:17:06Z,Treasuries Rise,Matches,2010 Low
2010-06-28T00:33:59Z,Noticeable Boost,in,Overseas Operations
2010-06-28T00:52:55Z,Fears Extremists,Coming to,Power
2010-06-28T00:52:55Z,Russia 's Medvedev,Welcomes,Fears Extremists Coming
2010-06-28T01:00:00Z,Banking Bill,Invites,Next Meltdown
2010-06-28T01:00:00Z,Stocks,With,High Profit
2010-06-28T01:26:05Z,Fans,Burn Out at,Rock Festivals
2010-06-28T01:43:16Z,Coal,of Use,Chronicle Reports
2010-06-28T01:43:16Z,Reliance Power Seeks Use,in,Additional Plant
2010-06-28T01:46:55Z,India,'s Telecom,Business Standard Reports
2010-06-28T01:46:55Z,MTN May,Acquire,Stake
2010-06-28T01:46:55Z,Stake,in,India 's Loop Telecom
2010-06-28T01:47:51Z,Stocks,Rise,Most
2010-06-28T01:47:51Z,Xinjiang-Based Stocks,Rise,Most in Shanghai Composite
2010-06-28T01:52:22Z,News,Cites,State Researcher
2010-06-28T02:03:01Z,$ 119 Million,in,Hong Kong Offer
2010-06-28T02:07:19Z,Asia Fixed-Income Team,in,Hong Kong
2010-06-28T02:07:19Z,Credit Agricole,Hires,Five People
2010-06-28T02:07:38Z,Airline Debt,Protect,Loans
2010-06-28T02:07:38Z,Banks,Refinance,Airline Debt
2010-06-28T02:07:38Z,Indian Banks,Refinance,Airline Debt
2010-06-28T02:22:02Z,Bond Risk Falls,in,Australia
2010-06-28T02:27:37Z,Match Mediaset Price,to Italia,FT Reports
2010-06-28T02:31:41Z,Corn Drops,Decline on,Favorable Weather in U.S.
2010-06-28T02:31:41Z,Favorable Weather,in,U.S.
2010-06-28T02:35:01Z,Vietnam Sells Cargo,in,August
2010-06-28T02:45:14Z,Car Demand,Rises in,U.S.
2010-06-28T02:45:14Z,Honda,Boosts Asia,Car Demand Rises
2010-06-28T03:10:50Z,Citigroup,Adds Risk on,Expectations of Stocks
2010-06-28T03:38:12Z,RTHK,Says Against,Andrew Lam
2010-06-28T03:40:40Z,Essar Oil Shares Gain,in,Mumbai
2010-06-28T03:44:45Z,Its $ 4 Billion Stake,in,Gas-Monopoly Gazprom
2010-06-28T03:48:10Z,Copper Trades,Erasing,1 %
2010-06-28T03:56:47Z,China Coal Stocks,Fall in,Hong Kong
2010-06-28T03:56:47Z,China Coal Stocks Fall,in,Hong Kong
2010-06-28T03:56:47Z,Hong Kong,Shanghai After,Order
2010-06-28T03:59:04Z,BP Pledges Its Shares,in,Russia 's Rosneft
2010-06-28T03:59:04Z,Russia,in,Rosneft
2010-06-28T03:59:28Z,New Zealand 's Business Confidence,Declined After,Rate Increases
2010-06-28T04:00:00Z,Excessive Rain,Helps,Crops
2010-06-28T04:00:00Z,Soybean Acres,in,U.S. May Advance From March Estimate
2010-06-28T04:00:00Z,Soybeans,May Decline,Excessive Rain Helps
2010-06-28T04:00:00Z,TNT May,Be,Active
2010-06-28T04:00:01Z,Veto New York Lawmakers ' Spending Plans,in,Budget
2010-06-28T04:00:05Z,Bank-Rescue Measure,Proving,Liability
2010-06-28T04:00:54Z,Longest,Winning Streak Since,2008
2010-06-28T04:00:54Z,Sovereigns,Are,Poised
2010-06-28T04:01:00Z,Ex-Stripper,Crams,Sports Betting
2010-06-28T04:01:00Z,Friedman,Politics for,Music Tour
2010-06-28T04:01:00Z,Malt Auctions,Draw,Fans
2010-06-28T04:01:00Z,Single Malt Auctions,Draw,Fans
2010-06-28T04:01:00Z,Whisky,Beats,Record Lafite
2010-06-28T04:01:01Z,Higher Bank Capital,Avert,Financial Crisis
2010-06-28T04:01:02Z,Jamie Moyer,Allows,Baseball Record Homer
2010-06-28T04:01:03Z,Consumer Spending,in,U.S. Probably Little Changed as Incomes Rose
2010-06-28T04:06:12Z,Indonesia,to,Smart
2010-06-28T04:06:12Z,ZTE Will,Sell,Equipment to Indonesia 's Smart
2010-06-28T04:12:18Z,Vietnam,in,July
2010-06-28T04:30:00Z,African Rand,Strengthens in,Early Johannesburg Trade
2010-06-28T04:30:00Z,Rand,Strengthens in,Johannesburg Trade
2010-06-28T04:30:00Z,South African Rand,Strengthens Against,Dollar
2010-06-28T04:35:38Z,Astellas Pharma,Settlement Over,Incontinence Medicine Vesicare
2010-06-28T04:37:32Z,Vallourec,Has,Seen Rebound Since First-Quarter Low Point
2010-06-28T04:42:26Z,Central China,in,Henan Province
2010-06-28T04:47:57Z,Yankees Rally 8-6,in,10th
2010-06-28T04:56:08Z,Gold May,Climb as,Investor Demand Gains
2010-06-28T04:58:13Z,Thanachart Shares,Climb to,Highest
2010-06-28T05:00:05Z,BP,Plugging,Leaking Oil Well
2010-06-28T05:00:26Z,Advance,in,Crude
2010-06-28T05:00:26Z,Demand Outlook,as Gains,Soybeans
2010-06-28T05:07:01Z,Aareal Bank,Starts,Repayment
2010-06-28T05:16:29Z,Oil,Pares Gains,Rising to Seven-Week High
2010-06-28T05:19:16Z,Skyworth Declines,in,Hong Kong
2010-06-28T05:20:21Z,Corn,Has Longest Loss Since,March
2010-06-28T05:21:10Z,Increase,in,India
2010-06-28T05:21:10Z,India,in Increase,Oldest Jeweler
2010-06-28T05:22:34Z,Gillard,From,Cabinet
2010-06-28T05:22:34Z,Rudd,Excluded,Ousted
2010-06-28T05:23:35Z,Peugeot Citroen,Lifts,Lettre de L'Expansion Reports
2010-06-28T05:31:23Z,New Zealand Prime Minister Key Eyes Panda-for-Kiwi Exchange,in,China
2010-06-28T05:50:40Z,Fighters,in,Oil-Rich Delta
2010-06-28T05:50:40Z,Nigeria,Reintegrate,Fighters in Oil-Rich Delta
2010-06-28T05:52:56Z,EADS Chief Executive Gallois,Predicts Golden Shares for,France
2010-06-28T05:58:54Z,Hungary,Target to,IMF
2010-06-28T05:58:54Z,Varga,Tells,Hirlap
2010-06-28T05:58:58Z,Gunmen,Blow Up,Natural Gas Pipeline in Sinai
2010-06-28T05:58:58Z,Natural Gas Pipeline,in,Sinai
2010-06-28T06:00:08Z,Companies Fear Collapse,Die,Welt Survey of 700 Firms
2010-06-28T06:00:08Z,German Companies Fear Collapse,Die,Welt Survey
2010-06-28T06:03:50Z,10-Year Yield,Stays at,2.62 %
2010-06-28T06:03:50Z,Yield,Stays at,2.62 %
2010-06-28T06:04:00Z,European Union Carbon Allowances,Climb,1.1 %
2010-06-28T06:04:00Z,London,in,Climate Exchange
2010-06-28T06:05:53Z,Brazauskas,Dies After,Illness
2010-06-28T06:06:06Z,Pan African Resouces,Sees,Full-Year Earnings
2010-06-28T06:14:40Z,BaFin Call,Meeting With,German Banks
2010-06-28T06:19:32Z,France,Warned by,European Commission
2010-06-28T06:23:02Z,Chief,Tells,Il Sole
2010-06-28T06:23:02Z,Prysmian Sees Business Recovery Signs,in,Second Half
2010-06-28T06:25:52Z,Increase,in,Fuel Prices
2010-06-28T06:25:52Z,Togolese Labor Unions,Threaten General Strike Over,Increase
2010-06-28T06:27:18Z,Australian Dollar,Strengthen,Won
2010-06-28T06:31:50Z,KazMunaiGaz May,Buy Back,as Much as 37 % of London-Listed KazMunaiGas EP
2010-06-28T06:32:16Z,Eqstra Holdings,Raises,$ 86 Million
2010-06-28T06:36:07Z,100 People,in,India
2010-06-28T06:36:25Z,10-Year Yield,Rises,2 Basis Points
2010-06-28T06:36:25Z,Yield,Rises,2 Basis Points
2010-06-28T06:38:06Z,London Listing,Is,Postponed
2010-06-28T06:40:48Z,Allens Arthur,Adds Finance in,Singapore
2010-06-28T06:41:12Z,Bank,in,Bid
2010-06-28T06:47:54Z,Malawi Tobacco,Leaves,Traded 2 % Above Government-Set Price
2010-06-28T06:48:09Z,Reliance Industries,Makes Seventh Oil Discovery in,Gujarat
2010-06-28T06:48:09Z,Seventh Oil Discovery,in,Cambay Basin
2010-06-28T06:48:26Z,Egypt,in Merger,Alam
2010-06-28T06:48:26Z,Pioneers-Beltone Merger,in,Egypt Delayed by Volatile Market
2010-06-28T06:49:10Z,May,Leave,Benchmark Interest Rate Unchanged
2010-06-28T06:55:40Z,La Nina May Damage Soybean Crops,in,Biggest Exporters
2010-06-28T07:01:46Z,Taylor Wimpey,Sees Focuses in,First-Half Home Sales
2010-06-28T07:02:16Z,Ruble,Strengthens,Most
2010-06-28T07:02:54Z,Cut Government Role,in,Economy
2010-06-28T07:02:54Z,Ukraine,Role in,Economy
2010-06-28T07:06:47Z,List,in,London
2010-06-28T07:06:47Z,Shares,List in,London
2010-06-28T07:12:39Z,U.S. Operations,Focus on,Asia
2010-06-28T07:15:23Z,Banco Popolare Shares,Are Rated,Buy
2010-06-28T07:41:26Z,European Stocks,Erase,Advance
2010-06-28T07:41:26Z,Stocks,Erase,Advance
2010-06-28T07:44:55Z,Rostelecom May,Save Million on,Consolidation of Regional Units
2010-06-28T07:49:09Z,Euro,Extends,Decline Against U.S. Dollar
2010-06-28T07:49:43Z,China Inventories,Drop by,Most
2010-06-28T07:53:38Z,European Stocks,Erase,Losses
2010-06-28T07:53:38Z,Stocks,Erase,Losses
2010-06-28T07:55:35Z,Insurance,in,Nigeria
2010-06-28T08:06:05Z,Aluminum Producers,in,Henan Province Cut Production
2010-06-28T08:11:01Z,Oil,Pares Gains,Rising to Seven-Week High
2010-06-28T08:12:04Z,Clijsters,in,Wimbledon Fourth-Round Matchup
2010-06-28T08:16:19Z,$ 141 Million,in,U.S Financing
2010-06-28T08:16:19Z,EDP Renovaveis,Secures Million From,Wells Fargo Wind
2010-06-28T08:16:49Z,Flour Mills,Seeking,Cheaper Grain
2010-06-28T08:17:52Z,Economy,Expands for,Exports
2010-06-28T08:17:52Z,European Loan Growth,Accelerates,Economy Expands on Demand
2010-06-28T08:17:52Z,Loan Growth,Accelerates,Economy Expands on Demand for Exports
2010-06-28T08:19:13Z,Liquidity Available,of Plenty,ING
2010-06-28T08:21:51Z,Euro,Erases,Decline Versus
2010-06-28T08:31:09Z,Banks,Drop on,Mizuho 's Share-Sale Plan
2010-06-28T08:31:09Z,Japanese Banks,Drop on,Mizuho 's Share-Sale Plan
2010-06-28T08:31:09Z,Mizuho,on,Share-Sale Plan
2010-06-28T08:33:49Z,G-20,Responds to,Debt Crisis
2010-06-28T08:37:52Z,Holes,in,Shariah Bank Services
2010-06-28T08:37:52Z,Malaysia,Filling,Holes in Shariah Bank Services
2010-06-28T08:41:52Z,Hong Kong Stocks,Rise for,First Time
2010-06-28T08:41:52Z,Hong Kong Stocks Rise,in,3 Days
2010-06-28T08:47:28Z,Nigeria,Clears,Fired Bank Directors for New Positions
2010-06-28T09:02:14Z,Petrobras Discovers Natural Gas,in,Well
2010-06-28T09:04:06Z,Iranian Trade,Is,Squeezed
2010-06-28T09:04:06Z,Trade,Is Squeezed by,Business Group
2010-06-28T09:17:16Z,Iberdrola,Is,Downgraded to Neutral on Regulatory Risk
2010-06-28T09:18:38Z,EU Carbon Allowances Little,Changed as,Oil Declines
2010-06-28T09:27:01Z,AIB,for,Bank Zachodni
2010-06-28T09:27:01Z,May,Help PKO Bid,Price Is Right
2010-06-28T09:35:03Z,Noble Group,Extends,Offer Period
2010-06-28T09:52:29Z,China,Be Forced,May
2010-06-28T09:59:17Z,It,Seeks,Controls
2010-06-28T10:00:00Z,Banks,Need,More Capital
2010-06-28T10:00:00Z,Inflation,Slowed as,Gas Offset Oil
2010-06-28T10:00:00Z,Less Borrowing,of Model,BIS
2010-06-28T10:00:00Z,Six States,Say,Inflation Slowed
2010-06-28T10:00:00Z,States,Say,Inflation
2010-06-28T10:01:13Z,Robert Byrd,Dies at,92
2010-06-28T10:06:15Z,Demand,Weakens From,Previous Auction
2010-06-28T10:06:20Z,Oil Spurs World,as,Highest Growth
2010-06-28T10:08:51Z,Caltagirone,Buys,Million Week
2010-06-28T10:14:05Z,Berlin Police,Recover Caravaggio Painting Stolen in,Odessa Three Years
2010-06-28T10:19:48Z,Pioneers-Beltone Merger,Said,Depend
2010-06-28T10:20:59Z,Meirelles,Says,Valor Economico Reports
2010-06-28T10:21:04Z,Iran,'s Sells,Stake Worth
2010-06-28T10:31:24Z,Water-Purifier Maker Chaoyue,Surges,as Much as 60 %
2010-06-28T10:56:15Z,Euro,Weakens Against,Japanese Yen
2010-06-28T11:01:01Z,Silicon Laboratories,Granddaughter 's,Gucci
2010-06-28T11:04:04Z,African Stocks,Fall for,Day
2010-06-28T11:04:04Z,Anglo,Climb,BHP
2010-06-28T11:04:04Z,South African Stocks,Fall for,Day
2010-06-28T11:04:04Z,Stocks,Fall for,Day
2010-06-28T11:06:06Z,Fuel Price Regulation,of Scrapping,Refiners
2010-06-28T11:06:06Z,India,'s Scrapping,Refiners
2010-06-28T11:10:51Z,JPMorgan,Pushes,Back 2011 Euro-Dollar Forecast
2010-06-28T11:12:44Z,India,as,Sensex Advances
2010-06-28T11:12:44Z,Natural Gas,Lead as,India 's Sensex Advances
2010-06-28T11:12:44Z,Oil,Lead as,India 's Sensex Advances
2010-06-28T11:12:44Z,Reliance Communications,Lead as,India 's Sensex Advances
2010-06-28T11:21:39Z,Nigeria Returns,of Bank,Chief Executive
2010-06-28T11:23:32Z,Noble Will Acquire Frontier,in,Agreement Valuing Driller
2010-06-28T11:28:48Z,Iran,Denounces,CIA Chief 's Remarks
2010-06-28T11:34:41Z,Sands China,Seeks Airline Partner to,Macau
2010-06-28T11:35:01Z,Emlak Konut Property,Hires,TSKB
2010-06-28T11:35:01Z,TSKB,UniCredit for,Turkish Public Offering
2010-06-28T11:42:04Z,Rupee,Rises as,Foreign Investors ' Holdings
2010-06-28T11:48:48Z,Harmony Gold,Says,Booby Trap ' Explosive Devices Found at Its Phakisa Mine
2010-06-28T11:50:59Z,Greece,Sues,Monastery
2010-06-28T11:58:04Z,Akzo,in,Court News
2010-06-28T11:58:04Z,Deutsche Bank,Akzo in,Court News
2010-06-28T12:04:57Z,Advance,in,Five
2010-06-28T12:04:57Z,First Day,for Advance,G-20 Pledge
2010-06-28T12:04:57Z,Five,in Advance,G-20 Pledge
2010-06-28T12:08:45Z,Equatorial Guinea 's President,Says,No Public Funds Transferred Overseas
2010-06-28T12:08:45Z,Koza Altin,Buys,Million
2010-06-28T12:08:45Z,Newmont,'s Unit,Million
2010-06-28T12:13:22Z,Somali Breakaway Region,'s Standards,Observers
2010-06-28T12:19:26Z,Consob 's Cardia,Says,European Union Needs
2010-06-28T12:19:26Z,European Union Needs,Define,New Market Regulator
2010-06-28T12:40:26Z,Forecast Faster Growth,Inflation for,Year
2010-06-28T12:50:14Z,$ 3 Billion,in,U.S. Technology Contracts
2010-06-28T12:50:14Z,Obama 's Budget Office,Puts,$ 3 Billion in U.S. Technology Contracts
2010-06-28T12:56:12Z,FTSE 100 Index,Is,Little Changed
2010-06-28T12:56:12Z,FTSE Index,Is,Little Changed
2010-06-28T12:58:51Z,Pound Gains,Will,Will Limited
2010-06-28T13:06:56Z,Copper,Rises for,Third Day
2010-06-28T13:08:19Z,Capello,Faces Decision in,2 Weeks
2010-06-28T13:18:43Z,Economic Growth Outlook,Offsets,Equity Decline
2010-06-28T13:22:21Z,Corporate Bond Risk Declines,in,Europe
2010-06-28T13:30:43Z,Vatican,Admits to,Errors
2010-06-28T13:38:29Z,Gaza Rocket,Hits,South Israel
2010-06-28T13:54:28Z,Albaugh,of Purchase,Analysts
2010-06-28T13:54:28Z,Makhteshim,'s Purchase,Analysts
2010-06-28T13:57:56Z,Leu,Weakens to,Record Low
2010-06-28T13:57:56Z,Romanian Leu,Weakens to,Record Low
2010-06-28T13:59:05Z,Advance,in,Five Days
2010-06-28T14:01:36Z,26 %,by Movie,Italian Soccer Package Price
2010-06-28T14:01:36Z,News Corp. 's Sky Italia,Reduces,Movie
2010-06-28T14:02:07Z,Apple IPhone,Sets,Sales Record
2010-06-28T14:02:07Z,Apple IPhone 4,Sets,Sales Record
2010-06-28T14:05:50Z,Infigen 42-Megawatt Wind Farm Construction,in,Australia
2010-06-28T14:11:02Z,Securities Fraud Appeal,Gets Supreme Court Review on,Restrictions
2010-06-28T14:11:35Z,GDP Outlook,Offsets,Gain in U.S. Treasuries
2010-06-28T14:11:35Z,Gain,in,U.S. Treasuries
2010-06-28T14:11:52Z,Ex-MAN Turbo Chief Convicted,Gets,Suspended Sentence
2010-06-28T14:14:54Z,Capello,Faces Decision on,Future
2010-06-28T14:15:17Z,Stocks,Led as,Oil Falls
2010-06-28T14:30:24Z,Nokia Technologist,Leaves,Company for TomTom
2010-06-28T14:30:24Z,Symbian Veteran Davies,Leaves,Company
2010-06-28T14:36:07Z,Burundi,Finishes,Voting
2010-06-28T14:36:07Z,President,Is,Only Candidate
2010-06-28T14:36:49Z,G-20 Deficit Plan,Boosts,Risk Appetite
2010-06-28T14:36:49Z,Rand,Snaps,Four Days of Declines
2010-06-28T14:37:34Z,German Lawmakers,Soften,Approve BaFin Role
2010-06-28T14:37:34Z,Lawmakers,Soften,Financial Instrument Ban Bill
2010-06-28T14:37:48Z,May,Encourage,Competition
2010-06-28T14:37:48Z,Power,Almunia 's,EU
2010-06-28T14:49:23Z,Rio CEO Albanese,Says,Iron-Ore Pricing May End If Mills Default
2010-06-28T14:51:56Z,Gold,Retreating in,London
2010-06-28T14:58:52Z,Fitch Affirms Brazil Long-Term Credit Rating,Revises to,Positive
2010-06-28T14:59:18Z,Fischer,Keeps,Israel 's Key Interest Rate Unchanged
2010-06-28T15:00:35Z,BP,Will Send,Crude to Platforms
2010-06-28T15:01:18Z,AgriBank IPO May,Raise,Billion
2010-06-28T15:05:30Z,French Soccer Head Jean-Pierre Escalettes,Quits After,World Cup Fiasco
2010-06-28T15:05:30Z,Soccer Head Jean-Pierre Escalettes,Quits After,World Cup Fiasco
2010-06-28T15:06:53Z,24 People,in,Money-Laundering Investigation
2010-06-28T15:09:10Z,European Spreads,Widen Amid,Italian Bond Auction
2010-06-28T15:09:10Z,Spreads,Widen Amid,Bond Auction
2010-06-28T15:13:58Z,Fluctuate Following Growth,in,Spending
2010-06-28T15:17:42Z,Turkey,Denies,Military Flight Air Access
2010-06-28T15:18:18Z,Hungary,Should,Scrap Proposed Changes to Budget Rules
2010-06-28T15:25:58Z,Gain,in,Five Days
2010-06-28T15:28:24Z,Seven-Week High,in,New York
2010-06-28T15:30:52Z,Toronto 's Financial Sector,Returning,Work After Violent G-20 Protests
2010-06-28T15:36:05Z,Colombia Tapped Ecuador President Correa,'s Telephones,El Universo Reports
2010-06-28T15:37:00Z,Samsung Plans Galaxy Smartphone,Launch,Compete
2010-06-28T15:42:58Z,Pound,Climbs to,7-Week High Versus Dollar
2010-06-28T15:47:51Z,Citigroup 's Parsons,Says,Financial-Services Plan
2010-06-28T15:47:51Z,Financial-Services Plan,Make,Big Banks Bigger
2010-06-28T15:52:43Z,Biggest Botswana Listing,in,4 Years
2010-06-28T15:52:43Z,Cresta,Rises,6.9 %
2010-06-28T15:55:11Z,58 % Surge,in,Intentional Auto Crashes
2010-06-28T15:55:11Z,Florida Insurance Fraud,Climbs on,Surge
2010-06-28T15:57:27Z,New Planes,Must,Show Ability
2010-06-28T15:57:27Z,Show Ability,Withstand Icing After,Crash
2010-06-28T16:00:44Z,Gold Declines,in,New York
2010-06-28T16:01:14Z,Guipuzcoano,Are,Active
2010-06-28T16:09:50Z,Court Fine,in,U.K. 's Biggest Cartel Probe
2010-06-28T16:09:50Z,U.K.,in,Biggest Cartel Probe
2010-06-28T16:13:05Z,Leu,Weakens to,Record Low
2010-06-28T16:13:05Z,Romanian Leu,Weakens to,Record Low
2010-06-28T16:18:30Z,GE Capital,Hires Matthews for,Europe Leveraged-Finance Unit
2010-06-28T16:29:02Z,Stocks Rally,in,Europe
2010-06-28T16:35:59Z,European Banks,Disclose Enough Data on,Risks Tied
2010-06-28T16:35:59Z,Few European Banks,Disclose Enough Data on,Risks
2010-06-28T16:37:05Z,China Datang,Starts,Construction
2010-06-28T16:42:02Z,Jefferies,Hires Robert Foster to,Head Europe Consumer Investment-Banking
2010-06-28T16:51:17Z,Robert Byrd,Dies at,92
2010-06-28T17:07:03Z,Le Monde,Accepts,Offer
2010-06-28T17:08:05Z,Aladdin Capital Names Innes Global Head,Site 's,Company
2010-06-28T17:18:21Z,U.S. Stocks,Fluctuate as,Tobacco Companies Gain
2010-06-28T17:22:43Z,Bloomberg,Urges,FCC
2010-06-28T17:33:28Z,Kumba Iron Ore,Refuses,Imperial Crown Mine Access
2010-06-28T18:06:38Z,Power,Help Defeat Maria Sharapova at,Wimbledon
2010-06-28T18:06:38Z,Serena Williams,' Serve,Power Help at Wimbledon
2010-06-28T18:08:21Z,American Italian Pasta,Seeking More Money in,Ralcorp Bid
2010-06-28T18:08:21Z,American Pasta,Seeking Money in,Ralcorp Bid
2010-06-28T18:08:21Z,Italian Pasta,Seeking Money in,Ralcorp Bid
2010-06-28T18:08:21Z,Pasta,Seeking More Money in,Ralcorp Bid
2010-06-28T18:15:40Z,Midwest Rains,Reduced,Acreage U.S. Farmers Planted
2010-06-28T18:15:40Z,Rains,Reduced,Acreage U.S. Farmers Planted
2010-06-28T18:15:40Z,Soybeans,Increase,Midwest Rains Reduced
2010-06-28T18:22:13Z,Brazil Credit Rating Outlook,Raised on,Resilience
2010-06-28T18:24:40Z,Hearst,Hires,Cond Nast 's David Carey
2010-06-28T18:37:14Z,U.S. Financial Overhaul Legislation,Would Alter,Bond Regulations
2010-06-28T18:49:30Z,Rain,Hurts,Crops
2010-06-28T18:58:46Z,Andy Roddick,Upset in,Wimbledon Fourth Round
2010-06-28T18:58:46Z,Fifth-Seeded Andy Roddick,Upset by,Yen-Hsun Lu
2010-06-28T19:00:07Z,Torre,Candidate for,Governor
2010-06-28T19:16:02Z,Copper Futures Decline,in,Three Sessions
2010-06-28T19:32:18Z,Drop,in,Crude Price
2010-06-28T19:32:18Z,U.S. Stocks,Give Up Gains on,Drop in Crude Price
2010-06-28T19:33:03Z,Scrutiny,Expand,Fed Balance Sheet
2010-06-28T19:33:03Z,Strict Scrutiny,Expand,Fed Balance Sheet
2010-06-28T19:33:03Z,Warsh,Urges Scrutiny of,Decision
2010-06-28T19:52:08Z,May,Become Hurricane in,48 Hours
2010-06-28T19:54:33Z,Economy Avoids Double Dip,Bank of,America
2010-06-28T20:00:00Z,Women,Pick Up,Pace
2010-06-28T20:01:07Z,Cowen Group,Hires,Thomas O'Mara
2010-06-28T20:01:07Z,Thomas O'Mara,Expand,Options
2010-06-28T20:04:38Z,Boeing Shares Tumble,Cancel,Trades
2010-06-28T20:04:38Z,Exchanges,Cancel,Trades
2010-06-28T20:07:55Z,Noble Will Use Credit Lines,Loans to,Finance Purchase of Frontier
2010-06-28T20:09:45Z,Roddick,Ousted by,82nd-ranked Lu
2010-06-28T20:10:38Z,Hulu,Promotes,Online HD Service on Samsung TVs
2010-06-28T20:11:26Z,Planning,Hire,UBS Investment Banker Leaman
2010-06-28T20:13:33Z,Consumer Spending,in,May Increased More Than Forecast
2010-06-28T20:17:54Z,Obama Focuses,Revised,Space-Exploration Policy
2010-06-28T20:19:33Z,Canada Dollar,in,Three Sessions
2010-06-28T20:21:24Z,Elevation,Buy,Million Stake
2010-06-28T20:21:57Z,Technip Will,Pay,$ 338 Million
2010-06-28T20:26:20Z,Argentine GDP Warrants,Climb to,Two-Month High on Faster Economic Growth
2010-06-28T20:26:20Z,GDP Warrants,Climb to,Two-Month High on Faster Economic Growth
2010-06-28T20:30:53Z,Pentagon,Seeking $ 60 Billion of Savings from,Lower Labor
2010-06-28T20:32:05Z,Philadelphia Newspapers,Wins Approval for,Sale to Lenders
2010-06-28T20:32:05Z,Reorganization,Sale to,Lenders
2010-06-28T20:32:34Z,Impartiality,Debated at,Senate Hearing
2010-06-28T20:32:34Z,Kagan,'s Experience,Impartiality Debated at Senate Hearing
2010-06-28T20:38:34Z,Verizon Asks U.S.,Feeds in,New York
2010-06-28T20:41:11Z,Roger Federer,Reaches,Wimbledon Quarterfinals
2010-06-28T20:44:13Z,U.S. Stocks,Drop,Led
2010-06-28T20:45:42Z,Ex-Boston Provident Trader Levy,Gets,67 Months
2010-06-28T20:47:25Z,Moody,Says,Cap Passed
2010-06-28T20:47:25Z,Wells Fargo Face,Hit,BofA
2010-06-28T21:00:00Z,Eno,in,Mentor Program
2010-06-28T21:00:00Z,Kapoor,Eno in,Mentor Program
2010-06-28T21:05:27Z,Christian Group,'s Rights,Court
2010-06-28T21:06:57Z,Icahn,Says After,Offer
2010-06-28T21:07:00Z,U.S. Data Inflation,Lifts,Greenback Optimism
2010-06-28T21:07:00Z,U.S. Data Muted Inflation,Lifts,Greenback Optimism
2010-06-28T21:07:00Z,U.S. Data Showing Inflation,Lifts,Greenback Optimism
2010-06-28T21:07:00Z,U.S. Data Showing Muted Inflation,Lifts,Greenback Optimism
2010-06-28T21:15:41Z,Double Share,to Aims,Review
2010-06-28T21:22:20Z,CH2M Hill,Offers Million for,Scott Wilson Group to Top Bid
2010-06-28T21:26:07Z,May,Become Hurricane in,48 Hours
2010-06-28T21:30:03Z,Coal-Seam Gas Firms,in,Australia Expecting Tax Compromise
2010-06-28T21:33:17Z,Credited,With,Saving Swiss Watchmaking
2010-06-28T21:33:17Z,Swatch Founder Hayek,Dies at,82
2010-06-28T21:34:33Z,Alinta Energy,For,Power Assets
2010-06-28T21:38:23Z,Tobacco Damages,Rejected by,Supreme Court
2010-06-28T21:38:23Z,Tobacco Damages Sought,Rejected by,Supreme Court
2010-06-28T21:40:03Z,Share,Is,Wider
2010-06-28T21:45:47Z,Emerging-Market Stocks,Snap,Four-Day Drop
2010-06-28T21:45:47Z,Four-Day Drop,Rise on,Deficit Plan
2010-06-28T21:46:02Z,Guinness Peat,Fires,Executive Director Gibbs
2010-06-28T21:46:49Z,Toy Story,Tops,U.S.
2010-06-28T21:46:49Z,Toy Story 3,Tops,Canada Box Office
2010-06-28T21:46:49Z,U.S.,Office for,Second Weekend
2010-06-28T21:48:09Z,Stocks,Rise on,G-20 Growth Pledge
2010-06-28T21:48:29Z,Governor Candidate,Assassinated,Drug Fight Rages
2010-06-28T21:48:29Z,Mexican Governor Candidate,Assassinated in,Tamaulipas
2010-06-28T21:51:01Z,Fed,End Mortgage-Bond Purchases on,Supply
2010-06-28T22:10:18Z,Byrd,'s Death,Republican Fee Concerns Complicate
2010-06-28T22:13:50Z,Bernanke,Paves,Way for Lula Bond Sale
2010-06-28T22:14:39Z,Supreme Court,Leaves,Sarbanes-Oxley Intact
2010-06-28T22:33:34Z,Tatts,Carrying,Value
2010-06-28T22:44:33Z,Start Credit-Card Business,to Plans,Sankei
2010-06-28T22:46:01Z,9.6 %,Fall in,3 Months
2010-06-28T22:46:01Z,Second Fall,in,3 Months
2010-06-28T22:46:34Z,Pingdingshan Tianan,Says,Eight Killed in Accident at One of Its Coal Mines
2010-06-28T22:47:42Z,Gate,on,Stallone Action Film Backed
2010-06-28T22:47:42Z,Movie Futures,Based by,Panel
2010-06-28T22:48:05Z,Election,in,Second
2010-06-28T22:48:05Z,Gillard,Call,Half of Year
2010-06-28T22:52:44Z,Supreme Court,Rejects Bid for,Damages
2010-06-28T22:53:36Z,Tournament,From Suspended,Jiji
2010-06-28T22:55:21Z,Apple Production,in,China
2010-06-28T22:59:05Z,Taiwan Economic Growth May,Hit,8 %
2010-06-28T23:00:01Z,Buyers,Go to,1960s
2010-06-28T23:00:01Z,Fontana,Boosts,Million Art Sale
2010-06-28T23:00:01Z,Value Steak,Wines in,London
2010-06-28T23:00:01Z,Wines,in,London
2010-06-28T23:01:00Z,CBI 's Lambert Will,Leave in,2011
2010-06-28T23:01:00Z,Glaxo 's Avandia,Faces,Potential Recall in U.S. Advisers ' Vote
2010-06-28T23:01:00Z,May,Stall on,Russia 's Corruption Record
2010-06-28T23:01:00Z,Russia,on,Corruption Record
2010-06-28T23:08:30Z,Wheat,in,Chicago Drops
2010-06-28T23:10:15Z,Yunnan Yuntianhua Estimates First-Half Profit,Compared With,Year-Ago Loss
2010-06-28T23:11:18Z,Foxconn,in,Talks on Increasing Investment
2010-06-28T23:11:18Z,Increasing Investment,in,Tianjin
2010-06-28T23:13:10Z,Andy Roddick 's Bid,Is Undone by,Poor Returns
2010-06-28T23:20:44Z,BHP,Against,Iron Ore Venture
2010-06-28T23:20:57Z,on Fast Track,' Brazil,President Candidate Rousseff
2010-06-28T23:36:32Z,Lilly 's Effient Tied,in,Study
2010-06-28T23:51:38Z,Japan 's Industrial Production,Unexpectedly Declined,0.1 %
2010-06-29T00:32:31Z,China,Draws Taiwan Into Economic Embrace With,Trade Pact
2010-06-29T00:37:20Z,Advance,Led by,Phone Companies
2010-06-29T02:17:08Z,Hebei,in,Talks With Atlas
2010-06-29T02:17:08Z,Talks,With,Atlas
2010-06-29T04:09:10Z,Dacheng,Opens in,Hong Kong
2010-06-29T04:09:10Z,Opens,in,Hong Kong
2010-06-29T04:32:49Z,Japan Jobless Rate,Spending,Drops
2010-06-29T05:28:26Z,Storm,Gulf of,Mexico Production Areas
2010-06-29T08:17:39Z,Japan 's Bond Yields,Fall as,Jobless Rate Rises
2010-06-29T10:36:14Z,Janacek,Joins,Czech Central Bank 's Board
2010-06-29T10:58:14Z,BP Chief Executive Hayward,Backing of,Board
2010-06-29T11:40:32Z,Greeks,Walk Off,Job
2010-06-29T13:34:35Z,BP,Sued Over,Losses in Employee Pension Plan
2010-06-29T13:34:35Z,Losses,in,Employee Pension Plan
2010-06-29T16:19:49Z,ArcelorMittal,Retreat as,Etam Gains
2010-06-29T18:31:00Z,Biggest Budget-Deficit Reduction,in,Eight Years
2010-06-29T21:02:31Z,Yen,Climbs on,Bank Concerns
