2010-04-26T06:55:49Z,Nissan Growth,in,China
2010-04-26T07:13:23Z,Crude Oil,Rises for,Day
2010-04-26T07:13:23Z,Global Recovery,Spur,Demand
2010-04-26T07:13:23Z,Oil,Rises for,Day
2010-04-26T07:13:23Z,Recovery,Spur Demand on,Signs
2010-04-26T07:56:48Z,Volkswagen China CEO,Leave as,Hyundai Crank
2010-04-26T08:02:41Z,Bare Escentuals,Take,Look
2010-04-26T08:02:41Z,Shiseido,Taps,Bare Escentuals
2010-04-26T08:37:12Z,Hungary 's Orban,Wins Constitutional Majority as,Premier
2010-04-26T08:45:19Z,President Chavez,Nationalize,Gold Mine Concessions
2010-04-26T08:45:19Z,Venezuelan President Chavez,Nationalize,Gold Mine Concessions
2010-04-26T09:04:39Z,Greece,Getting,Aid
2010-04-26T09:26:09Z,U.K. House Prices Rise,in,Three Months
2010-04-26T11:16:36Z,Oil Contango,Soars With,Crude
2010-04-26T12:05:27Z,Dollar Strength,Grows as,Carry Trade Profits Shrink
2010-04-26T12:50:46Z,Papandreou 's Embrace,Unites,Greek Opposition
2010-04-26T14:24:06Z,Carnivores ' Dilemma,Widens as,Pork Signals Record Meat Prices
2010-04-26T14:43:01Z,Inflation,in,Brazil
2010-04-26T14:43:01Z,Vigorous Action,Against,Risk of Inflation in Brazil
2010-04-26T15:55:08Z,DAX Benchmark Advances,Led by,Shares Commerzbank
2010-04-26T15:58:34Z,Shell,Production as,Access to Oil Reserves Declines
2010-04-26T16:52:07Z,Bond,Returns,Accelerate
2010-04-26T16:52:07Z,Profits,Outweigh,Sovereign Risk
2010-04-26T20:47:10Z,Italians May,Unload,Argentina 's Defaulted Bonds
2010-04-26T20:47:10Z,Tired Italians May,Unload,Argentina 's Defaulted Bonds
2012-11-14T14:28:00Z,Wales,Leaves,Captain Warburton
