2010-06-27T00:14:51Z,Tensions,Amid U.S,South Korea Postpone Wartime Control Transfer to 2015
2010-06-27T00:14:51Z,U.S,Transfer to,2015
2010-06-27T00:28:04Z,Comeback,Is,Much
2010-06-27T00:28:04Z,Fourth Comeback,Is Much as,Soccer World Cup Run Ends
2010-06-27T04:01:00Z,New York Legislators,Restore,School Aid in Budget Showdown
2010-06-27T04:01:00Z,School Aid,in,Budget Showdown
2010-06-27T04:01:08Z,Payrolls,Fell as,U.S. Government Cut Staffing for Census
2010-06-27T04:17:06Z,U.S. Stocks,Drop,Financial Overhaul Bill
2010-06-27T05:03:04Z,Renaissance Services,Wins Million Contract For,Fujairah Port
2010-06-27T05:10:39Z,Talks,With,Etisalat
2010-06-27T05:10:39Z,Zain,Sell,Stake
2010-06-27T07:24:44Z,Breaks,With,Rudd Mining Tax Plan
2010-06-27T07:24:44Z,Gillard,Breaks With,Rudd Mining Tax Plan
2010-06-27T07:26:05Z,its First Makro Store,in,Egypt
2010-06-27T07:48:56Z,Death Toll,in,Flood-Stricken South China
2010-06-27T10:22:33Z,China,Seek,Three Agreements
2010-06-27T10:22:33Z,Three Agreements,in,Sixth Cross-Strait Rounds of Talks
2010-06-27T10:58:03Z,Saudi Central Bank Expects Inflation,in,Second Quarter
2010-06-27T11:13:02Z,Kuwait 's Agility,Slumps Since,2003 on U.S. Charges
2010-06-27T11:14:13Z,Advanced Pharmaceutical Packaging,Rises After,Placement
2010-06-27T11:26:10Z,Operations,in,South African Market
2010-06-27T12:16:13Z,Kuwait,',Government Foils Lawmakers
2010-06-27T12:19:10Z,Saudi Bank Credit,Increased,0.4 %
2010-06-27T13:12:28Z,Kuwait Projects,With,Fixed-Income Investors
2010-06-27T13:34:34Z,Lead Decline,in,Middle East
2010-06-27T13:48:23Z,Iran,Has Enough Enriched Uranium for,Two Weapons
2010-06-27T14:18:12Z,Sebastian Vettel,Wins,Grand Prix
2010-06-27T14:36:47Z,McCain,Says Obama Asks Petraeus to,Support Afghanistan Strategy
2010-06-27T14:58:49Z,British Airways Strike Vote,Postponed,Union Consider
2010-06-27T14:58:49Z,Union,Consider,New Pay Offer
2010-06-27T15:35:50Z,Son,'s Succession,CIA Chief Panetta
2010-06-27T15:50:37Z,Pixar 's Toy Story,Is,Million
2010-06-27T15:50:37Z,Pixar 's Toy Story 3,Is,Million
2010-06-27T15:50:37Z,Toy Story,Is,Million
2010-06-27T15:50:37Z,Toy Story 3,Is,Million
2010-06-27T15:58:35Z,Transport,Completes,Its Purchase of Tube Lines
2010-06-27T16:14:33Z,Peak,in,Bad Loans
2010-06-27T16:17:24Z,BP,Must Have,Strong Stable Future
2010-06-27T16:43:32Z,England Soccer,Discuss After,Defeat
2010-06-27T17:10:08Z,Contact,With,Gillard Government for Mining Tax Negotiations
2010-06-27T17:10:08Z,Rio Tinto,in,Contact With Gillard Government for Mining Tax Negotiations
2010-06-27T18:13:53Z,Pixar 's Toy Story,Is,Million
2010-06-27T18:13:53Z,Pixar 's Toy Story 3,Is,Million
2010-06-27T18:13:53Z,Toy Story,Is,Million
2010-06-27T18:13:53Z,Toy Story 3,Is,Million
2010-06-27T18:25:18Z,England,Takes,3-0 Lead
2010-06-27T18:27:52Z,Vettel,Wins,Europe Grand Prix
2010-06-27T18:37:47Z,Boeing Machinists Accept Contract Offer,Strike at,St. Louis Plant
2010-06-27T18:42:21Z,May,Give,Boost Over Taliban
2010-06-27T18:58:47Z,G-20 Leaders Sneak World Cup,Peeks on,Sideline
2010-06-27T19:00:01Z,China 's Henry Ford Moment,Is,Good
2010-06-27T19:35:48Z,Democrat Robert Byrd,Member of,Congress
2010-06-27T19:44:10Z,G-20 Nations,Avert,Crisis
2010-06-27T19:56:29Z,Guineans,Go to,Polls
2010-06-27T20:01:00Z,Lebanon Speeds,Ratify Energy Law After,Gas Discoveries
2010-06-27T20:56:34Z,BP,Plugging,Leaking Oil Well
2010-06-27T20:58:37Z,Arbib May,Be,Rudd Excluded from Gillard 's New Cabinet
2010-06-27T20:58:37Z,Gillard,from,New Cabinet
2010-06-27T21:01:00Z,Turkey Growth Surge Claws Back,Lost after,Lehman Collapse
2010-06-27T21:11:50Z,Gillard May Delay Mining Tax Decision,Says Until,Until Election
2010-06-27T21:11:50Z,Review,Says Until,Until Election
2010-06-27T21:27:08Z,DoCoMo Will Lease Access,Says,Year
2010-06-27T21:27:08Z,Nikkei,Says,Year
2010-06-27T21:31:42Z,CSR May,Get,Formal Bid
2010-06-27T21:34:38Z,Labor,in,Election-Winning Position
2010-06-27T21:39:38Z,Alinta Energy 's Lenders May,Sell,Debt
2010-06-27T21:40:27Z,224 G-20 Protesters,in,Toronto
2010-06-27T21:46:16Z,G-20 Leaders Agree,Are,Assured
2010-06-27T22:13:28Z,Most Watched U.S. Men 's Soccer Match,in,History
2010-06-27T22:13:28Z,World Cup Loss,Is,Watched U.S. Men 's Soccer Match in History
2010-06-27T22:13:52Z,Hino,in,U.S.
2010-06-27T22:27:28Z,48 %,in,Japan
2010-06-27T22:49:27Z,Hefei Rongshida,Begins Production in,Anhui
2010-06-27T22:50:51Z,World Cup Exit,for Failings,Bad Call
2010-06-27T23:00:01Z,Banker,Quits,UBS
2010-06-27T23:00:01Z,Flood-Hit Albertinum,Reopens With,Deluge-Proof Depot
2010-06-27T23:00:01Z,Price Warning,Issued Before,$ 169 Million Warhol
2010-06-27T23:00:01Z,Stage,Calls for,Irish to Default
2010-06-27T23:01:00Z,Barrack,Sees,Neverland Redemption
2010-06-27T23:01:00Z,Cable,Says,Liberal Democrats United
2010-06-27T23:01:00Z,Colony Fund,Shows,Loss
2010-06-27T23:01:00Z,Liberty,Follow,Saks
2010-06-27T23:01:00Z,Nigeria,Get Bank Offers by,Mid-July
2010-06-27T23:02:03Z,Bubba Watson,Wins,Travelers Playoff
2010-06-27T23:05:09Z,15 Wrestlers,Be,Suspended
2010-06-27T23:05:09Z,Wrestlers,Be,Suspended
2010-06-27T23:06:03Z,Guangzhou Baiyun Airport,'s Profitability,Times
2010-06-27T23:23:12Z,Challenger,Buys,Commercial Property Debt
2010-06-27T23:23:12Z,Lenders,in,Australia
2010-06-27T23:27:25Z,Obama,Says,U.S. Expects China Yuan
2010-06-27T23:27:25Z,U.S. Expects China Yuan,Appreciate,Vs Dollar
2010-06-27T23:39:34Z,Gordon,Buys,Queensland Practice
2010-06-27T23:39:34Z,Slater,Buys,Queensland Practice
2010-06-27T23:51:20Z,Argentina 's Tevez,Goes for,Glory
2010-06-27T23:51:20Z,Teammate Messi,Attracts,More Fouls
2010-06-27T23:54:17Z,Tokyo Exchange 's Saito,Says,Yuan Gains
2010-06-28T04:00:00Z,Obama,Says,U.S. Deficit Goals Match G-20 Targets
2010-06-28T04:01:00Z,Banker 's Grand Cru Bordeaux,Tops Sand Hill Road in,Wooing Technology Deals
2010-06-28T06:15:36Z,Dai-ichi Life,Rock Venue,First Investor Meeting
2010-06-28T06:15:36Z,First Investor,Meeting,Listing
2010-06-28T06:41:48Z,Gillard Flexibility,Revives,Labor 's Election Chances
2010-06-28T07:31:47Z,Romania 's Bailout Loan Will,Be,Reviewed June 30 After VAT Increase
2010-06-28T07:37:45Z,China 's Stocks Fall,Led by,Shippers
2010-06-28T07:56:08Z,Topix Index Falls,Shipping,Lines Drop
2010-06-28T09:22:53Z,Czech Prime Minister,Speed Up,New Cabinet
2010-06-28T10:11:37Z,Silver,in,Best Streak
2010-06-28T11:00:14Z,Hyundai,Buyers as,India Ends Gasoline Price Controls
2010-06-28T11:00:14Z,May,Lure,Suzuki Buyers
2010-06-28T13:29:15Z,More Cuts,in,Budget
2010-06-28T13:29:15Z,Osborne Targets U.K. Welfare,Disabled for,More Cuts in Budget
2010-06-28T13:58:53Z,Bonds Gain,in,Best Year
2010-06-28T15:54:47Z,$ 22 Billion,in,Legacy of Share Buybacks
2010-06-28T15:54:47Z,BP,Loses,$ 22 Billion in Legacy
2010-06-28T15:55:32Z,Bond Distress,Rises as,JPMorgan Vary on Defaults
2010-06-28T15:55:32Z,Goldman,Vary on,Defaults
2010-06-28T15:58:42Z,Gain,in,Five Days
2010-06-28T15:59:41Z,Wall Street Hiring,Jumps,Bonuses Return
2010-06-28T16:27:15Z,Saxony 's New Head,Backs,VW 's Expansion Strategy
2010-06-28T16:42:05Z,Adidas Falls,in,Frankfurt
2010-06-28T17:30:29Z,Tevez,Put Use to,Aid Referees on World Cup Agenda
2010-06-28T18:27:43Z,Strategists,Draw,Line
2010-06-28T20:26:46Z,Fear Feeding Greed,Correlation at,Record
