2010-10-16T00:20:54Z,China,Efforts For,Resumption of Six-Party Nuclear Talks
2010-10-16T01:15:45Z,Asian Currencies,Have,Seventh Weekly Gain
2010-10-16T01:15:45Z,Currencies,Have,Seventh Weekly Gain
2010-10-16T01:25:28Z,HSBC,Sued by,Taiwan Banks Over Pang 's PEMGroup Investment Losses
2010-10-16T01:25:28Z,Hua Nan,Banks Over,Pang 's PEMGroup Investment Losses
2010-10-16T01:25:28Z,Pang,Over,PEMGroup Investment Losses
2010-10-16T01:48:25Z,Typhoon Megi,Strengthens,May Reach Northern Philippines Within Three Days
2010-10-16T01:57:11Z,China,Says,Heavy Rare Earth Reserves
2010-10-16T01:57:11Z,Its,Medium,Heavy Rare Earth Reserves
2010-10-16T02:02:29Z,China 2010 Gold Output May Increase,Says,Year
2010-10-16T02:02:29Z,China Gold Output May Increase,Says,Year
2010-10-16T02:12:17Z,Clinton,Urges,U.S. Technology Companies
2010-10-16T02:25:03Z,HSBC,Sued by,Banks
2010-10-16T03:57:54Z,Beat Texas 6-5,in,Opening Game of AL Championship Series
2010-10-16T04:00:10Z,U.S. Army,at,Blood Test
2010-10-16T04:00:57Z,Canadian Currency,Touches,Parity
2010-10-16T04:00:57Z,Currency,Touches Parity for,First Time
2010-10-16T04:01:00Z,Fortress Credit Chief Briger,Moving to,San Francisco
2010-10-16T04:03:38Z,20 People,in,Henan Province
2010-10-16T04:03:38Z,China Coal Mine Accident,Kills,20 People
2010-10-16T05:04:34Z,Beat Texas 6-5,in,AL Championship Series Opener
2010-10-16T05:20:54Z,Australia,Leave Yemen on,Terror Attack Risk
2010-10-16T05:55:49Z,Saudi Arabian Amiantit Third-Quarter Profit,drops,41 %
2010-10-16T06:53:39Z,$ 4.2 Million Loss,in,Third-Quarter
2010-10-16T06:57:31Z,China,'s Driven,Chen
2010-10-16T06:57:31Z,Private Equity Boom Driven,Chen 's,CICC
2010-10-16T07:45:48Z,China Operations,Sell,Shares in Taiwan
2010-10-16T07:45:48Z,Shares,in,Taiwan
2010-10-16T07:59:22Z,American,of,Ties
2010-10-16T08:35:56Z,China 's Power Restrictions Affect Aluminum,Says Than,More Steel
2010-10-16T08:35:56Z,Macquarie,Says Than,More Steel
2010-10-16T08:57:03Z,FT,Says After,50 % Tax Rate
2010-10-16T09:20:56Z,Axa Private Equity Mulls Buying Stakes,in,CIR 's KOS Unit
2010-10-16T09:20:56Z,CIR,in,KOS Unit
2010-10-16T11:01:05Z,Equitable Life Policyholders May,Get,$ 2.4 Billion Compensation
2010-10-16T11:57:16Z,Be,Less Than,10 %
2010-10-16T11:57:16Z,U.K. Ministry,Said,Agree on Budget Cut
2010-10-16T12:36:16Z,Trichet,Says,Euro Region Needs
2010-10-16T13:30:04Z,Increase,in,Bank Loan Provisions
2010-10-16T14:40:43Z,French Refineries,Shut for,Day
2010-10-16T14:40:43Z,Refineries,Shut Amid,Protests on Pension-Age Increase
2010-10-16T15:56:04Z,Treasury 's Krueger Will Return,in,Latest Economic Team Exit
2010-10-16T16:45:47Z,Petroplus,Says,Refineries in France
2010-10-16T16:45:47Z,Refineries,in,France
2010-10-16T16:47:37Z,Colombia,in,Proenergia
2010-10-16T16:47:37Z,Empresas Copec Seeks,in,Colombia 's Proenergia
2010-10-16T16:56:16Z,Cablevision,Return to,Talks in Dispute Over Program Fees
2010-10-16T16:56:16Z,Talks,in,Dispute
2010-10-16T17:13:36Z,Arsenal,Wins,2-1
2010-10-16T17:28:22Z,Czech Premier 's Party,Loses Grip on,Prague
2010-10-16T17:28:22Z,Election,Returns,Show
2010-10-16T17:28:22Z,Partial Election,Returns,Show
2010-10-16T19:22:26Z,Bath Lead Groups,in,Heineken Cup Rugby
2010-10-16T19:22:26Z,Toulouse,Groups in,Heineken Cup Rugby
2010-10-16T19:40:50Z,August,With,Killing of 72 Immigrants
2010-10-16T19:40:50Z,Mexico Arrests Eight,in,Connection
2010-10-16T19:43:07Z,Hamas Official,Says,Prisoner-Swap Talks
2010-10-16T19:43:07Z,Prisoner-Swap Talks,With,Israel Resumed
2010-10-16T20:52:18Z,They,Recover From,Ordeal
2010-10-16T21:15:34Z,Barbara Billingsley,Mom on,Leave to Beaver
2010-10-16T21:33:14Z,Ecuador,Says,Two Trapped Gold Miners Confirmed Killed
2010-10-16T23:33:25Z,Evans,',CIO Hawkins
2010-10-16T23:36:52Z,QR National Initial Sale Pricing,Is,Too High
2010-10-16T23:36:52Z,QR National Sale Pricing,Is,Too High
2010-10-16T23:59:55Z,Rangers Beat Yankees 7-2,Evening Baseball 's AL Championship Series at,1-1
2010-10-17T04:00:01Z,Iraq 's Ayad Allawi,Tells,CNN Iran Funds
2010-10-17T04:00:01Z,MGM,Reid as,News Corp
2010-10-17T08:02:27Z,China,Maintain,Ties
2010-10-17T09:42:38Z,Forecast,Hit,Northern Luzon
2010-10-17T10:00:15Z,He,Propel,Agenda
