2011-07-02T00:14:04Z,Investors,Reach,Million Class-Action Settlement
2011-07-02T00:42:26Z,Asian Stocks,Week on,Debt
2011-07-02T00:42:26Z,Stocks,Second Week on,Greek Debt
2011-07-02T04:00:09Z,ECB,Meets on,Rates
2011-07-02T04:00:09Z,Greece,Adopts Austerity Plan,ECB Meets
2011-07-02T04:00:19Z,Canadian Dollar,Strengthens,Most Amid Surge
2011-07-02T04:00:19Z,Dollar,Strengthens,Most Since 2009 Amid Surge in Risk Appetite
2011-07-02T04:00:19Z,Surge,in,Risk Appetite
2011-07-02T04:00:21Z,U.S. 2-Year Notes,Snap Longest Win Streak Since,1984 on Greece
2011-07-02T04:01:00Z,FTC,Amid,Review of Business
2011-07-02T04:01:00Z,Google,Hires,12 Lobbying Firms Amid FTC ’s Review
2011-07-02T04:01:00Z,U.S. Stocks,Surge,Most Since July 2009
2011-07-02T04:14:53Z,New York Yankees Defeat Crosstown Rival Mets 5-1,in,Interleague Series
2011-07-02T04:30:00Z,Cancer,Strengthen,Him
2011-07-02T04:30:00Z,Chavez,Says,Cancer
2011-07-02T05:15:23Z,Apple,in,California
2011-07-02T05:30:27Z,Bunds,Drop,Spanish Bonds Rise in Week Amid Debt-Crisis Optimism
2011-07-02T05:30:27Z,Spanish Bonds Rise,in,Week
2011-07-02T05:34:57Z,Taiwan ’s Ma,Gets,Ruling Party Nomination
2011-07-02T06:38:54Z,Pakistan Inflation,Slows,Easing Pressure for Interest Rate Rise
2011-07-02T07:06:34Z,Tiger Airways ’ Australian Flights,Grounded by,Regulator
2011-07-02T07:06:34Z,Tiger Airways ’ Flights,Grounded on,Safety Concerns
2011-07-02T07:53:54Z,Beat Doping,in,Sport
2011-07-02T08:29:23Z,Bahrain,Begins,National Dialogue
2011-07-02T08:39:53Z,Germany ’s Franz,Urges,Low Wage Demands
2011-07-02T08:41:16Z,Delivery,on Cash,Times
2011-07-02T09:17:53Z,Day,in,June
2011-07-02T09:41:43Z,JS Group,Buys Permasteelisa for,600 Million Euros
2011-07-02T10:41:09Z,Iraq,to Weapons,WSJ
2011-07-02T11:26:29Z,Kuwait Navy,Has Completed,its Duties in Bahrain
2011-07-02T11:26:29Z,its Duties,in,Bahrain
2011-07-02T12:24:28Z,Million,With,Murabahah Facility
2011-07-02T12:51:37Z,Other Hurt,in,Afghanistan Attack
2011-07-02T13:13:20Z,Saudi Shares Advance,Paced by,Rajhi
2011-07-02T13:45:51Z,Brazil,’s Loans,Folha
2011-07-02T13:45:51Z,MPX,for Loans,Folha
2011-07-02T13:51:37Z,Kvitova Captures First,Set,6-3
2011-07-02T14:07:26Z,Whiting Refinery,in,Indiana
2011-07-02T14:53:14Z,North Korea 1-0,Moves Atop,Women ’s World Cup Group
2011-07-02T14:53:14Z,Sweden,Beats,Moves Atop Women ’s World Cup Group
2011-07-02T14:53:14Z,Women,Atop,World Cup Group
2011-07-02T15:10:59Z,Colombia,’s Penalosa,Tiempo
2011-07-02T15:10:59Z,Colombia ’s Uribe Backs Penalosa,in,Bogota Election
2011-07-02T15:26:39Z,Nigeria ’s Jonathan Reappoints Former Ministers,in,New Cabinet
2011-07-02T15:58:31Z,South American Flights,Disrupted on,Ash
2011-07-02T16:17:09Z,Belgium ’s Philippe Gilbert,Wins,Tour de France Opening Stage
2011-07-02T16:46:27Z,Noyer,Says,Rollover Plan
2011-07-02T17:07:12Z,Host Seven-Time Champion Crusaders,in,Super Rugby Final
2011-07-02T19:18:21Z,Greece Arrests Captain,in,Flotilla Crackdown
2011-07-02T21:24:35Z,Factions,in,Bahrain Plan Talks
2011-07-02T23:01:00Z,Greek Aid Payment,Focus to,Second Bailout
2011-07-02T23:01:03Z,Kvitova,Beats,Sharapova
2011-07-02T23:01:03Z,Sharapova,Win,First Wimbledon
2011-07-02T23:01:46Z,Djokovic Seeks First Grand Slam,Win Over,Nadal
2011-07-02T23:54:58Z,Klitschko Gains World Boxing Heavyweight Title,in,Decision
2011-07-03T03:46:27Z,Libyan Rebels,Reject,African Union Peace Talks
2011-07-03T03:46:27Z,Rebels,Reject,African Union Peace Talks
2011-07-03T04:17:19Z,Yankees Own 2-0,Lead in,Interleague Series
2011-07-03T15:31:12Z,Brazil,’s Franco,President Tamed Inflation
