2011-07-06T00:03:32Z,U.S.,Says in,Lawsuit
2011-07-06T00:06:30Z,Rose 0.32 %,in,June
2011-07-06T00:14:00Z,Many Banks,in,Europe
2011-07-06T00:14:55Z,Milk Powder Prices,Fall to,Six-Month Low
2011-07-06T00:14:55Z,Whole Milk Powder Prices,Fall,7.4 %
2011-07-06T02:30:39Z,POLYBLEND June Sales,Rise,44.55 %
2011-07-06T02:30:39Z,PONTEX POLYBLEND June Sales,Rise,44.55 %
2011-07-06T02:31:14Z,Dollar Falls,Keep Fed in,U.S. May
2011-07-06T02:46:11Z,America,Ceded,Capitalism ’s Bastion
2011-07-06T02:46:54Z,Wen,Vows,Price Controls
2011-07-06T03:12:03Z,COMPUTER C June Sales,Fall,22.75 %
2011-07-06T03:12:03Z,GREAT COMPUTER C June Sales,Fall,22.75 %
2011-07-06T03:19:25Z,DBS ’s Wee Forecasts,Rupiah by,December
2011-07-06T03:21:16Z,Ssangyong Revamps Chairman,Take On,BMW
2011-07-06T04:00:00Z,Bonds,Beaten by,Stocks
2011-07-06T04:00:00Z,Chile,Proposes Billion Education Fund as,Response to Protests
2011-07-06T04:00:00Z,Corporate Bonds,Beaten by,Stocks
2011-07-06T04:00:01Z,Alberta,’s Expects,Real Estate Deals
2011-07-06T04:00:01Z,Larry David,Eats,Palestine Chicken
2011-07-06T04:01:00Z,Boulud Plies Culture Vultures,With,$ 31 Wagyu
2011-07-06T04:01:00Z,Budget,Faces,Cuts
2011-07-06T04:01:00Z,Drivers,Stopping,Means Red-Light Cameras
2011-07-06T04:01:00Z,FDA,Seeks,$ 1.4 Billion
2011-07-06T04:01:00Z,Facebook Ad Rates,Hold as,Inventory Rises
2011-07-06T04:01:00Z,Job Gains,Are,Illusory
2011-07-06T04:01:00Z,Oxford,Hits Up,Silicon Valley
2011-07-06T04:01:00Z,Picasso ’s Women Star,in,Revealing
2011-07-06T04:01:00Z,Questions,in,140 Characters
2011-07-06T04:01:00Z,Twitter,Be,Valued
2011-07-06T04:01:01Z,State Street,Rehired,Likened
2011-07-06T04:01:59Z,Women ’s Fights Thrive,in,Politics
2011-07-06T04:04:23Z,Price,in,China
2011-07-06T04:04:23Z,We,Care About,Price of Water in China
2011-07-06T04:05:24Z,Cal Ripken,Is Familiar,Pressure Jeter Faces in Runup
2011-07-06T04:05:24Z,Pressure Jeter,Faces in,Runup
2011-07-06T04:07:36Z,Reserves,Exceeding,U.S.
2011-07-06T04:09:56Z,China,in,South Cut Output on Environmental Curbs
2011-07-06T04:09:56Z,Tin Recyclers,in,China ’s South Cut Output on Environmental Curbs
2011-07-06T04:28:26Z,U.K. Banks,Are Looking at,FT Reports
2011-07-06T04:28:26Z,U.K. Private Banks,Are Looking at,Riskier Assets
2011-07-06T04:32:43Z,Former Minister,for,Remark to Governor of Tsunami-Hit Area
2011-07-06T04:37:52Z,Standard Chartered,Sued in,Singapore Over Investment Products
2011-07-06T04:52:14Z,China ’s Seven-Year Bond,Draws Least Demand on,Cash
2011-07-06T04:58:36Z,China,Faces,Crisis
2011-07-06T04:59:37Z,South African Coal Exports Fall,in,First Half
2011-07-06T05:04:14Z,Fukushima,Raises,Safety Concern
2011-07-06T05:04:14Z,Japan,Has,Two Reactors
2011-07-06T05:11:13Z,Boeing,Raises,15 %
2011-07-06T05:27:49Z,$ 89 Million,in,Construction Equipment
2011-07-06T05:58:07Z,CRETE SYSTEMS,IN,June Sales Rise
2011-07-06T06:00:56Z,Portuguese Bonds Will,Be,Removed
2011-07-06T06:18:35Z,Approval,of Confident,Politika
2011-07-06T06:19:25Z,JC Flowers May Invest,in,Spanish Savings Bank
2011-07-06T06:28:37Z,Ghana,Hold Key Rate at,13 %
2011-07-06T06:28:37Z,Growth,Adds to,Inflation Pressure
2011-07-06T06:30:36Z,Crude Oil,CLimbs for,Day on Forecast Decline
2011-07-06T06:30:36Z,Oil,CLimbs for,Day on Forecast Decline
2011-07-06T06:30:36Z,Second Day,in,U.S. Stockpiles
2011-07-06T06:35:13Z,Ugandan Traders Begin Two-Day Strike,in,Kampala
2011-07-06T06:43:27Z,Government Bonds,Widen Yield Spreads to,Bunds
2011-07-06T06:43:27Z,Spanish Government Bonds,Widen,Yield Spreads
2011-07-06T06:47:24Z,Banks,May Introduce,Regional Credit Cards
2011-07-06T06:47:24Z,European Banks,May Introduce,Regional Credit Cards
2011-07-06T06:53:49Z,Traders,Begin,Strike
2011-07-06T06:53:49Z,Ugandan Shilling,Weakens,Traders Begin in Kampala
2011-07-06T06:53:50Z,ABILITY ENTERPR June Sales,Fall,Table
2011-07-06T07:00:00Z,Spanish Industrial Production Fell,in,May
2011-07-06T07:01:53Z,FEEDBACK TECHNOL June Sales,Rise,Table
2011-07-06T07:04:26Z,ETURBOTOUCH TECH June Sales,Rise,105.42 %
2011-07-06T07:04:26Z,TECH June Sales,Rise,105.42 %
2011-07-06T07:05:38Z,Former Zimbabwe Central Bank Workers,Could Sue Over,News Reports
2011-07-06T07:06:07Z,Its,Versus,Dollar
2011-07-06T07:06:07Z,Its Advance Versus,Extends,Its Decline
2011-07-06T07:16:52Z,Copper Falls,in,London Trading
2011-07-06T07:16:52Z,Ending Longest Gain,in,2011
2011-07-06T07:16:52Z,London Trading,Gain in,2011
2011-07-06T07:22:54Z,EU,in,Largest Coking-Coal Producer Debut in Warsaw
2011-07-06T07:22:54Z,EU ’s Largest Coking-Coal Producer Debut,in,Warsaw
2011-07-06T07:22:54Z,JSW,Jumps as,Shares in EU ’s Largest Coking-Coal Producer Debut
2011-07-06T07:22:54Z,Shares,in,EU ’s Largest Coking-Coal Producer Debut
2011-07-06T07:29:58Z,TRADE-VAN INFO June Sales,Rise,15.22 %
2011-07-06T07:45:56Z,10-Year Note Yield,Lower to,3.10 Percent
2011-07-06T07:45:56Z,Note Yield,Lower to,3.10 Percent
2011-07-06T07:45:56Z,U.S. Treasuries Advance,Pushing,10-Year Note Yield Lower to 3.10 Percent
2011-07-06T07:46:19Z,Sovereign Corporate Credit-Default Swap Indexes Rise,in,Europe
2011-07-06T07:49:16Z,15 Million-Euro Accord,With,EU
2011-07-06T07:50:11Z,Algeria,Sets July Saharan Crude at,40 Cents
2011-07-06T07:50:52Z,Crude Oil Futures,Erase,Gains
2011-07-06T07:50:52Z,Euro,Weakens Against,Dollar
2011-07-06T07:51:04Z,Tanzanian Shilling Rebounds,in,Almost 17 Years Against Dollar
2011-07-06T08:02:08Z,EDF Energies,Will Build,Solar Park
2011-07-06T08:06:51Z,Sakhalin Energy,Offers Vityaz Crude Oil for,September
2011-07-06T08:07:01Z,Bluescope,Rise Before,Australia Carbon Plan
2011-07-06T08:07:01Z,Ringgit,Weakens on,Europe Debt Concern
2011-07-06T08:10:19Z,Alibaba ’s Ma,Sees,Very Large Alipay Payout
2011-07-06T08:16:10Z,Rally,Is,Opportunity
2011-07-06T08:20:21Z,HTC Profit,Exceeds Estimates on,Sales
2011-07-06T08:25:14Z,Palm Oil May Gain,Lifts,Demand
2011-07-06T08:27:34Z,Futures,Help Tokyo Grain Exchange Break,May
2011-07-06T08:30:20Z,Sodexo,Confirms,2011 Targets
2011-07-06T08:37:05Z,Zimbabwe Tobacco Board,Open,Auction Floors
2011-07-06T08:41:54Z,Southern Sudan,Considers Building Oil Pipeline Link to,Kenya
2011-07-06T08:41:56Z,Bank,Suggests,Studies
2011-07-06T08:48:05Z,Latvia May Need Fewer Cuts,in,2012 Budget
2011-07-06T08:49:01Z,Peso,Rises to,Nine-Week High
2011-07-06T08:49:01Z,Philippine Peso,Rises on,Fitch Assessment
2011-07-06T08:55:12Z,Reference Rate,Snaps,Six-Day Advance
2011-07-06T09:00:23Z,Hong Kong Short Selling Turnover,Recorded,07/06/2011
2011-07-06T09:05:38Z,LEXTAR ELECTRONI June Sales,Fall,26.93 %
2011-07-06T09:17:03Z,Asian Currencies,Hover Near,High on Interest-Rate
2011-07-06T09:17:03Z,Currencies,Hover Near,High
2011-07-06T09:20:00Z,Copper,Snaps,Longest Rally
2011-07-06T09:20:00Z,Moody,as,Downgrades Portugal Debt
2011-07-06T09:29:45Z,Dubai Inflation,Accelerated on,Food Prices
2011-07-06T09:45:49Z,Gold Fields,Arranges,Billion Credit Facility
2011-07-06T10:00:01Z,Batista ’s Hotel Gloria Revamp,Delayed by,Two Years
2011-07-06T10:04:14Z,HOLY STONE,ENTER,11.17 %
2011-07-06T10:04:14Z,STONE,ENTER,11.17 %
2011-07-06T10:07:53Z,Oil Tanker Fidias,Is,Moored
2011-07-06T10:14:02Z,Foreign Investors,Buy,8.61 Billion Rupees
2011-07-06T10:24:15Z,Deutsche Bank,in,Court News
2011-07-06T10:24:15Z,WaMu,Bank in,Court News
2011-07-06T10:33:28Z,5.5 Percent,in,2011
2011-07-06T10:34:41Z,Lead Stockpiles Fall,in,Two Months on Singapore
2011-07-06T10:36:11Z,China,Raises,Benchmark Interest Rates
2011-07-06T10:36:11Z,European Stocks,Extend,Losses
2011-07-06T10:36:11Z,Stocks,Extend,Losses
2011-07-06T10:39:54Z,Old Mutual South Africa,Raises Billion for,Housing Fund
2011-07-06T10:46:10Z,COM June Sales,Fall,Table
2011-07-06T10:46:10Z,PROFESSIONAL COM June Sales,Fall,Table
2011-07-06T10:47:29Z,State Bank,Open Unit in,Ghana
2011-07-06T10:47:47Z,London,Is Voted,Exciting
2011-07-06T10:49:35Z,Sierra Leone Inflation,Accelerates Food Costs to,17.8 %
2011-07-06T11:01:40Z,Explosion,Injures,Soldiers
2011-07-06T11:01:40Z,Point,in,Nigerian City of Maiduguri
2011-07-06T11:04:19Z,Godrej Consumer,Rises on,Hershey Stake Purchase Report
2011-07-06T11:05:16Z,Chinese Soccer Team,Pays,Record Million
2011-07-06T11:05:16Z,Soccer Team,Pays,Record Million
2011-07-06T11:05:28Z,Stocks,Snap Longest Winning Streak in,1 1/2 Years
2011-07-06T11:09:24Z,Halifax Advert,in,Murdoch ’s News of World
2011-07-06T11:09:24Z,Lloyds,Cancels,Halifax Advert in Murdoch ’s News of World
2011-07-06T11:09:24Z,Murdoch,in,News of World
2011-07-06T11:18:39Z,Daiwa ’s Sun,Says,China ’s Rate Rise
2011-07-06T11:19:04Z,Indian Stocks,Drop Inflation Amid,Outlook
2011-07-06T11:19:04Z,Most Indian Stocks,Drop Inflation Amid,Outlook
2011-07-06T11:25:30Z,HSBC,’S,Qu
2011-07-06T11:29:03Z,HTC,Patents in,Apple Fight
2011-07-06T11:29:03Z,Securing Patents,in,Apple Fight
2011-07-06T11:30:00Z,Announced U.S. Job Cuts Rose,in,June
2011-07-06T11:33:29Z,Poland,Leaves,Main Rate Unchanged
2011-07-06T11:36:13Z,Dubai Ruler,Approves,Billion Dubai Airports Expansion
2011-07-06T11:39:46Z,Syria,Raises,July Souedie Crude Official Price
2011-07-06T11:42:42Z,China,Raises,Rates
2011-07-06T11:48:44Z,Sun Hung Kai ’s Lai,Sees,China ’s Yuan Gaining
2011-07-06T11:48:57Z,Election,to Agree,Newsday
2011-07-06T11:48:57Z,Zimbabwe Negotiators Agree,in,2012
2011-07-06T11:57:32Z,Barroso Faults Timing,Size of,Moody ’s Downgrade
2011-07-06T11:57:32Z,Moody,of,Downgrade of Portugal
2011-07-06T12:07:53Z,$ 18.3 Million,in,Fundraising
2011-07-06T12:17:02Z,Carlsberg,Slips on,Report Russia May Tighten Beer Regulation
2011-07-06T12:30:00Z,Canada May Building,Permits,Text
2011-07-06T12:44:36Z,JBS Holding May Increase Stake,in,Bank Holding
2011-07-06T12:45:30Z,Capital Economics ’s Williams,Says,Wane
2011-07-06T12:47:52Z,Full Leuna Refinery Shutdown,in,2014
2011-07-06T12:47:54Z,Ghana ’s Cedi,Weakens in,Third on Dollar Demand
2011-07-06T12:48:36Z,Croatia,Risks,Rating Cut
2011-07-06T12:58:21Z,Two Al-Qaeda Fighters Killed,in,Mauritania Attack
2011-07-06T13:07:13Z,Novorossiysk,From Cargoes,SovEcon
2011-07-06T13:09:34Z,Zinc Trading Surged,in,June
2011-07-06T13:10:38Z,Company Bond Window Slams Shut,in,Europe
2011-07-06T13:11:52Z,England-Sri Lanka One-Day Cricket Match,Is,Delayed
2011-07-06T13:14:51Z,Europe Debt Concern,Spurs Demand for,Safety
2011-07-06T13:17:58Z,Oil Importers,Buy,Dollar
2011-07-06T13:29:52Z,NIC Bank,Erasing,Gains
2011-07-06T13:37:54Z,Moody,After,Downgrades Portugal
2011-07-06T13:43:48Z,Crude Oil Futures Advance,in,New York
2011-07-06T13:45:10Z,Cameron,Says to,Cut Afghan Force
2011-07-06T13:46:45Z,Clashes,Kill,22 Amid Crackdown
2011-07-06T13:46:45Z,Syrian Clashes,With,Security Forces
2011-07-06T13:48:12Z,Nigerian Senate,Approves,World Bank ’s Managing Director
2011-07-06T13:48:12Z,Senate,Approves,World Bank ’s Director for Cabinet Post
2011-07-06T13:59:18Z,Croatia,’s Quaestus,Banka
2011-07-06T13:59:38Z,Yemen,Offers,3 Million Barrels
2011-07-06T14:11:20Z,Iranian President,Opposes,Student Segregation
2011-07-06T14:11:20Z,President,Opposes,Student Segregation
2011-07-06T14:28:24Z,Rape,Is,UN Focus
2011-07-06T14:28:32Z,Cyprus,Gets,Credit Line
2011-07-06T14:31:21Z,Nevada ’s Top Court Upholds Republican Nomination,Process for,Senate Seat
2011-07-06T14:32:14Z,Queensland,Sends,Lockyer
2011-07-06T14:35:20Z,Russia,Fixes,Import Duty
2011-07-06T14:35:23Z,China,Raises,Moody ’s Cuts Portuguese Rating
2011-07-06T14:37:13Z,Chavez Plans Venezuela Cabinet Changes,Says,Today
2011-07-06T14:37:13Z,El Mundo,Says,Today
2011-07-06T14:56:07Z,Repsol,Wins,Kuna Reports
2011-07-06T15:06:34Z,Ex-Commerzbank Metals Trader,Challenges,FSA Market-Abuse Ban
2011-07-06T15:07:11Z,UniCredit ’s Russian Unit,Syndicating,Million Loan
2011-07-06T15:07:11Z,UniCredit ’s Unit,Syndicating,$ 300 Million Loan
2011-07-06T15:09:35Z,BP ’s Credit Outlook,Raised at,S&P
2011-07-06T15:11:04Z,Argentina,Loses,Debt Immunity Suit
2011-07-06T15:11:04Z,Debt Immunity Suit,in,U.K. Supreme Court
2011-07-06T15:16:14Z,World Bank,Lend,Ethiopia Million
2011-07-06T15:20:52Z,Ecuador June Inflation,Jumps,Most in 16 Months
2011-07-06T15:23:12Z,Uralkali,Climbs Before,Increased MSCI Weighting
2011-07-06T15:26:36Z,Crude Oil Futures Fluctuate,in,New York
2011-07-06T15:27:37Z,Vogel Will Remain Indiana Pacers,Coach After,First Playoffs
2011-07-06T15:32:59Z,Russia Stocks,Drop Day as,China Lifts Rates
2011-07-06T15:39:01Z,33 %,in,April
2011-07-06T15:40:02Z,Researcher IFPRI,Develops,Gauge of Corn-Price Swings
2011-07-06T15:42:14Z,Nakheel,Gets,Restructuring Approval
2011-07-06T15:46:35Z,Brazil,Offers,Cancer Treatment
2011-07-06T15:46:35Z,Venezuela,’s Chavez,Folha
2011-07-06T15:47:01Z,Russia,’s Rose,Union
2011-07-06T15:55:09Z,Jeter ’s Pursuit,Hits,Doubles Prices for Rays-Yankees Home Series
2011-07-06T15:56:48Z,News,Are,Mirror ’s Gain
2011-07-06T15:56:48Z,World,of,Lost Advertisements
2011-07-06T15:59:12Z,Lonmin Pare Loan Costs,in,$ 2 Billion Refinancing Deals
2011-07-06T15:59:12Z,Miners Gold Fields,Costs in,$ 2 Billion Refinancing Deals
2011-07-06T16:00:11Z,Jorge Posada,Called in,Clemens Perjury Trial
2011-07-06T16:00:11Z,Mark McGwire May,Be Called by,U.S.
2011-07-06T16:02:50Z,DG FastChannel,Seek,Million
2011-07-06T16:03:49Z,U.S. Treasury,Received,Billion
2011-07-06T16:14:22Z,Moody,as,Downgrades Portugal
2011-07-06T16:14:54Z,Smaller Efficient Solar Air Conditioner,in,India
2011-07-06T16:14:54Z,Thermax,Introduces,Solar Air Conditioner in India
2011-07-06T16:17:04Z,Switzerland ’s Franc Gains,Weighs on,Euro
2011-07-06T16:18:50Z,Line,With,Forecasts
2011-07-06T16:20:41Z,Cielo Forecasts Brazil Credit-Card Fees,Decline to,Moderate
2011-07-06T16:24:14Z,European Stocks,Fall on,China Interest Rates
2011-07-06T16:24:14Z,Stocks,Fall on,Portugal Downgrade
2011-07-06T16:25:07Z,9 Months,in,London
2011-07-06T16:26:01Z,Sports Direct,Rises to,Four-Year High on USC
2011-07-06T16:39:22Z,Zimbabwe,Says,Mine-Empowerment Plans
2011-07-06T16:49:46Z,$ 3 Billion,in,Unpaid Taxes
2011-07-06T16:58:19Z,U.K. Decision,Only Consider,Media Plurality
2011-07-06T17:08:58Z,BNP Paribas Chairman,Says,Banks ’ Proposal Needs Changes
2011-07-06T17:12:25Z,Sri Lanka,Gives,England Target of 175 Runs
2011-07-06T17:31:46Z,Clemens,of,Deposition Ahead of Trial
2011-07-06T17:31:46Z,Congress,Release,Audio
2011-07-06T17:34:02Z,n,Slash,About 8 % of Workforce
2011-07-06T17:38:07Z,Captain America,Joins Dallas Cowboys as,Disney ’s Marvel Opens Apparel Line
2011-07-06T17:38:07Z,Disney,as,Marvel Opens Apparel Line
2011-07-06T17:52:20Z,Goldsmith,Tells,Sky Brooks Must Depart
2011-07-06T17:53:23Z,Technology,Leads U.S. Office Rent Rebound,Occupancy Rises
2011-07-06T18:05:06Z,Citigroup,Says After,Drop
2011-07-06T18:05:06Z,Euro May Gain Versus Franc,Says After,Drop
2011-07-06T18:08:53Z,Australia,Reach,Women ’s World Cup Quarterfinals
2011-07-06T18:11:28Z,JPMorgan,Vanguard for,College Savings Plans
2011-07-06T18:11:28Z,New York,Selects,Vanguard for College Savings Plans
2011-07-06T18:12:57Z,Obama,Meeting With,Lawmakers
2011-07-06T18:14:43Z,He,Better Explained,Recession
2011-07-06T18:44:14Z,Bolivia,Maintains,6 % Inflation Target
2011-07-06T18:46:48Z,Visit Bashir,to Mbeki,SPLM
2011-07-06T18:48:28Z,Greenberg,Sees Agenda in,Ouster Calls
2011-07-06T18:48:28Z,he,Tells,Sky
2011-07-06T19:05:38Z,Bidvest,Gets,Unsolicited Bids
2011-07-06T19:06:30Z,Milk Futures,Drop From,Four-Year High
2011-07-06T19:07:11Z,UN Seeks Women ’s Rights,With,Legal Protection
2011-07-06T19:23:40Z,New Zealand Dollar,Erases,Its Advance
2011-07-06T19:31:49Z,Libyan Rebels,Seek,Misrata Breakout
2011-07-06T19:31:49Z,NATO,Says,Game Over for Qaddafi
2011-07-06T19:31:49Z,Rebels,Seek,Misrata Breakout
2011-07-06T19:32:55Z,Man,with,Sword
2011-07-06T19:32:55Z,Train,in,France
2011-07-06T19:39:02Z,Citigroup,for,Consumer-Lending Unit
2011-07-06T19:46:26Z,Paul Allen ’s Suit,Should Stay on,Hold
2011-07-06T19:49:09Z,California Spot Gasoline,Weakens as,Tesoro Refinery Unit Shuts
2011-07-06T19:56:23Z,Strauss-Kahn Lawyers,Had,Constructive
2011-07-06T20:03:23Z,Cut Ethanol Mix,in,Gas
2011-07-06T20:07:12Z,England Beats Sri Lanka,in,Fourth One-Day Cricket Match
2011-07-06T20:16:06Z,Baird,Says,LeTourneau Buy
2011-07-06T20:16:06Z,Joy May Resume Acquisitions,Says,LeTourneau Buy
2011-07-06T20:18:04Z,EFSF,Should,Purchase Greek Debt
2011-07-06T20:18:24Z,BofA ’s Merrill Unit,Pay,$ 63.7 Million
2011-07-06T20:20:40Z,Alere,Makes,Unsolicited Million Offer
2011-07-06T20:22:24Z,2010,of Class,Study
2011-07-06T20:26:55Z,Egypt ’s Cabinet,Approves,Draft Parliamentary Elections Law
2011-07-06T20:30:29Z,Colombia ’s Fabricato,Holds on,Chavez
2011-07-06T20:30:33Z,Apple Escalates Samsung Fight,With,ITC Case
2011-07-06T20:30:34Z,Hanover Insurance,Says,Catastrophes Cost
2011-07-06T20:32:50Z,Oilsands Quest Drops,Find,Partner
2011-07-06T20:40:08Z,Service Industries,in,U.S. Expand
2011-07-06T20:40:08Z,Slower Pace,in,Sign Economy Cooling
2011-07-06T20:52:43Z,Concepts,Be in,Talks
2011-07-06T20:52:43Z,Kinetic Concepts,Be in,Talks
2011-07-06T20:57:30Z,Put-Options Trading,Jumps to,One-Month High
2011-07-06T20:59:59Z,Deutsche Bank ’s RREEF Property Unit,Buys,Apartment Towers
2011-07-06T21:01:49Z,Calvin Coolidge,Saved,Income Tax
2011-07-06T21:05:15Z,China,Raises,Benchmark Interest Rates
2011-07-06T21:09:23Z,Enernoc,Add,Markets
2011-07-06T21:10:04Z,Treasuries Advance,Yield on,Growth Outlook
2011-07-06T21:12:45Z,U.S. Gulf Oils,Strengthen,WTI-Brent Gap Grows
2011-07-06T21:13:23Z,U.S. Stocks,Rise as,Transport
2011-07-06T21:18:04Z,Ethanol,Rises,Third Day on Signs of Blending Demand
2011-07-06T21:20:26Z,Boxer,Proposes,Billion U.S. Surface Transportation Bill
2011-07-06T21:22:58Z,Face Gundlach,to,$ 1.25 Billion Breach of Contract Lawsuit
2011-07-06T21:22:58Z,TCW,Is Ordered to,Face Gundlach ’s Billion Breach
2011-07-06T21:30:15Z,Gulf Coast Cash Gasoline,Weakens as,U.S. Fuel Production Gains
2011-07-06T21:50:33Z,Goldman Sachs,Took,Loan From 2008 Fed Crisis Program
2011-07-06T21:50:45Z,Animation Division,Film for,2014
2011-07-06T21:50:45Z,Paramount Pictures,Creates,Plans First Film
2011-07-06T22:00:01Z,Containers Flood Ship Routes,in,Echo of 2009 Rate Decline
2011-07-06T22:00:01Z,Dutch Fund Manager,Renews Hunt After,Thwarted Takeover Bid
2011-07-06T22:00:01Z,GoAir May,Connect,India Cities
2011-07-06T22:00:01Z,Swedish Health Startups,Ignore Venture Funds to,Boost Cash
2011-07-06T22:00:01Z,Zuma ’s Victory,With,Jobs Pledge Cuts South African Takeovers
2011-07-06T22:01:02Z,Hushovd,Keeps,Yellow Jersey
2011-07-06T22:07:18Z,Facebook,’s Sales,GreenCrest
2011-07-06T22:09:40Z,Emerging Stocks,Drop for,Second Day
2011-07-06T22:09:40Z,Stocks,Drop for,Day on China Rates
2011-07-06T22:17:59Z,Central Bank,Raises,Rates
2011-07-06T22:26:56Z,Bonds,Rise,Rebound
2011-07-06T22:26:56Z,Peruvian Bonds,Rise,Rebound
2011-07-06T22:36:23Z,Munich,Annecy to,Host 2018 Winter Games
2011-07-06T22:36:23Z,South Korea ’s Pyeongchang,Beats,Munich
2011-07-06T22:48:44Z,Industry,Weighs,Billion Emergency-Response Plan
2011-07-06T22:48:44Z,Nuclear Industry,Weighs,$ 1 Billion Emergency-Response Plan
2011-07-06T22:54:52Z,U.S. Data,Offsets,Urals
2011-07-06T22:59:06Z,Sweden Ends U.S. Women,’s Streak,Australia
2011-07-06T22:59:06Z,Sweden Ends U.S. Women ’s World Cup Streak,Reaches,Quarterfinals
2011-07-06T23:00:01Z,Art Are Weapons,in,Portugal Debt Battle
2011-07-06T23:01:00Z,Crown Estate,Has,Record Profit
2011-07-06T23:01:00Z,Income-Tax Change,in,Budget
2011-07-06T23:01:00Z,Pay Growth,Quickens After,Income-Tax Change
2011-07-06T23:01:00Z,U.K. Budget Watchdog Slams Cameron,Move to,Cut Back Aircraft Carriers
2011-07-06T23:12:38Z,Crusaders Bracket Ellis,With,Fotuali’i for Super Rugby Final
2011-07-06T23:16:22Z,May,Take in,Korea
2011-07-06T23:29:38Z,Bidding Contest,Pushes,Venice Painting
2011-07-06T23:50:53Z,Amazon.com Beefs,Adds Player for,IPad
2011-07-06T23:59:23Z,Japan Machinery Orders Rise,in,Four Months Rebuilding
2011-07-07T00:59:55Z,STX Plans Bid,With,Middle East Sovereign Fund
2011-07-07T02:00:04Z,Bank,Loses,Bid
2011-07-07T03:00:00Z,Brazil Transport Minister,Steps,Down
2011-07-07T04:01:00Z,Afghan War Troop Cut,Includes,Combat Units
2011-07-07T04:01:00Z,Obama,Defends Economy Policy to,Twitter Users
2011-07-07T04:01:01Z,Lehman,Borrowed,$ 18 Billion From Fed Program
2011-07-07T04:01:30Z,A-Rod,Admits,Bringing Steroids Into U.S.
2011-07-07T05:18:18Z,Spring Airlines,Slows,China Expansion Plan
2011-07-07T05:44:42Z,Week Low,Increase ’s,China
2011-07-07T06:35:47Z,Oil,Rises on,Signs U.S. Crude Stockpiles Shrank
2011-07-07T09:12:11Z,Former China President Jiang Zemin,of,Death Rumor
2011-07-07T09:48:57Z,Safety Regulator,Extends,Grounding
2011-07-07T09:48:57Z,Tiger Air Australia,Heads,Leave
2011-07-07T10:28:20Z,Tencent,Buys,$ 115 Million Kingsoft Stake
2011-07-07T11:00:00Z,BioVerde,Expands From,Biodiesel
2011-07-07T11:03:35Z,Kenya Shilling Gains,in,3
2011-07-07T11:05:36Z,Trichet,Fights,War
2011-07-07T11:23:52Z,Downgrades,in,Portugal
2011-07-07T12:02:04Z,Diamonds,Lure,Insurance Investor Cowdery
2011-07-07T12:18:12Z,Begged,Buy,Fridges
2011-07-07T12:18:12Z,Irish Begged,Buy,Fridges
2011-07-07T13:35:36Z,White House,Seeks,Positive Tax Revenue
2011-07-07T15:00:56Z,Employers,More Jobs Than,Forecast
2011-07-07T16:45:59Z,Mining Boom,Triggers,Tax Grab
2011-07-07T20:20:19Z,America,of Bank,States
2011-07-07T20:20:19Z,Bank,Said Near,to Foreclosure Deal With U.S.
2011-07-07T20:20:19Z,to Foreclosure Deal,With,U.S.
2011-08-18T14:51:20Z,Morgan Stanley,Sued by,Allstate
