2011-06-29T00:55:01Z,Greece ’s Asset Sale May Fall Short,Says,FT Reports
2011-06-29T00:57:04Z,Marks,Starts,Summer Sale
2011-06-29T00:57:04Z,Spencer,Starts,Summer Sale
2011-06-29T01:21:05Z,Mexichem,Seek Antitrust Approval,Million
2011-06-29T01:21:05Z,Pemex,Seek,Antitrust Approval
2011-06-29T01:22:41Z,China NDRC,Approves,8 Clean Energy Projects
2011-06-29T01:32:05Z,Brazil,From,Bahia Plunge
2011-06-29T01:32:05Z,Brazil ’s Bahia Plunge,From Arrivals,Analyst Hartmann
2011-06-29T01:42:15Z,Ghosn ’s Nissan,Become,Japan ’s Profitable Automaker
2011-06-29T01:43:32Z,Sony,Cooperates With,U.S. Antitrust Probe of Rechargeable Battery Business
2011-06-29T02:00:00Z,Transformers,’ Coverup,Lingerie Model
2011-06-29T02:53:45Z,China Yurun Gains,in,Hong Kong
2011-06-29T03:01:01Z,Bovespa,Trails,Peers
2011-06-29T03:26:53Z,Greek Protests,Amid Falls,Snapping Two-Day Gain
2011-06-29T03:33:13Z,Funds,Buy,Net 9.44 Billion Rupees
2011-06-29T03:33:13Z,Global Funds,Buy,9.44 Billion Rupees of Derivatives
2011-06-29T03:49:33Z,Spreadtrum Communications,Denies,Muddy Waters Allegations
2011-06-29T03:57:23Z,Mozambique,Approves Seed-Processing Project to,AIM Reports
2011-06-29T04:00:00Z,$ 30 Million Venture Investment,in,RockMelt
2011-06-29T04:00:00Z,Facebook Backer Accel,Joins,Million Venture Investment in RockMelt
2011-06-29T04:00:00Z,Ryan Plan,Hurts,Women
2011-06-29T04:00:01Z,Democrat Burton,in,Fundraising
2011-06-29T04:00:01Z,Obama,Lures,Trade-Deal Support
2011-06-29T04:00:01Z,Rove Tops President Obama,in,Democrat Burton ’s Fundraising
2011-06-29T04:00:07Z,Beal Becomes Billionaire,With,FDIC Assets
2011-06-29T04:00:07Z,He,Tops,Poker Pros
2011-06-29T04:01:00Z,Arizona ’s Mistakes,in,Ohio Prison Selloff
2011-06-29T04:01:00Z,Florida,Joins U.S. States in,Budget Stress
2011-06-29T04:01:00Z,Kasich,Avoid,Arizona ’s Mistakes in Ohio Prison Selloff
2011-06-29T04:01:00Z,Lawmakers,Chafe at,Secrecy Surrounding Deficit-Reduction Talks
2011-06-29T04:01:00Z,Manhattan,at,Poshest Pools
2011-06-29T04:01:00Z,Mets,Move Above,.500
2011-06-29T04:01:00Z,NBA Owners,Authorize Lockout in,Absence
2011-06-29T04:01:00Z,Puerto Rico Doubles Bond Offering,in,Bids
2011-06-29T04:01:01Z,Lehman Ex-Managing Director Bradley Jack,Arrested on,Drug Forgery Charge
2011-06-29T04:01:13Z,Hollywood Model,Could Create New Stars in,R&D
2011-06-29T04:08:48Z,Kenya Power Seeks 25 % Increase,in,Electricity Tariffs
2011-06-29T04:42:40Z,China,Accords on,Infrastructure
2011-06-29T04:42:40Z,Infrastructure,Cooperation as,Hu
2011-06-29T04:47:41Z,Euro,Erases Loss Versus Dollar on,ECB Interest-Rate Outlook
2011-06-29T05:00:22Z,Hong Kong Short Selling Turnover,Recorded,06/29/2011
2011-06-29T05:01:59Z,China Inflation,is,Problem
2011-06-29T05:06:17Z,Ugandan Lightning Strike,Kills,New Vision
2011-06-29T05:07:20Z,Hudaco Industries,Rises to,Million
2011-06-29T05:07:20Z,South Africa,of,First-Half Profit
2011-06-29T05:11:44Z,Vodafone,Starts,Handelsblatt Reports
2011-06-29T05:25:56Z,Mines,Bring Nationalization Debate,Nogxina Tells Business Day
2011-06-29T05:52:01Z,Australian Dollar,Erases,Gains to Almost Two-Week High
2011-06-29T05:52:01Z,Decline Versus Yen,Gains to,Almost Two-Week High
2011-06-29T05:52:01Z,Dollar,Erases,Gains
2011-06-29T06:00:05Z,Bestsport May,Be,Forced
2011-06-29T06:22:07Z,First Time,for Decline,Stocks
2011-06-29T06:22:07Z,Japan ’s Bonds Decline,in,Week on Production Report
2011-06-29T06:22:07Z,Week,in Decline,Stocks
2011-06-29T06:23:05Z,Debt Restructuring,Is,Unavoidable
2011-06-29T06:23:05Z,Greek Debt Restructuring,Is,Unavoidable
2011-06-29T06:23:54Z,Acciona,OHL to,Bid
2011-06-29T06:24:58Z,Tsang ’s Support,Widening,Wealth Gap
2011-06-29T06:25:52Z,Actelion,Takes,$ 577 Million Provision
2011-06-29T06:27:31Z,Hungary Police Protest Pension Changes,With,Roadblocks
2011-06-29T06:27:47Z,Australia ’s Bash League Twenty20 Teams,Are Given,$ 1 Million Salary Cap
2011-06-29T06:27:47Z,Australia ’s Big Bash League Twenty20 Teams,Are Given,Million Salary Cap
2011-06-29T06:34:52Z,Korea Won Gains,Fall After,Inflation Forecast
2011-06-29T06:39:18Z,French Output,Grew,Estimated
2011-06-29T06:39:18Z,Output,Grew,Estimated
2011-06-29T06:54:02Z,BNP Paribas,Bid for,RBS ’s Romanian Unit
2011-06-29T06:54:02Z,RBS,for,Romanian Unit
2011-06-29T07:02:07Z,Hungary Jobless Rate Drops,in,2011
2011-06-29T07:03:23Z,European Stocks,Climb for,Third Day
2011-06-29T07:03:23Z,Stocks,Climb Before,Greek Vote
2011-06-29T07:08:58Z,Lagarde Must Shield IMF Balance Sheet,Writes in,FT
2011-06-29T07:11:14Z,Court,Return of,West Bengal Land
2011-06-29T07:12:53Z,Minerva,Agrees by,Group of Investment Funds
2011-06-29T07:13:14Z,Basel Rules,Allow,CoCo Bonds
2011-06-29T07:22:12Z,Recruit Private Bankers,in,Asia
2011-06-29T07:24:28Z,Philips,Buy,Indal
2011-06-29T07:28:19Z,8.3 %,in,First Quarter
2011-06-29T07:28:47Z,China Haidian,Acquires,Swiss Watchmaker Eterna
2011-06-29T07:35:51Z,$ 200 Million,in,Oil Terminal
2011-06-29T07:38:11Z,Euro,Strengthens Against,Dollar
2011-06-29T07:50:12Z,Uralkali,Raises Second-Half Potash Price by,17.5 %
2011-06-29T07:54:35Z,Mauritius Development Trust,Rises to,High
2011-06-29T07:55:25Z,Tokyo Power Demand,Reaches,Highest Since Quake
2011-06-29T07:58:33Z,EU,Hits China With,Tariffs on Steel Pipes
2011-06-29T08:00:41Z,Fixed-Rate Loans,Control,Record Household Debt
2011-06-29T08:02:28Z,Japan Tobacco,Recover,Earlier Than Planned
2011-06-29T08:13:19Z,Asian Currencies,Strengthen on,Speculation Borrowing Costs
2011-06-29T08:13:19Z,Currencies,Strengthen on,Speculation Borrowing Costs
2011-06-29T08:20:56Z,Lead-Acid Battery Output Recovery,in,China
2011-06-29T08:31:52Z,Arabian Pipes,Rises,Most
2011-06-29T08:31:52Z,Pipes,Rises,Most in 3 Months on Million Contract
2011-06-29T08:32:27Z,Taiwan Bonds Drop,Advances on,Rate-Rise Speculation
2011-06-29T08:34:40Z,Naira Gain 1.5 %,in,Weeks
2011-06-29T08:34:41Z,Betfair,Adds,Products
2011-06-29T08:39:15Z,Cherkizovo,Starts,Construction of $ 696 Million Poultry Plant
2011-06-29T08:40:13Z,Global Ports Gains,in,Unconditional Trading
2011-06-29T09:00:00Z,India ’s Crude Oil Output,in,May
2011-06-29T09:00:00Z,India ’s Oil Output,Rises,9.6 %
2011-06-29T09:00:00Z,Indian Refiners Boost Crude Processing,in,May
2011-06-29T09:02:08Z,India,Clears Coal Blocks for,Ultra-Mega Power Plant
2011-06-29T09:18:04Z,CJ CheilJedang Falls,in,Seoul
2011-06-29T09:23:56Z,Peso,Climb,Government ’s Deficit Narrows
2011-06-29T09:24:15Z,Ghana,’s Gridco,Graphic
2011-06-29T09:30:00Z,KOF Economic Barometer Drops,Indicating,Economy May Slow
2011-06-29T09:30:00Z,Swiss KOF Economic Barometer Drops,Indicating,Economy May Slow
2011-06-29T09:35:44Z,Highmark,Pursues,West Penn System in Insurer-Hospital Deal
2011-06-29T09:35:44Z,West Penn System,in,Insurer-Hospital Deal
2011-06-29T09:41:57Z,Tipp24,Says,State Retracted Appeal
2011-06-29T09:53:50Z,Inflation,Accelerates,Boosting Expectation of Higher Rates
2011-06-29T09:53:50Z,Kenyan Inflation,Accelerates Boosting Expectation in,June
2011-06-29T09:57:04Z,8.3 %,in,Milan Stock-Market Debut
2011-06-29T10:00:00Z,Cuomo,Gets,64 %
2011-06-29T10:27:56Z,Aluminum Alloy Stockpiles,Reach,Nine-Year High
2011-06-29T10:27:59Z,Egyptian Shares,Drop After,Tahrir Square Clashes
2011-06-29T10:27:59Z,Shares,Drop to,Month-Low
2011-06-29T10:31:11Z,Credit Suisse,in,Court News
2011-06-29T10:31:11Z,Facebook,Suisse in,Court News
2011-06-29T10:34:46Z,Asian Stocks,Rise on,Prospect
2011-06-29T10:34:46Z,Stocks,Rise for,Second Day
2011-06-29T10:38:56Z,Farmers,in,First Week of Light Crop
2011-06-29T10:42:50Z,Chelsea,Meets Million Neymar Clause With,Four Rivals
2011-06-29T11:00:00Z,Indian Oil,Seeks Khosla-Backed Ethanol Technology With,Jindal
2011-06-29T11:00:00Z,Oil,Seeks Khosla-Backed Ethanol Technology With,Jindal
2011-06-29T11:00:59Z,13 %,by Declines,Broker
2011-06-29T11:00:59Z,Malawi,’s Declines,Broker
2011-06-29T11:08:57Z,U.A.E.,’s Demand,Citigroup
2011-06-29T11:08:57Z,U.A.E. ’s New Visa Rule May Boost Property Demand,in,Dubai
2011-06-29T11:13:14Z,Foreign Investors,Buy,Net 10.2 Billion Rupees of Indian Stocks
2011-06-29T11:22:42Z,Nigeria ’s President,Proposes,African Commodity Tax
2011-06-29T11:34:25Z,Wal-Mart,Says,Massmart Acquisition Unaffected
2011-06-29T11:34:37Z,Deutsche Bank,Hires,Jarman
2011-06-29T11:34:37Z,Jarman,Paschopoulos to,Head European Credit Trading
2011-06-29T11:52:39Z,Securitas,Extends,Niscayah Offer
2011-06-29T12:00:02Z,1st-Quarter Payments Gap,Undershoots Forecast at,3.36 Billion Euros
2011-06-29T12:00:02Z,Polish 1st-Quarter Payments Gap,Undershoots Forecast at,3.36 Billion Euros
2011-06-29T12:03:00Z,Kenya ’s Shilling,Curb,Losses
2011-06-29T12:03:25Z,$ 936 Million,in,Renounceable Rights Offer
2011-06-29T12:08:26Z,Kenya Tightens Monetary Policy,Curb,Shilling Volatility
2011-06-29T12:09:24Z,Serbian Economy Minister,Sees,Period of Dinar Stability
2011-06-29T12:13:24Z,Head Loan Sales,in,Expansion
2011-06-29T12:17:36Z,Lag Europe,% by,Year-End
2011-06-29T12:21:18Z,1st Day,Drop,Overdone
2011-06-29T12:21:18Z,Day,Drop,Overdone
2011-06-29T12:30:29Z,Nissan,Takes,15 %
2011-06-29T12:30:29Z,Renault,Raise AvtoVAZ Holding,May
2011-06-29T12:42:11Z,India ’s ONGC,Sell,Sudan ’s Nile Blend Crude
2011-06-29T12:45:52Z,Czech Cabinet,Approves,Pension-Revamp Bills
2011-06-29T12:47:32Z,Irish Unemployment,Spending,Declines
2011-06-29T12:47:32Z,Unemployment,Spending Declines,Economy Wanes
2011-06-29T12:48:18Z,Murray,Says,Full-Year Operating Profit
2011-06-29T12:48:18Z,Roberts,Says to,Fall
2011-06-29T12:57:45Z,Murray,Appoints Cobus Bester as,Its Financial Director
2011-06-29T12:57:45Z,Roberts,Appoints,Cobus Bester
2011-06-29T13:00:00Z,ECB,Extends,Dollar Liquidity Swap Line
2011-06-29T13:00:00Z,London,to,Design Museum
2011-06-29T13:00:00Z,Terence Conran,Donates,$ 28 Million
2011-06-29T13:11:21Z,Pao de Acucar Merger May,Save,JPMorgan
2011-06-29T13:11:57Z,OTP Interested,in,Romania Purchase
2011-06-29T13:12:09Z,Melrose,Makes,Billion Preliminary Approach for Charter
2011-06-29T13:13:09Z,African Energy Ministers May,Decide on,Oil Pipeline
2011-06-29T13:13:09Z,East African Energy Ministers May,Decide by,October
2011-06-29T13:16:04Z,Greek Austerity Bill,Way for,More Aid
2011-06-29T13:16:04Z,Papandreou,Wins,Passage
2011-06-29T13:16:29Z,Howard Hughes,Buys,Morgan Stanley Stake
2011-06-29T13:16:29Z,Morgan Stanley Stake,in,Houston Site
2011-06-29T13:16:39Z,Austerity Plan,Is,Approved
2011-06-29T13:16:39Z,Greek Austerity Plan,Is,Approved
2011-06-29T13:19:41Z,E.ON,for,Hungarian Gas Unit
2011-06-29T13:20:07Z,$ 950 Million,in,Sugar Output
2011-06-29T13:30:00Z,Weidmann,Says,Banks
2011-06-29T13:31:23Z,2 Years,Rebounds From,Record Low
2011-06-29T13:31:23Z,Kreditna,Rises,Most in 2 Years
2011-06-29T13:41:21Z,Monsanto,Raises,Forecast
2011-06-29T13:44:10Z,Yen,Dollar on,Japanese Export Slump Outlook
2011-06-29T13:48:23Z,Port Agent,Says,Weather Improves
2011-06-29T13:58:39Z,Massmart CEO Pattison,Considers Opening New Stores in,Angola
2011-06-29T13:59:18Z,Anglo Irish,Approval for,Closure Aid
2011-06-29T14:03:04Z,McGraw-Hill Board,Authorizes,Buyback
2011-06-29T14:06:28Z,Greece,Even Passes,Austerity Measures
2011-06-29T14:06:28Z,Stocks,in,U.S. Pare Advance
2011-06-29T14:11:18Z,Ryan Plan,Saves,Little
2011-06-29T14:14:06Z,Brait,Buy,Premier Stakes
2011-06-29T14:24:32Z,United Nations,Says in,Need of Aid
2011-06-29T14:32:35Z,Brazil,Set to,Battle China
2011-06-29T14:34:02Z,Canadian Inflation,Surges to,Fastest
2011-06-29T14:34:02Z,Inflation,Surges to,Fastest
2011-06-29T14:34:03Z,Russia,Considers,Purchases of Spanish State Debt
2011-06-29T14:37:15Z,June 24,for Report,Text
2011-06-29T14:38:18Z,Japanese Heat Rub,in,First Deal
2011-06-29T14:38:18Z,Tiger Woods,Endorses,Heat Rub
2011-06-29T14:39:04Z,Credit Suisse,Said to,Plan 100 Job Cuts at U.K. Investment Bank
2011-06-29T14:44:30Z,Ethanol Production,in,U.S.
2011-06-29T14:44:32Z,JPMorgan ’s $ 153.6 Million SEC Mortgage Bond Settlement,Approved by,Judge
2011-06-29T14:44:32Z,JPMorgan ’s $ Million SEC Mortgage Bond Settlement,Approved by,Judge
2011-06-29T14:44:32Z,JPMorgan ’s Million SEC Mortgage Bond Settlement,Approved by,Judge
2011-06-29T14:47:32Z,Gasoline,Extends Gain After,Decline in Inventories
2011-06-29T14:47:32Z,Unexpected Decline,in,Inventories
2011-06-29T14:50:00Z,BofA,Settles,Soured Mortgages
2011-06-29T14:53:10Z,Afyon,Are,Active
2011-06-29T14:53:47Z,Samsung,Takes,Apple Dispute
2011-06-29T14:59:47Z,Lower Cooling Demand,in,West
2011-06-29T15:09:52Z,Krugman,Says,Hard
2011-06-29T15:11:28Z,SEC,Proposes Fiduciary Duty for,Public-Fund Swap Advisers
2011-06-29T15:14:22Z,Euro,Weakens Against,Most-Traded Peers
2011-06-29T15:14:22Z,Greece,Passes,Austerity Plan
2011-06-29T15:15:07Z,IMF,Avoid,Shock
2011-06-29T15:17:06Z,Focus,to Solarworld,U.S. Units After Korean Disposals
2011-06-29T15:17:06Z,Solarworld,Units After,Korean Disposals
2011-06-29T15:20:15Z,Warmer,Is New Normal for,U.S. Temperatures
2011-06-29T15:24:09Z,Papandreou,Wins Budget Vote as,Risk
2011-06-29T15:24:29Z,Teen Substance Abuse,Is,Top U.S. Health Issue
2011-06-29T15:26:11Z,Oil,Extends,Rally
2011-06-29T15:26:50Z,CFO,Says to,Rise 25 Percent
2011-06-29T15:26:50Z,Gazprom,Jumps,CFO Says to Rise 25 Percent
2011-06-29T15:27:20Z,Russian Sea,Jumps to,3-Month High on Timchenko Plan
2011-06-29T15:27:42Z,Copper,Rises on,Improving U.S. Housing Market
2011-06-29T15:27:50Z,Russia ’s Ruble,Heads Against,Dollar
2011-06-29T15:28:40Z,Fed,Extends Dollar Swap Arrangements With,ECB Amid Debt Woes
2011-06-29T15:29:52Z,CI,Faces Toronto-Dominion,TMX Investors Prepare for LSE Vote
2011-06-29T15:29:52Z,TMX Investors,Prepare for,LSE Vote
2011-06-29T15:30:15Z,Groupon,Cedes,Share of Online Daily Deals
2011-06-29T15:31:24Z,Orphanides,Says,Debate
2011-06-29T15:35:16Z,Eskom,Raises,Management Compensation
2011-06-29T15:38:02Z,Areva,Iberdrola to,Vie
2011-06-29T15:38:02Z,Iberdrola,in,Offshore Wind Pact
2011-06-29T15:39:22Z,La Polar Case,Could Hurt,Chile Spending
2011-06-29T15:40:42Z,Iraq,in,July
2011-06-29T15:46:36Z,EDF,Ahead at,Dunkirk
2011-06-29T15:46:36Z,Fluxys Push Ahead,With,LNG Terminal
2011-06-29T15:47:38Z,Ackermann,Says,Help on Rescue
2011-06-29T15:47:38Z,Banks,Help on,Rescue
2011-06-29T15:48:15Z,Target Agreement,in,July
2011-06-29T15:49:15Z,Australia,Climb as,Commodities Rise on Greek Vote
2011-06-29T15:49:15Z,New Zealand Currencies,Climb as,Commodities Rise
2011-06-29T15:56:47Z,Bloomberg,Convenes,Experts
2011-06-29T16:00:43Z,Record,End,Nightmare
2011-06-29T16:01:00Z,Barclays Chairman Attacks Regulators,’,Profoundly Negative Capital Rules
2011-06-29T16:05:34Z,$ 2.5 Billion,in,Assets
2011-06-29T16:05:34Z,Citigroup,in,Settlement
2011-06-29T16:05:57Z,Gilt Yields,Reach,3-Week High
2011-06-29T16:06:43Z,Human Rights Watch,Refuse,Zimbabwe Diamonds
2011-06-29T16:07:13Z,Spain,Starts Wireless-Spectrum Sale in,Plan
2011-06-29T16:08:01Z,Minerva,Accepts,Takeover Bid
2011-06-29T16:08:03Z,Stocks,in,South Africa Advance
2011-06-29T16:20:34Z,Rand Gains,Vote,Optimism
2011-06-29T16:28:20Z,Ghosn,Gets,982 Million Yen
2011-06-29T16:28:23Z,Poland ’s Tusk Wants EU,Help Frankfurter Reports for,Greece
2011-06-29T16:32:11Z,Greece,Package of,Austerity Measures
2011-06-29T16:37:31Z,Euro,Most in,World
2011-06-29T16:37:31Z,Forint,Extends,Gain Against Euro
2011-06-29T16:37:31Z,Hungarian Forint,Extends,Gain
2011-06-29T16:44:38Z,29,at %,Survey
2011-06-29T16:46:05Z,KfW,Appoints Edeltraud Leibrock as,COO/CIO
2011-06-29T16:49:32Z,NFL ’s Goodell,Appearance at,Rookie Event
2011-06-29T16:51:36Z,Nebraska Book,Wins,Approval of $ 125 Million Bankruptcy Loan
2011-06-29T16:53:51Z,Christie,Loses,2nd Term Support
2011-06-29T16:53:51Z,Residents,Oppose,Cuts
2011-06-29T17:00:55Z,Raskin,Says,Income Inequality Among Americans Undermining Economic Growth
2011-06-29T17:01:26Z,TMX Group,Accord Amid,Opposition
2011-06-29T17:04:15Z,German States,’ Decline,Handelsblatt Reports
2011-06-29T17:06:25Z,Ferrexpo,Rises on,Reported Speculation BHP May
2011-06-29T17:07:33Z,Brown,to,$ 85.9 Billion Spending Plan
2011-06-29T17:07:33Z,California Lawmakers,Give Approval to,Brown ’s Billion Plan
2011-06-29T17:10:02Z,Shell,Seeking,Urals
2011-06-29T17:10:02Z,Statoil,Sell,Forties Crude
2011-06-29T17:12:02Z,Spain 12 EU Nations,Meeting,CCS Law Deadline
2011-06-29T17:12:02Z,Spain Lead 12 EU Nations,Meeting,CCS Law Deadline
2011-06-29T17:16:27Z,2 Journalists,Others on,Terrorism Charges
2011-06-29T17:18:32Z,Lower Cooling Demand,in,U.S. West
2011-06-29T17:18:50Z,Shell,Buys,Europe Diesel
2011-06-29T17:19:42Z,Natural Gas Output,Rises in,Lower 48 States
2011-06-29T17:32:16Z,Chavez Speaks,With,Castro
2011-06-29T17:54:38Z,Rusgrain Holding,Had,Profit Last Year
2011-06-29T17:58:50Z,UN,Sees,Growth
2011-06-29T18:06:13Z,PGNiG,Spend,$ 9.8 Billion
2011-06-29T18:15:25Z,Women,at,Soccer World Cup
2011-06-29T18:17:53Z,Stocks,Pare Back,Rally
2011-06-29T18:32:37Z,Singapore,Loses,Fight Over Bid for Bankrupt Paulson Resorts
2011-06-29T18:33:27Z,New York City Council,Approves,$ 66
2011-06-29T18:34:17Z,S&P,Would,Cut U.S. Rating Lowest on Default
2011-06-29T18:36:52Z,Federer,Upset by,Tsonga
2011-06-29T18:56:38Z,May Rise,Through Orders,International Sales
2011-06-29T18:57:12Z,New Jersey ’s Civil Union Law,Is Challenged as,Illegal by Gay Rights Group
2011-06-29T18:59:12Z,Fed,as,Stimulus Plan Ends
2011-06-29T19:02:33Z,BJ ’s Wholesale Club,Buyout With,$ 2.58 Billion of Loans
2011-06-29T19:02:33Z,CVC Buyout,With,$ 2.58 Billion of Loans
2011-06-29T19:16:05Z,AFL-CIO,Joins,$ 10 Billion Effort
2011-06-29T19:17:21Z,MasterCard,Climb,Visa
2011-06-29T19:27:58Z,Transition Talks,With,Opposition
2011-06-29T19:31:41Z,Futures,Surge on,Supply Drop
2011-06-29T19:31:41Z,Oil Options Volatility,Slips,Futures Surge
2011-06-29T19:33:55Z,Actions,in,Libya
2011-06-29T19:34:02Z,Colombian Currency Gains,Outlook With,U.S.
2011-06-29T19:34:02Z,Trade Outlook,With,U.S.
2011-06-29T19:36:36Z,$ 300 Million,in,Auction-Rate Settlement
2011-06-29T19:50:05Z,Gold Futures Advance,Prompts,Buying
2011-06-29T19:50:18Z,Exclusive Zynga Content,Sell,HTC Facebook Phone
2011-06-29T19:57:38Z,Crude Oil,Climbs for,Second Day
2011-06-29T19:57:38Z,Oil,Climbs,Supplies Decline Expected
2011-06-29T20:00:50Z,Fire,on Oil,African Union
2011-06-29T20:00:50Z,Pours Oil,in,Libya
2011-06-29T20:04:57Z,Stone,Move to,Obvious
2011-06-29T20:11:50Z,Ford,Predicts,U.S. Auto Sales
2011-06-29T20:16:50Z,New York City Synagogue Bomb Plotters,Are Sentenced in,Prison
2011-06-29T20:18:02Z,Canacol,Rises From,11-Month Low
2011-06-29T20:26:58Z,Up Support Carrefour,in,Brazil Battle Versus Casino
2011-06-29T20:27:02Z,Morgan Stanley,Suffer,Trading Loss on Inflation Bet
2011-06-29T20:28:05Z,America,of,Mortgage Wound
2011-06-29T20:29:55Z,La Polar,Agrees With,Bondholders
2011-06-29T20:31:39Z,Options,Are,Most-Active
2011-06-29T20:32:39Z,Hits,Bump,Market Slump Overshadows Cash Pile
2011-06-29T20:36:21Z,West Gasoline,Weakens for,Day
2011-06-29T20:36:55Z,HSH,Reduce,Balance Sheet
2011-06-29T20:38:14Z,Aluminum Makers,Seek U.S. Action on,China
2011-06-29T20:38:36Z,Interest-Rate Outlook,Offsets,Steelmaker Rally
2011-06-29T20:38:49Z,We,Do Have,Labor Shortage
2011-06-29T20:41:25Z,Spreadtrum,Says Over,Its Accounting
2011-06-29T20:41:25Z,Spreadtrum Says,Are,Groundless
2011-06-29T20:42:14Z,Talks,in UFJ,FT
2011-06-29T20:42:14Z,Tokyo-Mitsubishi UFJ,in,Talks on RBS Australia Units
2011-06-29T20:50:05Z,Gasoline,Reaches,Two-Week High
2011-06-29T20:51:32Z,Coca-Cola Femsa,Buys,Mexico Bottler
2011-06-29T20:58:00Z,Pressure,in,Water Mains
2011-06-29T20:58:00Z,Rentricity Powers Cities,Using,Pressure in Water Mains
2011-06-29T20:58:00Z,Using,Pressure in,Water Mains
2011-06-29T20:58:09Z,Institutions,Pull,Most From Prime Money Funds
2011-06-29T20:58:11Z,Geithner,Delaying,Deeply Irresponsible
2011-06-29T21:04:56Z,Canada ’s Currency Climbs,Commodities,Gain
2011-06-29T21:04:59Z,Corn Fields Curb Planting,Feed,Grow
2011-06-29T21:04:59Z,Soggy Corn Fields Curb Planting,Feed,Grow
2011-06-29T21:05:05Z,Carlos Slim ’s America Movil,Gets Victory in,Quest
2011-06-29T21:06:29Z,HomeAway,Surges After,Pricing IPO at Top of Range
2011-06-29T21:16:09Z,Credit Suisse,Said to,Plan
2011-06-29T21:20:40Z,Ex-Credit Suisse Broker Butler,in,Plea Talks
2011-06-29T21:20:40Z,U.S. Prosecutor,Tells,Court
2011-06-29T21:22:12Z,Bankruptcy Plan,Sales to,Cerberus
2011-06-29T21:22:12Z,Innkeepers Judge,Approves,Sales
2011-06-29T21:23:18Z,Paul Kariya,Retires After,National Hockey League Career
2011-06-29T21:32:08Z,Semprius,Gets,Funding
2011-06-29T21:32:35Z,May,Be at,Risk as UN Mandate
2011-06-29T21:35:16Z,Wells Fargo,Sell,H.D. Vest Brokerage
2011-06-29T21:38:34Z,Bid,Denied by,Appeals Court
2011-06-29T21:47:26Z,Oracle,Opposes HP Bid to,Seal Court Records in Contract Suit
2011-06-29T21:47:26Z,Seal Court Records,in,Contract Suit
2011-06-29T22:11:36Z,Cut,to State,Filing
2011-06-29T22:11:36Z,Plan,of State,Filing
2011-06-29T22:13:18Z,60 Jobs,in,Equity Sales
2011-06-29T22:17:22Z,Creditors,Join,Insider Trading Probe
2011-06-29T22:17:22Z,More Creditors,Join,Insider Trading Probe of Funds
2011-06-29T22:17:22Z,WaMu Judge,Allows,Creditors
2011-06-29T22:19:21Z,IMF,Says,Ugandan Growth Expected
2011-06-29T22:24:11Z,GreenVolts,Receives Funding for,Concentrating Solar Power System
2011-06-29T22:30:00Z,Errors,Occur in,12 % of Electronic Drug Prescriptions
2011-06-29T22:30:20Z,Taser,Settles,Its Lawsuit Against Financial Firms Alleging Short Selling
2011-06-29T22:34:10Z,IMF,Says After,Review
2011-06-29T22:34:10Z,Program,Is,Good
2011-06-29T22:35:48Z,Lockheed F-35 May Face Cuts,in,Budget Review
2011-06-29T22:37:29Z,JPMorgan Chase,Appoints Jeff Urwin as,Worldwide Head
2011-06-29T22:46:45Z,Obama,Recognize,Progress
2011-06-29T22:54:11Z,Federal Reserve,Approves,Cap
2011-06-29T22:55:23Z,Senate Votes,Let,Federal Positions Bypass Confirmation
2011-06-29T23:00:01Z,Federer ’s Two-Set Invincibility,Ended by,Tsonga
2011-06-29T23:00:01Z,Nadal Concerned About Foot Ahead,With,Murray
2011-06-29T23:00:14Z,HP Bobbles Hardware,in,Assault on Apple IPad
2011-06-29T23:01:00Z,Citigroup Collides,With,Death Pursuing Emerging Market Debts in Indonesia
2011-06-29T23:01:00Z,Death Pursuing Emerging Market Debts,in,Indonesia
2011-06-29T23:01:00Z,Google Fight,With,Wireless Operators
2011-06-29T23:01:22Z,Chelsea ’s Villas-Boas May,Upset Porto Fans With,Player Raid
2011-06-29T23:22:56Z,Icelandic Lenders May,Have to,RUV Reports
2011-06-29T23:22:56Z,Lenders May,Have to,Refund Government Aid
2011-06-29T23:37:24Z,19.9 % Interest,in,African Iron Ltd
2011-06-29T23:37:24Z,Equatorial Resources,Buys,19.9 % Interest
2011-06-29T23:45:09Z,HP,in,Discussions
2011-06-29T23:53:28Z,Million Auction,Puts,Market Back
2011-06-29T23:56:35Z,$ 100 Million,in,Late Dividend Requests
2011-06-29T23:56:35Z,Venezuela,Approves,Million in Late Dividend Requests
2011-06-29T23:57:51Z,China Yuan Use,in,International Transactions
2011-06-29T23:58:21Z,Rain,Restricts Play in,Second Test
2011-06-29T23:59:41Z,IPO,Due to,Market Conditions
2011-06-30T00:24:23Z,LSE Failing Means Rolet,Joins,Nasdaq
2011-06-30T00:43:06Z,Senate Panel,Halting,Raytheon Kill-Vehicle Production
2011-06-30T01:27:51Z,Samsung,Sues Apple Over,Patents for IPhone
2011-06-30T01:36:37Z,It,Quits on,Myspace
2011-06-30T02:09:31Z,Buyout Funds,Revive,Woori Stake Sale
2011-06-30T04:01:00Z,Amazon Plans,With,California Affiliates Over Tax Law
2011-06-30T04:01:00Z,Summers,Joins Andreessen Horowitz as,Part-Time Adviser
2011-06-30T05:06:48Z,Deficit Concerns,Push,Rupee
2011-06-30T05:10:55Z,Philippine Beauty Queen,Wins Crown on,Spratly Claim Defense
2011-06-30T06:33:12Z,IPOs,Set as,Top Advisor Bahana
2011-06-30T06:33:12Z,Indonesian IPOs,Set For,Record
2011-06-30T06:44:26Z,Lagarde Exit,Worsens Sarkozy Failure on,Gender Parity Pledged in Campaign
2011-06-30T07:17:43Z,Oil,Climbs,Day on U.S. Crude Stockpiles
2011-06-30T08:36:13Z,BYD,Surges in,Shenzhen Debut
2011-06-30T08:36:13Z,Buffett-Backed BYD,Surges on,Electric-Vehicle Incentives
2011-06-30T09:01:27Z,Confucius Town,Gets,Makeover
2011-06-30T09:14:29Z,Vodafone,Sees,Verizon Dividend of $ 5.5
2011-06-30T10:54:09Z,Oil Deals,Slump as,Asia Retreats
2011-06-30T10:54:56Z,S&P,Would,Lower U.S. Credit Rating
2011-06-30T11:22:58Z,Birmingham Owner Yeung Charged,With,Money Laundering
2011-06-30T11:27:13Z,Merkel ’s Atomic Overhaul,Faces State Struggle on,Renewables
2011-06-30T11:27:13Z,Merkel ’s Overhaul,Faces,State Struggle
2011-06-30T15:12:06Z,Gulf,in,Deficit Talks
2011-06-30T15:12:06Z,Obama Assails Republicans,Remains,Wide
2011-06-30T18:23:00Z,Chilean Peso,Climbs as,Price of Copper Increases
2011-06-30T18:23:00Z,Peso,Climbs for,Fifth Straight Day
2011-06-30T18:46:38Z,Goldman,Consent on,Liquidation Plan
2011-06-30T18:46:38Z,Lehman,Gets,Paulson Consent on Liquidation Plan
2011-06-30T19:48:03Z,Venezuela,Cancels Summit,Chavez Health Questions Escalate
2011-06-30T21:18:14Z,Euro,Rises to,Three-Week High Versus Dollar
2011-06-30T22:30:00Z,Corporate Jet Tax,Gets,Billion Estimate
2011-06-30T22:30:00Z,Jet Tax,Gets,Six Obama Mentions
