2011-12-14T00:00:00Z,Germany ’s Nightmare,Come,True
2011-12-14T00:00:05Z,Moon,in,Hard Times
2011-12-14T00:00:19Z,Aristotle ’s Ideal,Killed by,Web
2011-12-14T00:01:00Z,Roche ’s RoActemra Recommended,in,Final U.K. Guidance on Juvenile Arthritis
2011-12-14T00:01:00Z,Securitas Chief Bets,With,G4S
2011-12-14T00:01:00Z,Voters,in,Poll
2011-12-14T00:46:41Z,Vietnam ’s Biggest Sugarmill,Sees,Profit Jump
2011-12-14T00:46:41Z,Vietnam ’s Sugarmill,Sees,Profit Jump
2011-12-14T01:09:37Z,Biden,Says,U.S.
2011-12-14T01:09:37Z,U.S.,Remain,Involved After End of Conflict
2011-12-14T01:47:35Z,Crude Oil Declines,in,New York
2011-12-14T01:48:03Z,Currency,Help,Australia
2011-12-14T01:48:03Z,Lower Currency,Help,Australia
2011-12-14T01:56:54Z,Vietnam,’s FPT,Aims to Boost M&A Activity
2011-12-14T01:56:54Z,Vietnam ’s FPT,Aims to,Boost M&A Activity
2011-12-14T01:59:06Z,Gas,’ Hub,IEA Chief
2011-12-14T02:00:00Z,0.1 %,in,Oct.
2011-12-14T02:00:00Z,Bucks ’ Andrew Bogut,Replaces,Webber
2011-12-14T02:05:16Z,MF Global Trustee,Says,Highridge
2011-12-14T02:05:16Z,MF Trustee,Says,Highridge
2011-12-14T02:28:28Z,Lloyds Australia Unit BOS Said,Made to,Nine Entertainment
2011-12-14T03:01:00Z,German Economy Minister,Rejects,Passauer
2011-12-14T03:17:44Z,Credit Agricole,Says,Drop in November
2011-12-14T03:17:44Z,India Inflation,Drop in,November
2011-12-14T03:18:16Z,Funds,Sell,Net 4.49 Billion Rupees of Indian Derivatives
2011-12-14T03:18:16Z,Global Funds,Sell,4.49 Billion Rupees of Derivatives
2011-12-14T03:36:07Z,Worst Floods,in,70 Years
2011-12-14T03:47:49Z,Basra Burns,Near Pipeline,AP
2011-12-14T04:00:00Z,2012,in %,Central Bank Survey
2011-12-14T04:00:00Z,Singapore Economy May Grow 3 %,in,2012
2011-12-14T04:18:58Z,Ouattara ’s Party,Widens,Lead
2011-12-15T05:00:01Z,Dinosaurs,Turn,Triceratops
2011-12-15T05:00:01Z,Three Dinosaurs,Turn Out,Triceratops
2011-12-15T05:00:36Z,NFL,Signs,Nine-Year Extensions
2011-12-15T05:00:36Z,NFL Signs,With,CBS
2011-12-15T05:01:00Z,Glam Media Said,Weigh,Banks
2011-12-15T05:01:00Z,Goldman Financial Sponsors Head Berlinski,Leaving With,Bank
2011-12-15T05:01:01Z,Falcone ’s LightSquared,Disrupts,Plane Safety Gear in U.S. Tests
2011-12-15T05:01:01Z,Plane Safety Gear,in,U.S. Tests
2011-12-15T05:06:20Z,Kluger,Stealing,Law-Firm M&A Secrets
2011-12-15T06:10:08Z,Oil,Climbs From,Five-Week Low
2011-12-15T06:32:05Z,BRIC Bond Gain,Spurred by,Subbarao Rate-Halt Forecast
2011-12-15T06:32:05Z,Best BRIC Bond Gain,Spurred by,Subbarao Rate-Halt Forecast
2011-12-15T06:54:23Z,Euro,Nears,Low Before German PMI
2011-12-15T07:22:11Z,Saudi Lending Rates,Climb as,King Appoints New Economy Team
2011-12-15T08:35:02Z,China Property Executives,Buy Stock After,Curbs Damp Values
2011-12-15T08:47:15Z,Europe ’s Clogged Arteries,Drive Up,Transport Costs
2011-12-15T09:04:18Z,Allot ’s Tel Aviv Discount,Widens as,Teva Gains
2011-12-15T09:06:57Z,CVC Capital,Offer for,Malaysia ’s KFC
2011-12-15T09:06:57Z,Malaysia,for,KFC
2011-12-15T09:52:13Z,Loophole,Inserted in,Climate Accord Augurs U.S.-China Clash
2011-12-15T10:57:57Z,E&Y,Says,Breakup Risk Remains
2011-12-15T11:04:20Z,May,Get,Banks ’ Support for Turnaround
2011-12-15T12:04:16Z,Facebook,Twitter to,Counter Internet-Savvy Opponents
2011-12-15T12:36:20Z,Hungary ’s Orban May Demote Simor,With,Total Takeover of Central Bank
2011-12-15T12:56:23Z,Telefonica Dividend,Losing,Touch
2011-12-15T15:06:13Z,Companies,Invest,Trapped Untaxed Foreign Profits in U.S.
2011-12-15T15:06:13Z,Trapped Untaxed Foreign Profits,in,U.S.
2011-12-15T15:54:37Z,Merkel,Buffeted by,Disputes
2011-12-15T18:13:48Z,Aussie,Rise as,U.S. Economic Data
2011-12-15T20:31:57Z,Obama,Fill,Vacancies on Labor Board
2011-12-15T20:37:55Z,Stores,Seek,Data
2011-12-15T21:28:27Z,Lam Research,Buy,Novellus Systems
2011-12-15T21:29:13Z,BioSante ’s Shares Plunge,Work in,Study
2011-12-15T23:08:11Z,Bourke,Loses,Bid for New FCPA Trial
2011-12-16T12:29:56Z,Antofagasta,Approves,Billion Antucoya Copper Mine
