2011-02-03T00:00:01Z,Arkansans,Pack,Machine by Machine
2011-02-03T00:00:01Z,Toothless Arkansans,Pack,Machine
2011-02-03T00:01:00Z,Banks,Must,Must Allowed
2011-02-03T00:01:00Z,Big Banks,Must,Must Allowed to Fail in Crisis
2011-02-03T00:01:00Z,Britain 's Earners,Spend on,Horses
2011-02-03T00:01:00Z,Britain 's Top Earners,May Splurge on,Travel
2011-02-03T00:01:00Z,Fail,in,Crisis
2011-02-03T00:01:00Z,LVMH Analysts,Say in,Run-Up to Record Earnings Report
2011-02-03T00:01:00Z,Liverpool,Wins,Third Straight
2011-02-03T00:35:08Z,California Groups,Seek,Overhaul of State Carbon Market
2011-02-03T01:31:54Z,Panasonic Shares Decline,Misses,Analyst Estimates
2011-02-03T01:31:54Z,TV Maker,After,Profit
2011-02-03T01:49:12Z,Copper Futures,Climb to,Records
2011-02-03T02:00:00Z,Users,Hold,Calls
2011-02-03T03:02:48Z,Australia Building,Permits,Trade Beats Estimates
2011-02-03T03:19:02Z,Equinox Increases Scale,in,Zambia
2011-02-03T04:03:38Z,Cyclone Yasi,Slams Into Australia,Weakening
2011-02-03T05:00:00Z,Boudoir Chic,Hits,Runways
2011-02-03T05:00:00Z,Unmentionables,Get,Tongues Wagging
2011-02-03T05:00:01Z,Daley 's Talk,in,Egypt Returns
2011-02-03T05:00:01Z,Obama,Looks,Kick
2011-02-03T05:00:04Z,Syracuse,Snaps Slide With,66-58 Win Over 3rd-Ranked Connecticut
2011-02-03T05:01:00Z,Chevy,Drive Like,Ferrari
2011-02-03T05:01:00Z,Grizzly Bears,Are Vanishing From,North Cascades National Park
2011-02-03T05:01:00Z,He,Even Wins,Super Bowl
2011-02-03T05:01:00Z,Hypnotized Money Manager,Sees,Redhead Strips
2011-02-03T05:01:00Z,Money Manager,Sees,Redhead Strips in Art Film
2011-02-03T05:01:00Z,Oil,Spills in,Imperiled U.S. Coastal Wetland Escape Fines
2011-02-03T05:01:00Z,Redhead Strips,in,Art Film
2011-02-03T05:01:00Z,Roethlisberger,Loses to,Rodgers
2011-02-03T05:01:10Z,Justice Sotomayor,Becomes,Forceful Voice
2011-02-03T05:06:33Z,Morgan Stanley,Urges,New York Judge
2011-02-03T05:06:33Z,New York Judge,Dismiss,Singapore Investors ' Suit
2011-02-03T05:07:49Z,Optimum Coal,Surges,Million
2011-02-03T05:20:48Z,Sberbank May,Buy,80 % of Troika
2011-02-03T05:24:02Z,$ 71 Million,in,South Africa
2011-02-03T05:24:35Z,Glasses-Free 3-D TV Sales Miss Expectations,in,Initial Month
2011-02-03T06:12:49Z,African Republic,Re-Elects Bozize as,Deutsche Reports
2011-02-03T06:12:49Z,Central African Republic,Re-Elects Bozize as,President
2011-02-03T06:12:49Z,Central Republic,Re-Elects Bozize as,President
2011-02-03T06:12:49Z,Republic,Re-Elects Bozize as,Deutsche Reports
2011-02-03T06:18:14Z,India 's Weekly Food Articles Prices,Rises,17.05 Percent
2011-02-03T06:45:19Z,RWE CEO,Seeks,Renewable-Energy Law Reforms
2011-02-03T06:50:16Z,Takeda Pharma,Says,Nine-Month Profit Falls on Copycat Drugs
2011-02-03T06:54:25Z,Dong Energy,Seeking Partners to,Fund Offshore Wind Parks
2011-02-03T06:54:58Z,India 's Food Inflation,Adding to,Rate Pressure
2011-02-03T07:00:44Z,Income,Compensates for,Decline
2011-02-03T07:06:33Z,Andritz,Receives,Hydroelectric Power Plant Orders Worth
2011-02-03T07:09:38Z,CLS Holdings,Announces,Plans for Redevelopment of London 's Vauxhall Cross
2011-02-03T07:09:38Z,London,of,Vauxhall Cross
2011-02-03T07:10:16Z,Shell Net Income,Rises Output on,Higher Oil Prices
2011-02-03T07:32:51Z,Mitsubishi UFJ Financial,Says,Billion
2011-02-03T07:34:24Z,Santander Brasil Net Income,Rises in,2010
2011-02-03T07:41:29Z,Australia,Rises on,Oil
2011-02-03T07:49:06Z,First Time,for Retreat,Earnings
2011-02-03T07:49:06Z,Japanese Stocks,Retreat for,First Time
2011-02-03T07:49:06Z,Japanese Stocks Retreat,in,Three Days on Egypt
2011-02-03T07:49:06Z,Stocks,Retreat for,First Time
2011-02-03T07:49:06Z,Three Days,in Retreat,Earnings
2011-02-03T07:53:46Z,Hermes,Lifts,2010 Operating Margin Growth Forecast
2011-02-03T07:54:05Z,Softbank,Raises,20 %
2011-02-03T07:54:05Z,iPhone Demand,in,Japan
2011-02-03T08:05:53Z,12 %,in,Zurich Trading
2011-02-03T08:17:26Z,Investec,Sees,Annual Profit Growth
2011-02-03T08:20:38Z,BHP,for,South Africa Assets
2011-02-03T08:23:39Z,Growth,in,Eurasia
2011-02-03T08:23:39Z,TeliaSonera Profit,Beats,Estimates
2011-02-03T08:33:24Z,EU Carbon,Permits Pare Gains as,Five Registries
2011-02-03T08:39:28Z,Munich Re,Raises Dividend as,Profit Falls
2011-02-03T08:47:55Z,BT Third-Quarter Profit,Beats,Analyst Estimates
2011-02-03T08:51:02Z,Central Bank,on,Unique Policy
2011-02-03T09:04:32Z,Oil,in,Burundi
2011-02-03T09:40:23Z,Army,Foiled Attack on,Defense Minister
2011-02-03T09:40:23Z,Mauritanian Army,Foiled Attack on,French Embassy
2011-02-03T09:43:38Z,Deutsche Bank Investment Banking Profit,Rises on,Trading Revenue
2011-02-03T09:44:07Z,Anglo Platinum,Says,Full-Year Profit Increased Than Threefold
2011-02-03T09:55:50Z,Sony Profit,Beats Estimates Double After,Earnings
2011-02-03T09:56:05Z,Face Down Loyalists,in,Cairo
2011-02-03T10:00:00Z,European Services Grow,More Estimated,Retail Sales Fall
2011-02-03T10:04:52Z,Barclays,Threats With,Breakup Risk
2011-02-03T10:04:52Z,HSBC Threats,With,Breakup Risk
2011-02-03T10:33:16Z,Malawi Top Tea Price Falls,Boosts,Supply
2011-02-03T10:33:16Z,Rain,Boosts,Supply
2011-02-03T10:33:20Z,January,in Rose,UN
2011-02-03T10:33:20Z,Record,to Rose,UN
2011-02-03T10:33:20Z,Rose,in,January
2011-02-03T10:46:21Z,Merkel,Transition to,Broader Egypt Government
2011-02-03T10:51:53Z,African Wheat,Rises on,Chicago Price Gain
2011-02-03T10:51:53Z,South African Wheat,Rises for,Day
2011-02-03T10:51:53Z,Wheat,Rises on,Chicago Price Gain
2011-02-03T10:53:14Z,President Mugabe,Police of,Attacks
2011-02-03T10:53:14Z,Zimbabwe 's MDC,Accuses,Supporters
2011-02-03T11:00:00Z,Prepaid Debit Cards May,Be Focus of,U.S. Consumer Agency
2011-02-03T11:01:00Z,Growth,Case for,2011 Gains
2011-02-03T11:26:50Z,Chelsea Plans,Spending to,Beat Rules
2011-02-03T11:27:31Z,Unilever,Sees,Increased Commodity Expenses Dragging on 2011 Profitability
2011-02-03T11:32:36Z,Ski Champion Lindsey Vonn,in,Heavy Crash Week
2011-02-03T11:35:10Z,Daimler 's Mercedes-Benz,Boosts,January Sales
2011-02-03T11:39:56Z,Commodities,Reach,Two-Year High
2011-02-03T11:39:56Z,Global Growth,Drives,Demand
2011-02-03T11:43:49Z,Patriots ' Bill Belichick,Is Voted,NFL 's Coach
2011-02-03T11:47:38Z,Trichet,Fights,Curb
2011-02-03T12:01:50Z,Share,Estimate of,79 Cents
2011-02-03T12:03:33Z,BritNed,Completes,First Netherlands-U.K. Test Flows
2011-02-03T12:33:53Z,Collingwood,Should,Should Ready
2011-02-03T12:45:34Z,ECB,Keeps,Rate
2011-02-03T12:45:34Z,Rate,Curb,Inflation Risks
2011-02-03T12:48:45Z,Talks,With,Several Parties ' About African Expansion Plan
2011-02-03T12:48:45Z,Trustco Unit,in,Talks With Several Parties ' About African Expansion Plan
2011-02-03T12:56:53Z,ECB Holds Rates,Bets on,Increases
2011-02-03T13:02:28Z,LVMH Stake-Building,Has,Hermes Family Members
2011-02-03T13:03:13Z,Brent Oil,Rises Day to,28-Month High
2011-02-03T13:36:15Z,J.C. Penney,Raises,Forecast
2011-02-03T13:37:39Z,Taleb,Advises,Then Dollar
2011-02-03T13:43:21Z,Treasuries,Remain,Lower
2011-02-03T14:04:48Z,Eaga Soars,in,London
2011-02-03T14:08:53Z,Productivity,in,U.S.
2011-02-03T14:14:52Z,Saxony,Pays,Former Royal Family
2011-02-03T14:15:30Z,South Africa Mines Ministry,Rejects Allegations in,Sishen Dispute
2011-02-03T14:34:30Z,Forint 's Appreciation May,Be Checked by,Erste
2011-02-03T14:49:52Z,France,Pushes With,Germany
2011-02-03T15:00:09Z,IPad,Makes Space in,Japan 's Tiny Homes
2011-02-03T15:00:09Z,Japan,in,Tiny Homes
2011-02-03T15:04:02Z,Ghana ’s Crude Refinery,Reduces Debt by,21 %
2011-02-03T15:04:02Z,Ghana ’s Only Crude Refinery,Reduces Debt by,21 %
2011-02-03T15:07:46Z,Egypt Concern,Overshadows,Economy Optimism
2011-02-03T15:13:13Z,Decline,% to,90.38 Barrel
2011-02-03T15:13:13Z,N.Y. Crude Oil,Extends,Falls 0.5 %
2011-02-03T15:26:11Z,Estee Lauder Advances,Raises,its 2011 Profit Forecast
2011-02-03T15:44:07Z,Berlusconi,Testing,Loyalty of Northern League Ally
2011-02-03T15:55:59Z,Namibia Climbs,Is,Active
2011-02-03T16:06:39Z,Feinstein,Moves Memorabilia to,$ 160 Million Center
2011-02-03T16:06:45Z,European Rescue Bonds,Represent,Attractive Buy
2011-02-03T16:06:45Z,Rescue Bonds,Represent,Attractive Buy
2011-02-03T16:08:11Z,32 %,in,2011
2011-02-03T16:08:11Z,Rise,to Production,Association
2011-02-03T16:08:45Z,28 %,in,10 Years
2011-02-03T16:16:23Z,Fed,Ignores Inflation With,Pond Says
2011-02-03T16:31:51Z,Nixons,Meet,Operatic Kin
2011-02-03T16:34:36Z,Simeon Rice,Goes at,Super Bowl
2011-02-03T16:34:36Z,Super Bowl,in,Dallas
2011-02-03T16:34:52Z,Sasol,Work on,Planned China Coal-to-Fuel Project
2011-02-03T16:42:19Z,Enel 's 2010 Ebitda,Rises,6.7 %
2011-02-03T16:42:19Z,Enel 's Ebitda,Rises on,Purchase of Endesa
2011-02-03T16:42:19Z,Foreign Power Sales,Purchase of,Endesa
2011-02-03T16:42:40Z,Glaxo Plans First Stock Buyback,Raises,Payout
2011-02-03T16:46:11Z,NFL 's Atlanta Falcons Sign,Coach,Mike Smith
2011-02-03T17:07:43Z,Credit Suisse,Hires,JPMorgan 's Khan
2011-02-03T17:11:09Z,ECB,Holds,Rate
2011-02-03T17:11:09Z,U.K. Pound,Appreciates to,Two-Week Record Versus Euro
2011-02-03T17:14:11Z,World Diamond Council May,Allow,Zimbabwe Marange Gem Exports
2011-02-03T17:31:22Z,Lower Earnings,in,Spain
2011-02-03T17:33:16Z,Deutsche Bank Boosts Investment Banker,Posting,Rise
2011-02-03T17:33:16Z,Rise,in,Earnings
2011-02-03T17:37:05Z,Halting Egypt Aid,Hasten,Mubarak 's Departure
2011-02-03T17:37:05Z,Lawmakers,in,U.S.
2011-02-03T17:53:06Z,$ 439 Million,in,CO2 Credits
2011-02-03T17:53:06Z,Reliance Power Coal Plant May,Earn,$ 439 Million in CO2 Credits
2011-02-03T17:53:27Z,ESPN Radio,Says After,16 Seasons
2011-02-03T18:28:30Z,U.S. Gulf Crude Premiums,Widen to,WTI
2011-02-03T18:33:21Z,Service Industries,Expand by,Most
2011-02-03T18:33:43Z,Lehman Will,Allow Billion in,Claims
2011-02-03T18:40:28Z,Christie,Hunts,Illinois Jobs
2011-02-03T18:40:28Z,Deere,Pay,Tax
2011-02-03T19:01:29Z,Giving Insider Tips,Hedge,Funds
2011-02-03T19:01:29Z,SEC,Sues,Expert Network Consultants
2011-02-03T19:53:50Z,U.S.,in,Contempt Over Gulf Drill Ban
2011-02-03T20:02:52Z,U.S. Stocks,Erase,Losses
2011-02-03T20:04:09Z,Governors,Get,Advice From Obama Administration
2011-02-03T20:27:52Z,Storage Drop,Ease,Surplus Concern
2011-02-03T20:31:18Z,Madoff Trustee Talks,Break,Down
2011-02-03T20:43:22Z,Egyptian Tensions Mount,as Gold,Silver Jump to Two-Week High
2011-02-03T20:43:22Z,Gold,Jump to,Two-Week High
2011-02-03T20:43:28Z,Bernanke,Says,Faster Employment Gains
2011-02-03T20:58:40Z,Cotton,Slumps on,Lower U.S. Exports
2011-02-03T21:06:40Z,Verizon May,Buy Back,as Many as 100 Million Shares
2011-02-03T21:11:17Z,U.S. Stocks,Erase,Decline Amid Retailers Rally
2011-02-03T21:12:37Z,Traders,See,Saudi
2011-02-03T21:17:53Z,BJ,Surges,Sale
2011-02-03T21:17:53Z,Board,Explore,Options
2011-02-03T21:18:14Z,Gap,Surge as,Monthly Sales Beat Projections
2011-02-03T21:23:22Z,Merck,Diverge on,Spending
2011-02-03T21:24:09Z,Global Workers,Sued by,SEC
2011-02-03T21:24:09Z,Primary Global Workers,Sued in,Insider Probe
2011-02-03T21:24:09Z,Primary Workers,Sued by,SEC
2011-02-03T21:24:09Z,Workers,Sued by,SEC
2011-02-03T21:29:30Z,Lehman ’s Aurora Bank,Sued by,Hospital Center
2011-02-03T21:31:49Z,Apple CEO Succession Plan,Gets,Backing From Shareholder-Advisory Firm ISS
2011-02-03T21:37:05Z,Starwood Net,Beats Forecast,Lawsuit Payout Received
2011-02-03T21:37:33Z,Enbridge,Offers,Stake
2011-02-03T21:39:44Z,International Paper Profit,Rises on,Demand
2011-02-03T21:40:04Z,Bloomberg,Proposes Pension Cuts for,Future NYC Workers
2011-02-03T21:40:34Z,MasterCard Profit,Beats Estimates,Spending Climbs
2011-02-03T21:47:25Z,Backup Veteran Asigra,Keeps,Calm
2011-02-03T21:54:47Z,Mets Owners,Judge to,Unseal Suit
2011-02-03T22:03:55Z,Elliott,Urges Actelion Resignations for,Sale
2011-02-03T22:04:03Z,Treasury 30-Year Bond Yield,Reaches,Highest
2011-02-03T22:11:20Z,Solar Power,in,Italy
2011-02-03T22:17:27Z,UPS Increases Dividend 11 %,Projecting,Strong 2011 Cash Flow
2011-02-03T22:17:44Z,Idol Episode,Draws,More Viewers Than Year Ago
2011-02-03T22:18:47Z,Super Bowl,Meets,Record Audience Forecast
2011-02-03T22:21:35Z,It,Hid Error Over,Claims
2011-02-03T22:27:28Z,Akamai,Evokes AOL-Time Warner at,30 Years
2011-02-03T22:40:23Z,Blackstone Profit,Rises as,Estate Gains
2011-02-03T23:00:01Z,$ 1.6 Billion,Paper After,Selloff
2011-02-03T23:00:01Z,Raiffeisen Investment,Sees,M&A Volume Doubling
2011-02-03T23:01:00Z,Italy 's Lady,Strives to,Return
2011-02-03T23:01:00Z,Italy 's Old Lady,Strives With,Stadium
2011-02-03T23:01:00Z,Julius Baer Data,Puts,Spotlight on Swiss Bank Secrecy
2011-02-03T23:01:40Z,Airbus A330,Gets,Wind
2011-02-03T23:01:42Z,Lafarge,'s Cut,Speed Asset Sales
2011-02-03T23:23:02Z,$ 35 Billion,in,U.S. Spending Cuts
2011-02-03T23:23:02Z,Last Year,From,Levels
2011-02-03T23:32:38Z,Japanese Stock Futures,Gain on,U.S. Job Data
2011-02-03T23:38:57Z,Redbox Operator Coinstar Declines,Misses,Projections
2011-02-03T23:40:54Z,Tennessee Lead States,With,Highest Sales Taxes
2011-02-03T23:48:05Z,IRS,Misfired on,Tax Credit Claims
2011-02-04T00:36:43Z,Boeing,Loses,Half
2011-02-04T05:01:01Z,Global Manager Indicted,Faces,SEC Suit
2011-02-04T05:01:01Z,Primary Global Manager Indicted,Faces,SEC Suit
2011-02-04T05:24:42Z,$ 700 Million,in,Insurance Deal
2011-02-04T05:36:19Z,Australian Dollar,Rises to,One-Month High
2011-02-04T05:36:19Z,Dollar,Rises to,One-Month High
2011-02-04T05:36:19Z,RBA,Boosts,Growth Forecast
2011-02-04T06:17:57Z,Oakmark ’s Herro,Says,Unloved Japan Stocks
2011-02-04T07:53:17Z,Oil,Climbs on,Economic Optimism
2011-02-04T08:04:02Z,Asian Earnings,Swell From,China 's Economic Growth
2011-02-04T08:04:02Z,Earnings,Swell From,China 's Economic Growth
2011-02-04T09:28:28Z,Australian Sugar Area May,Lose Potential,50 % of Output
2011-02-04T09:28:28Z,Sugar Area May,Lose Potential,50 %
2011-02-04T09:30:58Z,Boston Red Sox Partner 's Group,in,Exclusive Talks
2011-02-04T10:11:31Z,Franco-German,Divide,May Mark European Debt Crisis Summit
2011-02-04T10:53:27Z,U.K.,Complains on,Ordered Vodafone Messages
2011-02-04T12:02:55Z,Berlusconi,Secures Reprieve on,Sex Probe
2011-02-04T16:44:04Z,Russian Stocks,Have,Best Week
2011-02-04T16:44:04Z,Stocks,Have,Week
2011-02-04T17:48:01Z,Bill Sales,Set,Resume
2011-02-04T17:48:01Z,Egypt 's Dollar Bonds,Rebound,Bill Sales Set
2011-02-04T21:16:43Z,Drugmaker Endocyte,Rises,29 %
2011-02-10T02:02:35Z,Egypt 's Tahrir Square Tent-Builders,Set to,Stay
2011-04-29T21:20:11Z,Judgment,in,Oracle ’s $ 1.3 Billion Suit
2011-04-29T21:20:11Z,Oracle,in,$ 1.3 Billion Suit
