2011-08-21T01:43:29Z,Canadian Forces,Suspend Operation Nanook After,Crash of 737
2011-08-21T01:43:29Z,Forces,Suspend,Operation Nanook
2011-08-21T04:00:00Z,Wide Receiver Larry Fitzgerald Signs 8-Year Deal,With,Arizona Cardinals
2011-08-21T04:02:56Z,Red Sox,Lose to,Royals
2011-08-21T07:18:47Z,KFH Malaysian Unit Board,Elects,Al-Rai
2011-08-21T07:18:47Z,KFH Unit Board,Elects,Al-Mannae Chairman
2011-08-21T07:53:16Z,Level Playing Field,in,Takeovers
2011-08-21T09:36:38Z,Sudan Plans Electronic Stock Trading,in,September
2011-08-21T09:52:25Z,Banco Popolare May,Sell,Sole Reports
2011-08-21T10:07:13Z,Libya Rebels Battle Qaddafi Troops,in,Tripoli
2011-08-21T10:08:31Z,Biden,Assuring China on,Treasuries
2011-08-21T10:26:38Z,Boccolini,Tells,Il Sole
2011-08-21T10:26:38Z,Intesa May,Expand to,Poland
2011-08-21T10:57:13Z,SABMiller Buying Foster ’s Shares,in,Hostile Bid
2011-08-21T12:16:15Z,S. African Union,Declares,Dispute
2011-08-21T12:23:45Z,Merkel,Urges,Qaddafi
2011-08-21T12:23:48Z,Manhattan Prosecutor May,Drop,JDD Reports
2011-08-21T12:27:16Z,Ireland,Makes,Independent
2011-08-21T12:41:42Z,EnQuest May Acquire BP North Sea Assets,Mail on,Sunday
2011-08-21T13:17:39Z,Three-Year Budget Plan,in,Autumn
2011-08-21T13:18:16Z,Minister,Tells,Times
2011-08-21T13:22:54Z,Egypt Stocks,Drop,Most
2011-08-21T13:22:54Z,Tensions,With,Israel Increase
2011-08-21T13:56:15Z,Banca Civica May,Be,Active
2011-08-21T14:18:40Z,Petrobras,Finds,Body of Victim of Rio Helicopter Crash
2011-08-21T14:24:42Z,Iran Judiciary,Confirms,Jail Term
2011-08-21T14:27:51Z,3G License,in,Algeria
2011-08-21T14:27:51Z,CEO Ged,Says for,3G License
2011-08-21T14:27:51Z,Wataniya Telecom,Says for,3G License in Algeria
2011-08-21T14:48:52Z,Legendary Entertainment Will,Raise,$ 220.5 Million
2011-08-21T14:57:15Z,Canadian Jet-Crash Survivors,in,Stable Condition
2011-08-21T15:37:31Z,Ifo President Sinn,Rejects,Joint Euro Bonds
2011-08-21T15:53:57Z,England ’s Oliver Fisher,Wins,Golf ’s Czech Open
2011-08-21T16:00:00Z,Fears,Make,Gold Expensive Versus Oil
2011-08-21T16:15:05Z,Israeli Stocks,Decline on,Tensions
2011-08-21T16:15:05Z,Stocks,Decline to,Two-Year Low
2011-08-21T16:33:48Z,Crew Members,Died in,First Air Crash
2011-08-21T16:33:48Z,Four Crew Members,Died in,First Air Crash
2011-08-21T17:38:22Z,Shot,in,Parking Lot
2011-08-21T17:38:22Z,Two,Are,Shot in Parking Lot After 49ers-Raiders Preseason Game
2011-08-21T17:41:04Z,Hollande,Support as,Poll
2011-08-21T18:14:28Z,Changes,Be,Made
2011-08-21T18:31:19Z,Gaza Rockets,Hit,South Israel
2011-08-21T19:38:41Z,BayernLB,Says,Guarantees for ABS Portfolio Remain in Place
2011-08-21T19:38:41Z,Guarantees,in,Place
2011-08-21T19:40:55Z,Eto’o May,Become Top-Paid Player in,Move to Russia
2011-08-21T19:45:33Z,Biden,Assuring China on,Treasuries
2011-08-21T21:00:01Z,Girl ’s Art,Brings Tears at,Yad Vashem Show
2011-08-21T21:00:01Z,Holocaust-Fugitive Girl ’s Art,Brings Tears at,Yad Vashem Show
2011-08-21T21:00:46Z,Colonialist U.S.,Call to,Plans Parliament Elections
2011-08-21T21:54:46Z,Anglo Irish,Denies,Received Request
2011-08-21T22:00:01Z,Hungary August Economic Sentiment Drops,in,17 Months
2011-08-21T22:23:18Z,Vodafone New Zealand,Take,Capacity
2011-08-21T22:29:20Z,Concepts,Get,ConvaTec Bid Topping Apax ’s $ 5 Billion Offer
2011-08-21T22:29:20Z,Kinetic Concepts,Get,ConvaTec Bid Topping Apax ’s $ 5 Billion Offer
2011-08-21T22:45:00Z,Soybeans,May Rise as,Dry Weather Threatens U.S. Crops
2011-08-21T23:01:00Z,Visits,in,Quarter Through July
2011-08-22T00:31:56Z,Chelsea,Buy,Juan Mata
2011-08-22T00:36:49Z,Credit Suisse,Hires,Ex-UBS Analyst Nakayasu
2011-08-22T02:09:16Z,Deutsche Bank,Says,Four Employees
2011-08-22T02:09:16Z,Four Employees,Indicted in,South Korea
2011-08-22T02:09:16Z,Securities Unit Indicted,in,South Korea
2011-08-22T02:57:35Z,BBB Borrowers ’ Yields,Slip to,Record Low
2011-08-22T04:00:03Z,Murray,Win in,Cincinnati
2011-08-22T04:00:03Z,No. 1 Djokovic,Quits,Injured
2011-08-22T04:00:03Z,No. Djokovic,Quits,Injured as Murray
2011-08-22T04:00:03Z,Sharapova Win,in,Cincinnati
2011-08-22T04:01:00Z,Alex Rodriguez,Goes as,Red Sox Win
2011-08-22T04:01:00Z,Axelrod,Says,Politics ’ May Undermine Economic Stimulus
2011-08-22T04:01:00Z,Giants,Put,Reliever Brian Wilson
2011-08-22T04:01:00Z,Mayors,Urge End to,Violence
2011-08-22T04:01:00Z,Webb Simpson,Wins,Wyndham Championship Golf
2011-08-22T04:39:40Z,Bruce Willis,Sees China Future as,Hollywood Eyes Cinema Boom
2011-08-22T07:01:04Z,SABMiller,of,Hostile Bid
2011-08-22T07:09:57Z,Shell ’s Arrow,Acquire,Bow Energy
2011-08-22T07:13:30Z,Kan,Leaves,Successor Facing
2011-08-22T07:27:34Z,El-Erian,Joins With,Feldstein-Fels on Prospect of New Core Euro
2011-08-22T08:01:57Z,Lawyers,Find,Libya War-Crimes Evidence
2011-08-22T12:19:08Z,Wall Street Aristocracy,Got Trillion in,Secret Loans
2011-08-22T12:46:08Z,Euro Traders Believe,in,Trichet
2011-08-22T13:01:27Z,Treasuries Price,In,QE3
2011-08-22T14:45:33Z,North Korea ’s Kim May,Get,Talks Offer
2011-08-22T15:06:41Z,Bain,Buy Software Maker MYOB From,Archer Capital
2011-08-22T16:02:17Z,EON,Rises as,BMW Declines
2011-08-22T16:39:10Z,Siemens Circling Invensys,in,Breakup Means
2011-08-22T17:04:07Z,N.Z.,Advance on,Prospects of Additional Steps From Fed
2011-08-22T21:04:24Z,Libyan Rebels Control,Remains,Elusive
2011-08-22T21:04:24Z,Qaddafi,Remains,Elusive
2011-08-22T21:04:24Z,Rebels Control,Remains,Elusive
2011-08-22T23:12:57Z,Help,Rises With,Million
