2011-05-17T00:28:33Z,Yen Falls Versus Eurp,Damps,Safety Demand
2011-05-17T01:20:02Z,Saphir Derivatives Investors,in,Australia
2011-05-17T01:30:04Z,Coolest,in,Republican Race
2011-05-17T01:30:04Z,Huntsman,Coolest in,Republican Race
2011-05-17T01:30:50Z,Sapporo,Fall on,Removal From MSCI Japan Index
2011-05-17T01:37:47Z,Former U.K. Minister Hoon,Takes,FT
2011-05-17T01:37:59Z,Australian Dollar,Pares,Gains
2011-05-17T01:37:59Z,Dollar,Pares,Gains
2011-05-17T02:00:32Z,Consumers,Lure,Starbucks
2011-05-17T02:00:32Z,Foreign Investment,Rises,15 %
2011-05-17T02:54:32Z,Goldman,Hires Julian Trott as,Asia Head
2011-05-17T02:57:26Z,Tencent,Expand in,Follows Google
2011-05-17T03:00:00Z,Job Creation,Coutinho at,Senate
2011-05-17T03:18:14Z,Archer Capital,Acquires,V8 Supercars Stake
2011-05-17T03:18:14Z,V8 Supercars Stake,Series at,316
2011-05-17T03:25:19Z,Funds,Buy,2.42 Billion Rupees
2011-05-17T03:25:19Z,Global Funds,Buy,2.42 Billion Rupees of Indian Derivatives
2011-05-17T03:28:11Z,Uniloc,Loses,Bid
2011-05-17T03:54:02Z,China,to,Yuan
2011-05-17T04:00:01Z,Patagonia Dam Project,Heads Speak at,Seminar
2011-05-17T04:00:18Z,Berkshire Purchases MasterCard Shares,Hires,Combs
2011-05-17T04:00:33Z,Industrial Production,Probably Grew as,Home Building Lagged
2011-05-17T04:01:00Z,Albino Python,Slithers in,San Francisco Exhibit
2011-05-17T04:01:00Z,Congress,Shows,Budget Paralysis
2011-05-17T04:01:00Z,Do-Nothing Congress,Shows,Budget Paralysis
2011-05-17T04:01:00Z,Notre Dame,Says,Made on Fighting Irish Souvenirs
2011-05-17T04:01:00Z,Slithers,in,San Francisco Exhibit
2011-05-17T04:01:01Z,Brown,Even Adds,$ 6.6 Billion
2011-05-17T04:01:01Z,California Cash Crisis May Loom,Even Adds,$ 6.6 Billion
2011-05-17T04:01:01Z,Harm,in,Way
2011-05-17T04:01:01Z,Price,Living in,Harm ’s Way
2011-05-17T04:01:45Z,Benmosche % Yield Hunt May Mean AIG,Got,Mortgage Bonds
2011-05-17T04:01:45Z,Benmosche 9 % Yield Hunt May Mean AIG,Got,Junk
2011-05-17T04:08:39Z,Evergrande Real Estate Shares,Climb in,Hong Kong
2011-05-17T04:34:12Z,Kenyan Task Force,Backs Reduction in,Phone-Network Charges
2011-05-17T04:34:12Z,Task Force,Backs Reduction in,Daily Reports
2011-05-17T04:59:21Z,Banks,Boosting,Agency Mortgage Bond Purchases
2011-05-17T05:00:16Z,Hong Kong Short Selling Turnover,Recorded,05/17/2011
2011-05-17T05:06:43Z,Barloworld,in,First Half
2011-05-17T05:08:21Z,Coronation Fund Managers,Says,First-Half Profit Advances
2011-05-17T05:09:13Z,Pretoria Portland Cement Posts Revenue,in,First Half
2011-05-17T05:11:17Z,HSBC,Says,Hong Kong Mortgage Rates
2011-05-17T05:11:17Z,Hong Kong Mortgage Rates,Keep,Rising
2011-05-17T05:14:01Z,PPC,Says,Sales in South Africa ’s Cement Industry
2011-05-17T05:14:01Z,Sales,in,South Africa ’s Cement Industry
2011-05-17T05:14:01Z,South Africa,in,Cement Industry
2011-05-17T05:37:21Z,Philips Probed Over Hospital Orders,in,Polish Bribery Case
2011-05-17T05:45:53Z,Abbas,Makes Case for,Palestinian Statehood
2011-05-17T05:45:53Z,Palestinian Statehood,in,NY Times
2011-05-17T05:51:08Z,Spain May,Have,Billions Euros of Hidden Public Debt
2011-05-17T06:14:06Z,Spyker,Wins,China Investment
2011-05-17T06:18:41Z,Vietcombank,Revives,Stalled Share Sale
2011-05-17T06:21:35Z,Iran President ’s Jobless Figures,Are,Misleading
2011-05-17T06:33:38Z,Herald,Says as,Imports
2011-05-17T06:37:03Z,Japanese Power Plants,Damaged by,Earthquake
2011-05-17T06:37:03Z,Power Plants,Damaged by,Earthquake
2011-05-17T06:44:35Z,Cut Data Roaming Charges,to Plans,FTD Reports
2011-05-17T06:45:38Z,Citigroup,Selling,Notes Against U.S. Treasuries
2011-05-17T06:49:58Z,Ethiopia,Expects,Seven Offers for Former Petronas Oil
2011-05-17T06:50:27Z,Banks,Freeze,$ 95 Million Palm Hills Loan
2011-05-17T06:50:27Z,Egyptian Banks,Freeze,Million Palm Hills Loan
2011-05-17T06:57:57Z,Capital,Adds With,$ 110 Purchase
2011-05-17T06:57:57Z,Counties,Adds to,London Covent Garden Assets
2011-05-17T06:58:37Z,ConocoPhillips,Outlines Proposal for,Gas Exploration Off Australian Coast
2011-05-17T07:03:46Z,Korean Won,Snaps Three-Day Drop on,Speculation Exporters
2011-05-17T07:05:31Z,EU,Adds to,Greek Debt Pressure
2011-05-17T07:07:57Z,Deutsche Bank CEO,Seeks,DZ
2011-05-17T07:08:32Z,London-Glasgow Train Service May,Be,Nationalized
2011-05-17T07:11:32Z,Australia Central Bank,Foresees,Need
2011-05-17T07:11:32Z,Higher Rates,Contain,Inflation
2011-05-17T07:11:32Z,Rates,Contain,Inflation
2011-05-17T07:16:11Z,Polish Stocks,Drop at,Open
2011-05-17T07:16:11Z,Stocks,Drop at,Open
2011-05-17T07:16:11Z,Zanu-PF,Will Clarify SADC Rulings on,Zimbabwe
2011-05-17T07:17:31Z,Brammer,Says,Profit Beat Its Forecasts on Account Gains
2011-05-17T07:17:31Z,Sales,Forecasts on,Account Gains
2011-05-17T07:26:43Z,Tough Quarter,for Girds,Memo
2011-05-17T07:29:56Z,Gains,Raise,Costs for Tyson
2011-05-17T07:30:54Z,Fourth-Quarter Net Profit,Misses,Analysts ’ Estimates
2011-05-17T07:30:54Z,Fourth-Quarter Profit,Misses,Analysts ’ Estimates
2011-05-17T07:30:58Z,Discussions,Turn to,Strauss-Kahn Successor
2011-05-17T07:30:58Z,Finance Ministers,Back IMF,Discussions Turn
2011-05-17T07:34:12Z,Pierre-Pascal Urbon,Be,New Chief Executive From May 26
2011-05-17T07:34:12Z,SMA Solar,Says,New Chief Executive From May 26
2011-05-17T07:34:45Z,1-Month Low,to Falls,U.S. Manufacturing Data
2011-05-17T07:34:48Z,Favor Ackermann,Mirow for,IMF Post
2011-05-17T07:34:48Z,Germany,Could,Favor Ackermann
2011-05-17T07:59:08Z,Reliance May Drill New KG-D6 Wells,in,3 Years
2011-05-17T08:05:44Z,Jordan ’s Trade Deficit,Widens Machinery on,Imports of Oil
2011-05-17T08:08:58Z,Nigeria,in,Job Security Talks for Power Industry
2011-05-17T08:18:53Z,Standard Bank,’s Unit,News
2011-05-17T08:32:48Z,Angel ’s Agrawal,Says,Provisions Hurt Profit
2011-05-17T08:35:12Z,PPC ’s CEO,Says,Company May Announce Projects South Africa
2011-05-17T08:36:01Z,Pound,Extends,Euro
2011-05-17T08:37:46Z,BP,Contest for,Bigger Offshore Turbine Blades
2011-05-17T08:43:59Z,BAE,Settle,U.S. Export-Rules Case
2011-05-17T08:52:11Z,Five People,Killed at,Attack
2011-05-17T08:52:11Z,Tanzanian Police,Say,Five People Killed at Attack on African Barrick Mine
2011-05-17T09:02:39Z,African Consumer Inflation Rate,Climbs to,High
2011-05-17T09:02:39Z,Consumer Inflation Rate,Climbs to,10-Month High of 4.2 %
2011-05-17T09:02:39Z,South African Consumer Inflation Rate,Climbs to,10-Month High
2011-05-17T09:09:59Z,$ 3.8 Billion,With Debt,Credit
2011-05-17T09:09:59Z,Flight Booker Amadeus Refinances Debt,With,$ 3.8 Billion of Loans
2011-05-17T09:13:34Z,Puravankara,Rises on,Luxury Residential Project Plan
2011-05-17T09:16:51Z,14.84 %,to Rose,Bank
2011-05-17T09:16:51Z,Congo,’s Rose,Bank
2011-05-17T09:16:51Z,May 15,as of Rose,Bank
2011-05-17T09:20:25Z,Crude Recovers,in,New York
2011-05-17T09:28:49Z,Russia,in,Bid
2011-05-17T09:29:07Z,1.428 %,Level in,Two Years
2011-05-17T09:29:07Z,Highest Level,in,Two Years
2011-05-17T09:29:07Z,Three-Month Euribor,Climbs to,Level in Two Years
2011-05-17T09:30:16Z,Inflation,Driven By,Commodity Prices
2011-05-17T09:30:16Z,King,Says Further,Inflation
2011-05-17T09:32:11Z,Bulgaria,Estimates,2011 Wheat Harvest at 3.9 Million Tons
2011-05-17T09:34:01Z,Botswana ’s Private Schools,Close for,Security Reasons
2011-05-17T09:34:01Z,Botswana ’s Schools,Close for,Security Reasons
2011-05-17T09:36:25Z,22,to Fell,CTK
2011-05-17T09:36:25Z,Sazka Lottery Revenue Fell,in,April
2011-05-17T09:40:31Z,Taiz,Aden Before,Planned Protests
2011-05-17T09:40:31Z,Yemeni Tanks Block Streets,in,Taiz
2011-05-17T09:44:04Z,Mylan,Must Pay,Ipsen $ 24 Million
2011-05-17T09:51:40Z,KP Chemical,Gains on,MSCI Index Review
2011-05-17T09:54:16Z,Borrowers,Opt for,Bilateral Deals
2011-05-17T09:54:16Z,Gulf Syndicated Loan Issuance,Slows,Borrowers Opt for Bilateral Deals
2011-05-17T10:15:05Z,Day,Led by,State Bank
2011-05-17T10:15:05Z,India Stocks,Drop,Day Led by State Bank as Profit Slumps
2011-05-17T10:15:05Z,Second Day,Led as,Profit Slumps
2011-05-17T10:16:23Z,April Inflation,Accelerates More Since,2008
2011-05-17T10:25:06Z,Dry Weather,Could,Hurt Yields
2011-05-17T10:27:13Z,South Africa,to,Rand
2011-05-17T10:27:13Z,Swaziland ’s Declining Reserves,Are Threatening,Peg
2011-05-17T10:27:13Z,Swaziland ’s Reserves,Are Threatening,Peg
2011-05-17T10:28:28Z,Safaricom,Snaps,Gain
2011-05-17T10:28:30Z,Yen,Weakens,Pound Rallies
2011-05-17T10:33:15Z,Beijing,Reduce,Student Residence
2011-05-17T10:34:27Z,Strauss-Kahn ’s Downfall,Is,Chance
2011-05-17T10:36:58Z,Vodafone May,Sell,as Much as 3 % of Indian Unit
2011-05-17T10:39:19Z,IEF,Says,Adequate
2011-05-17T10:39:19Z,Market,Overreacted to,Libya
2011-05-17T10:39:19Z,Oil Supply,Is,Adequate
2011-05-17T10:46:10Z,NWR May,Say on,Demand for Coal
2011-05-17T10:46:57Z,Vietnam,Bonds Advance on,Speculation Bank Liquidity Improving
2011-05-17T10:49:56Z,Fed Funds Projected,Open at,0.10 ICAP Says
2011-05-17T10:56:47Z,Latvia ’s Riga Port,Is Fined by,Competition Regulator
2011-05-17T10:57:34Z,BP Azeri Oil Project,Decreased,Output 1.5 %
2011-05-17T11:00:40Z,Collateral,in,Euro Bailouts Backed
2011-05-17T11:06:01Z,Barclays Bank,Climbs,12 %
2011-05-17T11:14:47Z,South African 10-Year,Rise at,Auction on Inflation Outlook
2011-05-17T11:17:36Z,Galleon,Strauss-Kahn ’s,IMF
2011-05-17T11:17:36Z,IMF ’s Strauss-Kahn,in,Court News
2011-05-17T11:23:23Z,Oil Trades,in,Week as Supply Gains Vie With Growth Outlook
2011-05-17T11:23:23Z,Supply Gains Vie,With,Growth Outlook
2011-05-17T11:35:10Z,Deutsche Bank,Selling Pound Versus Swiss Franc on,Interest Rates
2011-05-17T11:40:24Z,Milling Wheat Led Price Gains,Says,Week
2011-05-17T11:40:24Z,Russian Milling Wheat Led Price Gains,Says,Last Week
2011-05-17T11:40:24Z,SovEcon,Says,Week
2011-05-17T11:41:24Z,Europe Jet Fuel Imports,Climb as,Stockpiles Drop
2011-05-17T11:41:56Z,Canadian Dollar Advances,in,Five Days
2011-05-17T11:46:12Z,American Apparel,Gets,Subpoena
2011-05-17T11:46:12Z,Apparel,Gets Subpoena From,U.S.
2011-05-17T11:50:07Z,Nokia Latest Handsets Start Preorder,in,Finland
2011-05-17T11:55:09Z,Advance,Bank of,China
2011-05-17T11:55:09Z,Chinese Coal,Room to,Bank of China
2011-05-17T11:55:09Z,Coal,Has,Room to Advance
2011-05-17T11:56:19Z,Cyprus January-to-April Deficit,Widens on,Higher Expenditure
2011-05-17T12:04:24Z,Capital Curbs,Out Rule,Valor
2011-05-17T12:08:37Z,Surplus,May,May Reduced
2011-05-17T12:09:18Z,Coal,in,China
2011-05-17T12:09:18Z,Sasol,Considers,Plans
2011-05-17T12:09:18Z,Shale Gas,Coal in,China
2011-05-17T12:09:56Z,Central Bank,Buys,Euros
2011-05-17T12:09:56Z,Kenya Shilling,Weakens for,Second Day
2011-05-17T12:18:23Z,$ 2 Billion,in,Largest Indian Order
2011-05-17T12:19:42Z,$ 11 Billion Green Software,Take On,IBM
2011-05-17T12:19:42Z,Billion Green Software,Take On,IBM
2011-05-17T12:19:42Z,SAP,Cornering,Billion Green Software
2011-05-17T12:21:31Z,Its,Forecast,Fuel Prices
2011-05-17T12:21:31Z,Year,for Forecast,Fuel Prices
2011-05-17T12:23:06Z,Canadian Dollar,Pares,Its Gain
2011-05-17T12:23:06Z,Dollar,Pares,Its Gain
2011-05-17T12:23:40Z,Debt Concern,Add to,Demand
2011-05-17T12:23:40Z,European Debt Concern,Add to,Demand
2011-05-17T12:24:37Z,Gains,in,Illinois
2011-05-17T12:24:37Z,U.S. Nuclear Production,Rises on,Gains
2011-05-17T12:24:37Z,U.S. Production,Rises on,Gains in Illinois
2011-05-17T12:26:21Z,Hungary ’s Mol,Says,Croatia
2011-05-17T12:27:56Z,NATO Helicopters Cross Into Pakistan,Firefight With,Border Guards
2011-05-17T12:27:56Z,Spark Firefight,With,Border Guards
2011-05-17T12:32:52Z,Ivory Coast,Play,Role
2011-05-17T12:32:52Z,Leading Role,in,Industry
2011-05-17T12:33:01Z,$ 1.8 Billion Contracts,With,Anadarko
2011-05-17T12:36:14Z,European Stocks,Retreat for,Fourth Day
2011-05-17T12:36:14Z,Stocks,Retreat for,Fourth Day
2011-05-17T12:36:14Z,U.S. Housing,Starts,Decline
2011-05-17T12:43:01Z,GlaxoSmithKline,Drop in,London
2011-05-17T12:43:01Z,Shell Drop,in,London
2011-05-17T12:47:02Z,U.K.,by,Antitrust Regulator
2011-05-17T12:48:22Z,China,at,Top Five Power Producers
2011-05-17T12:49:09Z,Wet Weather Delays Spring Planting,in,U.S.
2011-05-17T12:57:35Z,Germany,Says,Safety Report Rules
2011-05-17T12:58:13Z,Foreigners,Piling,Into Fixed-Rate Bonds
2011-05-17T12:58:13Z,Peso ’s Advance,Has,Foreigners
2011-05-17T12:59:14Z,Oil Falls,in,Week on Signs of Slowing U.S. Demand
2011-05-17T12:59:14Z,Week,in Falls,Trades Near Lowest
2011-05-17T13:01:37Z,ArcelorMittal South Africa,Reach,Interim Supply Agreement
2011-05-17T13:32:25Z,Venezuela,Replaces,Universal Reports
2011-05-17T13:32:34Z,Egypt Central Bank,Receives,Bids
2011-05-17T13:39:27Z,Stork,Has,$ 170 Million Underwritten Senior Loans for RBG Buyout
2011-05-17T13:47:43Z,Management,in,Saudi Arabia
2011-05-17T13:48:03Z,Site,as,Value May Top $ 4 Billion
2011-05-17T13:52:05Z,African Retail Sales,Ease Pressure on,Rate Increase
2011-05-17T13:52:05Z,Inflation Data,Ease,Pressure
2011-05-17T13:52:05Z,Retail Sales,Ease Pressure on,Rate Increase
2011-05-17T13:52:05Z,South African Retail Sales,Ease Pressure on,Rate Increase
2011-05-17T13:56:35Z,Falls,in,Mumbai
2011-05-17T13:58:02Z,PDVSA Refineries Days,Says From,Away Restarting
2011-05-17T13:58:02Z,Ultimas,Says From,Restarting
2011-05-17T14:00:54Z,Picard,Spends,31 %
2011-05-17T14:04:02Z,Citigroup Sold,Viking as,Banking Revenue Slumps
2011-05-17T14:04:44Z,Wal-Mart Entry May,Lead to,Import Surge
2011-05-17T14:06:47Z,CMA CGM,Raided by,EU
2011-05-17T14:09:08Z,MetroPCS Concerned About Spectrum Concentration,in,AT&T Deal
2011-05-17T14:09:26Z,30 %,in,June
2011-05-17T14:09:26Z,Rise,to Prices,Ministry
2011-05-17T14:11:01Z,Libya,’s Regime,Rebel Spokesman
2011-05-17T14:17:01Z,Natural Gas Delivery,Rises as,Texas Weather Warms
2011-05-17T14:18:10Z,Gasoline Futures,Slide on,Economic Reports
2011-05-17T14:20:17Z,Barclays Will,Pay Interest to,Senior Employees
2011-05-17T14:23:15Z,Unit,Finds,Gold
2011-05-17T14:29:14Z,France,Wins Right Against,U.S.
2011-05-17T14:44:05Z,EU Will,Quell Violence in,Syria
2011-05-17T14:52:45Z,India,Halt,$ 2.4 Billion of Piracy
2011-05-17T14:52:45Z,Shipowners,Turn,India
2011-05-17T14:53:55Z,Tiger Brands,Says,Six-Month Headline Earnings Per Share
2011-05-17T14:59:41Z,5-Years,10s at,Lowest Rate
2011-05-17T15:10:06Z,Sodic,Climbs,Most
2011-05-17T15:10:50Z,Stocks,Slump,Goldman Sachs Becomes Cautious
2011-05-17T15:10:50Z,Turkish Stocks,Slump,Goldman Sachs Becomes Cautious
2011-05-17T15:12:51Z,Factories,in,U.S.
2011-05-17T15:13:33Z,They,Meet,Pledges
2011-05-17T15:17:45Z,LSR Group,Surges,Most
2011-05-17T15:18:18Z,Algeria,Says,Drew Billion FDI Commitments in First Quarter
2011-05-17T15:18:18Z,Drew $ 6.2 Billion FDI Commitments,in,First Quarter
2011-05-17T15:21:17Z,OGK-4,Retreats for,2nd Day
2011-05-17T15:21:17Z,Utility,Removed From,MSCI
2011-05-17T15:27:49Z,Rostelecom,Retreat After,Exclusion From MSCI Russia
2011-05-17T15:29:56Z,TNK-BP,Snaps,Two Days of Gains
2011-05-17T15:33:01Z,African Tea Prices,Slide,0.8 %
2011-05-17T15:33:01Z,Tea Prices,Slide,0.8 %
2011-05-17T15:33:52Z,32 %,by Grain,Oilseed Sowing
2011-05-17T15:33:52Z,MCB Agricole Ukrainian Unit,Raises,Grain
2011-05-17T15:33:52Z,MCB Agricole Unit,Raises,Oilseed Sowing
2011-05-17T15:36:54Z,Gilts,Drop,Inflation Accelerates to 4.5 Percent
2011-05-17T15:36:54Z,Inflation,Accelerates to,4.5 Percent
2011-05-17T15:37:21Z,175 Million Pounds,in,Convertible Bond Sale
2011-05-17T15:37:21Z,Derwent,Raises,175 Million Pounds in Convertible Bond Sale
2011-05-17T15:37:39Z,Apple IPad,Poised to,Lead Tablet Sales Surge
2011-05-17T15:39:55Z,Hall,Entering,Hospice
2011-05-17T15:42:42Z,Cut CO2 Emissions,to U.K.,Most in Industrial World
2011-05-17T15:42:42Z,Half,in U.K.,Most
2011-05-17T15:42:42Z,U.K.,Most in,Industrial World
2011-05-17T15:42:45Z,Alliance,Gippsland of,Australia
2011-05-17T15:42:49Z,Morgan Stanley,Hires Mark Rice for,Hedge-Fund Services Unit
2011-05-17T15:49:35Z,Ghana Cedi,Weakens as,Traders Demand Dollars
2011-05-17T15:50:46Z,Europe,Overtakes Japan as,Top Exporter
2011-05-17T15:54:50Z,Uganda President,Accuses,Opposition Leader of Economic Sabotage
2011-05-17T15:55:34Z,Indorama,Plants in,Nigeria
2011-05-17T15:55:34Z,Methanol Plants,in,Nigeria
2011-05-17T15:56:06Z,Syrians Protest,in,Damascus
2011-05-17T15:57:06Z,UACN Property Development,Are,Active
2011-05-17T15:58:26Z,Richter Falls,Down for,Fifth Day
2011-05-17T16:01:45Z,Edmond de Rothschild Lisbon Office,Was Inspected,Yesterday
2011-05-17T16:02:43Z,Yale,Leads Rebound as,Million Gifts Multiply
2011-05-17T16:05:12Z,Housing,Starts,Drop
2011-05-17T16:06:54Z,Barclays,Hires,Deutsche Bank ’s Karan Madan
2011-05-17T16:08:46Z,European Stocks,Fall in,Four Weeks
2011-05-17T16:08:46Z,European Stocks Fall,in,Four Weeks
2011-05-17T16:08:46Z,Stocks,Fall to,Lowest
2011-05-17T16:08:46Z,U.S. Housing,Starts,Drop
2011-05-17T16:19:05Z,Barley Crop,Faces,InVivo ’s Luguenot
2011-05-17T16:19:05Z,French Barley Crop,Faces,Drought Damage
2011-05-17T16:22:14Z,Excess Oil Revenue,in,Wealth Fund
2011-05-17T16:22:14Z,Nigeria,Put,Oil Revenue
2011-05-17T16:24:31Z,Advisers,Get Million in,Fees
2011-05-17T16:25:23Z,Focus,to Rupo,Coalition
2011-05-17T16:39:45Z,Morgan Stanley,Buy,Forties Oil
2011-05-17T16:41:15Z,Luxembourg ’s Juncker,Reprofiling,Debt
2011-05-17T16:50:36Z,Falcones,Barnett ’s,Shaklee
2011-05-17T16:57:26Z,Genworth Subsidiary,Approved as,Mortgage Insurer
2011-05-17T16:57:40Z,EU Carbon,Permits,Drop Most
2011-05-17T17:00:15Z,Biggest Investment Boom,in,Two Decades
2011-05-17T17:03:42Z,Gupta,Defied,McKinsey Before SEC Tip Accusation
2011-05-17T17:05:00Z,EU Consensus,Retaining,European Leadership
2011-05-17T17:08:40Z,United Coach Ferguson,Is Warned Over,Comments
2011-05-17T17:12:25Z,Pratt,Remain,Disciplined on Engine
2011-05-17T17:12:25Z,UTX ’s Chenevert,Says,Remain
2011-05-17T17:12:27Z,$ 3.5 Billion,in,Largest High-Yield Bond Offering
2011-05-17T17:17:51Z,Hochberg Seeks 40 % Boost,in,Export-Import Bank Lending Limit
2011-05-17T17:22:32Z,Ohio State,’s George,Deion Sanders Head College Football Hall Class
2011-05-17T17:22:36Z,Colombian Textile Producers,Drop on,U.S. Trade Accord
2011-05-17T17:22:36Z,Textile Producers,Drop on,Stalled U.S. Trade Accord
2011-05-17T17:27:57Z,Siemens,Says,Majority
2011-05-17T17:30:49Z,Serbian Cabinet,Considers,Measures
2011-05-17T17:33:49Z,Mexico,Stepping Up,Natural Gas Imports
2011-05-17T17:33:59Z,Parliament,Delay,New Energy Round
2011-05-17T17:36:14Z,Agencies,in,South Darfur State
2011-05-17T17:36:14Z,Peacekeepers,Agencies in,South Darfur State
2011-05-17T17:36:14Z,Sudan,Restricts,Movement of Peacekeepers
2011-05-17T17:37:55Z,Stocks,in,South Africa
2011-05-17T17:45:24Z,Venezuela Plans,Permits After,Yearlong Market Shutdown
2011-05-17T17:47:57Z,Brazil Job Market,Stoking,CPI Concern
2011-05-17T17:54:29Z,Copper Slumps,in,London
2011-05-17T17:54:29Z,Weaker Demand,in,U.S.
2011-05-17T18:03:37Z,Ablynx ’s Arthritis Drug,Reduces,Symptoms
2011-05-17T18:03:37Z,Symptoms,in,Pfizer Study
2011-05-17T18:03:53Z,Pfizer,Blames Teva for,for Billions
2011-05-17T18:03:53Z,for Billions,in,Neurontin Losses
2011-05-17T18:21:46Z,Dimon ’s Annual Meeting,Brings,Apology
2011-05-17T18:21:46Z,Dimon ’s Meeting,Brings,Apology
2011-05-17T18:23:45Z,U.S. Housing Data,Damps,Commodity Outlook
2011-05-17T18:28:48Z,Bribery Defendants,Were,Eager
2011-05-17T18:28:48Z,Corrupt Gabon Deal,Is,Told
2011-05-17T18:30:26Z,Might,Name,Strauss-Kahn Heir
2011-05-17T18:30:38Z,UKFI,Advises,Sale of Northern Rock
2011-05-17T18:36:44Z,Toll Brothers Call-Option Trading,Climbs on,Bet Homebuilder Will Decline
2011-05-17T18:55:47Z,South Africa ’s Gordhan,Says From,Market
2011-05-17T18:59:12Z,Canadian Dollar,Rises for,First Time
2011-05-17T18:59:12Z,Crude Oil,Pares,Drop
2011-05-17T18:59:12Z,Dollar,Rises for,First Time
2011-05-17T18:59:12Z,Oil,Pares,Drop
2011-05-17T19:02:43Z,Pakistan,Reduce,Deficit
2011-05-17T19:17:04Z,Latin America,From,Longest Slump Gaining Momentum
2011-05-17T19:20:08Z,Coburn Doubts,Will Get,Deficit Deal
2011-05-17T19:21:54Z,Chevron,in,Talks With Rosneft on Russian Oil Opportunities
2011-05-17T19:21:54Z,Talks,With,Rosneft on Russian Oil Opportunities
2011-05-17T19:25:17Z,Natural Gas Futures,in,New York Fall
2011-05-17T19:32:23Z,Dutch Probe,Says Before,Bankruptcy
2011-05-17T19:32:23Z,Flawed,Says Before,Bankruptcy
2011-05-17T19:32:36Z,Colombia,Says,Ease in Coming Months
2011-05-17T19:32:36Z,La Nina Rains,Ease in,Coming Months
2011-05-17T19:33:01Z,Icahn Seeks Unfair Blockbuster Claim Sanction,Says in,Court
2011-05-17T19:41:16Z,Hunterdon County,Has,Highest Taxes
2011-05-17T19:53:43Z,Cordish Defamation Suit,Held Up by,Bankruptcy Judge
2011-05-17T19:58:41Z,NFL,Concludes Until,June
2011-05-17T19:58:41Z,Players Mediation,Concludes Without,Contract Agreement
2011-05-17T20:00:00Z,Cancer Risk May,Drinking,Harvard Study Says
2011-05-17T20:09:09Z,Whole Milk Powder Prices Rise,in,Auction
2011-05-17T20:09:26Z,Wal-Mart First-Quarter Profit,Rises,3.8 %
2011-05-17T20:10:33Z,Verizon,Sees,Spectrum Shortage
2011-05-17T20:15:23Z,Janus Funds,Said,Pulled
2011-05-17T20:16:25Z,ABC,Adds,13 Series
2011-05-17T20:16:25Z,Paul Lee,Under,Direction
2011-05-17T20:25:05Z,Drug-Resistant Germs,Lure Biotechs to,Antibiotics Effort
2011-05-17T20:25:05Z,Germs,Lure Biotechs to,Antibiotics Effort
2011-05-17T20:25:11Z,Japan Quake,Dashes,Effort
2011-05-17T20:25:50Z,National Bank ’s Bertrand Returns,in,Counterbid for TMX
2011-05-17T20:26:00Z,Consumers,Back Buying,PCs
2011-05-17T20:27:01Z,Abbott Drug,Faces U.S. Scrutiny Over,Lack of Heart Benefits
2011-05-17T20:27:26Z,Security Threats,Make Cloud Better for,Business
2011-05-17T20:27:31Z,Home Depot Profit,Meets,Analysts ’ Estimates
2011-05-17T20:32:17Z,Iran,Denies,Report of N. Korea Missile Aid
2011-05-17T20:33:22Z,U.S. Crude Oil Supplies,Increased,Last Week
2011-05-17T20:34:22Z,U.S. Stocks,Decline,Hewlett-Packard Tumbles
2011-05-17T20:34:46Z,Apache,Spending After,Acquisitions
2011-05-17T20:37:50Z,Wheat Damage Claims,May Signal,Harvest
2011-05-17T20:49:39Z,BrasilAgro,Cancels,Share Sale
2011-05-17T20:50:23Z,Housing Start Drop,Damps,Growth Outlook
2011-05-17T20:55:17Z,Elong,Surges on,Tencent
2011-05-17T21:00:00Z,Baidu,Bets to,Ride China Internet Boom
2011-05-17T21:02:44Z,39.9 %,in,March
2011-05-17T21:03:19Z,$ 21 Billion,in,Oil Breaks
2011-05-17T21:03:19Z,Senate Democrats,Push,$ 21 Billion
2011-05-17T21:12:17Z,pitcher Rafael Soriano,Put on,Disabled List
2011-05-17T21:20:49Z,Treasury 10-Year,Note Output Weakness to,2011 Low
2011-05-17T21:25:29Z,Ex-Taylor Bean ’s Farkas,Sues,AIG Unit
2011-05-17T21:27:20Z,Biotermica Energia Planning 6.3-Megawatt Biogas Power Plant,in,Brazil
2011-05-17T21:41:52Z,Mineral Exporters,Pay,Taxes
2011-05-17T21:41:52Z,Peru ’s Sol,Rises to,3-Year High
2011-05-17T21:50:11Z,Societe Generale,Sues,Ex-Trader Alleging Theft of Secrets
2011-05-17T22:00:01Z,Merkel Predecessor Schroeder,Says,Her Leadership Deficit Fans
2011-05-17T22:16:40Z,2-Month Low,to Fall,Rate Concerns
2011-05-17T22:16:40Z,Emerging-Market Stocks,Fall to,2-Month Low
2011-05-17T22:44:52Z,Anschutz Unit,Wins Ambassadors Bankruptcy Auction With,$ 39 Million Offer
2011-05-17T22:46:06Z,China,Raise On-Grid Power Prices in,Provinces
2011-05-17T22:50:08Z,Surge,in,Producer Prices
2011-05-17T22:51:33Z,NBA Players Union General Counsel,Dies at,67
2011-05-17T22:53:14Z,Repeal,Fails in,Senate Vote
2011-05-17T23:00:00Z,Bank ’s Kim,Prevent,Lending Excesses
2011-05-17T23:00:01Z,Egoistic Relics,Seduce in,London Show
2011-05-17T23:00:01Z,Joschka Fischer Morphs,in,Pious Movie
2011-05-17T23:00:01Z,Pink Diamond,Fetches Million at,Sotheby ’s Auction
2011-05-17T23:00:01Z,Sotheby,at,Swiss Auction
2011-05-17T23:01:01Z,Ackermann Testimony,in,Kirch Lawsuit
2011-05-17T23:34:49Z,FBI Agent,Making,False Statements
2011-05-17T23:52:47Z,Reid,Sets Up,Senate Vote
2011-05-18T00:39:25Z,Australian Dollar,Maintains Gain on,Speculation Wage Growth
2011-05-18T00:39:25Z,Dollar,Maintains Gain on,Speculation Wage Growth
2011-05-18T00:56:18Z,America Movil Reviews Mexico,Spending After,Regulator Moves
2011-05-18T04:01:01Z,Goffer Jury,Set to,Start Tomorrow in New York
2011-05-18T04:01:01Z,Sony,Faces,Questions From U.S. Lawmakers About Data Breach
2011-05-18T04:01:01Z,Start Tomorrow,in,New York
2011-05-18T04:02:56Z,Invited,Revised Proposal for,Bail
2011-05-18T04:02:56Z,Strauss-Kahn ’s Lawyer,Says,Prosecutors
2011-05-18T05:58:55Z,Oil,Rises as,Supplies of Cushing Crude
2011-05-18T06:42:44Z,Government Bonds Decline,Will Avoid,Further Easing
2011-05-18T07:05:16Z,Chinese Watermelons,May,May Caused by Growth-Promoting Chemicals
2011-05-18T07:05:16Z,Exploding Chinese Watermelons,May,May Caused by Chemicals
2011-05-18T07:05:16Z,Exploding Watermelons,May,May Caused
2011-05-18T07:05:16Z,Watermelons,May,May Caused by Growth-Promoting Chemicals
2011-05-18T07:33:57Z,Dollar Falls Will Trail ECB,in,Raising Interest Rates
2011-05-18T08:08:04Z,Clayton,Hires,Former Tesco Chief Leahy
2011-05-18T08:08:04Z,Dubilier,Hires,Former Tesco Chief Leahy
2011-05-18T08:08:04Z,Rice,Hires,Former Tesco Chief Leahy
2011-05-18T08:27:21Z,Hong Kong Causeway Bay Shop Rents,Set to,Rise
2011-05-18T10:52:55Z,Billionaire Burman ’s Dabur,Sees Africa as,Growth Epicenter
2011-05-18T10:55:16Z,Swiss Franc Derivatives ’ Value Rose 55 %,in,Second Half of 2010
2011-05-18T11:18:27Z,KKR,TPG on,Sale of TV Assets
2011-05-18T11:18:27Z,Talks,With,KKR
2011-05-18T11:19:58Z,Arctic Trove,in,Back Play for Shell
2011-05-18T11:19:58Z,BP Defeat,Puts,Arctic Trove in Play
2011-05-18T11:19:58Z,Play,in Trove,Exxon
2011-05-18T12:48:48Z,Saudi Arabia,Defies Turmoil as,Guardian
2011-05-18T13:02:52Z,Yamaha,Expands U.S. ATV Production on,Dollar
2011-05-18T14:27:06Z,Libya Rebel Economy Chief,Says,Financial Aid
2011-05-18T16:27:21Z,U.K. Stocks,Snapping,Five-Day Drop
2011-05-18T19:06:57Z,Company,in,Online Strategy
2011-05-18T19:06:57Z,Sony ’s Stringer Calls Hacker Attack Hiccup,in,Company ’s Online Strategy
2011-05-18T20:33:11Z,Corporate Sales,Provide Company Edge Over,HP
2011-05-18T20:33:11Z,Sales,Provide Company Edge Over,HP
2011-05-18T20:47:49Z,Third Day,for Advance,Base Metals Gain
2011-05-19T19:23:56Z,Epilepsy Drug Study,Showing,Little
2011-05-19T19:23:56Z,May,Help,Vivus
