2011-05-19T00:05:26Z,Copper Trades,Decline After,Gaining
2011-05-19T01:25:47Z,JPMorgan,Raises Recommendation to,Overweight
2011-05-19T01:56:24Z,2011 GDP Growth Forecast,Pressure on,Currency
2011-05-19T01:56:24Z,Singapore,Raises,Sustaining Pressure on Currency
2011-05-19T02:01:12Z,Hedge Fund Charity RICE,Seeks More,Hospital
2011-05-19T02:01:12Z,Kids,in,Slums
2011-05-19T03:10:52Z,Yellowstone Club Founder Blixseth,Wins,Bankruptcy Case Dismissal
2011-05-19T03:18:53Z,U.S.,Lags,Global Growth Pace
2011-05-19T03:47:21Z,Federal Bank ’s Meenattoor,Sees,India Rupee Sliding on Inflation
2011-05-19T04:00:00Z,Fed,Nears,Accord
2011-05-19T04:00:01Z,SAC,Open Quant Fund as,Cohen May Close Flagship
2011-05-19T04:01:00Z,Cadillac ’s $ Monster Wagon,Leaves Mad Max in,Dust
2011-05-19T04:01:00Z,Cadillac ’s Monster Wagon,Leaves,Mel
2011-05-19T04:01:00Z,Cyclist Recalled,in,Foundation Gala
2011-05-19T04:01:00Z,Finance Executive,Killed by,Cyclist Recalled Foundation Gala
2011-05-19T04:01:00Z,Obama ’s $ 210 Million Man,Draws on,IPO Past
2011-05-19T04:01:00Z,Obama ’s $ Million Man,Revamp,Government
2011-05-19T04:01:00Z,Obama ’s Million Man,Revamp,Government
2011-05-19T04:01:00Z,Tepid Sales,in,Hong Kong
2011-05-19T04:01:42Z,Nova Scotia,of,Mexico Chief
2011-05-19T04:02:08Z,Lender,After,Government Bailout
2011-05-19T04:15:35Z,Severstal Interested,in,Raspadskaya Stake
2011-05-19T04:19:39Z,Kenya ’s Central Bank,Buys Euros to,Business Daily Reports
2011-05-19T04:34:10Z,IMF,at,Door
2011-05-19T04:41:14Z,Strauss-Kahn,’s Letter,Denying Allegations
2011-05-19T04:41:16Z,Cloud-Music Licensing Deal,With,EMI
2011-05-19T04:46:19Z,Atlas,Bank of,Philippine Islands
2011-05-19T05:00:18Z,Hong Kong Short Selling Turnover,Recorded,05/19/2011
2011-05-19T05:09:41Z,ECB ’s Wellink,Says,Trichet
2011-05-19T05:58:55Z,Bullard,Sees,Fed ’s Monetary Policy
2011-05-19T05:58:55Z,Treasuries,Snap,Decline
2011-05-19T06:00:44Z,Markets,Unveils,Details of Interest-Rate Swap Contract
2011-05-19T06:01:31Z,LME,Futures in,Third Quarter
2011-05-19T06:01:31Z,Steel Futures,in,Third Quarter
2011-05-19T06:07:45Z,Weekly Food Articles Prices,Increase,7.47 Percent From Year Ago
2011-05-19T06:07:45Z,Year Ago,in,India
2011-05-19T06:09:55Z,0.4 percent,in,New York Trading
2011-05-19T06:09:55Z,Crude Oil Declines,Erasing,Earlier Gains
2011-05-19T06:09:55Z,Oil Declines,Erasing,Earlier Gains
2011-05-19T06:22:52Z,OMV Petrom,in,Talks Renew By September
2011-05-19T06:36:49Z,India Food Prices Rise,in,Two Years
2011-05-19T06:42:27Z,Bank,Says,Works on Capital Plan
2011-05-19T06:42:27Z,Deposits Rise,Works on,Capital Plan
2011-05-19T06:43:23Z,Profit,in,First-Quarter
2011-05-19T06:43:32Z,Marston,Says,46 % on Sales
2011-05-19T06:47:16Z,Economy,Shrinks Than,Forecast on Earthquake
2011-05-19T06:47:16Z,Japanese Stocks,Fall,Economy Shrinks More Than Forecast on Earthquake
2011-05-19T06:47:16Z,Stocks,Fall,Economy Shrinks More Than Forecast on Earthquake
2011-05-19T06:59:34Z,Japan Economy,Shrinks,More-Than-Forecast
2011-05-19T07:11:30Z,Glencore Stock Rises,in,London Trading Debut
2011-05-19T07:18:23Z,Booker Full-Year Profit,Catering,Activities
2011-05-19T07:19:30Z,Australian Wheat,in,Tender
2011-05-19T07:19:30Z,Japan,Buys,Australian Wheat in Tender
2011-05-19T07:19:30Z,U.S.,Wheat in,Tender
2011-05-19T07:20:38Z,Japan ’s Non-Life Insurers,See,228 Billion Yen Profit
2011-05-19T07:22:48Z,Sappi,Says,Ngodwana Mill Expansion
2011-05-19T07:30:14Z,China,Stocks,Fall
2011-05-19T07:39:03Z,Toyota,Says,Recover to 70 %
2011-05-19T07:39:03Z,U.S. Prius Supply,Recover to,70 %
2011-05-19T07:44:47Z,Japanese Power Plants,Damaged by,Earthquake
2011-05-19T07:44:47Z,Power Plants,Damaged by,Earthquake
2011-05-19T07:48:39Z,Dollar,Reverses,Declines
2011-05-19T07:48:39Z,Euro,Yen to,Gain
2011-05-19T07:49:38Z,KKR,Buy,German Phone Company
2011-05-19T07:50:10Z,GCL-Poly Energy Shares Decline,in,Hong Kong Trading
2011-05-19T07:50:53Z,Six Banks,Downgraded ’s,Moody
2011-05-19T07:50:53Z,Six Danish Banks,Downgraded ’s,Moody
2011-05-19T07:58:30Z,Fernando Alonso,Extends Ferrari Contract Through,2016 Formula One Season
2011-05-19T07:58:38Z,German Next-Year Electricity Little,Changed on,Oil Price
2011-05-19T07:58:38Z,Next-Year Electricity Little,Changed on,Stable Oil Price
2011-05-19T08:00:00Z,ECB,Says,Target2 Transactions Show Banks
2011-05-19T08:00:00Z,Target2 Transactions Show Banks,Normalizing,Refinancing
2011-05-19T08:05:14Z,Richemont Profit,Surges as,Buy Watches
2011-05-19T08:10:43Z,Stoxx 600 Index,Climbs,0.3 Percent
2011-05-19T08:10:43Z,Stoxx Index,Climbs,0.3 Percent
2011-05-19T08:14:38Z,EU-IMF Terms,Haircut on,Debt
2011-05-19T08:14:38Z,Greeks,See,Alternatives
2011-05-19T08:14:38Z,Most Greeks,See Alternatives to,Haircut on Debt
2011-05-19T08:14:48Z,Spaniards Protest,in,Madrid
2011-05-19T08:18:58Z,Cairn,Developing,Bhagyam Oil Field
2011-05-19T08:18:58Z,India,in,Rajasthan
2011-05-19T08:22:16Z,Hanjin Units Raided,in,EU Antitrust Probe
2011-05-19T08:22:16Z,Mitsui OSK,Raided in,EU Antitrust Probe
2011-05-19T08:23:06Z,Nigeria,Spend Million on,Delta Infrastructure
2011-05-19T08:28:19Z,Jacob Zuma Will Miss Development Community,Meeting,Madagascar
2011-05-19T08:30:00Z,Exchange Flexibility,Role for,Capital Controls
2011-05-19T08:30:00Z,OECD,Urges,Exchange Flexibility
2011-05-19T08:30:15Z,Vietnam,Approves,Saigon Giai Phong
2011-05-19T08:35:00Z,Speculation Remittances,on Gains,Fed Rate Signal
2011-05-19T08:41:10Z,China Mobile ’s Wang,Is Very Confident as,Stock Falls
2011-05-19T08:46:10Z,Oil,Slips After,Trading Near One-Week High Following U.S. Supply Decline
2011-05-19T08:50:58Z,Carbon Injection,for Reservoir,Teknisk
2011-05-19T08:50:58Z,Statoil,’s Reservoir,Teknisk
2011-05-19T08:53:14Z,Banks,Tighten,Lending
2011-05-19T08:53:14Z,Hungarian Banks,Tighten,Lending
2011-05-19T09:11:47Z,Rise,to Bill,Liberum
2011-05-19T09:12:33Z,Asian Currencies Gain,led by,Singapore Dollar
2011-05-19T09:12:33Z,Currencies Gain,led by,Singapore Dollar Fed Policy
2011-05-19T09:30:00Z,Vietnam Bonds Fall,Yields at,Highest
2011-05-19T09:30:22Z,SABMiller Full-Year Profit,Beats,Estimates on Lower Cost
2011-05-19T09:39:47Z,Hopes,in Disappointed,FT
2011-05-19T09:39:47Z,U.S. Banks Disappointed,in,Hopes of Short Home Sales
2011-05-19T09:43:16Z,Face Long-Term Rise,in,Funding Costs
2011-05-19T09:43:33Z,Time Warner Cable Bonds May,Have,153
2011-05-19T09:49:19Z,Japan ’s Copper Cable Shipments,Extend Drop After,Earthquake
2011-05-19T09:50:34Z,Bank,Stanley for,Sale of Dollar Bond
2011-05-19T09:50:34Z,Emirates,Hires,Deutsche Bank
2011-05-19T09:52:25Z,10 Percent,in,2010
2011-05-19T09:52:57Z,Debt Risk,Rises in,Europe
2011-05-19T09:52:57Z,Sovereign Debt Risk,Rises in,Europe
2011-05-19T09:53:33Z,Taiwan Dollar Ends Little,Changed on,Suspected Intervention
2011-05-19T09:58:23Z,Orascom Telecom,Poised for,Advance
2011-05-19T10:01:00Z,Secret Donors Multiply,in,U.S. Election Spending
2011-05-19T10:01:56Z,Reliance,Buys,African Oil
2011-05-19T10:03:08Z,England,for,Under-21 Squad
2011-05-19T10:03:58Z,Asiri Hospitals,Rises After,2 % of Equity Trades
2011-05-19T10:03:58Z,Equity Trades,in,Four Blocks
2011-05-19T10:08:15Z,Solaria,Buy Back,Up
2011-05-19T10:08:15Z,Spanish Solar Company,of,Shares
2011-05-19T10:09:28Z,Refiners,Buy on,Profit Surge
2011-05-19T10:11:24Z,Estonia Seeks Talks,With,EU on Carbon Emissions
2011-05-19T10:15:17Z,Rupiah,Strengthens on,Indonesian Stock Rally
2011-05-19T10:21:12Z,Japan ’s Fukushima Reactor May,Have,Radiation
2011-05-19T10:21:48Z,Baht Drops,Fall on,Shrinking Economy
2011-05-19T10:23:52Z,BTA Bank,in,Court News
2011-05-19T10:23:52Z,Galleon,Bank in,Court News
2011-05-19T10:28:20Z,Foreign Investors,Sell,Net 2.6 Billion Rupees of Indian Stocks
2011-05-19T10:38:44Z,Solaria,Buy,as Much as 10 %
2011-05-19T10:44:22Z,Investec ’s Annual Profit,Surges,21 %
2011-05-19T10:44:22Z,Investec ’s Profit,Surges,21 %
2011-05-19T11:01:10Z,Indian Stocks,Snapping,Three-Day Drop
2011-05-19T11:01:10Z,Stocks,Snapping,Three-Day Drop
2011-05-19T11:16:02Z,Fed Funds,Open Within,Target Range
2011-05-19T11:23:53Z,Oman Shares Rise,Snap,Nine-Day Retreat
2011-05-19T11:28:59Z,Brazil May Shelve Cap,Pay,Increases
2011-05-19T11:35:36Z,Boost Pensions,Salaries on,Higher Oil
2011-05-19T11:36:58Z,China Openings,Debt on,Fosun Deal
2011-05-19T11:56:58Z,Corn Costs,Advancing in,Japan
2011-05-19T12:00:53Z,New Zealand Budget May Limit RBNZ Rate,Rises Through,Earthquake
2011-05-19T12:04:18Z,Georgia,Says,Russia Shoots
2011-05-19T12:04:18Z,Russia Shoots,People on,Disputed Border
2011-05-19T12:25:17Z,Oil,in,Southern Jordan
2011-05-19T12:27:30Z,Bin Laden,Praised,Arab Revolts
2011-05-19T12:27:30Z,Predicted,More Winds of,Change
2011-05-19T12:30:00Z,Canadian Employment Insurance Recipients,Dropped,3 %
2011-05-19T12:30:00Z,Employment Insurance Recipients,Dropped,3 %
2011-05-19T12:39:28Z,Corn,Extends,Advance
2011-05-19T12:39:50Z,SEC Credit-Rating Rules,Ruling ’s,WTO
2011-05-19T12:44:10Z,29 %,in,2010
2011-05-19T12:48:27Z,Oil,in,N.Y. Trades
2011-05-19T12:53:17Z,Hermes Minority Investors,Say,Family
2011-05-19T12:56:17Z,Acquisitions,in,Africa
2011-05-19T12:56:17Z,Dubai Targets Courier Business Growth,Acquisitions in,Africa
2011-05-19T12:57:10Z,U.S. Nuclear Output,Rises to,Most
2011-05-19T12:57:10Z,U.S. Output,Rises to,Most
2011-05-19T12:58:03Z,China,Pose,Threat
2011-05-19T12:58:03Z,Military Threat,in,Future
2011-05-19T12:59:02Z,Brazil ’s Congress,Approves,Voluntary Consumer Credit Bureau
2011-05-19T13:04:39Z,5 %,in,Four Months
2011-05-19T13:11:27Z,Farmers,Increase,Oilseed Crop
2011-05-19T13:19:26Z,Biden-Led Debt-Cutting Group,Is,Said Agree on $ 200 Billion in Savings
2011-05-19T13:19:26Z,Debt-Cutting Group,Is,Said Agree on Billion in Savings
2011-05-19T13:19:26Z,Said,Agree in,Savings
2011-05-19T13:27:22Z,Seychelles Voting,Starts as,Parties Exchange Accusations
2011-05-19T13:28:48Z,Sasini Gains,Boosts,Profit Outlook
2011-05-19T13:37:34Z,Shell ’s U.S. Shale Gas May,Be Refined,Jet Fuel
2011-05-19T13:43:50Z,Daewoo ’s Romania Unit,Got,$ 400 Million Ship Order
2011-05-19T13:47:00Z,Gold Fields Expects Recovery,in,Beatrix Mine Output
2011-05-19T13:48:08Z,African Bonds Show Inflation Bets,Easing Before,Tomorrow Auction
2011-05-19T13:48:08Z,Bonds Show Inflation Bets,Easing Before,Tomorrow Auction
2011-05-19T13:48:08Z,South African Bonds Show Inflation Bets,Easing Before,Tomorrow Auction
2011-05-19T13:48:08Z,Tomorrow,Before,Auction
2011-05-19T14:04:56Z,U.S. Stocks,Erase Gain as,Manufacturing Reports Trail Forecasts
2011-05-19T14:09:40Z,Kenya,Accepts,$ 24 Million of Bids
2011-05-19T14:10:59Z,Gazprom Unit,Appoints,Lenders
2011-05-19T14:11:52Z,Absa Capital,Sees,Largest Sub-Saharan African Economies Expanding
2011-05-19T14:11:56Z,$ 1.6 Billion Oil Fund IPO,in,3 Months
2011-05-19T14:14:38Z,South Africa ’s Cope Party,Sees,Voter Support Slump
2011-05-19T14:15:58Z,England ’s F.A.,in,Soccer Body ’s Election
2011-05-19T14:15:58Z,Soccer Body,in,Election
2011-05-19T14:16:35Z,Claims,Reversing,Surge
2011-05-19T14:16:35Z,Jobless Claims,in,U.S. Fall
2011-05-19T14:16:47Z,Croatia,Extends,Deadline for Zagreb Airport Building
2011-05-19T14:17:23Z,Poland,Raised Rates in,May
2011-05-19T14:17:34Z,EU ’s Van Rompuy,Presses Greece to,Pledge New Budget Measures
2011-05-19T14:18:45Z,Argentine Plane Crashes,in,Patagonia
2011-05-19T14:28:23Z,Philadelphia Area ’s Manufacturing,Expands in,Seven Months
2011-05-19T14:31:44Z,SAP Chief,Says,Software Support Fees Needed
2011-05-19T14:31:44Z,Software Support Fees,Needed to,Fund Research
2011-05-19T14:33:01Z,Sweden,Implement,EU Bank Capital Rules
2011-05-19T14:56:01Z,Canada ’s Dollar,Pares,Gain
2011-05-19T14:58:34Z,3,in Million,Yields Fall From April
2011-05-19T14:58:34Z,Million,in,3
2011-05-19T15:06:06Z,Roubini,Sees,Europeans Securing France ’s Lagarde
2011-05-19T15:07:23Z,Time Warner Cable Selling First Bonds,in,British Pounds
2011-05-19T15:10:33Z,Treasuries,Pare,Decline
2011-05-19T15:11:28Z,Czech Stocks,Snap,Three-Day Drop
2011-05-19T15:17:47Z,Strauss-Kahn,Quits,IMF
2011-05-19T15:23:05Z,Iceland,Declares,Victory Over Credit Downgrade
2011-05-19T15:24:34Z,Air France,Had,Debate With Delta Over Seat Cuts
2011-05-19T15:24:34Z,Vigorous Debate,With,Delta
2011-05-19T15:26:29Z,Belka,Is Against,Rp.pl Reports
2011-05-19T15:26:41Z,Mol First-Quarter Net,Soars Output on,Oil Prices
2011-05-19T15:27:51Z,Trading,in,Equity Options
2011-05-19T15:28:30Z,Serbia Time,Running,Out
2011-05-19T15:30:00Z,Lipsky,Says,Several Countries
2011-05-19T15:30:00Z,OPEC,Most in,Oil Movements
2011-05-19T15:34:09Z,Barnes Bay,Wins Approval on,July 27
2011-05-19T15:40:12Z,Ryanair,Loses Appeal on,EU Failure to Probe Lufthansa Aid
2011-05-19T15:42:26Z,CFC Stanbic Holdings,Are,Active
2011-05-19T15:42:43Z,Barrick,Deal on,May 27
2011-05-19T15:46:11Z,Mortgage Foreclosures,Decline From,Record
2011-05-19T15:47:25Z,National Grid Full-Year Profit,Rises,U.S. Margins Improve
2011-05-19T15:47:36Z,Equities,in,South Africa Advance
2011-05-19T15:49:29Z,Raspadskaya,Rises on,Credit Suisse Upgrade
2011-05-19T15:56:56Z,Government Bonds,Fall on,Reprofiling
2011-05-19T15:56:56Z,Greek Government Bonds,Fall on,Reprofiling
2011-05-19T15:57:16Z,FBI,Wants,Unabomber ’s DNA
2011-05-19T15:59:07Z,Lagarde,Faces Hurdle to,Top IMF Post
2011-05-19T16:03:41Z,Prudential ’s McGrath,Stays,Chairman
2011-05-19T16:04:02Z,BASF Gains,in,Frankfurt
2011-05-19T16:04:49Z,Northern Sudan State ’s Vote,Called,Credible
2011-05-19T16:08:39Z,Jet Stockpiles Drop,in,Europe
2011-05-19T16:08:49Z,25 %,in,Four Months
2011-05-19T16:08:49Z,Foreign Investment,in,Tunisia Fell
2011-05-19T16:08:49Z,Tunisia Fell,in Investment,TAP
2011-05-19T16:10:03Z,Honda Lays,Output at,Brazil Plant
2011-05-19T16:17:59Z,Gains,Debuts in,London
2011-05-19T16:17:59Z,Glencore Debuts,in,London
2011-05-19T16:26:22Z,Afren,Rises,Saying
2011-05-19T16:33:13Z,$ 23 Billion,in,Payoff Wall Street
2011-05-19T16:41:10Z,El Paso Gas Pipeline,in,U.S. Gulf May Return to Service
2011-05-19T16:41:51Z,Colombian Peso,Holds Near,One-Month Low on Dollar Buying Bets
2011-05-19T16:41:51Z,Peso,Holds Near,One-Month Low on Dollar Buying Bets
2011-05-19T16:46:59Z,Canada ’s Carney,Says Methodology for,Systemic Firms
2011-05-19T16:47:48Z,Boost Insurance Sales,in,Vietnam
2011-05-19T16:48:17Z,PBF Delaware City Refinery Said,Feed to,Units
2011-05-19T16:50:53Z,Gold Fields May Face Higher Peru Royalties,Taxes After,Presidential Vote
2011-05-19T16:53:39Z,$ 501 Million Fund,in,Asia
2011-05-19T16:54:00Z,WestLB Shelves Sale,Divest,Assets
2011-05-19T17:01:53Z,U.S. Stocks,Rise Amid,Corporate Earnings
2011-05-19T17:07:55Z,Multiple Blasts,in,Northern Nigerian City of Maiduguri Injure
2011-05-19T17:14:17Z,Lawmakers Aim Mobile Privacy,Push at,Facebook
2011-05-19T17:25:10Z,Agreement,With,Seattle ’s Best Coffee
2011-05-19T17:25:10Z,Seattle,With,Best Coffee
2011-05-19T17:43:42Z,Banco,do Brasil For,Water
2011-05-19T17:52:32Z,Workers,Must,Expectations
2011-05-19T17:52:57Z,Rise,in,South
2011-05-19T17:53:42Z,Listing Shares,in,Sweden
2011-05-19T17:58:09Z,Carney,Sees,Less Need
2011-05-19T18:00:00Z,Mammals ’ Sense,Have,Jump-Started Brain Evolution
2011-05-19T18:00:57Z,Egypt ’s Dollar-Bond Yield,Decline on,U.S. Aid Expectations
2011-05-19T18:16:03Z,22 Years,in,Post
2011-05-19T18:19:59Z,LinkedIn Doubles,in,Debut Trading
2011-05-19T18:19:59Z,Sina,Rises as,LinkedIn Doubles
2011-05-19T18:26:10Z,U.S. Overhaul Law,on,Price Review
2011-05-19T18:30:01Z,Profit,Hold,Price Increase
2011-05-19T18:31:00Z,India,’s Goal,RBI Governor Subbarao
2011-05-19T18:31:00Z,Subsidies,Oil May Thwart,India ’s Deficit Goal
2011-05-19T18:31:58Z,Warne,Retires From,Ending Cricket Career
2011-05-19T18:37:25Z,Accenture CEO,Sees,Interest
2011-05-19T18:37:30Z,May 18,for Update,Text
2011-05-19T18:39:07Z,Italy ’s Berlusconi,Supports,France ’s Lagarde
2011-05-19T19:05:08Z,$ 5 Billion Offshore Wind Project,Wins,Reduced U.S. Rate
2011-05-19T19:05:08Z,$ Billion Offshore Wind Project,Wins,U.S. Rate
2011-05-19T19:05:08Z,Billion Offshore Wind Project,Wins,Reduced U.S. Rate
2011-05-19T19:05:08Z,Google-Backed $ 5 Billion Offshore Wind Project,Wins,Reduced U.S. Rate
2011-05-19T19:05:08Z,Google-Backed $ Billion Offshore Wind Project,Wins,U.S. Rate
2011-05-19T19:05:08Z,Google-Backed Billion Offshore Wind Project,Wins,U.S. Rate
2011-05-19T19:16:27Z,Bank,Sell,BlackRock Stake
2011-05-19T19:17:06Z,Canada Pension,Has,Equity
2011-05-19T19:17:55Z,Falls,Meets,Estimates
2011-05-19T19:17:55Z,Limited Falls,Meets,Estimates
2011-05-19T19:20:13Z,Global Stock Gain,Bolsters,Risk Appetite
2011-05-19T19:26:41Z,Winds Ease,Risks to,Oil Production
2011-05-19T19:32:47Z,Strauss-Kahn Indicted,Attempted,Rape
2011-05-19T19:39:35Z,$ 1 Billion,in,Unpaid Policy Benefits
2011-05-19T19:42:38Z,Slow Progress,in,Economy
2011-05-19T19:52:24Z,Barrasso,Proposes Bill to,Natural Gas Output Onshore
2011-05-19T19:53:05Z,Take-Two Bullish Options Trades,Reach Level in,3 Years
2011-05-19T19:53:05Z,Take-Two Options Trades,Reach,Highest Level
2011-05-19T20:04:05Z,Intuit Third-Quarter Profit,Tops,$ 2.28 Analysts ’ Estimate
2011-05-19T20:06:19Z,U.S. Economic Data,Indicates,Weakness
2011-05-19T20:10:08Z,Bond Offerings,in,Sitme Sales
2011-05-19T20:15:00Z,French Open,With,Right Shoulder Injury
2011-05-19T20:15:38Z,Thermo Fisher,Rises,Billion Phadia Buy
2011-05-19T20:15:46Z,Jamie McCourt,for,Request for Dodgers Sale
2011-05-19T20:54:09Z,Central Bank ’s Leon,Says in,Medium Term
2011-05-19T20:54:09Z,Venezuela Will Weaken Currency,Says in,Medium Term
2011-05-19T20:56:11Z,LinkedIn Doubles,in,IPO
2011-05-19T21:03:06Z,ANC,Keeps,Its Cities
2011-05-19T21:03:06Z,South African Opposition Gains,in,Local Elections
2011-05-19T21:04:46Z,Ethanol Steady,Are,Overdone
2011-05-19T21:06:57Z,UKTI,Hires,Ernst ’s Boyd
2011-05-19T21:08:18Z,Futures,Drop on,U.S. Economic Outlook
2011-05-19T21:08:18Z,Oil Volatility,Slips,Futures Drop on U.S. Economic Outlook
2011-05-19T21:08:30Z,Treasury Two-Year Yields,Drop on,Signs
2011-05-19T21:08:32Z,BlackRock,Buys,Back Billion Shares From Bank
2011-05-19T21:09:48Z,Florida ’s Scott,Takes for,Top Business State
2011-05-19T21:19:36Z,Los Angeles Hotel Developer Ezri Namvar,Is,Convicted
2011-05-19T21:27:50Z,Approach KKR,Mills on,Post Sale
2011-05-19T21:29:32Z,Obama ’s Speech,Calls for,Bold Response
2011-05-19T21:29:32Z,UK ’s Hague,Welcomes,Calls
2011-05-19T21:29:33Z,BofA Insurance Banker Littlejohn,Hired by,BMO Capital Markets
2011-05-19T21:38:24Z,Mexico Peso,Rises,Most
2011-05-19T22:01:00Z,Asia ’s Rich,Look to,Standard Chartered
2011-05-19T22:02:11Z,$ 45.9 Million,in,Four Months
2011-05-19T22:02:11Z,Lehman,Paid,$ 45.9 Million in Four Months
2011-05-19T22:08:33Z,Duke Energy Chief,Urges U.S. Caution,Relying on Natural Gas
2011-05-19T22:21:08Z,Milton Keynes,Reach,Final
2011-05-19T22:26:35Z,U.S.,Rises in,First Trade
2011-05-19T22:30:05Z,Paraplegic,Stands for,First Time
2011-05-19T22:30:05Z,Years,With,Medtronic Device
2011-05-19T22:30:21Z,Citigroup,Adds Wolfe to,Media
2011-05-19T22:30:21Z,Lead Venture Capital,in,Tech
2011-05-19T22:34:04Z,Red Bull ’s Adrenaline Marketing Mastermind,Pushes into,Media
2011-05-19T22:40:00Z,LinkedIn ’s Backers,Will Own Billion Stake After,Sale
2011-05-19T22:40:00Z,LinkedIn ’s Biggest Backers,Will Own,Billion Stake
2011-05-19T22:55:31Z,Crude Oil,Climbs,0.4 Percent
2011-05-19T22:55:31Z,Oil,Climbs,0.4 Percent
2011-05-19T23:00:00Z,Parties,Get,It
2011-05-19T23:00:00Z,Victim Show,Divide in,France-U.S. Norms
2011-05-19T23:00:01Z,Chekhov ’s Orchard,Is,Gray
2011-05-19T23:01:00Z,Copper,May Climb According to,Survey
2011-05-19T23:01:42Z,Kesa Electricals May,Seek,Specialist Restructuring Firm
2011-05-19T23:06:54Z,Gaitame,Says Since,April 1
2011-05-19T23:16:33Z,Standard Bank Forgoing Acquisitions,in,Nigeria
2011-05-19T23:25:20Z,College ’s E-Mails,Released by,Judge
2011-05-19T23:37:26Z,ANC,Retains Control With,Support After Municipal Vote
2011-05-19T23:41:17Z,Fourth-Quarter Sales,That,Miss Analysts ’ Estimates
2011-05-19T23:41:17Z,Intuit,Forecasts,Sales
2011-05-19T23:41:17Z,Sales,That,Miss Analysts ’ Estimates
2011-05-19T23:57:43Z,Takeda,Joins Toshiba in,$ 16 Billion Overseas Deals
2011-05-20T00:57:30Z,Embraer E-190 Jets,Need,Checks for Metal Cracks
2011-05-20T01:42:49Z,Obama,Tells,Party Donors of Women ’s Rights
2011-05-20T01:42:49Z,Women,of,Rights
2011-05-20T03:57:31Z,Earthquake,Closer to,Tokyo
2011-05-20T03:57:31Z,Large Earthquake,Closer to,Tokyo
2011-05-20T04:00:15Z,Obama,Says to,Strengthening Democracy Movements
2011-05-20T04:00:15Z,Strengthening Democracy Movements,in,Mideast
2011-05-20T04:01:00Z,He,Used,EPO
2011-05-20T04:01:00Z,TV Networks,Introduce,New Shows
2011-05-20T04:01:01Z,App Store,Is,Generic
2011-05-20T04:01:01Z,Apple,Denies,Amazon ’s Claim
2011-05-20T04:01:01Z,Donald Trump School ’s Business Practices,Said,Probed
2011-05-20T04:01:01Z,Goffer Trial Witness,Says,He Traded Merger Tips for Cash-Filled Envelopes
2011-05-20T05:24:43Z,Thailand ’s Economic Growth,Adding,Rate-Rise Pressure
2011-05-20T06:26:11Z,Billionaire Ambani Debt Risk,Rises on,Gas Slump
2011-05-20T07:14:56Z,Takeda,Pays Upper Limit for,Nycomed
2011-05-20T07:28:32Z,Yen Falls Versus Euro,Heads for,Weekly Loss
2011-05-20T11:11:51Z,Nadal,’s Crown,No. 1 Tennis Ranking
2011-05-20T12:02:46Z,Oil,Climbs in,New York
2011-05-20T12:13:12Z,Madoff Trustee,Return,$ 300
2011-05-20T12:23:30Z,Kazakh Chemicals Producer May,Borrow,Billion Next Year
2011-05-20T13:31:27Z,Spent Last Night,in,Jail
2011-05-20T13:31:27Z,Strauss-Kahn May,Have,Spent Last Night in Jail
2011-05-20T20:17:52Z,Review AT&T,to,Proposed T-Mobile Purchase
2011-05-20T20:20:38Z,Malone,by,Liberty
2011-05-20T21:01:33Z,Canadian Stocks,Rise for,Fifth Day
2011-05-20T21:01:33Z,Stocks,Rise for,Day
2011-05-25T11:19:14Z,0.5 %,in,London Trading
2011-05-26T13:45:00Z,Slide,in,U.S. Consumer Confidence Ends
