2011-07-10T02:07:57Z,NFL Rookie,Be,Remaining
2011-07-10T04:01:08Z,Retail Sales,Probably Stagnated in,June
2011-07-10T04:01:08Z,Sales,Probably Stagnated in,June
2011-07-10T04:14:49Z,Monsoon Rains,in,India Slow Shipments
2011-07-10T04:32:53Z,0.6 %,in,May
2011-07-10T06:51:58Z,Gillard,Reduce,Australia ’s Fossil Fuel Dependence
2011-07-10T07:24:59Z,Anglo,Say,Carbon Tax Will Boost Fares
2011-07-10T07:34:42Z,One-Time Gain,After Drops,Missing Estimates
2011-07-10T07:47:09Z,Trichet Calls Europe Epicenter,Urges,Governance Change
2011-07-10T08:06:28Z,HI-SCENE WORLD E June Sales,Rise,37.81 %
2011-07-10T08:39:02Z,Lecico,’s Plant,Alam
2011-07-10T08:39:02Z,Lecico ’s New Tile Plant,in,August
2011-07-10T08:39:02Z,Start Production,to Plant,Alam
2011-07-10T08:47:47Z,Dubai Maritime Firm GMMOS Changes,Name to,Stanford Marine Group
2011-07-10T09:29:14Z,Hoyer,Tells,La Stampa
2011-07-10T09:30:44Z,Repurchase London,to,Waldorf
2011-07-10T09:46:39Z,Van Rompuy,Urges,End
2011-07-10T10:00:48Z,Danish Soldier,Dies in,Explosion
2011-07-10T10:00:48Z,Patrol,in,Afghanistan
2011-07-10T10:00:48Z,Soldier,Dies During,Patrol
2011-07-10T10:27:42Z,Fenerbahce Chairman Yildirim,Criticizes,Handling of Match-Fixing Probe
2011-07-10T11:14:17Z,Italy,’s Consob,Ansa
2011-07-10T11:15:17Z,Alexandria Mineral,Rises,Most in Month
2011-07-10T11:25:47Z,Trial,on,First Results
2011-07-10T11:34:48Z,Sarkozy Will Review Pay Policies,Says in,JDD
2011-07-10T11:42:16Z,CMC Markets,’ Ozelli,Sunday Telegraph
2011-07-10T11:46:04Z,Swiss Economy Minister,Sees,Sonntag
2011-07-10T12:10:03Z,Lewis Hamilton ’s Father,Urges,Him
2011-07-10T13:13:16Z,Hayward ’s Vallares,in,Talks
2011-07-10T13:13:16Z,Talks,in Vallares,Sunday Times Reports
2011-07-10T13:21:41Z,Women,of,World Cup
2011-07-10T13:22:52Z,Egypt ’s June Inflation,Slows,Food Price Increases Ease
2011-07-10T13:27:15Z,Ackermann Wants,Be,Chairman
2011-07-10T13:27:15Z,Deutsche Bank,Denies,Spiegel Report
2011-07-10T13:30:44Z,Consumer Confidence,Improves Slightly,Post Reports
2011-07-10T13:30:44Z,Irish Consumer Confidence,Improves Slightly,Post Reports
2011-07-10T14:12:05Z,Factory,in,North America
2011-07-10T14:46:19Z,Cruise Ship,Sinks at,1 Dead
2011-07-10T14:46:19Z,Russian Cruise Ship,Sinks at,1 Dead
2011-07-10T14:46:52Z,Seventh Logistics Hub,in,U.K.
2011-07-10T15:19:23Z,Turkmen Panel,Says,15 Died in Blast
2011-07-10T15:51:12Z,Israel,Approves Border Demarcation Over,Lebanese Opposition
2011-07-10T16:00:00Z,Najib May Avoid,Calling,Early Malaysia Election
2011-07-10T16:01:42Z,Israel,Sends,35 Pro-Palestinian Activists on Lufthansa Flight
2011-07-10T17:00:07Z,Wings,Shorting,Chicken Breeder
2011-07-10T17:23:05Z,Electrolux,Acquire Olympic Group,Expand
2011-07-10T17:45:28Z,Healthy Daughter,in,Los Angeles
2011-07-10T18:56:12Z,Golf,at,Scottish Open
2011-07-10T19:04:29Z,Atlantis Docks,With,Space Station
2011-07-10T20:54:46Z,Nigerian Security Forces,Kill,11 Religious Militants
2011-07-10T21:00:01Z,Iraq,in Lands,Exit
2011-07-10T21:00:01Z,Panetta Lands,in,Iraq
2011-07-10T21:08:28Z,Euro Falls,Decline on,Concern Debt Crisis Worsening
2011-07-10T21:28:38Z,CKI,Offers,Billion
2011-07-10T21:46:32Z,Saleh,Step,Down
2011-07-10T21:46:32Z,Syria ’s Weekend Death Toll,Rises to,20
2011-07-10T22:00:01Z,Frenchman Voeckler,Wears,Yellow
2011-07-10T22:01:00Z,Europe,in,Greek Debt-Crisis Management
2011-07-10T22:01:00Z,Flaws,in,Europe ’s Greek Debt-Crisis Management
2011-07-10T22:01:00Z,Strauss-Kahn Saga,Exposes,Flaws in Europe ’s Greek Debt-Crisis Management
2011-07-10T22:45:00Z,Soybeans,May Rise as,Dry Weather Threatens Crops
2011-07-10T23:00:01Z,Asia Doubles Solar Silicon Factories,Pursuing,Gain
2011-07-10T23:00:01Z,Provencal Restaurant,Has,Charm
2011-07-10T23:00:01Z,Restaurant,Has,Charm
2011-07-10T23:01:00Z,Last-Minute Overtime Goal,Shootout in,World Cup
2011-07-10T23:01:00Z,Shootout,in,World Cup
2011-07-10T23:24:51Z,Xinhua,Cites,Liu
2011-07-10T23:51:11Z,Campaign,Is,Little
2011-07-11T00:27:07Z,Ferrari ’s Alonso,Wins,Grand Prix
2011-07-11T00:27:07Z,Red Bull,After,Pit-Stop Blunder
2011-07-11T01:30:20Z,Obama,Progress on,Debt
2011-07-11T04:01:00Z,Davis Cup Semifinals,Defending,Champion Serbia
2011-07-11T04:01:00Z,Dungeons,With,1980s Nostalgia to Boost Sales
2011-07-11T04:01:00Z,Navy Makeover,Replaces,Dungeons With 1980s Nostalgia to Boost Sales
2011-07-11T04:01:00Z,Old Navy Makeover,Replaces,Dungeons With 1980s Nostalgia
2011-07-11T04:11:53Z,Stricker,Wins John Deere Classic for,Straight Year Before British Open
2011-07-11T05:18:24Z,Companies,Seen,Targeting Australia
2011-07-11T05:18:24Z,Foreign Companies,Seen,Targeting Australia
2011-07-11T06:44:04Z,Yankees,’ Rodriguez,Will
2011-07-11T06:47:45Z,Zimbabwe MDC Leader Welshman Ncube,Detained by,Police
2011-07-11T07:05:12Z,Macarthur,Drop on,Australia Carbon Tax Plan
2011-07-11T08:51:03Z,China ’s Copper Imports Rise First Time,in,Three Months on Low Stockpiles
2011-07-11T09:54:09Z,Investors,Reduce,Bullish Farm Bets
2011-07-11T12:17:21Z,Canada ’s Martin,Says in,France
2011-07-11T14:40:49Z,Romania,Attract,Investors
2011-07-11T14:47:29Z,May,Put BSkyB Takeover at,Risk
2011-07-11T16:00:00Z,Sarkozy ’s Popularity,Holds Steady at,36 %
2011-07-11T16:05:06Z,Buenos Aires Mayor Macri,Heads to,Runoff
2011-07-11T16:05:06Z,Filmus,in,Re-Election Bid
2011-07-11T16:38:20Z,$ 800 Million,in,Pakistan Aid
2011-07-11T20:49:01Z,Profits,Climb as,S&P 500 P/E
2011-07-11T21:51:47Z,Euro,Tumbles to,7-Week Low Versus Dollar
2011-07-11T22:09:24Z,Top Film Again,With,$ 47.1 Million
2011-07-11T22:09:24Z,Transformers,Is,Film Again
