2011-09-06T00:00:00Z,Osama bin Laden,Fulfilled,His One True Ambition
2011-09-06T00:00:00Z,Real Slam Dunk,Is,Debt Forgiveness
2011-09-06T00:00:00Z,Slam Dunk,Is,Debt Forgiveness
2011-09-06T00:00:31Z,Obama ’s Weakness,Leading to,Republican Overreach
2011-09-06T00:00:35Z,Israel,Is,Ungrateful
2011-09-06T00:00:45Z,States ’ Rights,for Clamor,Time
2011-09-06T00:30:22Z,Asian Stocks,Fall as,Euro Slides
2011-09-06T00:30:22Z,Stocks,Fall as,Euro Slides
2011-09-06T00:58:48Z,FENG HSIN IRON August Sales,Fall,4.46 %
2011-09-06T01:01:39Z,LITE-ON SEMICOND August Sales,Fall,Table
2011-09-06T01:04:20Z,Republican Bachmann,as,Campaign Manager
2011-09-06T01:34:11Z,Australian Dollar,Weakens as,Exports From Economic Growth
2011-09-06T01:34:11Z,Dollar,Weakens as,Net Exports to Detract From Economic Growth
2011-09-06T01:39:08Z,Australian Home-Loan Approvals Rise,Expected,Hold
2011-09-06T01:39:08Z,Home-Loan Approvals Rise,Less Than Expected,Hold
2011-09-06T02:00:47Z,Australia,Leaves,O’Connor
2011-09-06T03:14:28Z,FORMOSA LABORATO August Sales,Fall,Table
2011-09-06T03:20:41Z,ELITE MATERIAL August Sales,Rise,Table
2011-09-06T03:30:29Z,3 Sets,Hours at,U.S. Open
2011-09-06T03:30:29Z,No. 1 Caroline Wozniacki,Beats Kuznetsova in,3 Hours at U.S. Open
2011-09-06T03:30:29Z,No. Caroline Wozniacki,Beats,Kuznetsova
2011-09-06T03:53:54Z,Stocks,in,Q3
2011-09-06T04:00:29Z,Rancor,Hangs Over,U.S. Supercommittee
2011-09-06T04:00:33Z,Service Industries,Probably Grew in,in Year
2011-09-06T04:01:00Z,Cheney,Tortures Readers With,Old-Hat Washington Tales
2011-09-06T04:01:00Z,Cordray,Looks,Beyond Lawsuits
2011-09-06T04:01:00Z,Sales,Set,Slip as Issuers Curb Spending
2011-09-06T04:01:00Z,Simpson,Defeats Chez Reavie in,Playoff
2011-09-06T04:01:00Z,Sparkling Pools Mist Names,With,Grace
2011-09-06T04:01:00Z,U.S. Open,Serves,Morimoto Sushi
2011-09-06T04:01:00Z,Upton ’s Service,Him in,2012 Election
2011-09-06T04:01:01Z,Microsoft Ramps,in,$ 12 Billion Display-Ad Market
2011-09-06T04:14:51Z,Europe,on,Debt Crisis
2011-09-06T04:15:00Z,Up Knowledge Hub,in,Singapore
2011-09-06T04:18:06Z,Everonn,Plunges for,Third Straight Session
2011-09-06T04:26:17Z,Homes,Roads in,Nairobi
2011-09-06T04:26:17Z,Roads,in,Nairobi
2011-09-06T04:31:44Z,TYCOONS GROUP EN August Sales,Fall,9.08 %
2011-09-06T04:35:09Z,$ 39 Bln,Citing,Bank Chief
2011-09-06T04:35:09Z,Bln,Citing,Bank Chief
2011-09-06T04:49:40Z,Bomb,Holding,Child
2011-09-06T05:00:22Z,Hong Kong Short Selling Turnover,Recorded,09/06/2011
2011-09-06T05:17:17Z,Roger Federer,Reaches,U.S. Open Quarterfinals
2011-09-06T05:23:41Z,Air Arabia,Bank of,Fujairah
2011-09-06T05:31:04Z,Rostowski,Says,Poland Ready
2011-09-06T05:31:45Z,Sacyr Shareholder,Backs,Expansion Reports
2011-09-06T05:47:45Z,Australian Central Bank,Citing,Unsettled Global Markets
2011-09-06T05:47:58Z,Franc Options Foreshadow Gain,Victory to,Hildebrand
2011-09-06T05:48:16Z,Johannesburg Shoot,in Protesters,SAPA
2011-09-06T05:48:16Z,South Africa Protesters,in,Johannesburg Shoot at Police
2011-09-06T05:49:23Z,Gold,Reaching,New Record
2011-09-06T05:53:01Z,Bard Offshore ’s Potential Buyers,Are From,FTD Reports
2011-09-06T05:56:16Z,HSIN SIN TEXTILE August Sales,Fall,1.30 %
2011-09-06T05:57:44Z,CHANG WAH ELECTR August Sales,Fall,19.56 %
2011-09-06T06:00:00Z,Orascom Construction,Misses Estimates After,Tax Rate Increase
2011-09-06T06:19:20Z,Belgium Institutions,Froze,Billion
2011-09-06T06:19:41Z,Zoellick,Says in,Period
2011-09-06T06:20:32Z,PARA LIGHT ELECT August Sales,Fall,13.08 %
2011-09-06T06:22:05Z,Veto Hungary,to,Malev Capital Injection
2011-09-06T06:25:52Z,Larsen,Bank Among,Great Buys
2011-09-06T06:27:28Z,BIN CHUAN ENTERP August Sales,Fall,Table
2011-09-06T06:35:43Z,Copper,in,London Drops
2011-09-06T06:39:14Z,EGALAX_EMPIA TEC August Sales,Rise,120.64 %
2011-09-06T06:39:15Z,NOVATEK MICROELE August Sales,Fall,5.67 %
2011-09-06T06:41:17Z,Brent Crude,Pares,Gains
2011-09-06T06:44:30Z,2.9 %,in,August
2011-09-06T06:46:16Z,CEO,Tells,Puls
2011-09-06T06:50:10Z,Billions,in,Broadband Network
2011-09-06T06:54:00Z,Advances,Weakening Against,Dollar
2011-09-06T06:54:00Z,Switzerland ’s Franc,Reverses,Weakening Against Dollar
2011-09-06T06:56:10Z,ABILITY ENTERPR August Sales,Rise,11.22 %
2011-09-06T06:59:07Z,Fenerbahce Recoups Champions League Losses,With,Sales
2011-09-06T07:00:00Z,Czech Industrial Output,Rises,4.4 %
2011-09-06T07:00:00Z,Romania ’s Economic Growth,Slowed on,Demand
2011-09-06T07:00:00Z,Romania ’s Growth,Slowed in,Quarter
2011-09-06T07:00:00Z,Slowest Growth,in,19 Months
2011-09-06T07:06:00Z,Mizuho ’s Takei,Sees,Yields
2011-09-06T07:06:00Z,Yields,Falling to,1.5 %
2011-09-06T07:10:08Z,PHOTONICS August Sales,Rise,29.55 %
2011-09-06T07:10:08Z,VISUAL PHOTONICS August Sales,Rise,Table
2011-09-06T07:10:18Z,Alzheimer,After,Drug Development Deal With Roche
2011-09-06T07:10:18Z,Alzheimer ’s Drug Development Deal,With,Roche
2011-09-06T07:16:00Z,Syria,Kills,15 Anti-Assad Protesters
2011-09-06T07:18:04Z,Estonia May,Send,China Economist
2011-09-06T07:23:16Z,BAE,Develops,Invisibility Cloak
2011-09-06T07:28:06Z,Brent Crude,Climbs,0.9 %
2011-09-06T07:28:06Z,WTI Oil Rebounds,in,New York
2011-09-06T07:28:21Z,Smartphones,With,Baidu
2011-09-06T07:32:55Z,LAYERS,SCIE,August Sales
2011-09-06T07:34:54Z,Its Business,for Growth,FTD Reports
2011-09-06T07:35:34Z,UNIFOSA CORP August Sales,Fall,82.79 %
2011-09-06T07:41:16Z,Slovak Economic Growth,Slows on,Exports
2011-09-06T07:41:48Z,Fenerbahce Signs Everton Defender Yobo,Bienvenu From,Young Boys
2011-09-06T07:42:19Z,FREE POWER ENERG August Sales,Fall,Table
2011-09-06T07:49:13Z,Swiss Franc Declines Versus Dollar,Euro Amid,SNB Intervention Speculation
2011-09-06T07:49:27Z,JHEN VEI ELECT August Sales,Fall,69.53 %
2011-09-06T07:50:58Z,ADVANCE MATERIAL August Sales,Fall,Table
2011-09-06T07:55:07Z,German Trade Groups Support Euro,Start on,Debt
2011-09-06T07:55:41Z,Estonia,of Grupp,Aeripaeev Reports
2011-09-06T08:02:27Z,Bulgaria ’s Economic Growth,Slows,Weakest
2011-09-06T08:02:56Z,Adcorp Holdings,Announces,Firm Intention
2011-09-06T08:08:32Z,Franc,Plunges Against,Euro
2011-09-06T08:16:16Z,TRANSCEND INFO August Sales,Fall,Table
2011-09-06T08:19:36Z,South Africa ’s Rand,Strengthens by,Most Most
2011-09-06T08:20:29Z,ECB,Says,Banks
2011-09-06T08:22:38Z,Whitbread Sales Growth,Rises on,Premier Inn
2011-09-06T08:26:18Z,Mysore Paper,Seeks,India Coal
2011-09-06T08:29:03Z,Inflation,Cools in,August
2011-09-06T08:29:09Z,Gold Trades,Rebounding From,Decline
2011-09-06T08:29:09Z,Gold Trades Little,Rebounding From,Decline
2011-09-06T08:29:23Z,Deal,Is Reached on,Surrender of Bani Walid
2011-09-06T08:29:23Z,Qaddafi Forces,Flee,Reached on Surrender of Bani Walid
2011-09-06T08:29:37Z,Europe,on,Debt Crisis
2011-09-06T08:35:30Z,SONIX TECH August Sales,Fall,Table
2011-09-06T08:36:41Z,TAIWAN SAKURA August Sales,Fall,Table
2011-09-06T08:39:01Z,TAIWAN KONG KING August Sales,Fall,Table
2011-09-06T08:41:02Z,CHICONY ELECT August Sales,Fall,4.89 %
2011-09-06T08:43:56Z,Asian Currencies,Weaken,Europe Debt Concern Mounts
2011-09-06T08:43:56Z,Currencies,Weaken,Europe Debt Concern Mounts
2011-09-06T08:44:45Z,CATHAY CHEMICAL August Sales,Fall,18.08 %
2011-09-06T08:59:38Z,0.5 %,in,London
2011-09-06T08:59:38Z,Ringgit Little,Changed on,European Debt Concern
2011-09-06T09:02:43Z,HOLY STONE,ENTER,2.90 %
2011-09-06T09:02:43Z,STONE,ENTER,August Sales Rise
2011-09-06T09:02:44Z,SUNJET COMPONENT August Sales,Fall,Table
2011-09-06T09:03:28Z,BRANDS August Sales,Fall,2.06 %
2011-09-06T09:03:28Z,GLOBAL BRANDS August Sales,Fall,Table
2011-09-06T09:06:51Z,UNIC TECHNOLOGY August Sales,Fall,19.01 %
2011-09-06T09:16:30Z,Eskom,Says,Firm Commitment Needed
2011-09-06T09:16:30Z,South Africa,for,2023 Nuclear Plan
2011-09-06T09:19:41Z,Eastern U.S.,Drenched by,Two Weather Systems Threatening Floods
2011-09-06T09:19:51Z,WAH HONG INDUSTR August Sales,Fall,23.66 %
2011-09-06T09:25:33Z,HORIZON SECS CO August Sales,Fall,131.87 %
2011-09-06T09:25:33Z,KING,'S,TOWN BANK August Sales Rise
2011-09-06T09:27:03Z,EVERLIGHT ELEC August Sales,Fall,Table
2011-09-06T09:33:35Z,FEEDBACK TECHNOL August Sales,Rise,0.97 %
2011-09-06T09:39:34Z,Apple May,Have to,Show IPad Sales in Australia
2011-09-06T09:39:34Z,Show IPad Sales,in,Australia
2011-09-06T09:42:45Z,KKR,Set Up,China Property Investment Fund
2011-09-06T09:42:45Z,Sino-Ocean,Set Up,China Property Investment Fund
2011-09-06T09:43:44Z,NEWMAX TECHNOLOG August Sales,Fall,29.73 %
2011-09-06T09:44:26Z,It,May Buy,Shaw ’s Stake
2011-09-06T09:50:14Z,Category 3,Travels in,Northwest Direction
2011-09-06T09:50:14Z,Hurricane Katia,Weakens to,Category 3
2011-09-06T09:50:14Z,Travels,in,Northwest Direction
2011-09-06T10:00:00Z,Trucking Group,Tells,Obama
2011-09-06T10:00:36Z,Business Confidence,in,South Africa Declines to Lowest
2011-09-06T10:02:29Z,7 %,in,August
2011-09-06T10:06:18Z,Kenya ’s National Union,Starts Nationwide Strike Over,Hirings
2011-09-06T10:09:57Z,Advanced,Gain on,New Regulator
2011-09-06T10:16:02Z,YOUNGTEK ELECTRO August Sales,Fall,25.32 %
2011-09-06T10:17:40Z,Mauritius Rupee,Drop as,Europe Debt Crisis Cuts Demand
2011-09-06T10:18:24Z,Basel Group,Weighs,Unintended Consequences
2011-09-06T10:25:19Z,Saudi Customs Revenue Rose 14 %,in,2010
2011-09-06T10:26:12Z,Foreign Funds,Buy,2.12 Billion Rupees of Equities
2011-09-06T10:27:19Z,China Mobile,Add First BlackBerry for,Homegrown Network
2011-09-06T10:29:02Z,10-Year Yield,Is,Little Changed
2011-09-06T10:29:02Z,Yield,Is Little Changed at,1.99 %
2011-09-06T10:30:31Z,Schaeuble,Urges Curbs on,Debt
2011-09-06T10:36:49Z,Tanzania Shilling,Slips for,Day
2011-09-06T10:46:38Z,Banks,in,Europe
2011-09-06T10:46:38Z,Blessing,Is Cautiously Optimistic for,Banks in Europe
2011-09-06T10:50:15Z,Armenia ’s Central Bank,Lowers,Benchmark Interest Rate
2011-09-06T10:54:53Z,Eastern Europe ’s Borrowers,See,Relief
2011-09-06T10:55:57Z,Factory Orders,Decline Than,Forecast on Exports
2011-09-06T10:55:57Z,German Factory Orders,Decline Than,More Forecast on Exports
2011-09-06T10:56:36Z,AT&T,Clemens in,Court News
2011-09-06T10:56:36Z,Clemens,in,Court News
2011-09-06T10:56:44Z,DATA INTL CO LTD August Sales,Fall,Table
2011-09-06T11:05:40Z,Foreign Investments,in,Country
2011-09-06T11:05:42Z,PRINCE HOUSING August Sales,Fall,Table
2011-09-06T11:06:08Z,Three-Month Franc Libor,Rises to,0.005 Percent
2011-09-06T11:08:27Z,Smart Electric Cars,in,Hong Kong
2011-09-06T11:10:40Z,Libor,Climbs Since,August 2010
2011-09-06T11:12:39Z,Ex-U.K. Lawmaker Moran,Faces,21 Charges
2011-09-06T11:17:39Z,JinkoSolar May,Buy Back,Shares
2011-09-06T11:20:02Z,Democracy,for March,Bid End
2011-09-06T11:20:02Z,March,in,Manzini
2011-09-06T11:29:14Z,Singapore ’s MAS,Warns,Private Banks
2011-09-06T11:43:54Z,LME Aluminum Trading,Record,Level
2011-09-06T11:47:00Z,Airbus,Outsells,Boeing
2011-09-06T11:48:12Z,Carbon Cap Revival Led,in,Permit Plan Xstrata Calls
2011-09-06T12:00:00Z,South African Gold Production Rose 6.4 %,in,Quarter
2011-09-06T12:00:05Z,Cycling Eyes Races,in,Sochi
2011-09-06T12:00:05Z,Sochi,Rio for,Revenue
2011-09-06T12:03:59Z,SNB ’s Franc Action,Begins,Endurance Race
2011-09-06T12:06:06Z,Iceland ’s Arion Bank Reports,Increase in,First-Half Profit
2011-09-06T12:06:06Z,Iceland ’s Arion Bank Reports 29 % Increase,in,First-Half Profit
2011-09-06T12:08:43Z,History,Suggests,SNB ’s Currency Defense May Work
2011-09-06T12:08:43Z,Swiss History,Suggests,SNB ’s Currency Defense May Work
2011-09-06T12:11:57Z,Oil Advances,in,Four
2011-09-06T12:18:59Z,India Bonds Drop,Will Raise,Rates Month
2011-09-06T12:23:51Z,Morgan Stanley,Says,Too Elevated
2011-09-06T12:30:00Z,U.S. Treasury Department,Schedule for,Tuesday
2011-09-06T12:37:42Z,Masan Unit,Buy,50.11 % of Vinacafe Bien Hoa
2011-09-06T12:45:48Z,Solarworld,Has,Received Takeover
2011-09-06T12:48:30Z,U.K. Stocks,Pare,Gains
2011-09-06T12:59:01Z,China,Toughen,Control
2011-09-06T13:01:32Z,Lazard ’s Parr,Says,European Officials Need Financial Bazooka
2011-09-06T13:02:25Z,Greek Olympic Sprinters Acquitted,in,2004 Case
2011-09-06T13:07:11Z,Assange,Says,Guardian Caused WikiLeaks
2011-09-06T13:07:11Z,Guardian Caused WikiLeaks,Release,Cables
2011-09-06T13:07:11Z,Guardian WikiLeaks,Release,Cables
2011-09-06T13:07:29Z,Corporate Bond Risk Falls,in,Europe
2011-09-06T13:12:37Z,Glencore ’s Piruto Unit,Boosts,Stake
2011-09-06T13:12:37Z,Stake,in,South African Optimum Coal
2011-09-06T13:14:51Z,Ghana Targets Ivory Coast ’s Top Cocoa Spot,With,Free Trees
2011-09-06T13:19:20Z,Commodities,Drop,Debt Concern Deepens
2011-09-06T13:20:15Z,Congolese Opposition,Says,Armed Men Attacked
2011-09-06T13:20:15Z,Its HEadquarters,in,Kinshasa
2011-09-06T13:20:15Z,Opposition,Says,Armed Men Attacked
2011-09-06T13:22:47Z,AFDB,by Cut,Ncube
2011-09-06T13:30:12Z,Bank,Raises,Interest Rate
2011-09-06T13:30:12Z,Ugandan Shilling,Weakens,First Day
2011-09-06T13:32:37Z,Polish Stocks,Head in,4 Weeks
2011-09-06T13:32:37Z,Stocks,Head for,Longest Losing Streak
2011-09-06T13:37:49Z,Buybacks,Record on,Market-Share Gains
2011-09-06T13:37:49Z,Woolworths,Rises,Buybacks
2011-09-06T13:43:39Z,Dubai ’s Index,Reverses Losses As,Stocks
2011-09-06T13:45:35Z,Afribank,Delisted From,Nigeria Bourse
2011-09-06T13:50:11Z,7.9 %,in,August
2011-09-06T13:50:11Z,African Tea Prices,Mostly Declined at,James Finlay
2011-09-06T13:50:11Z,Tea Prices,Declined at,James Finlay
2011-09-06T14:00:00Z,U.S. Employment Index Drops,in,Five Months
2011-09-06T14:00:35Z,Six Alleged Boko Haram Members,in,Suleja
2011-09-06T14:02:05Z,Brazil ’s Capacity Utilization Rate,Fell in,July
2011-09-06T14:04:42Z,CME Group,Revises Rule for,Futures
2011-09-06T14:10:01Z,Central Bank,Sees Slowdown Risk in,in Next Quarters
2011-09-06T14:10:01Z,Slovenian Central Bank,Sees Slowdown Risk in,in Next Quarters
2011-09-06T14:20:16Z,Brazil Inflation,Accelerated Since,2005 Ahead of Shock Rate Cut
2011-09-06T14:23:41Z,Cameroon ’s Ports,Handled,7.5 % More Traffic Last Year
2011-09-06T14:23:41Z,Traffic Last Year,More,7.5 %
2011-09-06T14:23:57Z,Its Second Share Sale,in,129 Years
2011-09-06T14:26:18Z,Belarus,Urges Banks to,Review Lending Rules
2011-09-06T14:33:27Z,Miss One,to Vermaelen,Club
2011-09-06T14:35:35Z,Kenya Central Bank Sells Dollars,in,Domestic Currency Market
2011-09-06T14:36:28Z,Bond Yields,Reach Two-Year Low on,Global Growth Concern
2011-09-06T14:36:28Z,Chilean Bond Yields,Reach Two-Year Low on,Global Growth Concern
2011-09-06T14:37:06Z,Inflation,Slows for,Second Month
2011-09-06T14:37:06Z,Ukrainian Inflation,Slows in,August
2011-09-06T14:48:05Z,Ten-Year Treasuries,Expensive on,Fed Measure
2011-09-06T14:53:40Z,Brazil Rate Futures Yields,Drop on,Growth Concern
2011-09-06T14:54:47Z,South Africa Borrowing Costs,Slide Since,2009 on Growth Concerns
2011-09-06T14:58:43Z,Rand Gains First Day,in,Four
2011-09-06T14:59:32Z,Latvia May,Have,Agreement Week on AirBaltic
2011-09-06T14:59:40Z,Uganda Lifts Benchmark Rate,Warns of,More Increases
2011-09-06T15:00:17Z,First Day,in,Four
2011-09-06T15:06:49Z,3 % Market Share,in,Europe
2011-09-06T15:15:00Z,Ralcorp,Should Explain,Rejection of $ 5.18 B Bid
2011-09-06T15:15:27Z,Solar-Panel Maker,in,California
2011-09-06T15:16:58Z,Ecuador Prices,Climb,Most
2011-09-06T15:17:56Z,Eletrobras,Invest,Billion Brazil
2011-09-06T15:26:31Z,15 Firms,Asked for,Information Sale
2011-09-06T15:26:31Z,Information,in,Sale
2011-09-06T15:26:31Z,Sazka Administrator,Says,15 Firms Asked
2011-09-06T15:40:59Z,Central Bank,Imposes,Ceiling
2011-09-06T15:45:39Z,4SC,Says,Compound
2011-09-06T15:47:03Z,U.K. Pound,Weakens as,Retail Sales Report Spurs BOE Stimulus Speculation
2011-09-06T15:49:17Z,Swiss,Set,Currency Limit
2011-09-06T15:49:17Z,Zloty,Has,Record Gain Versus Franc
2011-09-06T15:55:23Z,New York City Mayor,Cites Revitalization of,Lower Manhattan
2011-09-06T15:56:24Z,Betfair,Says,Comfortable With Full-Year Sales Outlook
2011-09-06T16:01:00Z,Hong Kong Land Auction,Misses,Analyst Estimates
2011-09-06T16:01:56Z,Genzyme,Aims for,EPS Growth of More 5 %
2011-09-06T16:05:08Z,Paracon,Climbs on,Adcorp Offer
2011-09-06T16:05:27Z,HSBC,Confirms,Talks
2011-09-06T16:07:02Z,German Stocks Retreat,Sending DAX to,Two-Year Low
2011-09-06T16:07:02Z,Stocks Retreat,Sending DAX to,Two-Year Low
2011-09-06T16:07:16Z,EPS,for,Hydro Plants in Serbia
2011-09-06T16:07:16Z,EPS ’s Hydro Plants,in,Serbia
2011-09-06T16:13:01Z,National Football League,Sponsorship Through,2022 Playoffs
2011-09-06T16:16:38Z,European Stocks,Sink on,Deepening Debt Concern
2011-09-06T16:16:38Z,Stocks,Sink to,Two-Year Low
2011-09-06T16:20:17Z,Allianz,Gives,Pimco More Independence in Fund Unit
2011-09-06T16:20:17Z,Pimco More Independence,in,Fund Unit
2011-09-06T16:22:28Z,Glencore,Raises Optimum Coal Stake to,Buying Shares Above Bid Value
2011-09-06T16:28:00Z,Slowdown,Brings,New Crisis
2011-09-06T16:39:35Z,CEO,Tells,FuW
2011-09-06T16:43:34Z,Richards Bay Coal Exports,Climbed,28 %
2011-09-06T16:43:50Z,Angola ’s Banco BIC May,Expand to,Chairman
2011-09-06T16:55:48Z,Hayward ’s Vallares Said,With,Genel Enerji
2011-09-06T16:57:48Z,Ghana Cedi,Weakens as,Airlines Dollars
2011-09-06T17:00:15Z,Ex-America Online Chief Financial Officer,Settles,SEC Lawsuit
2011-09-06T17:02:46Z,Banks Cut Estimate,Are,Delayed
2011-09-06T17:05:33Z,Lawyer,Saw Dossier on,Hacking Victims ’ Lawyers
2011-09-06T17:07:33Z,Rick Perry,Could Have,Democrats Singing Same Song
2011-09-06T17:07:41Z,Agrifirma,Considers,Brazil IPO
2011-09-06T17:07:41Z,Rothschild-Backed Agrifirma,Considers,Brazil IPO
2011-09-06T17:11:37Z,Telefonica,Says,Markets Key for Increasing Sales
2011-09-06T17:12:33Z,S&P 500 ’s Momentum,Echoes,2008 Slumps
2011-09-06T17:12:33Z,S&P ’s Momentum,Echoes,2008 Slumps
2011-09-06T17:16:16Z,Authorities,Investigate DigiNotar After,Hacker ’s Attack
2011-09-06T17:16:16Z,Dutch Authorities,Investigate,DigiNotar
2011-09-06T17:16:16Z,Hacker,After,Attack
2011-09-06T17:19:28Z,Carlyle Group,in,IPO
2011-09-06T17:19:28Z,Credit Suisse Land Lead Roles,in,Carlyle Group ’s IPO
2011-09-06T17:19:28Z,JPMorgan,Roles in,Carlyle Group ’s IPO
2011-09-06T17:27:14Z,Hungary,Erase,Part of Budget Hole
2011-09-06T17:32:40Z,Solyndra ’s Former Workers Sue Solar Company,Lack of,Warning
2011-09-06T17:39:04Z,CEO,Tells,FAZ
2011-09-06T17:39:04Z,Jenoptik Eyes Acquisitions,in,North America
2011-09-06T17:41:26Z,BlackRock,Hires,Pimco ’s Mark Taborsky
2011-09-06T17:43:26Z,BHP,Says,CEO Teicher Resigns
2011-09-06T17:50:01Z,Most Incumbents,in,30 Years
2011-09-06T17:51:35Z,Crude Oil Volatility,Rises,Futures Tumble
2011-09-06T17:51:35Z,Futures,Tumble to,One-Week Low
2011-09-06T17:51:35Z,Oil Volatility,Rises,Futures Tumble to One-Week Low
2011-09-06T17:58:51Z,Peru ’s Sol Bond Yields,Decline to,10-Month Low
2011-09-06T18:00:00Z,Fed Directors,Had,Increased Uncertainty
2011-09-06T18:09:26Z,350,in Area,Adler Acquire Washington-Area Properties
2011-09-06T18:09:26Z,Area,in,350
2011-09-06T18:14:31Z,Disney,Says Mooney Resigns as,Head of Consumer Products Unit
2011-09-06T18:20:17Z,Mexico City Attack,Kills at,Least 5
2011-09-06T18:39:22Z,Midwest Gasoline,Slips on,Approach
2011-09-06T18:55:44Z,Congressman Rogers,Says,U.S. Safer Today Than Before 9/11
2011-09-06T18:58:40Z,California ’s Gay Wedding Ban Defense,Is,Weighed
2011-09-06T18:58:40Z,State,by,High Court
2011-09-06T19:00:00Z,China,in,Time of Millionaires Frustrates Neighbor
2011-09-06T19:03:27Z,Western Canada Select Gap,Narrows Before,Wood River Unit Startup
2011-09-06T19:09:04Z,Swiss National Bank,Imposes,Franc Ceiling
2011-09-06T19:15:39Z,Drug,About,Tendon Risks
2011-09-06T19:17:12Z,Bernanke Told Senators U.S. Firms ’ Exposure,Was,Manageable
2011-09-06T19:27:00Z,Brazil Coffee Exports,Reach,2.87 Million Bags
2011-09-06T19:41:57Z,Corn,Drop on,Signs
2011-09-06T19:42:24Z,$ 600 Million Polysilicon Plant,in,Mississippi
2011-09-06T20:06:14Z,U.S. Service Economy,Unexpectedly Grows in,ISM August Index
2011-09-06T20:11:12Z,Block AT&T,to,$ 39 Billion Takeover of T-Mobile
2011-09-06T20:11:12Z,Sprint,Sues to,Block AT&T ’s $ 39 Billion Takeover
2011-09-06T20:11:38Z,Eddie Murphy,in,February
2011-09-06T20:14:37Z,10-Year Yield,Reaches Record Low on,Euro Region ’s Debt Woes
2011-09-06T20:14:37Z,Euro Region,on,Debt Woes
2011-09-06T20:14:37Z,Yield,Reaches Record Low on,Euro Region ’s Debt Woes
2011-09-06T20:16:02Z,Shaw ’s 20 % Stake,in,Westinghouse
2011-09-06T20:16:02Z,Toshiba,Buy,Shaw ’s 20 % Stake in Westinghouse
2011-09-06T20:17:09Z,38 %,With,S&P Cheapest
2011-09-06T20:17:09Z,CEOs,Cutting Forecasts Fall in,September
2011-09-06T20:19:32Z,Celanese,Maintains,2011 Earnings Outlook
2011-09-06T20:19:45Z,US Airways,Say Hurricane Irene Eroded Profits in,August
2011-09-06T20:24:35Z,RIM,Urged by,Investor Jaguar
2011-09-06T20:28:17Z,Treasury,Approves,Billion
2011-09-06T20:29:56Z,Oil,in,New York Drops
2011-09-06T20:36:55Z,First Time,Bank of,America
2011-09-06T20:36:55Z,Loans,Yielding,More Than Bonds for First Time
2011-09-06T20:39:12Z,Airline Security Fee,Would Rise Under,Senate Measure
2011-09-06T20:51:19Z,IPO,Meetings Amid,Market Swings
2011-09-06T20:53:33Z,Bovespa Index,Rises,Most
2011-09-06T21:00:01Z,Swaps,Signal,Asia Will Abandon Rate Increases
2011-09-06T21:00:41Z,Fed Twist,Could Push,U.S. 10-Year Yield Toward 1.6 %
2011-09-06T21:03:49Z,Mike Latham,Named,Chairman
2011-09-06T21:07:35Z,WMC Mortgage,Sued by,Trustee Over Mortgage Loans
2011-09-06T21:09:13Z,Europe,Evokes,08 Comparison
2011-09-06T21:09:57Z,Franc,Plunges,Most Ever Versus Euro
2011-09-06T21:11:16Z,Chinese Vitamin C Makers,Must,Face Trial
2011-09-06T21:11:16Z,Face Trial,in,U.S.
2011-09-06T21:11:16Z,Vitamin C Makers,Must,Face Trial in U.S.
2011-09-06T21:26:27Z,Agencies Fall,Short on,House Panel
2011-09-06T21:37:15Z,Record,in,London
2011-09-06T21:44:25Z,Weinstein,Creates,Label
2011-09-06T21:45:42Z,Emerging-Market Stocks,Decline for,Third Day on Debt Concern
2011-09-06T21:53:03Z,Inter-American Development Invests,in,Chile Hydroelectric Plants
2011-09-06T21:53:22Z,Car Sales,Rise From,Year Ago
2011-09-06T21:53:22Z,Venezuelan Car Sales,Rise From,Year Ago
2011-09-06T21:53:22Z,Venezuelan Car Sales Rise,in,August
2011-09-06T22:00:03Z,Greek Collateral Deal Unresolved,in,Berlin Talks
2011-09-06T22:01:00Z,Danish Mortgage Group,in,Warning
2011-09-06T22:01:35Z,Authorities,Put,Katla Volcano
2011-09-06T22:01:35Z,Icelandic Authorities,Put Katla Volcano on,Watch
2011-09-06T22:01:48Z,BMW,of,Profits
2011-09-06T22:01:48Z,Mercedes ’ Envy,Prompts,Luxury Expansion
2011-09-06T22:05:25Z,Canada ’s AAA Bond Rating,Affirmed by,Fitch
2011-09-06T22:09:30Z,England,Beats India by,Seven Wickets
2011-09-06T22:18:16Z,Democrats Cuts Obama,by,Clean-Energy Programs
2011-09-06T22:28:54Z,Treasury,Approves,Billion
2011-09-06T22:46:58Z,Ex-Duane Reade CFO Tennant Sentenced,in,Securities-Fraud Case
2011-09-06T22:50:54Z,Ecodiesel Shareholders,Approve,$ 1.08 Billion Biofuel Acquisition
2011-09-06T23:00:01Z,Fassbender,Craves,Sex
2011-09-06T23:00:01Z,Lehman Trader,Recalls,Suicide
2011-09-06T23:01:00Z,Cameron ’s Fast Rail,Runs,Into Tory Roadblock
2011-09-06T23:01:00Z,Cameron ’s Rail,Runs,Into Tory Roadblock
2011-09-06T23:01:00Z,Gold Price,Entices,Britons
2011-09-06T23:01:00Z,Hurdles,in,Crisis Trial
2011-09-06T23:01:00Z,Iceland,Search for,Political Guilt
2011-09-06T23:01:00Z,RBS,Over,Goodwin
2011-09-06T23:01:00Z,Rising Gold Price,Entices,Hard-Up Britons
2011-09-06T23:01:00Z,Takeda ’s Mepact Cancer Drug,Gets,U.K. Health-Cost Agency Backing
2011-09-06T23:14:06Z,Brazil,Protect,Manufacturers
2011-09-06T23:17:28Z,Santos Names Navas Colombia ’s Armed Forces Chief,Replaces,Cely
2011-09-06T23:18:06Z,Soybean Fututres,in,Chicago Gain
2011-09-06T23:21:20Z,BofA,Promotes Montag to,COOs
2011-09-06T23:30:00Z,Australia Construction Index,in,2 1/2 Years
2011-09-06T23:31:04Z,Australia,Advance Against,U.S. Currency First Time
2011-09-06T23:41:35Z,Par Pharmaceutical Engaged,in,Illegal Drug-Switching Scheme
2011-09-06T23:52:34Z,October Rate-Cut Bet,Shows,U.S. Slump Spreading
2011-09-07T01:00:19Z,Infinera,Counts for,Alcatel Showdown
2011-09-07T01:00:34Z,P.J. Harvey,Wins,U.K. Barclaycard Mercury Prize
2011-09-07T03:19:44Z,Asia,Dragged,Down
2011-09-07T03:19:44Z,Europe,by,Crisis
2011-09-07T04:00:01Z,Loeb ’s Third Point,Get,Funds
2011-09-07T04:00:01Z,Mail Delivery May Stop,in,2012
2011-09-07T04:00:13Z,Panetta,Calls,Terror Threat
2011-09-07T04:01:00Z,Jaguars Release Quarterback Garrard,Starts,Season
2011-09-07T04:01:00Z,Team,Starts,Season
2011-09-07T04:01:01Z,Murdered Student,by,Family
2011-09-07T04:01:01Z,Yale University Accused,in,Suit by Murdered Student ’s Family
2011-09-07T07:09:28Z,SNB Dares Investors,With,Unlimited Swiss Franc Firepower
2011-09-07T07:19:18Z,SAP,Acquires,Hemisphere
2011-09-07T07:31:55Z,Afghanistan ’s Hajigak Iron Ore Deposit,Draws,Bids From India
2011-09-07T07:40:38Z,Face Lawmakers Again,in,Hacking Probe
2011-09-07T08:58:38Z,Companies,Cheer Currency Cap as,Franc Crimped Profit
2011-09-07T08:58:38Z,Swiss Companies,Cheer,Currency Cap
2011-09-07T10:03:05Z,Swiss Open Fresh Round,Ignited by,Economic Slowdown
2011-09-07T10:37:16Z,Samaras Vies,With,Papandreou
2011-09-07T11:16:31Z,Gunfire,Jeopardizes,Libyan Accord
2011-09-07T12:27:41Z,Cyclone Builds,in,Gulf of Mexico
2011-09-07T13:18:21Z,Erdogan,Steps Up,Israel Spat
2011-09-07T13:31:59Z,Carlyle,Moving,Beyond Leveraged Buyouts
2011-09-07T13:58:14Z,Cap,After Fargo,Schneider Go From First to Worst on Franc Calls
2011-09-07T13:58:14Z,Wells Fargo,Go From,First
2011-09-07T14:44:46Z,Berlusconi,Holds Confidence Vote,Bond Yields Surge
2011-09-07T15:20:37Z,Settlement Prospects,in,T-Mobile Deal
2011-09-07T15:35:05Z,Erdogan,Vows New Sanctions After,Expelling Diplomat in Turkish-Israel Feud
2011-09-07T15:35:05Z,Expelling Diplomat,in,Turkish-Israel Feud
2011-09-07T16:23:15Z,Wales Fan,Is,Killed
2011-09-07T16:38:25Z,Federer,Play After,Rain Delay
2011-09-07T20:42:32Z,AT&T,Is,Said Able
2011-09-07T20:50:57Z,Canadian Stocks,Rise Before,Obama Jobs Address
2011-09-07T20:50:57Z,Stocks,Rise Before,Obama Jobs Address
2011-09-08T01:11:01Z,Chairman Ends Bartz,After,Tenure With Telephone
2011-09-08T20:25:11Z,ILFC Credit Swaps,Widen,S&P Says
2011-09-08T20:25:11Z,S&P,Says,IPO May Cut Rating
2012-02-22T17:27:32Z,Romney,Proposes,Reductions Tax Rates
2012-06-29T21:51:24Z,Ex-Citigroup Executive,Gets,8 Years for Embezzlement
