2011-08-10T00:00:00Z,Falling Bank Stocks,Offer,Too-Big-to-Fail Wakeup Call
2011-08-10T00:00:00Z,Force,by,History
2011-08-10T00:00:35Z,Speculator,Takes Blame for,Mortgage Mess
2011-08-10T00:04:47Z,Rubber Futures,in,Tokyo Advance
2011-08-10T00:09:13Z,Sinohydro,in,Talks for $ 1.2 Bln Costa Rica Project
2011-08-10T00:23:51Z,Argentina,Omits,Playmaker Juan Martin Hernandez From Rugby World Cup Squad
2011-08-10T00:47:21Z,Fed,Keep,Interest Rates
2011-08-10T01:19:37Z,Kirkland Targets Asia Deals,With,Skadden
2011-08-10T01:25:10Z,China ’s First Aircraft Carrier,Starts,Sea Trial
2011-08-10T01:47:04Z,Sarulla Consortium,Hires Banks for,$ 410 Million Geothermal Loan
2011-08-10T01:52:17Z,Federal Reserve,Vows,Record-Low Rates
2011-08-10T02:00:00Z,Apocalypse,in,Gritty
2011-08-10T02:00:00Z,Black Maid,Serving,Surprise Pie
2011-08-10T02:00:00Z,Face Love,Apocalypse in,Gritty
2011-08-10T02:00:00Z,Fired Black Maid,Gets,Revenge
2011-08-10T02:00:00Z,Fired Maid,Gets,Revenge
2011-08-10T02:00:00Z,Maid,Serving,Surprise Pie
2011-08-10T02:14:32Z,Japan ’s Benchmark 10-Year Yields,May Decline to,0.9 %
2011-08-10T02:24:38Z,Japan May Pass Energy,Bills by,Aug. 26
2011-08-10T02:48:42Z,Huaneng,Rises in,Hong Kong
2011-08-10T02:48:42Z,Income,Beats,Estimates
2011-08-10T02:48:42Z,Net Income,Beats,Estimates
2011-08-10T03:31:24Z,RPC,Lures Buyers With,Oil-Service Value
2011-08-10T03:34:06Z,Biggest Trade,in,History
2011-08-10T03:42:06Z,China ’s Trade Surplus,Surges,Billion
2011-08-10T03:42:06Z,Exports,Exceed,Estimates
2011-08-10T03:56:07Z,Franklin ’s Hasenstab,Buying Opportunities Amid,Volatility
2011-08-10T04:00:01Z,Annual Gains,Being Like,Soros in Buying Farmland
2011-08-10T04:00:01Z,Being,Reaps,Gains of 16 %
2011-08-10T04:00:01Z,Gains,Being Like,Soros in Buying Farmland
2011-08-10T04:00:01Z,Soros,in,Buying Farmland
2011-08-10T04:00:01Z,Wal-Mart ’s Vudu Movie Service,Offers,IPad Access
2011-08-10T04:01:00Z,AT&T Takeover Bid,Faces,Rhodes-Scholar Review
2011-08-10T04:01:00Z,Corton,’s Salads,Fish
2011-08-10T04:01:00Z,Dine,in,N.Y.C.
2011-08-10T04:01:00Z,M&A Profit Potential,Surges on,Stock Losses
2011-08-10T04:01:00Z,Malaysian Production,Rose in,June
2011-08-10T04:01:00Z,Malaysian Production Rose,in,June
2011-08-10T04:01:00Z,Production,Rose in,June
2011-08-10T04:01:01Z,24 Years,in,Prison for Trades
2011-08-10T04:01:01Z,Apple Accused,Fixing With,Publishers
2011-08-10T04:04:28Z,Kenya Airways,Operating,Business Daily Reports
2011-08-10T04:06:42Z,Finance Investments,in,Australian Shale Gas
2011-08-10T04:09:21Z,Australian Consumer Confidence,Slumps to,Lowest
2011-08-10T04:09:21Z,Consumer Confidence,Slumps to,Lowest
2011-08-10T04:17:20Z,Suzlon,Gets,85 Megawatts of New Orders
2011-08-10T04:23:59Z,Mortgage-Bond Selloff Threatens Rebound,in,U.S. Commercial Property Market
2011-08-10T04:30:51Z,Galatasaray,Sell Arda Turan to,Atletico Madrid
2011-08-10T04:41:09Z,Putin,’s Nephew,Vedomosti
2011-08-10T04:59:14Z,Summa,Buys Russia Grain Terminal From,Vedomosti
2011-08-10T05:00:23Z,Hong Kong Short Selling Turnover,Recorded,08/10/2011
2011-08-10T05:03:42Z,U.K. Pension Plans ’ Shortfall,Widens FT Reports on,Turbulence
2011-08-10T05:04:53Z,GDF,Says in,Talks
2011-08-10T05:09:22Z,AEG,Wins,Equipment Contract
2011-08-10T05:20:24Z,Blackstar Group,Raises Million to,Trade Shares
2011-08-10T05:20:55Z,Nestle,Sees Organic Growth at,Top End
2011-08-10T05:24:08Z,Margins,Remain,Weak
2011-08-10T05:24:49Z,Wisconsin Republicans Retain Control,in,Win for Walker
2011-08-10T05:44:24Z,German Bank Group,Criticizes,Debt Crisis Management
2011-08-10T05:46:29Z,Lawmaker,on,Ties
2011-08-10T05:58:46Z,$ 4.1 Billion Toll Road,in,Russia
2011-08-10T06:00:00Z,German Inflation,Accelerated on,Energy Costs
2011-08-10T06:00:00Z,Inflation,Accelerated on,Energy Costs
2011-08-10T06:05:42Z,Henkel Second-Quarter Net Income,Jumps,34 %
2011-08-10T06:09:23Z,Egypt ’s July Inflation,Slows,Food Price Increases Ease
2011-08-10T06:16:07Z,China Will Maintain Economic Growth,Nasser ’s,BHP
2011-08-10T06:19:07Z,2011 Sales,Grow,22 %
2011-08-10T06:19:07Z,GM,Says,Grow
2011-08-10T06:19:07Z,Mideast 2011 Sales,Grow,22 %
2011-08-10T06:25:55Z,Standard Life ’s Profit,Beats,Estimates
2011-08-10T06:27:54Z,Hong Kong Exchanges Profit,Rises Listings on,Turnover
2011-08-10T06:28:21Z,ArcelorMittal South Africa,Closes Blast Furnace For,Repairs
2011-08-10T06:29:15Z,Czech Social Democrats,Delay,Pension Revamp
2011-08-10T06:31:23Z,Westpac ’s Cavenagh,Says Rupee Will Rise to,44.60
2011-08-10T06:33:55Z,Indian Stocks,Rebound as,Fed Pledges Low Rate
2011-08-10T06:33:55Z,Stocks,Rebound as,Fed Pledges Low Rate
2011-08-10T06:41:18Z,France,in,CAC 40 Index
2011-08-10T06:41:18Z,NYSE Euronext,Says for,Stocks
2011-08-10T06:41:18Z,Stocks,in,France ’s CAC 40 Index
2011-08-10T06:41:21Z,Italian Notes,Open,Lower 10-Year Bond Yield Spread
2011-08-10T06:41:21Z,Notes,Open Bond Yield Spread to,Bunds
2011-08-10T06:45:00Z,French Industrial Production Fell,in,June
2011-08-10T06:45:01Z,OMV Petrom Second-Quarter Profit,Rises on,Oil Prices
2011-08-10T06:45:46Z,Renaissance,Hires Chadda From,Religare
2011-08-10T07:04:59Z,Syria,Faces,Criticism
2011-08-10T07:06:04Z,HDFC ’s Prashant Jain,Say to,Boost India Economy
2011-08-10T07:07:06Z,Fed,’s Pledge,Chinese Imports
2011-08-10T07:23:48Z,Vestas,Receives 190-Megawatt Service Renewal Contract in,Canada
2011-08-10T07:26:31Z,Stocks,Rise After,Week-Long Sell-Off
2011-08-10T07:26:31Z,Turkish Stocks,Rise for,Day
2011-08-10T07:28:42Z,3.6 %,in,Johannesburg Trade
2011-08-10T07:29:29Z,Commerzbank Profit,Tumbles,93 %
2011-08-10T07:37:51Z,Danske CEO,Says as,Profits Face Pressure
2011-08-10T07:41:37Z,Commonwealth Bank Second-Half Profit,Rises,Record on Home Lending
2011-08-10T07:43:47Z,Exports,Exceed,Estimates
2011-08-10T07:44:23Z,Adecco,Beats,Estimates
2011-08-10T07:44:23Z,Industrial Hiring,Drives,Growth
2011-08-10T07:50:46Z,Bank,Narrows as,Bad Loans Fall
2011-08-10T07:50:46Z,Ireland,of,First-Half Loss
2011-08-10T07:52:27Z,Zambia Regulator,Allows,Zesco
2011-08-10T07:52:27Z,Zesco,Increase Copperbelt Energy Charge by,30 %
2011-08-10T07:53:09Z,Japan,Raises,Economic Assessment
2011-08-10T07:54:51Z,Mauritius Rupee,Heads for,2-Week Low on Better Euro Yields
2011-08-10T07:55:41Z,200-Megawatt Wind Project,in,Western India
2011-08-10T07:55:42Z,Sainsbury Fined,in,Dairy-Price Probe
2011-08-10T07:55:42Z,Tesco,Fined in,Dairy-Price Probe
2011-08-10T08:04:36Z,Government Will Continue,Pursue,Al-Shabaab Rebels
2011-08-10T08:04:36Z,Somali President,Says,Government Will Continue
2011-08-10T08:13:16Z,May,Get LNG Cargo From,Yemen
2011-08-10T08:19:33Z,Refiners,in,Europe
2011-08-10T08:29:43Z,Asia Stocks,Climb on,Prospect of Other Support
2011-08-10T08:29:43Z,Fed Rate Pledge,Prospect for,Growth
2011-08-10T08:37:23Z,Region,for,Assets
2011-08-10T08:39:10Z,QatarGas Seeks Long-Term Relationship,With,PetroVietnam Gas
2011-08-10T08:46:36Z,Fed,on,Pledge
2011-08-10T08:46:36Z,Taiwan Dollar,Advance on,Fed ’s Pledge
2011-08-10T08:50:24Z,Saudis Pump Most Oil,in,30 Years
2011-08-10T08:52:04Z,20 Years,in,Office
2011-08-10T08:52:04Z,Magnitogorsk CFO Oleg Fedonin,Quits After,20 Years in Office
2011-08-10T08:53:40Z,Baltic Stocks,Rebound From,Six-Day Plunge
2011-08-10T08:54:44Z,Yuan,Strengthens to,High on Fed Rate Pledge
2011-08-10T08:59:26Z,TPG,Control of,Lenta
2011-08-10T09:02:17Z,Profit Drop,Prospect of,Extra Cost
2011-08-10T09:04:57Z,Ship Rotterdam Fuel Oil,to Vitol,Tanker Data Show
2011-08-10T09:06:31Z,Hong Kong ’s Hang Seng Index,Rises,Most
2011-08-10T09:08:35Z,Petrom,in,Good Position
2011-08-10T09:27:39Z,Centrotherm,in,Talks
2011-08-10T09:27:39Z,Thin-Film Factory Line,in,China
2011-08-10T09:31:48Z,King,Before,Inflation Report
2011-08-10T09:39:05Z,England,Wins,Toss
2011-08-10T09:39:05Z,Toss,First in,Third India Cricket Test
2011-08-10T09:39:05Z,Will Bowl First,in,Third India Cricket Test
2011-08-10T09:39:47Z,Fed,Keep,Rate Low
2011-08-10T09:39:47Z,Rupiah Gains,Vows,Keep
2011-08-10T09:41:07Z,Kazakh Stocks,Jump,Most in Two Years
2011-08-10T09:44:35Z,China ’s Interest-Rate Swaps,Snap,Six-Day Decline
2011-08-10T09:49:48Z,Symrise Cuts Sales,Goal as,Scents Fail to Boost Order Pace
2011-08-10T09:57:59Z,Feed Wheat,Barley on,Aug. 17
2011-08-10T09:59:17Z,Investors,Expect at,Auction
2011-08-10T09:59:17Z,Vietnam Bonds,Drop,Investors Expect at Auction
2011-08-10T10:00:00Z,European Economic Confidence Fell,in,Third Quarter
2011-08-10T10:02:44Z,OMV Petrom Chief,Sees,2012 Investment
2011-08-10T10:15:21Z,Ghana Inflation,Slows For,Consecutive Month
2011-08-10T10:17:50Z,Iberdrola European Renewable-Energy Capacity,Exceeds,8 Gigawatts
2011-08-10T10:18:06Z,China ’s Huaneng Power First-Half Unit Fuel Costs,Rise,8.4 %
2011-08-10T10:34:35Z,Fed,After,Reassurance
2011-08-10T10:39:52Z,Foreign Funds,Sell,Net 19.6 Billion Rupees
2011-08-10T10:39:52Z,Funds,Sell,Net 19.6 Billion Rupees of Equities
2011-08-10T10:43:15Z,Power Plant,in,Casamance
2011-08-10T10:43:15Z,Senegal Plans Airport,Plant in,Casamance
2011-08-10T10:45:39Z,U.K.,Gives Go-Ahead to,Biomass Plants
2011-08-10T10:46:18Z,Saudi Arabia ’s June Petrochemicals Exports,Reach,18-Month High
2011-08-10T10:59:29Z,Koks Group,Arranges,$ 530 Million
2011-08-10T10:59:29Z,Russia,From,Sberbank
2011-08-10T11:01:01Z,Research,In,Motion
2011-08-10T11:03:52Z,Ivory Coast,Crops to,Boost Rural Production
2011-08-10T11:04:02Z,Libya ’s Qaddafi,Faces Month Without,Gasoline Shipments
2011-08-10T11:15:30Z,South Africa,If,ANC Disciplines Malema
2011-08-10T11:28:30Z,Airports Sale,Lure,Heathrow-Owner Ferrovial
2011-08-10T11:28:30Z,Spanish Airports Sale,Lure,Investor GIP
2011-08-10T11:28:40Z,Saudi Second-Quarter Index,Rises From,Year Ago
2011-08-10T11:28:40Z,Saudi Second-Quarter Wholesale Index,Rises,4.8 %
2011-08-10T11:30:39Z,Ambassador,Tells Interfax in,Belaruskali Stake
2011-08-10T11:30:39Z,India Interested,Tells,Interfax
2011-08-10T11:35:54Z,Central Bank,Stops,Reverse-Repurchase Agreements
2011-08-10T11:35:54Z,Kenyan Central Bank,Stops,Boosting Shilling
2011-08-10T11:38:10Z,Boost Output,to Producer,Quotidien
2011-08-10T11:41:01Z,Peso Insurance Costs,Soar After,U.S. Downgrade
2011-08-10T11:43:06Z,U.K Court Rules Dewani,Can,Can Extradited on Murder Charges
2011-08-10T11:50:07Z,Disney,’s Characters,Stories
2011-08-10T11:51:00Z,Discovery,Accepts,Applications
2011-08-10T11:53:55Z,Four Afghan Police Killed,in,Mistaken NATO Attack on Base
2011-08-10T11:54:56Z,Centrotherm Photovoltaic,Surges on,China Sales
2011-08-10T11:57:33Z,$ 2.6 Billion,in,Liberia Iron Ore Project
2011-08-10T12:13:42Z,Delta Sugar Advances,in,Cairo
2011-08-10T12:15:54Z,Three Years,in,Johannesburg
2011-08-10T12:15:54Z,Uranium,Jumps,Most
2011-08-10T12:15:54Z,Uranium One,Jumps,Most
2011-08-10T12:24:37Z,Cold Front May Reduce Sugar-Cane Yields,in,Brazil
2011-08-10T12:24:45Z,Berkshire ’s Jain,Tries On,Buffett Role With Transatlantic Takeover Offer
2011-08-10T12:24:45Z,Buffett Role,With,Transatlantic Takeover Offer
2011-08-10T12:24:52Z,ICL,Headed in,Almost Two Weeks
2011-08-10T12:34:32Z,Brazil,of,Almeida Shopping Centers
2011-08-10T12:35:06Z,Ukraine ’s Metinvest,Wins,Million Loan
2011-08-10T12:39:16Z,Coal Inventories,Climb on,Restocking
2011-08-10T12:40:53Z,U.K Court Rules Dewani,Can,Can Extradited on Murder Charges
2011-08-10T12:43:40Z,Rise,to Expected,Union
2011-08-10T12:43:40Z,Russia,’s Expected,Union
2011-08-10T12:48:49Z,Grantham,Says,Farmland Will Outperform All Global Assets
2011-08-10T13:03:45Z,BELEX Stock Index,Rises,8.58 %
2011-08-10T13:03:45Z,Serbian BELEX Stock Index,Tops,Global Indexes
2011-08-10T13:12:24Z,2006,Since Day,Head for Longest Rout
2011-08-10T13:12:24Z,Fall 8th Day,Head for,Longest Rout
2011-08-10T13:25:30Z,Linebacker Channing Crowder,Retires From,NFL
2011-08-10T13:26:38Z,Rogers Mauritius,Says,Rupee
2011-08-10T13:27:39Z,Norway Central Bank,Leaves,Benchmark Rate Unchanged
2011-08-10T13:28:20Z,60 %,in,IPO of Kolbenschmidt Unit
2011-08-10T13:31:03Z,U.S. Stocks,Fall Amid,Concern U.S. Economy
2011-08-10T13:34:39Z,Air Products,Wins U.K. Consent for,Waste-Power Plant
2011-08-10T13:35:53Z,BNY Mellon,% of,Workforce
2011-08-10T13:35:53Z,Cut,to Mellon,3 % of Workforce
2011-08-10T13:36:20Z,Bank,Wins,$ 5.2 Million Judgment
2011-08-10T13:41:32Z,U.S. Treasury Department,Schedule for,Aug. 10
2011-08-10T13:48:30Z,Ghana Inflation,Slows to,19-Year Low
2011-08-10T13:51:31Z,Turkey,Yields Head After,Fed Pledge
2011-08-10T13:51:31Z,Turkey Yields,in,4 Months
2011-08-10T13:58:18Z,America,of,Head Credit Strategist Rosenberg Said
2011-08-10T14:00:52Z,Fed Misdiagnoses Economy,Prescribes,Placebo
2011-08-10T14:16:27Z,White House,Seeks,Ideas
2011-08-10T14:22:10Z,Qatar Central Bank,Lowers,Rates Second Time
2011-08-10T14:23:27Z,Bernanke ’s Interest-Rate Timeframe,Draws,Negative Votes
2011-08-10T14:28:02Z,Las Vegas Strip Casino Gambling Revenue,Surges,32 %
2011-08-10T14:36:36Z,6.2 %,Most in,15 Months
2011-08-10T14:37:32Z,Oil,Extends,Gains
2011-08-10T14:37:32Z,Unexpected Decline,in,U.S. Inventories
2011-08-10T14:38:34Z,Aug. 5,for Report,Text
2011-08-10T14:42:43Z,Canaccord,Raises Price Target on,Inventories
2011-08-10T14:45:04Z,Chile Traders,See,End of Tightening Cycle
2011-08-10T14:47:54Z,Job Openings,Increased for,Second Month
2011-08-10T14:51:44Z,Ambac,Adds,Time
2011-08-10T14:51:44Z,Bankruptcy Plan,Talks With,Regulators
2011-08-10T14:51:44Z,Talks,With,Regulators
2011-08-10T14:56:48Z,Israel ’s TA-25 Index,Tumbles,Into Bear Market
2011-08-10T14:59:34Z,Societe Generale,Leads Fall in,French Banks
2011-08-10T15:00:29Z,Angry Birds ’ Maker,Urges,Court
2011-08-10T15:01:53Z,Bids,in,Second Solar Auction
2011-08-10T15:04:30Z,S. African Stocks,Silverman ’s,IS
2011-08-10T15:07:38Z,Ethanol Production,Climbs to,Nine-Week High
2011-08-10T15:14:59Z,U.S. Inventories,Climbed in,June
2011-08-10T15:14:59Z,U.S. Wholesale Inventories,Climbed at,Slowest Pace
2011-08-10T15:15:02Z,SNB,Steps Up,Franc Fight to Counter Overvaluation
2011-08-10T15:18:47Z,TNK-BP Minority Investors,Sue BP in,$ 3 Billion Loss Claim
2011-08-10T15:19:32Z,Restraint Needed,End,National Nightmare
2011-08-10T15:19:32Z,Texas ’s Perry,Spending,Restraint Needed
2011-08-10T15:24:41Z,New York Law School,Sued Over,Claims About Graduates ’ Success
2011-08-10T15:24:49Z,Fed,Faces Discussion in,Run-Up
2011-08-10T15:31:43Z,Norway Police,Say to,Shootings
2011-08-10T15:31:43Z,Norway Police Say,Was,Available
2011-08-10T15:32:11Z,France,’s Farm,Food Exports
2011-08-10T15:32:11Z,France ’s First-Half Farm,Climb,19 %
2011-08-10T15:34:14Z,20 Million Euro Contract,Build,Biomass Power Plant
2011-08-10T15:34:14Z,Metso,Wins,20 Million Euro Contract
2011-08-10T15:36:44Z,European Bank Rout,Demonstrates,Cost of Uncertainty
2011-08-10T15:38:26Z,Swiss Germany Agree,in,Tax-Evasion Dispute
2011-08-10T15:42:52Z,Ghana ’s Cedi,Heads as,Central Bank Sells Dollars
2011-08-10T15:46:44Z,Caparo,Closes Financing Accord With,IDFC
2011-08-10T15:46:46Z,African Gold Share Index,Rises,Most Since October 2009
2011-08-10T15:46:46Z,Gold Share Index,Rises,Most Since October 2009
2011-08-10T15:46:46Z,South African Gold Share Index,Rises,Most
2011-08-10T15:58:25Z,Home Prices Decline,in,Almost Three-Fourths of U.S. Metropolitan Areas
2011-08-10T15:58:50Z,Gulf Keystone,Rises on,Iraq Sheikh Adi Oil Well Evaluation
2011-08-10T15:59:02Z,German Stocks,Decline,Most
2011-08-10T15:59:02Z,Stocks,Decline,Most
2011-08-10T16:03:52Z,Italian Notes,Drop Amid,ECB Purchase
2011-08-10T16:03:52Z,Notes,Drop Amid,ECB Purchase
2011-08-10T16:05:06Z,Second-Quarter Profit,Beats,Estimates
2011-08-10T16:08:18Z,Flour Mills,Says,First-Quarter Profit Declines
2011-08-10T16:08:59Z,Banks,Drop on,Debt Concern
2011-08-10T16:08:59Z,U.K. Stocks,Resume Selloff,Banks Drop
2011-08-10T16:10:43Z,Counter Currency,to,Strength
2011-08-10T16:10:43Z,SNB,Expands,Measures
2011-08-10T16:12:49Z,SJM First-Half Profit,Climbs,70 %
2011-08-10T16:13:26Z,Gross,Beats Summers,Selloff Shows
2011-08-10T16:13:26Z,Selloff,Shows,Normal
2011-08-10T16:15:50Z,Tombini,Says,Fear
2011-08-10T16:17:20Z,Report,Shows Decline in,U.S. Stockpiles
2011-08-10T16:18:01Z,Obama Pivots,With,Few Tools Spur
2011-08-10T16:18:32Z,Meeting,Disturbed by,Beach Volleyball Games
2011-08-10T16:22:29Z,SocGen,Leads,Banks
2011-08-10T16:27:17Z,Investors,Flee,Junk Debt
2011-08-10T16:29:23Z,Post Longest Losing Streak,in,10 Years
2011-08-10T16:31:38Z,Woods,Praises Scott Rather for,Comments
2011-08-10T16:32:09Z,Bernanke,Borrows With,Interest-Rate Pledge
2011-08-10T16:32:09Z,Carney,From,Stimulus Playbook
2011-08-10T16:38:42Z,Bankers ’ Growing Jitters,Are,Bad Sign
2011-08-10T16:38:42Z,Bankers ’ Jitters,Are,Sign
2011-08-10T16:44:28Z,Stocks,Plunge as,Fragile Market Succumbs
2011-08-10T16:44:28Z,Turkish Stocks,Plunge to,Euro Woes
2011-08-10T16:49:50Z,Danthine,Tells,Le Temps
2011-08-10T16:53:53Z,Civilian Deaths,Shatter,Lull in Kashmir
2011-08-10T16:53:53Z,Deaths,Shatter,Lull in Kashmir
2011-08-10T16:53:53Z,Lull,in,Kashmir
2011-08-10T16:56:38Z,Fall Eighth Day,in,Biggest Slump
2011-08-10T16:57:22Z,Middle East-Asia Supertanker Returns,Turn,Positive on Lower Fuel
2011-08-10T17:00:28Z,Evercore Partners,’ Power,Utilities Banker Sadowsky Departs
2011-08-10T17:29:21Z,Canadian Oils,Weaken,Keystone Pipeline Resumes Planned Flows
2011-08-10T17:29:21Z,Oils,Weaken,Keystone Pipeline Resumes Planned Flows
2011-08-10T17:39:43Z,England,Takes,Control of 3rd Cricket Test
2011-08-10T17:45:16Z,Pimco,Posted,Gains
2011-08-10T17:46:09Z,Errors,in,Vacancy Rates
2011-08-10T17:46:09Z,New York City,Alleging,Errors in Vacancy Rates
2011-08-10T17:54:40Z,Brookfield Asset Management,Says,Earnings Nine-Fold on Holdings
2011-08-10T17:55:06Z,NBC Sports Signs Three-Year Broadcast Agreement,With,Major League Soccer
2011-08-10T18:02:55Z,Trump,Opposes,Scottish Offshore Wind Farm
2011-08-10T18:14:49Z,Berlusconi,Hosts Austerity Talks as,Unions Eye General Strike
2011-08-10T18:17:01Z,Dimon,Says Hogwash to,Whitney ’s Description
2011-08-10T18:17:01Z,Whitney,to,Description of Lenders
2011-08-10T18:17:13Z,6.5 %,in,July
2011-08-10T18:17:57Z,Designer Cells,Made From,Patients Blood
2011-08-10T18:17:57Z,Designer Immune Cells,Made From,Patients Blood
2011-08-10T18:25:33Z,July Budget Deficit,Narrowed,Billion
2011-08-10T18:27:35Z,Merck Vioxx Lawyers,Get,Fees
2011-08-10T18:42:29Z,Colombia ’s Peso,Strengthens,Most in 10 Weeks
2011-08-10T18:45:24Z,Apple 's Market Crown,Is,Tribute
2011-08-10T18:51:31Z,CMPC,Rises in,Santiago
2011-08-10T18:51:31Z,Pulp Recovery,Pushes,Up Profit 37 %
2011-08-10T18:55:35Z,Marco Polo,Use,Cash
2011-08-10T19:17:35Z,Gulf Gasoline,Strengthens,Most in Two Weeks on Refinery Shuts
2011-08-10T19:45:04Z,U.S. Stocks,Are in,Bear-Market Rally
2011-08-10T19:54:37Z,Merck,Must Defend,Securities-Fraud Claims
2011-08-10T19:57:36Z,Lost,Leads to,2 Arrests
2011-08-10T20:05:04Z,Capital May,Be Cut By,Fitch
2011-08-10T20:05:04Z,Capital One May,Be,Cut By Fitch on Costs
2011-08-10T20:08:41Z,4th Day,Amid Union,Verizon Appeal to Congress
2011-08-10T20:08:41Z,CWA Union,Appeal to,Congress
2011-08-10T20:10:28Z,Medicare Cuts,in,Deficit Agreement
2011-08-10T20:10:28Z,Pfizer ’s Read,Fights,Medicare Cuts
2011-08-10T20:18:20Z,Polo Ralph Lauren Jumps,Exceeds,Estimates
2011-08-10T20:24:33Z,Louboutin,Loses,Court Bid
2011-08-10T20:30:29Z,U.S. Stocks,Slump Since,September
2011-08-10T20:33:08Z,Bears Retreat,in,Options Market
2011-08-10T20:38:17Z,J&J,Wins,FDA Approval
2011-08-10T20:46:46Z,PepsiCo,Joins,Honda Bracing
2011-08-10T20:55:16Z,Commodities,Jump,Most
2011-08-10T20:59:28Z,Jaczko Votes,Spurns,Calls
2011-08-10T21:02:53Z,Bank,in Stakes,Citigroup
2011-08-10T21:02:53Z,Cooperman,’s Stakes,Citigroup
2011-08-10T21:02:53Z,Cooperman ’s Omega Unloads Stakes,in,Bank of America
2011-08-10T21:04:09Z,Treasuries,Surge Fed View at,10-Year Auction
2011-08-10T21:04:21Z,Crude Oil,Rises,Most in Three Months on Inventory Decline
2011-08-10T21:04:21Z,Oil,Rises,Most in Three Months on Inventory Decline
2011-08-10T21:08:52Z,MetLife,Leads,Insurer Slump
2011-08-10T21:08:52Z,Stock Slide,Boosts,Liability
2011-08-10T21:28:24Z,Google Lost Share,in,July
2011-08-10T21:30:22Z,Slower Growth,in,U.S.
2011-08-10T21:37:49Z,Obama,Europe at,White House
2011-08-10T21:46:17Z,Essex Investment Mgmt Holdings,in,2nd Qtr
2011-08-10T21:48:14Z,U.S. Company Credit Risk,Highest in,Year
2011-08-10T21:51:19Z,Blackstone,Sued by,Investor
2011-08-10T22:00:01Z,Economy,Slowed Quarter on,Weaker Industry
2011-08-10T22:00:01Z,Russian Economy,Probably Slowed,Quarter
2011-08-10T22:01:00Z,Munich Re,Market for,Insurance-Premium Growth
2011-08-10T22:01:00Z,Teva Analysts,Stick,Buy
2011-08-10T22:08:27Z,Automaker,Since,IPO
2011-08-10T22:08:27Z,GM Chief Akerson,Buys Shares to,Low
2011-08-10T22:12:37Z,Navellier Holdings,in,2nd Qtr
2011-08-10T22:37:09Z,Investor MMI,Seeks,Talks
2011-08-10T22:55:46Z,Assets,Tied to,Investor Suspected of Swindling College Coaches
2011-08-10T23:00:01Z,639-Year Concert,in,German Church
2011-08-10T23:00:01Z,Chord,Rumbles in,639-Year Concert in German Church
2011-08-10T23:00:01Z,Jude Law,Loves,Reformed Prostitute
2011-08-10T23:01:00Z,Cameron ’s High-Tech Vision,Lacks,Cheap London Space
2011-08-10T23:01:00Z,Germany,Has,New CD With Data
2011-08-10T23:01:35Z,Claims,in,SEC Lawsuit
2011-08-10T23:01:35Z,Compania Internacional Financiera,Denies,Claims
2011-08-10T23:03:40Z,Stifel,Tied to,Million
2011-08-10T23:13:38Z,Northern Ireland,Beats,Faroes
2011-08-10T23:16:12Z,Kaiser Permanente Union Vote,in,California
2011-08-10T23:31:36Z,Kocherlakota,Leadership After,Dissent
2011-08-10T23:59:35Z,Cisco ’s Profit,Beats Estimates in,Costs
2011-08-11T00:14:06Z,BHP-Nyrstar Talks,Have,Failed
2011-08-11T00:14:06Z,Talks,Have,Failed
2011-08-11T00:51:17Z,Alabama Will,Seek,State Supreme Court ’s Opinion in Immigration Lawsuit
2011-08-11T00:51:17Z,State Supreme Court ’s Opinion,in,Immigration Lawsuit
2011-08-11T00:58:32Z,South Korea,Says,North Korea Fired Artillery Shots Near Yellow Sea Border
2011-08-11T01:54:03Z,European Debt Concerns Counter Decline,in,U.S. Supplies
2011-08-11T03:33:06Z,Hacker Attack,Triggers Halt in,HSBC Trading
2011-08-11T04:00:08Z,Former Facebook Executive Palihapitiya,Buys,Share of Golden State Warriors
2011-08-11T04:01:01Z,Former Marvell Technology Employee Ng Charged,in,Nationwide Insider Probe
2011-08-11T04:01:01Z,Judge,Lets,U.S. Weigh
2011-08-11T05:05:44Z,Italy,Beats,Spain 2-1
2011-08-11T05:21:28Z,Societe Generale,Denies,Rumors
2011-08-11T06:11:12Z,Rice,Is,Next Food-Radiation Risk From Fukushima Nuclear Fallout
2011-08-11T08:10:29Z,Fung May,Meet,Its Targets
2011-08-11T08:10:29Z,Wal-Mart Supplier Li,Need,More Acquisitions
2011-08-11T09:29:33Z,Ramsay ’s Protege,Beats Blumenthal to,New Restaurant Award
2011-08-11T11:34:42Z,Unions,Threaten,General Strike
2011-08-11T12:18:10Z,Greece,Korea in,Curbing Short Sales
2011-08-11T12:18:10Z,South Korea,in,Curbing Short Sales
2011-08-11T12:18:10Z,Turkey,Joins,South Korea
2011-08-11T13:47:31Z,BOE Warning Becomes Opposition,as,Weapon
2011-08-11T13:47:31Z,Osborne,Defends,Fiscal Squeeze
2011-08-11T13:54:07Z,Board,Backs,Him
2011-08-11T13:54:07Z,Rupert Murdoch,Says,News Corp
2011-08-11T14:44:30Z,Syria,in,Clampdown
2011-08-11T16:45:19Z,Deficit Panel,Sparks,Stalemate Concern
2011-08-11T20:53:42Z,Canadian Stocks,Rise,U.S. Reports Drop in Claims
2011-08-11T20:53:42Z,Stocks,Rise,U.S. Reports Drop
2011-08-11T20:53:42Z,U.S. Reports,Drop in,Claims
2011-08-12T16:56:48Z,America,of,Moynihan Said
2011-08-17T17:11:25Z,E-Writers,in,Schools
2011-08-17T17:11:25Z,Kent Displays,Pushes,E-Writers in Schools
