2011-04-11T00:06:04Z,Month,in,Tokyo
2011-04-11T00:06:41Z,Arsenal,Revives Premier League Title Ambitions With,3-1 Win
2011-04-11T00:42:23Z,Sale,on HQ,FT
2011-04-11T00:49:29Z,Heron ’s Gerald Ronson,Begins,FT Reports
2011-04-11T00:53:14Z,Force Life Insurers,to Rules,FT
2011-04-11T00:55:02Z,A$ 500 Million,in,Debut Sale of Bonds
2011-04-11T01:33:31Z,Site,in,St. Petersburg
2011-04-11T01:38:35Z,Capital Dynamics,Sees Renewable Energy Growth After,Japan 's Nuclear Crisis
2011-04-11T01:38:35Z,Japan,After,Nuclear Crisis
2011-04-11T01:58:24Z,Woodside Shares Rise,Make,Takeover Bid
2011-04-11T02:00:00Z,Legs,Catch,Me
2011-04-11T02:01:00Z,Strauss-Kahn,Sees,Unsolved German Bank Problems
2011-04-11T02:10:02Z,Liberty Global,Buying,Dutch Cable TV Operator Ziggo
2011-04-11T02:25:48Z,New York,Days of,Gains
2011-04-11T02:25:48Z,Oil Drops,in,New York
2011-04-11T02:47:26Z,STX Offshore,Says,2008 Order Changed to Bulk Carrier
2011-04-11T02:48:19Z,Ferrero Claims Singapore Coffee Chain 's Nutello Drink,Violates,Trademark
2011-04-11T03:01:00Z,World Bank,Says,Better Security Will Break Cyclical Violence
2011-04-11T03:18:56Z,Samsung Heavy,Rises to,Highest
2011-04-11T03:31:13Z,Funds,Sell,Net 1.16 Billion Rupees of Derivatives
2011-04-11T03:31:13Z,Global Funds,Sell,Net 1.16 Billion Rupees
2011-04-11T03:50:28Z,Fall,Led by,Japan Carmakers
2011-04-11T03:52:12Z,China March Export Growth,Shows,Economy Tolerating Interest Rate Increases
2011-04-11T04:00:00Z,Savings Bank CAM,Presents,Capitalization Plan
2011-04-11T04:01:00Z,Red Sox Shut,Win,Two of Three Games
2011-04-11T04:01:00Z,Two Three Games,in,AL East Series
2011-04-11T04:02:42Z,Polyus Gold,Accord on,Mines
2011-04-11T04:21:39Z,Bank,Sold to,Vedomosti
2011-04-11T04:42:02Z,U.K. Banks,Must Raise,Capital Reserves
2011-04-11T04:49:45Z,Campaign,to Broadcasters,FT
2011-04-11T04:49:45Z,Relaxation,Against Broadcasters,FT
2011-04-11T04:49:50Z,Government,Says,Rally
2011-04-11T04:49:50Z,ICC Suspects,in,Capital May
2011-04-11T04:49:50Z,Kenyan Government,Says,Rally
2011-04-11T05:00:16Z,Hong Kong Short Selling Turnover,Recorded,04/11/2011
2011-04-11T05:03:02Z,Korean ADR/GDR Premiums,Discounts for,April 9
2011-04-11T05:03:07Z,Prices,May Spur,Rate Increase
2011-04-11T05:03:07Z,Rising Prices,May Spur,Rate Increase
2011-04-11T05:09:38Z,Enea,in,3 Years
2011-04-11T05:14:22Z,Santam,Expand,Into Three Nations
2011-04-11T05:16:28Z,Jefferies,Hires,Trading
2011-04-11T05:16:28Z,Six Heads,Trading in,Hong Kong
2011-04-11T05:16:28Z,Trading,in,Hong Kong
2011-04-11T05:18:25Z,Sweden ’s SSAB Will,Set Up,FT
2011-04-11T05:25:43Z,Poland Will Merge Weglokoks,With,Two Other Coal Producers
2011-04-11T05:33:10Z,Condensate,in,Vietnam
2011-04-11T05:33:10Z,Drilling,Condensate in,Vietnam
2011-04-11T05:33:10Z,Premier Oil Group,Finds,Gas
2011-04-11T05:33:25Z,Central Bank,Says on,High Growth Path
2011-04-11T05:42:08Z,Mitsui Mining,Resumes,Copper Foil Output
2011-04-11T05:44:54Z,Cost,to Airbase,Noticias
2011-04-11T05:48:37Z,U.K. Finance Chiefs,Are Becoming,Less Optimistic
2011-04-11T05:59:15Z,Binani Cement,Planning,Invest
2011-04-11T06:00:00Z,France,as,Ann-Sophie Pic
2011-04-11T06:00:00Z,World ’s First Top Woman Chef,Named as,France ’s Ann-Sophie Pic
2011-04-11T06:09:59Z,7.2,at Reserves,Cabraal
2011-04-11T06:14:18Z,$ 372 Million,in,Ukraine Project
2011-04-11T06:16:04Z,India 's Imports,Fell Earlier From,Year
2011-04-11T06:18:34Z,R&D Center,in,Brazil
2011-04-11T06:24:31Z,Germany,Says,17 % of 2010 Power Consumption
2011-04-11T06:24:31Z,Was,Met By,Renewable Energy
2011-04-11T06:24:33Z,Nuclear Exit,in,Handelsblatt
2011-04-11T06:32:04Z,New World Resources,Says,Quarterly Coke
2011-04-11T06:32:45Z,Australia,Save Million With,Pathology Caps
2011-04-11T06:32:45Z,Roxon,Says,Australia
2011-04-11T06:32:53Z,Pope Benedict,in,September
2011-04-11T06:32:53Z,Visit Merkel,to Benedict,Focus Reports
2011-04-11T06:33:00Z,Lawsuit,Says,NYT Reports
2011-04-11T06:34:42Z,Spain,Extending,Retail Opening Hours
2011-04-11T06:40:41Z,$ 95 Million Public Offering,in,Warsaw
2011-04-11T06:40:41Z,Industrial Milk,Starts,$ 95 Million Public Offering
2011-04-11T06:40:41Z,Milk,Starts,Million Public Offering
2011-04-11T06:41:18Z,Merkel Mulls Six-Point Plan,in,Nuclear Exit Scenario
2011-04-11T06:52:12Z,Magnit Net Retail Sales Rose 54 %,in,March
2011-04-11T06:54:44Z,Indian Oil,Sell Late-April Naphtha to,Shell
2011-04-11T06:54:44Z,Oil,Sell Late-April Naphtha to,Shell
2011-04-11T06:57:29Z,May,Sell Express Stake,Made
2011-04-11T06:57:29Z,Offer,Is,Made
2011-04-11T07:05:54Z,Ulrich Recommends China,’s Banks,Consumer Companies
2011-04-11T07:06:15Z,Australia,'s Trades,Higher Yields
2011-04-11T07:06:15Z,Record,Near Trades,Higher Yields
2011-04-11T07:06:46Z,Australia Inquires Into Women,in,Defense
2011-04-11T07:06:46Z,Sex,Skype,Claim
2011-04-11T07:09:59Z,Campaign,on Focus,Delo
2011-04-11T07:23:37Z,BHP Advances,in,Johannesburg
2011-04-11T07:25:06Z,Sri Lanka ’s Central Bank,Maintains,8.5 % GDP Growth
2011-04-11T07:27:50Z,Direct Talks,With,ICC
2011-04-11T07:34:40Z,Feed Grain,in,Russian Regions
2011-04-11T07:42:18Z,China Site,With,Baidu
2011-04-11T07:43:02Z,Europe,'s Writedown,Irish Bank Sale
2011-04-11T07:49:25Z,Australia,Can Meet,Higher LNG Demand
2011-04-11T07:51:02Z,Ruble,Heads for,Strongest
2011-04-11T08:00:00Z,Global Trade,Boosts,Recovery
2011-04-11T08:00:00Z,Italian Production,Rebounded in,February
2011-04-11T08:00:00Z,Production,Rebounded in,February
2011-04-11T08:00:46Z,Kenya 's Shilling,Snaps,Two-Day Advance
2011-04-11T08:00:47Z,Turkey February Current Account Deficit,Widened on,Imports
2011-04-11T08:20:10Z,China,Halt,Approval of New Aluminum Projects
2011-04-11T08:22:11Z,U.K. Stocks,Erase,Gains
2011-04-11T08:22:58Z,Tin,Jumps,Record
2011-04-11T08:23:03Z,Former Ferrostaal Board Member,Charged in,Bribery Probe
2011-04-11T08:23:03Z,Manager Charged,in,Bribery Probe
2011-04-11T08:23:36Z,Expects,in,May
2011-04-11T08:23:36Z,Vallar,Says,Expects to Complete Bumi Stake Increase
2011-04-11T08:24:58Z,Gazprom,Heads for,2 ½ Year High on Report of Record Europe Sales
2011-04-11T08:25:01Z,Shuaa,Rises to,High
2011-04-11T08:27:22Z,Earthquake,Shakes,Tokyo Buildings
2011-04-11T08:27:22Z,European Stocks,Extend,Drop
2011-04-11T08:27:22Z,Further Earthquake,Shakes,Tokyo Buildings
2011-04-11T08:27:22Z,Stocks,Extend,Drop
2011-04-11T08:35:36Z,Sniace,Says to,Rise on Chinese Demand
2011-04-11T08:41:57Z,Tepco Chief,Rebuffed for,Second Time
2011-04-11T08:54:52Z,Zimbabwe,Approves,Herald Reports
2011-04-11T08:57:17Z,BMW Sales Chief,Sees,Double-Digit Growth
2011-04-11T09:00:00Z,Its,Oil,Gas Industry Group
2011-04-11T09:00:01Z,Estonia,Raises,Inflation Forecast
2011-04-11T09:00:58Z,Chunghwa Telecom First-Quarter Net,Beats,Estimates on Tax Cuts
2011-04-11T09:05:29Z,Norway Inflation,Trails,Estimates
2011-04-11T09:09:50Z,Honohan,Tells,MNI
2011-04-11T09:09:59Z,African Oxygen,Says,Chairman Masters
2011-04-11T09:09:59Z,Chairman Masters,Be,Replaced
2011-04-11T09:09:59Z,Oxygen,Says,Replaced by Huggon From May 20
2011-04-11T09:15:34Z,Hong Kong Stocks,Fall,Most in Two Weeks as Developers Decline
2011-04-11T09:17:47Z,Latvia ’s 2010 Budget Deficit,Was,7.5 % of GDP
2011-04-11T09:17:47Z,Latvia ’s Budget Deficit,Was,7.5 % of GDP
2011-04-11T09:28:33Z,Lithuanian Productivity Increases,Boosting,Competitiveness
2011-04-11T09:28:33Z,Productivity Increases,Boosting,Competitiveness
2011-04-11T09:44:09Z,Bharat Petroleum,Buys,Brunei ’s Champion Crude Oil
2011-04-11T09:48:58Z,Boost Sales,in,Spain
2011-04-11T09:48:58Z,France Telecom,’s Orange,Economista
2011-04-11T09:54:57Z,Ukraine Grain Exports,Fell,Researcher ProAgro
2011-04-11T09:59:06Z,NIS,in,2012
2011-04-11T09:59:24Z,Essar Oil ’s Fourth-Quarter Profit,Rises on,Refining Margins
2011-04-11T09:59:24Z,Essar Oil ’s Profit,Rises on,Refining Margins
2011-04-11T10:04:22Z,Endo,Buy American Medical Systems in,Cash
2011-04-11T10:06:20Z,Client Acer,as,Sales Fall
2011-04-11T10:06:20Z,Compal Revenue,Misses Estimates as,Client Acer ’s Sales Fall
2011-04-11T10:08:45Z,Indian Stocks,Drop,Factory Output Growth Slows
2011-04-11T10:08:45Z,Stocks,Drop for,Day
2011-04-11T10:10:03Z,Mauritius Commercial Bank,Rises to,Two-Month High
2011-04-11T10:15:39Z,DFM CEO,Says On,On Right Track
2011-04-11T10:15:39Z,U.A.E. Markets,Says On,On Right Track for MSCI Upgrade
2011-04-11T10:17:49Z,Indian Oil,Buys,4 Million Barrels of Crude
2011-04-11T10:17:49Z,Oil,Buys,4 Million Barrels of Crude From Vitol
2011-04-11T10:24:18Z,Industrial Output Growth,in,India
2011-04-11T10:27:19Z,Watson ’s Record 15 Sixes,Leads Australia to,9 Wicket Win
2011-04-11T10:27:19Z,Watson ’s Record Sixes,Leads,Australia
2011-04-11T10:30:59Z,Abraaj Eyes Logistics,Oil After,540
2011-04-11T10:31:43Z,Bombardier Seeks Rail Contracts,in,Mideast
2011-04-11T10:32:19Z,Gains,in,Processing Profits
2011-04-11T10:32:19Z,Murban Oil,Rises for,Third Day on Gains in Processing Profits
2011-04-11T10:38:36Z,African Export Coal,Rises on,Speculation of Japan Buying
2011-04-11T10:38:36Z,Export Coal,Rises on,Speculation of Japan Buying
2011-04-11T10:38:36Z,South African Export Coal,Rises on,Speculation of Japan Buying
2011-04-11T10:39:08Z,1.35 Million Barrels,in,May
2011-04-11T10:42:56Z,BMW Lead Declines,in,Benchmark DAX Index
2011-04-11T10:42:56Z,Daimler,Declines in,Benchmark DAX Index
2011-04-11T10:45:03Z,IMF,Tells,Frettabladid
2011-04-11T10:45:09Z,Japan,’s Region,Disrupts Tokyo Transport
2011-04-11T10:49:02Z,Fall,Led by,Carmakers
2011-04-11T10:49:02Z,Oil,on Airlines,Carmakers
2011-04-11T10:50:28Z,Absa,Insurance in,Botswana Amid African Expansion
2011-04-11T10:50:28Z,Barclays Start Selling Insurance,in,Botswana Amid African Expansion
2011-04-11T10:59:41Z,Five Cargoes,in,May
2011-04-11T10:59:43Z,6.7 %,in,2010
2011-04-11T11:03:33Z,Rice-Growing Land,in,River Valley
2011-04-11T11:04:02Z,Czech March Inflation,Lags Central Bank Prognosis on,Food Price
2011-04-11T11:22:47Z,IMF,Set to,Japan Growth Forecasts
2011-04-11T11:47:23Z,Olam,Says,Invest
2011-04-11T11:47:23Z,Tata Chemicals,Invest in,Gabon Urea Project
2011-04-11T11:48:03Z,Cooling Trend Widespread,in,6
2011-04-11T11:54:22Z,Foreign Investors,Buy,3.57 Billion Rupees of Indian Stocks
2011-04-11T12:11:46Z,Czech Inflation,Stays,Below Target
2011-04-11T12:14:02Z,U.A.E. Bourses,Joining,Qatar
2011-04-11T12:22:27Z,Silver,Reaches,31-Year High
2011-04-11T12:30:52Z,Paulson,Says,Unemployment
2011-04-11T12:34:30Z,Saudi Aramco Said,in,May
2011-04-11T12:37:16Z,Units,Shut,Nebraska
2011-04-11T12:44:10Z,Sasini,Snaps,Three-Day Drop
2011-04-11T12:49:57Z,Ferrovial Shares,Move,Today
2011-04-11T13:15:26Z,Chile,as,Magallanes Administrator
2011-04-11T13:15:42Z,Canadian Dollar,Fluctuates at,High
2011-04-11T13:15:42Z,Dollar,Fluctuates at,Almost 40-Month High
2011-04-11T13:17:54Z,Mercadante,Tells,Estado
2011-04-11T13:18:42Z,Georgia,Blames,Border Shootout
2011-04-11T13:22:08Z,6 Times,in,Argentina
2011-04-11T13:22:08Z,Barcelona Soccer Player Messi,’s Shot,C5N
2011-04-11T13:24:08Z,Daughter,in,Peru Election Runoff
2011-04-11T13:24:08Z,Ex-Rebel Humala,Faces,Daughter of Jailed Fujimori in Peru Election Runoff
2011-04-11T13:38:34Z,CEO,as Harrison,Seneca-Backed Board Member
2011-04-11T13:40:56Z,Romanian Romgaz,Sees,2011 Gas Sales
2011-04-11T13:40:56Z,Romgaz,Sees,Mediafax
2011-04-11T13:43:41Z,Nasdaq ’s U.K. Power Market N2EX ’s Auction Volume,Rises,Record
2011-04-11T13:43:42Z,Wal-Mart,End,U.S. Slump
2011-04-11T13:57:17Z,Boost Sales,in,China
2011-04-11T13:57:17Z,Marfrig,Agrees to,Boost Sales in China
2011-04-11T13:58:30Z,Kroenke,Agrees for,$ 1.2-Billion Takeover of Arsenal Soccer Club
2011-04-11T14:00:01Z,Israel 's Economy,Expand,Next
2011-04-11T14:06:29Z,Best Currency Forecasters,See Dollar,QE2 End Looms
2011-04-11T14:06:29Z,Currency Forecasters,See,Weak Dollar
2011-04-11T14:13:00Z,Google ’s $ 61.7 Million,Get,U.K. Antitrust Review
2011-04-11T14:13:00Z,Google ’s $ Million,Get,U.K. Antitrust Review
2011-04-11T14:13:00Z,Google ’s Million,Get,U.K. Antitrust Review
2011-04-11T14:17:13Z,Latvia ’s 2010 Budget Deficit,Was,7.6 %
2011-04-11T14:17:13Z,Latvia ’s Budget Deficit,Was,7.6 % of GDP
2011-04-11T14:17:13Z,Latvia ’s Preliminary 2010 Budget Deficit,Was,7.6 % of GDP
2011-04-11T14:17:13Z,Latvia ’s Preliminary Budget Deficit,Was,7.6 %
2011-04-11T14:18:58Z,Citigroup ’s European Headquarters,Put on,Market
2011-04-11T14:18:58Z,Citigroup ’s Headquarters,Put on,Market
2011-04-11T14:19:09Z,Helaba Owners,Seek Way,Help Before Stress Tests
2011-04-11T14:31:28Z,Bangladesh Stocks,Drop,Report Says
2011-04-11T14:31:28Z,Report,Says,Brokers Caused Slump
2011-04-11T14:35:56Z,SEC Suspends Trades,in,Rino International
2011-04-11T14:38:29Z,Gbagbo,on,Capture
2011-04-11T14:39:52Z,Bonds,Slip,Most in Three Weeks Before Benchmark Issue
2011-04-11T14:39:52Z,Turkish Bonds,Slip,Most in Three Weeks Before Benchmark Issue
2011-04-11T14:42:14Z,Peru,’s Stocks,Currency
2011-04-11T14:47:11Z,Ukraine Prosecutors,Open,Case Against Former Premier Tymoshenko
2011-04-11T14:47:48Z,EDF,to,London Offices
2011-04-11T14:53:13Z,Mexican PRD,Opts With,PAN
2011-04-11T14:53:13Z,PRD,Opts Out of,Alliance
2011-04-11T14:55:16Z,Laws,Prisons for,Somali Pirates
2011-04-11T14:55:16Z,UN,Endorses,Laws
2011-04-11T15:04:30Z,Gridlock,Good for,Treasuries
2011-04-11T15:04:30Z,Gridlock Good,With,Gap to Bunds
2011-04-11T15:05:39Z,Croatia ’s INA Shares Drop,Is,Resumed in Zagreb
2011-04-11T15:14:02Z,ECM Real Estate,Tumbles to,All-Time Low
2011-04-11T15:22:19Z,Gilts 10-Year Yield,Reaches Eight-Week High as,Sentance Signals Rate Rise
2011-04-11T15:22:19Z,Gilts Yield,Reaches Eight-Week High as,Sentance Signals Rate Rise
2011-04-11T15:24:00Z,Ugandan Police,Break Up,Marches by Opposition Leaders Protesting Inflation
2011-04-11T15:26:31Z,Russia RTS Stock-Index Futures Little,Changed,Trading Starts
2011-04-11T15:27:09Z,Will Ready,in,September
2011-04-11T15:27:28Z,Corn Inventories,Glauber ’s,USDA
2011-04-11T15:27:49Z,Oil Slides,in,New York
2011-04-11T15:27:49Z,Russian Stocks,Drop to,Three-Day Low
2011-04-11T15:27:49Z,Stocks,Drop to,Three-Day Low
2011-04-11T15:29:35Z,France,Bolsters Border Controls,Migration Crisis ’ Heats
2011-04-11T15:32:49Z,Court,in Robinson,Judge
2011-04-11T15:32:49Z,Kenneth Robinson,in,Court
2011-04-11T15:36:12Z,Ecobank,Bank to,Boost Africa-China Investment
2011-04-11T15:36:21Z,Hungary Drugmakers,Leading,BUX
2011-04-11T15:38:37Z,Ghana May Begin,Using,Open Auctions
2011-04-11T15:40:14Z,Ghana ’s Cedi,Strengthens for,Fourth Trading Session
2011-04-11T15:46:36Z,More Patients,in,Vaccine Clinical Test
2011-04-11T15:47:18Z,Portugal,Tops,European Union List of Air-Passenger Complaints
2011-04-11T15:49:26Z,Mauritius Commercial Bank,IBTC of,Kenya
2011-04-11T15:52:01Z,German Note Yield,Rises Since,2008 on Inflation Bets
2011-04-11T15:52:01Z,German Two-Year Note Yield,Rises Since,2008 on Inflation Bets
2011-04-11T15:52:01Z,Note Yield,Rises to,Highest
2011-04-11T15:52:01Z,Two-Year Note Yield,Rises to,Highest
2011-04-11T15:53:08Z,Saipem Sign Nigeria Gas Pipeline Contract,in,Delta
2011-04-11T15:53:08Z,Shell,Contract to,Cut Flaring
2011-04-11T15:57:18Z,Oil-Drilling Renaissance,Set to,Eclipse Gas
2011-04-11T15:58:21Z,RBS,Advance as,WPP Slides
2011-04-11T15:58:21Z,U.K. Stocks,Are,Little Changed
2011-04-11T15:58:33Z,1st Day,Buy,Stock
2011-04-11T15:58:33Z,Day,Buy,Stock
2011-04-11T15:58:33Z,TransCreditBank,Rises,1st Day
2011-04-11T16:05:04Z,Europe,in,Largest Working Solar Plant in Italy
2011-04-11T16:05:04Z,Europe ’s Largest Working Solar Plant,in,Italy
2011-04-11T16:05:04Z,Partners Group Invests,in,Europe ’s Largest Working Solar Plant
2011-04-11T16:13:22Z,European Stocks,Fall From,One-Month High
2011-04-11T16:13:22Z,Stocks,Fall From,One-Month High
2011-04-11T16:19:31Z,Kurdistan PM Expects Iraq,Paying,Foreign Companies
2011-04-11T16:20:41Z,Most Shares Retreat,in,Price
2011-04-11T16:20:41Z,Stocks,Earlier Advances as,Most Shares Retreat in Price
2011-04-11T16:25:07Z,CEZ,Move in,Warsaw
2011-04-11T16:45:45Z,Canadian Dollar,Fluctuates at,High
2011-04-11T16:45:45Z,Dollar,Fluctuates at,Almost 40-Month High
2011-04-11T16:55:03Z,Oil-Price Risk,Threatens,Stronger Global Recovery
2011-04-11T17:06:36Z,2011 U.S. Growth Forecast,Pace of,Job Gains
2011-04-11T17:06:36Z,Oil,on Forecast,Lackluster Pace of Job Gains
2011-04-11T17:08:13Z,Airbus,Says There,Mideast Unrest May Wipe Out 40 %
2011-04-11T17:09:43Z,478 Million-Euro Stake,in,Delta Lloyd
2011-04-11T17:11:38Z,Allied Irish May Show Halt,in,Cash Flight
2011-04-11T17:11:38Z,Bank,Halt in,Cash Flight
2011-04-11T17:15:50Z,Suzlon,Be Bottoming Out,Repower
2011-04-11T17:19:49Z,Copper Decline,Dims,Trade Prospects
2011-04-11T17:27:44Z,Reckitt Benckiser,Completes,Paras Pharmaceuticals Acquisition
2011-04-11T17:29:26Z,Facebook 's Settlement,Is Ruled by,Appeals Court
2011-04-11T17:31:36Z,Meyer Burger,to,$ 516 Million Bid
2011-04-11T17:31:36Z,Rau,Agrees to,Meyer Burger 's $ 516 Million Bid
2011-04-11T17:31:36Z,Roth,Agrees to,Meyer Burger 's $ 516 Million Bid
2011-04-11T17:35:43Z,Deutsche Bank Advice Integrity,in,Doubt
2011-04-11T17:57:44Z,Blackstone,Purchase of,Mortgages
2011-04-11T18:21:12Z,Missouri Democratic Attorney General,Opposes,Health Law Insurance Mandate
2011-04-11T18:25:06Z,Canada Natural Gas Gains,Boosts,Demand
2011-04-11T18:25:06Z,Cooler Weather,in,U.S.
2011-04-11T18:34:09Z,California Gasoline Stronger,Be,Offline
2011-04-11T18:39:01Z,International Securities Exchange,Adopts,New Trading Platform
2011-04-11T18:42:02Z,Surge,in,Commodity Costs
2011-04-11T18:50:12Z,New York State Delays,Citing,Conditions
2011-04-11T18:50:34Z,Republican Budget Plan,Avoiding,Shutdown Set
2011-04-11T18:54:04Z,Natural Gas Prices Rise,in,Seven
2011-04-11T19:01:23Z,Usmanov,Makes,Offers for Bracewell-Smith Arsenal Stake
2011-04-11T19:09:32Z,Maya Moore,Is Picked,No. 1
2011-04-11T19:09:32Z,Minnesota Lynx,in,WNBA Draft
2011-04-11T19:09:32Z,Moore,Is Picked,No. 1
2011-04-11T19:12:24Z,Moral Hazard,Looms Larger,Volcker Says
2011-04-11T19:22:18Z,U.S. Judge Orders NFL,Players to,Start Mediation April 14
2011-04-11T19:29:53Z,Consumer Bureau ’s Warren,Outlines Accord With,State Regulators
2011-04-11T19:33:43Z,Senate ’s Hatch,Set,Global Coordination
2011-04-11T19:39:52Z,JPMorgan Seeks Ruling,in,Bondholder Claims Linked
2011-04-11T19:41:07Z,Google Products,Lacked,Key Government Security Certification
2011-04-11T20:00:00Z,Hair Loss,to Contribute,Study
2011-04-11T20:00:00Z,Pfizer ’s Lyrica,Tops,Drugs Recommended for Diabetes Nerve Pain
2011-04-11T20:00:00Z,Weaves May Contribute,in,Black Women
2011-04-11T20:15:40Z,Endo,Buy,American Medical Systems
2011-04-11T20:16:47Z,Megacable Chief,Denies Report for,Purchase
2011-04-11T20:16:47Z,Mexico,of,Maxcom
2011-04-11T20:21:23Z,Huntington,in,Study
2011-04-11T20:21:23Z,Pfizer,Fails in,Huntington ’s Study
2011-04-11T20:21:41Z,Libyan Opposition Leader Plans,Visits to,Italy
2011-04-11T20:21:41Z,Opposition Leader Plans,Visits to,Qatar
2011-04-11T20:25:30Z,Adobe Courts Cash-Strapped Designers,With,Cheaper Tools
2011-04-11T20:26:03Z,Televisa CEO,Defends Challenge to,Slim Empire
2011-04-11T20:27:34Z,Woman,Dies in,Fire
2011-04-11T20:30:15Z,Colombia ’s Peso,Holds on,Investment Inflows
2011-04-11T20:32:18Z,N.Y. Fed Director ’s Puerto Rico Bank,Loses on,Nephew ’s Loan
2011-04-11T20:32:18Z,Nephew,on,Loan
2011-04-11T20:47:33Z,Arrest,in,Ivory Coast
2011-04-11T20:47:33Z,Obama,Welcomes,Arrest of Laurent Gbagbo in Ivory Coast
2011-04-11T21:06:03Z,Principal,Buy,HSBC Afore
2011-04-11T21:20:32Z,Mexico,Imports From,Missouri County
2011-04-11T21:38:37Z,Buy Pemex Bonds,in,Oil Output
2011-04-11T21:40:35Z,Intel,Persuades,Judge
2011-04-11T21:40:35Z,Judge,Reject,N.Y. AG Request
2011-04-11T21:45:14Z,$ 46 Billion,in,Arms Exports
2011-04-11T21:45:14Z,Arms Exports,in,2011
2011-04-11T21:48:03Z,Community Health,Climb on,Overbilling Suit
2011-04-11T21:48:09Z,BrightSource,Receives,Billion Guarantee for California Solar Project
2011-04-11T21:53:58Z,Gundlach ’s DoubleLine,Adds,Company Debt
2011-04-11T21:55:49Z,NEW IPAD APP,LAUNCHES,TODAY
2011-04-11T22:08:34Z,NFL Players Union,Ordered by,Judge
2011-04-11T22:10:38Z,Grifols Takeover,See,Gain
2011-04-11T22:11:10Z,Baker,Sued for,Role in Chemical Company Demise
2011-04-11T22:11:10Z,McKenzie,Sued for,Role in Chemical Company Demise
2011-04-11T22:11:10Z,Role,in,Chemical Company Demise
2011-04-11T22:15:52Z,Arizona Law Requiring Immigration Checks,Blocked by,Appeal Panel
2011-04-11T22:44:54Z,Husky Energy Lloydminster Upgrader,Resumes,Operations
2011-04-11T23:00:00Z,Bankers,Get Off,Scot-Free
2011-04-11T23:00:00Z,Scot-Free,in,Industry Overhaul
2011-04-11T23:00:01Z,Fun Staff,Lure,Italian-Cuisine Fans
2011-04-11T23:00:01Z,Grohl,Evokes,Nirvana Ghost
2011-04-11T23:00:01Z,Paul Simon,Sees,Heaven
2011-04-11T23:00:41Z,Voting Fiasco,Shows,Value Hitting
2011-04-11T23:07:56Z,New Zealand Boom,Driving Up,Currency
2011-04-11T23:35:50Z,Carroll,Gets First Goals for,Liverpool
2011-04-11T23:48:41Z,Quake,Shakes Buildings in,Tokyo
2011-04-11T23:48:41Z,Yen,Rises,Versus Major Counterparts
2011-04-12T00:00:16Z,Rajaratnam,Gets,His Turn
2011-04-12T04:01:57Z,Block SEC,to,Action
2011-04-12T04:01:57Z,U.S. Judge,in,New York
2011-04-12T06:08:48Z,Japan 's 2-10 Bond Yield Spread,Spending,Outlook
2011-04-12T06:08:48Z,Japan 's Bond Yield Spread,Widens on,Nuclear Crisis
2011-04-12T06:36:50Z,Graves,Spur Shift in,S. Korea
2011-04-12T06:54:51Z,Fuel-Tanker Bookings,Rise After,Quake
2011-04-12T06:59:34Z,Second Day,for Falls,Japan
2011-04-12T08:45:03Z,Rand Depreciation Bet,Draws Sanlam Investment Management to,Global Stocks
2011-04-12T09:11:07Z,Decline,in,Property Supply
2011-04-12T09:55:15Z,EU Officials Meet,in,Lisbon
2011-04-12T09:55:15Z,IMF,Meet to,Plan
2011-04-12T10:15:49Z,Nokia,Faces,Steepest Job Cuts
2011-04-12T11:40:13Z,Government Pressures Renault,in,Spying Scandal
2011-04-12T14:30:22Z,Emergency Flights,in,Record Demand
2011-04-12T15:33:23Z,Mobius,Buys,Nigeria 's Banking Stocks
2011-04-12T15:51:31Z,192 Hurt,in,Minsk Subway Explosion
2011-04-12T15:51:31Z,Belarus,Hunts,Bombers
2011-04-12T16:22:52Z,Relapses,Less Than,Most Injected Drugs
2011-04-12T19:10:02Z,Japan,as,Nuclear Crisis Damps Risk
2011-04-12T19:18:55Z,Nigeria ’s Ruling PDP,Leads,Rivals
2011-04-12T19:18:55Z,Rivals,in,Legislative Vote
2011-04-12T19:40:07Z,NATO,Break,Qaddafi 's Misrata Siege
2011-04-12T20:42:43Z,Aluminum Producer,After,Quarterly Sales Miss Estimates
2011-04-12T20:57:28Z,Intel,Is,Said to Design Phone for ZTE for Sale in China
2011-04-12T20:57:28Z,Sale,in,China
2011-04-12T21:31:50Z,Toyota,Tells U.S. Dealers to,Brace
2011-04-13T16:09:37Z,Tepco,Hasten,Start
2011-04-18T20:49:30Z,Winklevoss Twins,Re-Open,Facebook Settlement
