2011-04-01T01:08:41Z,Freddie Watchdog,Urges Controls,Fannie
2011-04-01T01:11:47Z,Acer Rises,in,Six Days After Chief Executive Lanci Resigns
2011-04-01T01:12:56Z,Standoff,With,Creator Ends
2011-04-01T01:21:48Z,Japan Manufacturers,Grew,More Confident
2011-04-01T01:43:55Z,Japan Opposition LDP,Considering,Possible Unity Government
2011-04-01T01:43:55Z,Kan,With,DPJ
2011-04-01T02:43:04Z,Unilever Will Delay Price Increases,in,China
2011-04-01T02:58:35Z,Rupiah,Rises to,High
2011-04-01T03:00:08Z,Record Exports,Add,Pressure
2011-04-01T03:07:42Z,Lee,Apologizes,Abandoning
2011-04-01T03:25:56Z,Austar Denies Report Foxtel,Agreed on,$ 1.96 Billion Takeover Bid
2011-04-01T03:36:04Z,Pakistan,Increases Fuel Prices by,13 %
2011-04-01T03:52:00Z,Flooding Death Toll,Climbs to,21
2011-04-01T03:52:00Z,Southern Thai Storms,Ease,Flooding Death Toll Climbs to 21
2011-04-01T03:53:35Z,Citic Bank,Says to,Rise
2011-04-01T04:00:07Z,U.S. Bancorp ’s Nelson,Says,Fed Window Mistaken
2011-04-01T04:00:24Z,Gates,Backs,Obama
2011-04-01T04:00:35Z,Bernanke Cash,Drives,Junk Bond Frenzy
2011-04-01T04:00:35Z,JPMorgan,Faces,Record Competition
2011-04-01T04:01:00Z,Job,Assist,Businesses
2011-04-01T04:01:05Z,Increases,in,U.S. Payrolls
2011-04-01T04:01:05Z,Manufacturing,Were Probably Sustained in,March
2011-04-01T04:05:45Z,Funds,Buy,Net 22.9 Billion Rupees of Derivatives
2011-04-01T04:05:45Z,Global Funds,Buy,Net 22.9 Billion Rupees of Derivatives
2011-04-01T04:07:00Z,Women Basketball Programs,Lose Money as,Salaries Break College Budgets
2011-04-01T04:08:12Z,Mortgage Brokers,Win,Bid
2011-04-01T04:23:23Z,Kenya,’s Brokerage,Business Daily
2011-04-01T04:23:23Z,Kestrel,Retains,Its Rank
2011-04-01T04:24:39Z,Ganeshvani Merchandise Planning 5-Megawatt Solar Power Project,in,Gujarat
2011-04-01T04:31:24Z,Montreal,of,ETF Assets
2011-04-01T04:32:44Z,India 's Uttar Pradesh,Meet,Target
2011-04-01T04:39:24Z,Rosneft May,Hire,Russian Regulator Milovidov
2011-04-01T04:46:31Z,Kenya,’s Kenyatta,Muthaura Quit Security Posts to Meet Order
2011-04-01T04:46:31Z,Kenya ’s Kenyatta,Posts to,Meet Order
2011-04-01T04:56:23Z,Rise,to Demand,PetroChina
2011-04-01T05:00:20Z,Hong Kong Short Selling Turnover,Recorded,04/01/2011
2011-04-01T05:07:55Z,Coal,With,Immediate Effect
2011-04-01T05:14:00Z,Kenyans,Living,Abroad Sent Home Million in First Two Months
2011-04-01T05:14:00Z,Sent Home $ 124.9 Million,in,First Two Months of Year
2011-04-01T05:22:21Z,$ 5.64 Billion,in,Polish Power
2011-04-01T05:27:13Z,its Solar Energy Division,in,Spain
2011-04-01T05:34:00Z,Schneider Electric,Reaches Agreement With,Soitec for Solar Power Venture
2011-04-01T05:39:10Z,Barry Callebaut Net,Rises China on,Chocolate Sales
2011-04-01T05:55:58Z,BayernLB,in,Talks
2011-04-01T05:56:51Z,China Manufacturing,Grows at,Faster Pace
2011-04-01T06:02:35Z,China Rates Concern,on Drops,Heads for First Weekly Fall in Three
2011-04-01T06:02:35Z,Copper Drops,Heads in,Three
2011-04-01T06:03:12Z,Bondholders Accepted Bavaria,of,Refinancing Offer
2011-04-01T06:03:12Z,SABMiller,Says,92.66 %
2011-04-01T06:04:48Z,Czech Banks,’ Drops,Hospodarske
2011-04-01T06:09:04Z,Rangers Football Club,Says,Its First-Half Profit Falls
2011-04-01T06:20:57Z,Highest-Paid 25 Hedge Fund Managers,Got,NYT
2011-04-01T06:20:57Z,Highest-Paid Hedge Fund Managers,Got,Billion
2011-04-01T06:30:00Z,Tabreed,Completes,Recapitalization Program
2011-04-01T06:30:18Z,Antimony,Earths to,Rally
2011-04-01T06:30:18Z,China,on,Extended New-Mine Ban
2011-04-01T06:38:20Z,Verbund Unit Enerjisa,Buys,Wind Project License From Italcementi
2011-04-01T06:44:48Z,Xstrata,Price at,129.80
2011-04-01T06:48:24Z,Russia,Sets,Minimum Grain Prices
2011-04-01T06:48:56Z,Gbagbo,for,Stronghold Abidjan
2011-04-01T06:48:56Z,Portugal Opposition Party ’s Lead Widens,in,Poll
2011-04-01T06:49:34Z,Spanish Savings Rate Declines,in,Fourth Quarter
2011-04-01T06:53:32Z,Japanese Stocks,Decline for,First Time
2011-04-01T06:53:32Z,Japanese Stocks Decline,in,Three Days
2011-04-01T06:53:32Z,Stocks,Decline as,Oil Price Advances
2011-04-01T06:56:25Z,EU,Provides,Guidance
2011-04-01T07:00:00Z,Norway Manufacturing,Expands as,Recovery Spurs Exports
2011-04-01T07:04:00Z,Wall Street Banks,Urge Tokyo Staff to,Swap Nuclear Fear for Business Focus
2011-04-01T07:09:34Z,South African White,Rise by,Limits on Futures Exchange
2011-04-01T07:15:48Z,LCH,Raises,Additional Margin Charge for Irish Government Securities
2011-04-01T07:17:41Z,Athens Exchange Reports Record Losses,in,2010
2011-04-01T07:27:39Z,Employer Groups,Reach,Agreement on Wage Increase
2011-04-01T07:44:03Z,American Airlines,Airlines to,Start Partnership
2011-04-01T07:51:03Z,600 University Graduates,in,Japan
2011-04-01T07:54:53Z,24th Month,in,India
2011-04-01T07:54:53Z,Manufacturing,Grows for,24th Month in India
2011-04-01T07:56:32Z,Pound,Strengthens,Versus Dollar
2011-04-01T07:56:32Z,Versus Dollar,Euro on,Demand
2011-04-01T07:59:22Z,Blackstone-Backed Senrigan,Grow,Assets
2011-04-01T07:59:22Z,Senrigan,Grow,Assets
2011-04-01T08:02:12Z,Goodrich,Buys,Flight Control Maker Microtecnica
2011-04-01T08:03:23Z,Delay,in,Parmalat 's Annual Shareholders
2011-04-01T08:03:23Z,Parmalat,in,Annual Shareholders
2011-04-01T08:03:32Z,China 's Cities Home Prices,Defying,Government Curbs
2011-04-01T08:03:32Z,China 's Cities Lead Home Prices,Defying,Government Curbs
2011-04-01T08:03:32Z,China 's Smaller Cities Home Prices,Defying,Government Curbs
2011-04-01T08:03:32Z,China 's Smaller Cities Lead Home Prices,Defying,Government Curbs
2011-04-01T08:18:18Z,Russian Manufacturing Grew,in,March
2011-04-01T08:26:07Z,La Nina,as,Persistence Threatens Harvests From China
2011-04-01T08:26:07Z,Wheat,Soars to,U.S.
2011-04-01T08:35:41Z,Pound,Erases,Advances Against Euro
2011-04-01T08:44:22Z,Shell,Sell Stake to,Starcrest
2011-04-01T08:45:22Z,Trakcja Shares,Move in,Warsaw
2011-04-01T08:50:47Z,Manufacturing,Accelerates Than,More Economists Forecast on Exports
2011-04-01T08:50:47Z,Polish Manufacturing,Accelerates Than,Economists Forecast on Exports
2011-04-01T08:53:40Z,45 % Stake,in,Jean-Paul Gaultier
2011-04-01T09:00:00Z,Austria ’s 2011 GDP Forecast,Raised,Time
2011-04-01T09:00:00Z,Austria ’s GDP Forecast,Raised Time to,2.5 Percent
2011-04-01T09:00:00Z,Danish Manufacturing Growth,Slows,Production
2011-04-01T09:00:00Z,European Unemployment Fell,Led by,Germany
2011-04-01T09:00:00Z,February,in Fell,Italy
2011-04-01T09:00:00Z,Manufacturing Growth,Slows,Production
2011-04-01T09:00:00Z,Unemployment Fell,Led by,Germany
2011-04-01T09:00:01Z,Manufacturing,Rises to,13-Month High
2011-04-01T09:00:38Z,BOJ ’s Newest Board Member,Says,Underwriting
2011-04-01T09:00:38Z,Underwriting,Would,Boost Costs
2011-04-01T09:01:29Z,France,Finds,Weak Radioactivity
2011-04-01T09:01:29Z,Weak Radioactivity,in,Rainwater
2011-04-01T09:01:32Z,Europe March Manufacturing Growth,Slows,More Than Estimated
2011-04-01T09:18:23Z,Stiglitz,Says in,FT
2011-04-01T09:18:57Z,KKR European Retail Partner Pfeffer,Leaves to,Start Own Company
2011-04-01T09:19:23Z,Yuan,Finishes,Weekly Gain
2011-04-01T09:30:12Z,ICC,Against,Post-Election Violence Cases
2011-04-01T09:33:18Z,EU Carbon,Permits Rise to,Two-Week High
2011-04-01T09:34:42Z,Rose 0.7 %,in,March
2011-04-01T09:36:55Z,Ukraine,to,Nadezhda LPG Distributor
2011-04-01T09:39:44Z,Richards Bay Coal Shipments,Continuing as,Rail Lines Closed
2011-04-01T09:45:02Z,Kenyan Stock Exchange Chief,Sees,Politics
2011-04-01T09:45:02Z,Risks,’,Quarter
2011-04-01T09:45:02Z,Stock Exchange Chief,Sees,Politics
2011-04-01T09:54:21Z,Thai Banks,Sopana ’s,SCB Asset
2011-04-01T09:56:00Z,Benin ’s Opposition Leader,Rejects,Constitutional Court Ruling
2011-04-01T10:00:24Z,UBS Aims,in,4 Years
2011-04-01T10:11:58Z,Indian Stocks,Snaps,Eight-Day Rally
2011-04-01T10:11:58Z,Stocks,Snaps,Eight-Day Rally
2011-04-01T10:20:27Z,London ICE Gasoil,Rises to,30-Month High
2011-04-01T10:20:39Z,Record Deposits,in,Hong Kong
2011-04-01T10:27:29Z,Kenya ’s Shilling,Weakens Against,Dollar
2011-04-01T10:28:18Z,KKR,Start for,Buyout-Backed IPOs
2011-04-01T10:30:39Z,Emerging-Market Stocks,Rise Since,June 2008
2011-04-01T10:35:26Z,U.K. Renewable Energy Incentives,Attract,109 Megawatts of Power Capacity
2011-04-01T10:38:23Z,Irish Rescue Package Risks,Deepening,Debt Crisis
2011-04-01T10:38:23Z,Rescue Package Risks,Deepening,Debt Crisis
2011-04-01T10:38:23Z,Roubini,Says,Rescue Package Risks
2011-04-01T10:40:16Z,Thai Stocks,Surge on,Economic Expansion
2011-04-01T10:44:06Z,European Factory Growth,Slows as,Global Economy 's Momentum Relies on China
2011-04-01T10:44:06Z,Factory Growth,Slows as,Economy 's Momentum Relies on China
2011-04-01T10:44:06Z,Global Economy,as,Momentum Relies on China
2011-04-01T10:54:37Z,China,on,PMI
2011-04-01T10:54:37Z,Energy Firms,Climb on,China 's PMI
2011-04-01T11:01:01Z,Volcom,Men at,Work
2011-04-01T11:02:48Z,Pickles,Criticizes,Councils for Planning Demands
2011-04-01T11:05:58Z,8.3 %,Led By,Estonia
2011-04-01T11:05:58Z,Year,on %,Led By Estonia
2011-04-01T11:09:46Z,ICE Top Deutsche Boerse,with,$ 11.3 Billion NYSE Bid
2011-04-01T11:09:46Z,Nasdaq,Boerse with,$ 11.3 Billion NYSE Bid
2011-04-01T11:20:43Z,Libyan Rebels,Seek,Cease-Fire
2011-04-01T11:20:43Z,Rebels,Seek Cease-Fire,U.S. Vows
2011-04-01T11:20:43Z,U.S.,Withdraw,Jets
2011-04-01T11:29:55Z,Standard Life CEO,Pay,Promotion
2011-04-01T11:34:31Z,Serm Suk,Terminates Agreements With,PepsiCo
2011-04-01T11:37:52Z,Cornwall Radiation,Beats Tokyo After,Japan Nuclear Crisis
2011-04-01T11:37:52Z,Hong Kong,Beats After,Even Japan Nuclear Crisis
2011-04-01T11:46:29Z,Zimbabwe Gem Exports,Continue Amid,Objections
2011-04-01T11:46:47Z,Treasuries,Poised Before,U.S. Employment Report
2011-04-01T11:53:56Z,Decade,With,Champs-Elysees Store
2011-04-01T11:55:08Z,Gordhan,Says,Growth
2011-04-01T11:55:13Z,Roubini,Says,ECB Risks
2011-04-01T11:55:34Z,Portugal,Accepts,Yields
2011-04-01T12:10:35Z,Jets Start,With,30th
2011-04-01T12:10:35Z,NFL Draft Round 1,Start With,30th
2011-04-01T12:10:35Z,New York Giants,Get,Pick
2011-04-01T12:11:26Z,Ireland,Bows,Trichet on Bondholders
2011-04-01T12:23:07Z,France,'s Spanish,Italian Notes Over Germany
2011-04-01T12:23:07Z,France 's Biggest Fund Manager Favors Spanish,Notes Over,Germany
2011-04-01T12:31:14Z,Data Show U.S. Employers,Added,Positions
2011-04-01T12:31:14Z,Treasuries,Extend,Decline
2011-04-01T12:34:12Z,European Stocks,Extend,Their Gains
2011-04-01T12:34:12Z,Stocks,Extend,Their Gains
2011-04-01T12:37:42Z,Croatia ’s Cobankovic,Vows,More Transparent State Asset Sales
2011-04-01T12:41:01Z,Baltic Exchange Screen-Trading System,in,May
2011-04-01T12:41:01Z,Start,to System,Penn
2011-04-01T12:46:54Z,10 Years,in,Barents Sea
2011-04-01T12:46:54Z,Statoil,Makes,Norway 's Find for 10 Years in Barents Sea
2011-04-01T12:50:14Z,JPMorgan,Rajaratnam in,Court News
2011-04-01T12:50:14Z,Rajaratnam,in,Court News
2011-04-01T12:52:12Z,Home Depot,Offerings in,Record Quarter
2011-04-01T12:52:12Z,Time Warner Lead Debt Offerings,in,Record Quarter
2011-04-01T12:52:53Z,Latest Casualty,Figures From,Japan Earthquake
2011-04-01T12:53:07Z,Iran Exchange,Says in,April
2011-04-01T12:53:07Z,Official,Says in,April
2011-04-01T12:56:10Z,Brazil 's February Industrial Output,Rises,Pace
2011-04-01T12:56:10Z,Fastest Pace,in,11 Months
2011-04-01T12:57:08Z,FSA Capital Rules,Stake ’s,Ally
2011-04-01T13:00:00Z,Year,Billion,WEF
2011-04-01T13:00:30Z,Rajaratnam Prosecutors,Seek to,Block Expert
2011-04-01T13:00:35Z,Oil,Reaches 30-Month High on,Strong China Data
2011-04-01T13:06:40Z,Senior Bank Bond Risk,Tumbles After,Ireland Rules
2011-04-01T13:13:06Z,Crude Oil,Is Changed in,N.Y.
2011-04-01T13:13:06Z,Oil,Reversing,Gain
2011-04-01T13:16:48Z,EU Appeals WTO Ruling Finding U.S. Aid,Was,Illegal
2011-04-01T13:18:57Z,Jubilee Holdings,Are,Active
2011-04-01T13:28:21Z,Million,in,Interest
2011-04-01T13:28:24Z,Costs,in,Purchasing Title Insurance
2011-04-01T13:28:24Z,Homebuyers,Costs in,Purchasing Title Insurance
2011-04-01T13:37:46Z,Private-Equity Fundraising,in,First Quarter at Lowest Level
2011-04-01T13:45:11Z,Sanofi-Aventis May Change,Name at,Annual
2011-04-01T13:56:06Z,Rand,Climbs as,Data Signal Rate Increase
2011-04-01T14:00:02Z,Construction Spending,Decreased,More Estimated
2011-04-01T14:01:41Z,SAS May,Seek Airline Investor as,Norway Seeks
2011-04-01T14:04:33Z,It,Keeps,Ownership
2011-04-01T14:06:59Z,Feed Barley Led Price Declines,Says,Week
2011-04-01T14:06:59Z,Russian Feed Barley Led Price Declines,Says,Week
2011-04-01T14:06:59Z,SovEcon,Says,Week
2011-04-01T14:07:54Z,2010 Fiscal Gap,Narrows to,4.7 % of GDP
2011-04-01T14:07:54Z,Czech 2010 Fiscal Gap,Narrows to,4.7 % of GDP
2011-04-01T14:07:54Z,Czech Fiscal Gap,Narrows to,4.7 %
2011-04-01T14:07:54Z,Fiscal Gap,Narrows to,4.7 %
2011-04-01T14:13:06Z,Treasuries,Pare Losses,Fed ’s Dudley Says
2011-04-01T14:23:36Z,Canada Canola,Ended,March 30
2011-04-01T14:23:36Z,Soybean Processing Drops,in,Week
2011-04-01T14:26:44Z,Harper 's Trade Pledge,Shows,Canada Firms Lowering Reliance
2011-04-01T14:26:45Z,Serbian Teachers End 70-Day Protest,Agree to,Wage Increases
2011-04-01T14:31:53Z,2 Billion Euros,in,Radio-Spectrum Sale Proceeds
2011-04-01T14:32:11Z,Spain,Approves,One of Five Proposals for New Photovoltaic Plants
2011-04-01T14:32:35Z,Telkom South Africa Sells Nigerian CDMA Business,Retains,Fixed-Line Unit
2011-04-01T14:37:50Z,RWE,Halt,Hesse Government Shutdown
2011-04-01T14:46:30Z,Economy,Grew in,Quarter
2011-04-01T14:46:30Z,Russian Economy,Grew,4.5 %
2011-04-01T14:49:58Z,Manufacturing,Expands on,Inventory
2011-04-01T14:50:00Z,Everton Striker Louis Saha May Miss,Rest of,Season
2011-04-01T14:58:09Z,Fed ’s Dudley,Says,Recovery
2011-04-01T14:58:09Z,Recovery,Tenuous With,High Unemployment
2011-04-01T14:58:29Z,Federal Reserve 's Dudley,Pull From,Stimulus Program
2011-04-01T14:58:30Z,S&P,Says,Review of Mortgage Re-Remics
2011-04-01T15:02:08Z,Exxon Torrance Oil Refinery,Completes,Maintenance
2011-04-01T15:04:32Z,Nazarbayev,Extend,Rule
2011-04-01T15:05:30Z,Curis Drug,Prevented,Tumor Size in Trial
2011-04-01T15:05:30Z,Lesions,Size in,Trial
2011-04-01T15:05:30Z,Reduced Tumor Size,in,Trial
2011-04-01T15:14:27Z,Russia Grain-Stockpile Sales,Hit by,Weakening Demand
2011-04-01T15:18:15Z,Lawyer,Tells,Jury
2011-04-01T15:25:47Z,Sony Use Crisp,Fight,Cyber Bullies
2011-04-01T15:27:24Z,Ivory Coast ’s Bonds,Head as,Rebel Advance
2011-04-01T15:29:59Z,Libya Rebels,Say,Ras Lanuf
2011-04-01T15:32:11Z,Mubarak,of,Associates
2011-04-01T15:32:11Z,Protesters,in,Cairo Demand Prosecution of Mubarak ’s Associates
2011-04-01T15:33:04Z,Owner,Buys,Mosmart
2011-04-01T15:33:04Z,Seventh Continent,Climbs to,Week High
2011-04-01T15:35:50Z,World Bank,Lends,$ 295 Million
2011-04-01T15:36:46Z,Manhattan Apartment Prices,Drop as,Buyers Favor Cheaper Co-Ops
2011-04-01T15:39:13Z,Deutsche Boerse Drops,Make,Rival NYSE Offer
2011-04-01T15:39:13Z,ICE,Make,Rival NYSE Offer
2011-04-01T15:45:50Z,10-Year Bunds,Bound for,Longest Losing Streak
2011-04-01T15:45:50Z,Bunds,Bound Since,October
2011-04-01T15:45:50Z,German 10-Year Bunds,Bound for,Longest Losing Streak
2011-04-01T15:45:50Z,German Bunds,Bound for,Longest Losing Streak
2011-04-01T15:49:55Z,Anglo,Majeure at,Collahuasi Copper Mine
2011-04-01T15:50:05Z,Lira Gains,Rally as,Growth Whets Investor Appetite
2011-04-01T16:00:00Z,$ 916 Million Selling Bonds,in,China
2011-04-01T16:00:00Z,Bright Food May,Raise,$ 916 Million Selling Bonds
2011-04-01T16:00:00Z,Food May,Raise,Million Selling Bonds in China
2011-04-01T16:04:03Z,Nigeria 's Amcon,Starts Book-Building Program for,Million Bond Sale
2011-04-01T16:04:04Z,Calipari ’s NCAA Basketball Title Bonus,Tops,VCU Coach ’s Entire Salary
2011-04-01T16:05:21Z,Costs,Outpace,Sales
2011-04-01T16:05:21Z,TMK,Expects Profit Margin to,Narrow
2011-04-01T16:07:07Z,Argentina,Considers,Extra Corn-Export Quota
2011-04-01T16:07:31Z,Car Sales,Fell,Fiat Brand Slid
2011-04-01T16:07:31Z,Italian Car Sales,Fell,28 %
2011-04-01T16:09:48Z,Chrysler March U.S. Sales,Beating,Expectations
2011-04-01T16:12:28Z,Irish Life,Plunges as,Group to Split
2011-04-01T16:23:44Z,Urban Outfitters,Sued by,Investor
2011-04-01T16:24:16Z,Flowers,in,South
2011-04-01T16:24:16Z,French Rapeseed,Grows Rapidly in,Flowers
2011-04-01T16:24:16Z,Northeast,Flowers in,South
2011-04-01T16:24:16Z,Rapeseed,Grows Rapidly in,Flowers in South
2011-04-01T16:25:59Z,Areva ’s Lauvergeon,Pay,Rose
2011-04-01T16:35:10Z,Markets Trust,in,Euro Again
2011-04-01T16:35:10Z,Regling,Says,Markets Trust in Euro Again
2011-04-01T16:35:58Z,Healthpoint,Gets,U.S. Complaint Over Unapproved Skin Drug
2011-04-01T16:38:55Z,Maersk,Wins Contract For,Billion Pier at Top Peru Port
2011-04-01T16:44:25Z,May,Be Lowered to,Junk
2011-04-01T16:44:25Z,Portugal 's Debt Rating,Is,Reduced
2011-04-01T16:51:23Z,Lehman Brokerage Trustee Law Firm,Got Million in,Four Months
2011-04-01T16:54:25Z,Acer,Sights on,Apple
2011-04-01T16:54:25Z,Apple,HTC After,HP Chase
2011-04-01T17:07:05Z,Sports Court,in,London Funding Dispute
2011-04-01T17:11:28Z,Porsche ’s March Cayenne U.S. Sales,Surge,164 %
2011-04-01T17:12:01Z,Jobless Rate,Drops to,Two-Year Low
2011-04-01T17:12:01Z,Rate,Unexpectedly Drops to,Two-Year Low
2011-04-01T17:18:13Z,Fed,Drain,Reserves
2011-04-01T17:19:20Z,Sumitomo,at,Silver
2011-04-01T17:22:03Z,New Stream Judge,Rejects,Sides With Investors
2011-04-01T17:35:12Z,3.5 %,Advance in,Three Years
2011-04-01T17:35:12Z,First Advance,in,Three Years
2011-04-01T17:36:19Z,Ivory Coast Rebels,Seize,Control Gbagbo Palace
2011-04-01T17:46:14Z,Teldafax,’s Prohibited,Tagesspiegel
2011-04-01T17:48:45Z,Minneapolis Grain Exchange,Set Record in,March
2011-04-01T17:49:24Z,Brown Measures,Take,Aim
2011-04-01T17:49:24Z,Measures,Take Aim at,California Pension
2011-04-01T17:53:35Z,Banks,Tapped,Fed ’s Lifeline
2011-04-01T17:53:35Z,Foreign Banks,Tapped,Fed ’s Secret Lifeline
2011-04-01T17:54:28Z,DPA,Shipping on,German River Ems Blocked
2011-04-01T17:55:06Z,Deutz,Sees,Consolidated Profit of 50 Million Euros
2011-04-01T18:00:45Z,Toyota 's U.S. Sales,Fell,Decline Than Estimated
2011-04-01T18:16:42Z,Fed ’s Hoenig,Says,Inflation
2011-04-01T18:26:58Z,Face Claims,in,Suit Over Employee Pension Losses
2011-04-01T18:34:27Z,Canada,Wait for,Province Reviews
2011-04-01T18:34:27Z,Harper,Says,Wait for Province Reviews
2011-04-01T18:45:59Z,Dudley,Pull Back Amid,Tenuous Recovery
2011-04-01T18:59:26Z,Former Boston Red Sox General Manager Gorman,Dies of,Heart Failure
2011-04-01T19:00:01Z,Nissan,Says,U.S. Sales in March
2011-04-01T19:00:01Z,U.S. Sales,in,March
2011-04-01T19:03:29Z,Judge,Put,U.S. Units
2011-04-01T19:03:29Z,Vitro Creditors,Tell,Judge
2011-04-01T19:10:43Z,Calipari,Blame,Jay-Z Meeting
2011-04-01T19:10:43Z,Packer,Says,Blame
2011-04-01T19:17:28Z,Libyan Rebels,Seek,Cease-Fire
2011-04-01T19:17:28Z,Rebels,Seek Cease-Fire,U.S. Vows
2011-04-01T19:17:28Z,U.S.,Withdraw,Jets
2011-04-01T19:20:19Z,BlackRock,Before,Addition to S&P 500
2011-04-01T19:20:19Z,U.S. Stocks,Pare,Gains
2011-04-01T19:26:00Z,Valero,Starts,McKee Work
2011-04-01T19:28:12Z,Gold Prices,Drop,Most in Two Weeks
2011-04-01T19:32:40Z,Afghans Protesting Florida Koran Burning,Kill,7 UN Workers
2011-04-01T19:33:57Z,Mets,Anticipate Bidder Interest in,Coming Days
2011-04-01T19:35:08Z,Freddie Mac,Wins,Dismissal
2011-04-01T19:36:00Z,Evergrande,Sales in,Shanghai Daily
2011-04-01T19:36:00Z,Most Sales,in,Quarter
2011-04-01T19:36:57Z,Wilmington Trust,Sues,3 Ex-Officials
2011-04-01T19:56:40Z,Fidelity Debt Rating May,Be Cut by,by Moody
2011-04-01T20:11:01Z,Cash,Crunch,May Spur Bankruptcy
2011-04-01T20:11:56Z,Stocks Rally,Reaches on,Jobs Growth
2011-04-01T20:15:42Z,LogMeIn,Wins,Non-Infringement Ruling
2011-04-01T20:15:47Z,Gain,in,U.S. Employment
2011-04-01T20:20:05Z,Xcel,Cancels,North Dakota 150-Megawatt Wind Farm
2011-04-01T20:20:53Z,Livestock,in,Japan Struggle
2011-04-01T20:21:20Z,Gasoline,Rises to,32-Month High
2011-04-01T20:21:20Z,U.S. Companies,Add,Workers
2011-04-01T20:23:00Z,Coker,Output in,Texas
2011-04-01T20:23:00Z,Gasoil Hydrotreater Output,in,Texas
2011-04-01T20:23:45Z,Alaska Oil March Output,Slips in,North Slope Natural Decline
2011-04-01T20:23:52Z,India,on,Yarn-Export Plan
2011-04-01T20:24:01Z,Pandit,Fueling,Consumption
2011-04-01T20:31:38Z,Ford,Pays,Mulally $ 26.5 Million
2011-04-01T20:32:32Z,Toyota 's Lexus Trails Mercedes-Benz,in,U.S. Luxury Race
2011-04-01T20:39:04Z,Lundin Poison Pill,Proves Perfume to,Deal Arbitragers
2011-04-01T20:43:47Z,Goldman Sachs ’s Blankfein,Gets,$ 5.4 Million Cash Bonus
2011-04-01T20:55:00Z,AMR Flight,Is,Diverted to Ohio After Six Sickened by Pressure Loss
2011-04-01T21:12:16Z,Ford,See,U.S. Sales Undeterred
2011-04-01T21:12:16Z,GM,See,U.S. Sales
2011-04-01T21:12:16Z,Production,Is,Dented
2011-04-01T21:12:16Z,U.S. Sales,Undeterred by,Crisis Japan
2011-04-01T21:13:51Z,Canadian Currency,Reaches,Strongest
2011-04-01T21:13:51Z,Currency,Reaches,Strongest
2011-04-01T21:14:14Z,Vitro 's Defaulted Bonds,Soaring in,Precedent-Setting Case
2011-04-01T21:25:12Z,Freddie Mac,Warns Lenders on,Insurance Agreements
2011-04-01T21:25:22Z,Fed,After,Dudley
2011-04-01T21:30:31Z,Greifeld Betting,With,NYSE Bid
2011-04-01T21:33:39Z,Blankfein,Received Million for,Double Year
2011-04-01T21:37:40Z,Ford,Outsells GM in,in Year on Redesigned Explorer
2011-04-01T21:38:33Z,U.S.,Send,Disaster Relief Team Into Libya
2011-04-01T21:47:07Z,Futures,Reach,Level
2011-04-01T21:49:59Z,Blankfein,Received Million From,Goldman Funds
2011-04-01T21:51:23Z,1.62 Level,in,Biggest Weekly Advance
2011-04-01T22:00:01Z,World ’s Best Modern Design Sale,Fetches,Million
2011-04-01T22:00:01Z,World ’s Modern Design Sale,Fetches,$ 60 Million
2011-04-01T22:07:27Z,Interest Rates,Draw,Funds
2011-04-01T22:07:50Z,Rain,in,Chile
2011-04-01T22:16:43Z,Homebuilders,Ask,Republicans
2011-04-01T22:16:43Z,Realtors,Ask,Republicans
2011-04-01T22:16:43Z,Republicans,Delay,GSE Bills
2011-04-01T22:21:17Z,Freddie Mac,Warns,Lenders
2011-04-01T22:26:13Z,Lakers ’ Matt Barnes Suspended One Game,With,Dallas Mavericks
2011-04-01T23:01:00Z,ECB ’s Bini Smaghi,Says,Irish Credit Ratings
2011-04-01T23:08:29Z,Hyundai,Tops,Car Brands ’ U.S. Gains
2011-04-02T00:34:36Z,Agency,to,Action
2011-04-03T08:01:20Z,800 Dead,Massacre in,Duekoue
2011-04-03T08:01:20Z,Massacre,in,Duekoue
2011-04-03T08:01:20Z,Ouattara ’s Forces Advance,in,Abidjan
2011-04-03T14:25:31Z,Qaddafi 's Regime Seeks Talks,With,U.K.
2011-04-03T14:25:31Z,U.K.,U.S. as,Rebels Fight for Oil City
2011-04-04T10:19:51Z,Rafael Benitez,Looks to,Return
2011-04-08T20:36:25Z,Hawaii Drops,Anti-Steering Suit Out of,American Express
2011-05-18T17:43:41Z,Morgan Stanley ’s Pay Practices,Lose,Shareholder Support
2011-05-18T18:06:51Z,Consul General,Visited,IMF Chief Strauss-Kahn
2011-05-18T18:06:51Z,French Consul General,Visited IMF Chief Strauss-Kahn at,Precinct
2011-05-18T18:28:38Z,$ 500 Million,in,First Bond Offering
2011-05-18T18:28:38Z,Disney,Raises,Million
2011-05-18T18:54:24Z,Assaults,in,Damascus
2011-05-18T18:54:24Z,Syria,Intensifies Crackdown on,Protesters
2011-05-18T19:12:40Z,Wet Weather,Boosts,Corn
2011-05-18T19:19:18Z,Media,Is,Said to Talk
2011-05-18T19:19:18Z,Millennial Media,Is,Said With Banks
2011-05-18T19:19:18Z,Said,With,Banks
2011-05-18T19:27:54Z,Goffer,Impress,Rajaratnam
2011-05-18T19:27:54Z,Prosecutor,Tells,Jury
2011-05-18T19:28:29Z,Natural Gas Futures Advance,in,New York
2011-05-18T19:36:27Z,Fed,Favors,Exit Strategy
2011-05-18T19:43:28Z,Levin,Requiring,U.S. Banks
2011-05-18T19:43:28Z,U.S. Banks,Share Customer Data With,IRS
