2011-09-02T00:00:33Z,Uncaged Inflation,Easy to,Free
2011-09-02T00:01:51Z,One Smart,Is Search,Engine
2011-09-02T00:01:51Z,Smart,Is Search,Engine
2011-09-02T00:05:45Z,Little,Changed,Slumping on Weak China Orders
2011-09-02T00:44:34Z,Madonna,Resurrects,Wallis
2011-09-02T00:56:03Z,Crude Oil,Erases Decline as,Tropical Depression Forms in Gulf
2011-09-02T00:56:03Z,Oil,Erases Decline as,Tropical Depression Forms in Gulf of Mexico
2011-09-02T00:56:03Z,Tropical Depression Forms,in,Gulf of Mexico
2011-09-02T02:05:02Z,Noda,Appoints,Yoshio Hachiro
2011-09-02T02:05:02Z,Yoshio Hachiro,Be,New Japan Trade Minister
2011-09-02T02:20:46Z,Failure,in,Seven Years Pressures BOJ
2011-09-02T02:32:17Z,Advance,Trades at,1.0714
2011-09-02T02:32:17Z,Australian Dollar,Erases,Advance Against U.S. Currency
2011-09-02T02:32:17Z,Dollar,Erases,Advance
2011-09-02T03:05:49Z,Stocks,Ending,Six-Day Advance
2011-09-02T03:27:48Z,China,Seek to,Tourist Numbers
2011-09-02T03:27:48Z,Philippines,Seek to,Double Tourist Numbers
2011-09-02T03:36:15Z,UBS,Reduces,Asian Stock-Index Target
2011-09-02T04:00:01Z,Citigroup,Sees,U.S. Market Liquidity Drying Up
2011-09-02T04:00:13Z,Stephen Strasburg Ends Rehab,With,One-Hitter
2011-09-02T04:01:00Z,Another,Lobbying,Firms ’ Clients
2011-09-02T04:01:00Z,Obama Re-Election Threat Spurs,Search on,Housing
2011-09-02T04:01:00Z,Supercommittee,Pits,Another
2011-09-02T04:06:16Z,Lehman ’s Australian Creditors,in,Lurch
2011-09-02T04:14:05Z,NTN,Says Wind-Power Bearing Sales to,Beat Target on Fukushima
2011-09-02T04:24:14Z,Jets,Lose to,Eagles
2011-09-02T04:24:14Z,New York Giants End Preseason,With,Win Over Patriots
2011-09-02T04:28:50Z,New Cabinet Neutral,Haji ’s,NLI
2011-09-02T04:34:04Z,Lead Japan,to,Recovery
2011-09-02T04:34:04Z,Quake Region Lawmaker Azumi,Named Finance Chief to,Lead Japan ’s Recovery
2011-09-02T04:37:48Z,Gold Society,in,Hong Kong
2011-09-02T04:42:14Z,Shell ’s Hazira Terminal May,Get,Spot LNG Cargo
2011-09-02T05:00:22Z,Hong Kong Short Selling Turnover,Recorded,09/02/2011
2011-09-02T05:02:06Z,TNK-BP,Sell East Siberian Oil to,BP
2011-09-02T05:05:25Z,Qaddafi Family Members,Taken by,New Age Reports
2011-09-02T05:10:16Z,ENI,Says,WSJ Reports
2011-09-02T05:11:32Z,Shanghai,Aluminum to,Boost Trade-Hub Status
2011-09-02T05:12:18Z,Offshore Wind Farm,in,S. Korea
2011-09-02T05:20:16Z,DELPHA CONSTRUCT August Sales,Fall,75.85 %
2011-09-02T05:26:25Z,Third Day,of,Play in Sri Lanka-Australia Cricket Test
2011-09-02T05:26:25Z,Third Day ’s Play,in,Sri Lanka-Australia Cricket Test
2011-09-02T05:27:37Z,Ballast Nedam,Wins,Contract
2011-09-02T05:48:31Z,CHIA JEI TECHNOL August Sales,Fall,3.80 %
2011-09-02T05:50:14Z,TAIWAN TAFFETA August Sales,Fall,Table
2011-09-02T05:53:27Z,Others,Flee,Euro Stocks
2011-09-02T05:54:58Z,NZZ,Says,Lower
2011-09-02T05:54:58Z,Pensions,Be,Lower
2011-09-02T05:54:58Z,Swiss Minimum Interest Rate,Says,Lower
2011-09-02T05:58:45Z,Bild,Says,Joint Economic Powers for EU
2011-09-02T06:04:22Z,His,Budget,Business Day
2011-09-02T06:04:22Z,Support,on Budget,Business Day
2011-09-02T06:04:42Z,TOP YANG TECH August Sales,Fall,Table
2011-09-02T06:04:42Z,YANG TECH August Sales,Fall,Table
2011-09-02T06:10:36Z,GENESIS PHOTONIC August Sales,Rise,Table
2011-09-02T06:14:08Z,Japanese Stocks,Fall Before,U.S. Employment Report
2011-09-02T06:14:08Z,Stocks,Fall Before,U.S. Employment Report
2011-09-02T06:21:39Z,May,Get,Interfax
2011-09-02T06:23:41Z,Rise 0.7 Percent,in,August
2011-09-02T06:26:22Z,Indian Manufacturing,Expands at,Slower Pace
2011-09-02T06:26:22Z,Manufacturing,Expands at,Pace
2011-09-02T06:27:37Z,15 % Stake,in,Niobium Producer
2011-09-02T06:27:37Z,CITIC Group,Pay Billion for,Stake
2011-09-02T06:33:00Z,Apple Ex-CEO,About,Philanthropy
2011-09-02T06:33:00Z,Bono,Defends,Steve Jobs
2011-09-02T06:55:10Z,Soybeans,May Extend,Gains
2011-09-02T07:02:51Z,Mercator,Gets,EU137 .6 Million
2011-09-02T07:03:12Z,Korean Won,Has Week in,Five Months on Inflation Fight
2011-09-02T07:03:12Z,Won,Has Week in,Five Months on Inflation Fight
2011-09-02T07:15:07Z,4th Day,Week as,Gold
2011-09-02T07:15:07Z,Day,Week as,Gold
2011-09-02T07:15:07Z,Polymetal,Climbs,4th Day
2011-09-02T07:23:01Z,REXCHIP ELECTRO August Sales,Fall,59.81 %
2011-09-02T07:28:23Z,TMK,Heads for,Three-Week High
2011-09-02T07:33:07Z,China ’s Stocks,Extend,Weekly Drop
2011-09-02T07:52:25Z,Edison ’s Italian Shareholders,Retain,Full Control of Edipower Unit
2011-09-02T07:52:25Z,Edison ’s Shareholders,Retain,Control of Edipower Unit
2011-09-02T07:58:06Z,Israel Excessive,in,Legal Block of Gaza Flotilla
2011-09-02T08:04:50Z,Sandvik Chief,Delivers Deadline to,Laggards
2011-09-02T08:14:19Z,UNITED RADIANT T August Sales,Fall,10.16 %
2011-09-02T08:14:19Z,UNITED T August Sales,Fall,10.16 %
2011-09-02T08:24:21Z,China,by,Jinchuan Group
2011-09-02T08:24:21Z,Metorex Shareholders Vote,in,Favor of Takeover
2011-09-02T08:34:46Z,Aspen Pharmacare,Says,Full-Year Earnings Per Share Rose
2011-09-02T08:46:53Z,Ukraine ’s Agroton First-Half Profit,Rises,22 %
2011-09-02T08:49:05Z,20 Billion Yen,in,Loan
2011-09-02T08:53:50Z,Standard Chartered,Pushes for,Key Rate Increase to May 2012
2011-09-02T08:56:12Z,TSMC ’s Chang,Says,Weakening Economy Will Affect Chip Market
2011-09-02T08:57:42Z,Stocks,Overcome Record Franc Gains Since,2007
2011-09-02T08:57:42Z,Swiss Stocks,Overcome Record Franc Gains Since,2007
2011-09-02T08:58:12Z,Ringgit Advances,in,Week
2011-09-02T08:59:34Z,TMK ’s First-Half Profit,Grows,Price Gain
2011-09-02T09:00:01Z,Brookfield,Saves in,Big Megillah
2011-09-02T09:01:22Z,Payroll Gains,in,U.S.
2011-09-02T09:04:53Z,Bond Yields,Drop on,Inflation Outlook
2011-09-02T09:04:53Z,Philippine Bond Yields,Drop to,Record Low
2011-09-02T09:06:36Z,PRINCETON TECHNO August Sales,Fall,Table
2011-09-02T09:10:57Z,DnB NOR,Says,Profit Target Tough
2011-09-02T09:16:43Z,Australian Weekly Iron Ore Exports,Fall,23 %
2011-09-02T09:16:43Z,Weekly Iron Ore Exports,Fall,23 %
2011-09-02T09:23:22Z,U.K. Construction,Expands,Demand Ebbed
2011-09-02T09:29:33Z,Fekter,Has,Will
2011-09-02T09:29:54Z,Ghana Stock Exchange,Be Commercialized by,2013
2011-09-02T09:37:20Z,Rome,Doha Among,Six Cities Bidding for 2020 Olympics
2011-09-02T09:39:35Z,42 Dead,in,City of Jos
2011-09-02T09:39:35Z,Christian Clashes,Leave at,Least
2011-09-02T09:39:35Z,Clashes,Leave at,Least
2011-09-02T09:39:35Z,Nigeria,Leave at,Least
2011-09-02T09:40:45Z,Senegal Plans Offshore Oil Drilling,in,2012
2011-09-02T09:45:25Z,Ghana,Starts,Its Second Round of Cocoa-Disease Prevention Program
2011-09-02T09:46:18Z,Tanzania ’s Shilling Declines,Trimming its First Weekly Gain in,Seven
2011-09-02T10:00:00Z,Latvia ’s Second-Quarter Current-Account Surplus,Was,0.9 %
2011-09-02T10:08:10Z,Cotton South Africa,Reduces,Crop Forecast
2011-09-02T10:08:58Z,Greece,on,Two-Year Notes Advances to Euro-Era Record of 46.51 %
2011-09-02T10:12:18Z,TEST RESEARCH August Sales,Fall,Table
2011-09-02T10:12:20Z,Offer,in,November
2011-09-02T10:13:43Z,Saad Group Investment Unit,Sues Founder Al-Sanea in,London Court
2011-09-02T10:21:33Z,Ryanair,Air in,Talks on Thessaloniki Hub
2011-09-02T10:21:33Z,Wizz Air,in,Talks on Thessaloniki Hub
2011-09-02T10:23:45Z,South Africa ’s Ruling ANC,Drop,Disciplinary Action
2011-09-02T10:33:24Z,Zambia,Exceed,2011 Tax Target
2011-09-02T10:34:50Z,Biggest Drop,in,Two Months
2011-09-02T10:35:35Z,Asia Stocks,Snap,Six-Day Win Streak Ahead
2011-09-02T10:54:32Z,Fed Funds Projected,Open at,0.09 ICAP Says
2011-09-02T10:56:23Z,Goldman Sachs,in,Court News
2011-09-02T10:56:23Z,SAP-Oracle,Sachs in,Court News
2011-09-02T11:00:01Z,MAKALOT INDUSTRI August Sales,Fall,Table
2011-09-02T11:08:41Z,Lawmakers,Approve Constitutional Budget Amendment Amid,Protests
2011-09-02T11:08:41Z,Spanish Lawmakers,Approve,Constitutional Budget Amendment
2011-09-02T11:10:30Z,Tsunami Warning,Issued by,USGS
2011-09-02T11:18:55Z,Three-Month Franc Libor,Remains at,Record Low
2011-09-02T11:19:30Z,Uganda Shilling,Heads in,Seven
2011-09-02T11:20:58Z,Treasuries,Poised for,Weekly Advance
2011-09-02T11:21:17Z,Madoff Trustee,Defends Billion Suit Against,JPMorgan
2011-09-02T11:25:14Z,Access Bank,Heads for,High
2011-09-02T11:31:09Z,Chile Central Bank,Was,Unanimous
2011-09-02T11:38:31Z,10 %,in,Year
2011-09-02T11:41:23Z,FMS Wertmanagement,Commits,EU1 Billion
2011-09-02T11:44:12Z,Brazil Government Studying Increase,in,Oil Taxes
2011-09-02T11:50:24Z,Decline First Day,in,Six
2011-09-02T11:55:50Z,Regulator,Loses Bid to,Ban Former Commerzbank Trader
2011-09-02T12:00:02Z,Canada ’s Dollar,Fluctuates on,Concern U.S. Employers
2011-09-02T12:01:12Z,Marubeni,Pays,$ 324 Million
2011-09-02T12:01:17Z,Brazil ’s Quarter Economy Expanded,Matching,Analysts ’ Forecast
2011-09-02T12:01:17Z,Brazil ’s Second Quarter Economy Expanded,Matching,Analysts ’ Forecast
2011-09-02T12:02:32Z,Russia,Prepares Extraction Tax Breaks for,Heavy Oil Deposits
2011-09-02T12:15:27Z,U.S. Treasury Department,Schedule for,Friday
2011-09-02T12:29:53Z,Sarkozy,Maintain Jobs in,Tough Economy
2011-09-02T12:30:03Z,August,for Report,Text
2011-09-02T12:35:18Z,Losses,in,New York
2011-09-02T12:35:18Z,Oil,Extends Losses,U.S. Fails
2011-09-02T12:35:18Z,U.S.,Add,Jobs
2011-09-02T12:35:31Z,Rand,Extends,Drop
2011-09-02T12:35:31Z,U.S. Employment,Stagnated,Last Month
2011-09-02T12:36:59Z,Commodities,Extend,Decline
2011-09-02T12:37:26Z,Gold,Heads in,Three Weeks
2011-09-02T12:38:02Z,Canadian Dollar Declines,Shows Zero U.S. Job Growth in,August
2011-09-02T12:38:02Z,Dollar Declines,Shows Zero U.S. Job Growth in,August
2011-09-02T12:39:38Z,Pound,Extends,Advance
2011-09-02T12:39:41Z,African Stocks,Drop,Yields at Record Low
2011-09-02T12:39:41Z,South African Stocks,Drop,Yields
2011-09-02T12:39:41Z,Stocks,Drop,Yields
2011-09-02T12:43:07Z,U.S. Company Bond Sales,Tumble,Least in 15 Months
2011-09-02T12:43:22Z,Euro,Dollar as,U.S. Jobs Disappoints
2011-09-02T12:43:22Z,Franc,Extends,Gains
2011-09-02T12:43:22Z,Swiss Franc,Extends,Gains Against Euro
2011-09-02T12:44:52Z,Romania,in,Nuclear Reactors
2011-09-02T12:44:52Z,South-Korea ’s BKB May Invest,in,Romania ’s Nuclear Reactors
2011-09-02T12:45:33Z,Novartis CEO,Sees Growth Prospects for,Alcon
2011-09-02T12:48:46Z,Australia Newcastle Coal,Rises,0.8 %
2011-09-02T12:48:46Z,Australia Newcastle Thermal Coal,Rises,0.8 %
2011-09-02T12:49:56Z,Corporate Default Swap Indexes Rise,in,Europe
2011-09-02T12:55:06Z,Congo ’s George Forrest,Takes,Gecamines
2011-09-02T13:03:24Z,Sudanese Armed Forces Clash,With,Opposition Fighters
2011-09-02T13:14:32Z,Industrial Metals,Oil After,U.S. Jobs
2011-09-02T13:20:27Z,Bolt,Qualifies for,Men ’s Final
2011-09-02T13:20:27Z,Campbell-Brown,Wins World 200-Meter Gold,Bolt Qualifies for Men ’s Final
2011-09-02T13:34:19Z,Copper Falls,Stagnates at,9.1 %
2011-09-02T13:34:53Z,Polish Stocks,Decline,Most
2011-09-02T13:34:53Z,Stocks,Decline,Most in Two Weeks
2011-09-02T13:41:40Z,Adverse Weather,Reduces,U.S. Crops
2011-09-02T13:41:40Z,Weather,Reduces,U.S. Crops
2011-09-02T13:43:28Z,Australia,Closes in on,Victory
2011-09-02T13:54:49Z,Consumer Bankruptcies,in,Group Says
2011-09-02T13:55:06Z,EDF Renewables Unit,in,Tidal Power Project
2011-09-02T14:01:40Z,Harrisburg,Faces,Limbo
2011-09-02T14:25:15Z,Turkey Suspends Israel Military Ties,Will Downgrade,Diplomatic Relations
2011-09-02T14:25:21Z,Gross,Says,Operation Twist
2011-09-02T14:44:18Z,Polish President,Condemns,Vandalism
2011-09-02T14:49:18Z,SNB May,Buy,Euros
2011-09-02T14:58:41Z,Rand Slides,Paring,Weekly Gain
2011-09-02T15:08:29Z,California ’s Revenue Anticipation Notes Win Highest S&P Rating,in,4 Years
2011-09-02T15:08:45Z,Banks,Overwhelmed by,Mortgage Refinancing
2011-09-02T15:14:54Z,European Banks,Slide as,Concern on Economic Recovery
2011-09-02T15:15:56Z,Manufacturers,Buy,Dollars
2011-09-02T15:16:39Z,Lira,Depreciates,Most
2011-09-02T15:20:01Z,Koruna,Weakens,Czech Shares Tumble
2011-09-02T15:25:22Z,Study,Pay,Disputed
2011-09-02T15:33:16Z,African Stocks,Halt,Week-Long Rally
2011-09-02T15:33:16Z,South African Stocks,Halt Week-Long Rally,U.S Employment Growth Falters
2011-09-02T15:33:16Z,Stocks,Halt,Week-Long Rally
2011-09-02T15:38:39Z,Franc,Surges,Third Day
2011-09-02T15:38:39Z,Swiss Franc,Surges,Day on U.S. Job Stagnation
2011-09-02T15:41:09Z,DuPont,Sues,Heraeus
2011-09-02T15:44:54Z,ArcelorMittal S. Africa,Secures,Steel Supply
2011-09-02T15:49:17Z,Forint,Slips,Day Versus Franc
2011-09-02T15:49:25Z,Stocks,Climb to,Overweight
2011-09-02T15:49:25Z,Turkish Stocks,Climb to,Overweight
2011-09-02T15:51:28Z,Billionaire Prokhorov May Run,in,2012
2011-09-02T15:51:28Z,Presidency,for Run,RIA
2011-09-02T15:54:08Z,Bonds,Fall for,Bunds Rise
2011-09-02T15:54:08Z,Italian Bonds,Fall for,Bunds Rise
2011-09-02T15:55:46Z,Ireland ’s Budget Deficit,Widens on,Bank-Recapitalization Costs
2011-09-02T16:07:00Z,Heat,Erodes,U.S. Crop
2011-09-02T16:07:40Z,Virgin Money,to,Bid for Northern Rock
2011-09-02T16:08:02Z,15th Arrest,in,News Corp
2011-09-02T16:08:02Z,London Police,Make,Arrest
2011-09-02T16:26:35Z,U.S. Tanker Trucks,Need,Anti-Rollover Retrofits
2011-09-02T16:28:56Z,BP,Buys,Europe Gasoil Cargo
2011-09-02T16:29:35Z,Most,by Market,JPMorgan
2011-09-02T16:37:40Z,EU,Protect,Markets From High-Frequency Threat
2011-09-02T16:39:21Z,Cut Fuel Oil Shipments,to Change,JBC
2011-09-02T16:51:13Z,Evergreen Creditors Fight Plan,Move to,China
2011-09-02T16:52:49Z,Report,Shows,U.S. Jobs Growth
2011-09-02T17:07:39Z,Chilean Peso,Weakens,U.S. Employment Stagnates
2011-09-02T17:07:39Z,Peso,Weakens,U.S. Employment Stagnates
2011-09-02T17:07:39Z,U.S. Employment,Stagnates,Copper Drops
2011-09-02T17:08:40Z,Warehouse Owner Erus Metals,in,England
2011-09-02T17:16:19Z,RBC Capital,Hires Dougherty for,Loan Sales
2011-09-02T17:28:59Z,ETF Volume,Surges,Most Since 2008 Amid Volatility
2011-09-02T17:38:35Z,Tropical Storm Lee Forms,in,Gulf of Mexico
2011-09-02T17:52:31Z,U.S. Gulf Crude Premiums,Strengthen,Gap Widens
2011-09-02T17:53:42Z,Brazil,Continue,Rigorous Inflation Fight
2011-09-02T17:53:42Z,Mantega,Says,Brazil
2011-09-02T18:02:08Z,Germany,’,GDL Union Calls Nord-Ostsee-Bahn Drivers
2011-09-02T18:10:02Z,Buffalo Gulf Coast Terminals,Seek,$ 275 Million Term Loan
2011-09-02T18:12:38Z,CFO,Says in,Internal Memo
2011-09-02T18:26:35Z,Harvard ’s Frankel,Sees,Weak U.S. Economy
2011-09-02T18:29:50Z,First Solar,Gets,Million Guarantees
2011-09-02T18:30:27Z,IMF,Says,Spillover Effects Prominent
2011-09-02T18:30:27Z,Spillover Effects,Prominent in,Financial Markets
2011-09-02T18:40:29Z,Serbia,Ban After,Customs Document Accord
2011-09-02T18:41:21Z,AFL-CIO ’s Trumka,Urges,Obama
2011-09-02T18:48:14Z,Decker,Acquires,95 % of Sweden ’s Niscayah
2011-09-02T18:48:14Z,Stanley Black,Acquires,95 % of Sweden ’s Niscayah
2011-09-02T18:48:14Z,Sweden,of,Niscayah
2011-09-02T19:05:31Z,John Isner,Defeats Robby Ginepri in,Straight
2011-09-02T19:09:38Z,Mayors,Call for,Job Creation
2011-09-02T19:29:46Z,Wheat,Climbs,Most in Week
2011-09-02T19:43:00Z,Futures,Tumble,Most
2011-09-02T20:15:32Z,GM,Retains,Former Vice Chairman Lutz
2011-09-02T20:16:20Z,Former Champion Maria Sharapova,Upset at,US Open Tennis
2011-09-02T20:21:17Z,SunTrust,Ruling on,Overdraft Fees
2011-09-02T20:22:34Z,BofA,Sued Over,Mortgage-Backed Securities
2011-09-02T20:23:02Z,U.S Employment Stagnated,in,August
2011-09-02T20:29:27Z,S&P 500,Out,Weekly Gain
2011-09-02T20:29:27Z,U.S. Stocks,Drop as,Jobs Report Wipes
2011-09-02T20:30:55Z,Campbell ’s Profit,Tops,Analysts ’ Estimates
2011-09-02T20:37:37Z,DaVita,Sell,29 Clinics
2011-09-02T20:44:06Z,Former Ohio State Coach Jim Tressel,Hired by,Colts
2011-09-02T21:01:44Z,EU,Pits,Alberta Beef
2011-09-02T21:01:44Z,Quebec Dairy Products,in,Canada Trade Talks
2011-09-02T21:06:13Z,Corona Brewer,Gain on,Staple Demand
2011-09-02T21:10:27Z,U.S. Corporate Credit Risk Gauge,Climbs,Employment Stagnates
2011-09-02T21:14:41Z,American Donald Young,Beats,No. 14 Wawrinka
2011-09-02T21:21:36Z,10-Year Yield,Nears,Record Low
2011-09-02T21:21:36Z,Yield,Nears,Record Low
2011-09-02T21:25:31Z,England,Beats,Bulgaria
2011-09-02T21:25:31Z,Germany,Qualifies for,Euro Soccer Championship
2011-09-02T21:33:17Z,Medicis CEO,of,Girlfriend
2011-09-02T21:39:23Z,Solarworld Closing Plant,With,China
2011-09-02T21:39:46Z,Dish,Said to,Stream Blockbuster Films to Challenge Netflix
2011-09-02T21:45:22Z,Fall First Day,in,Six
2011-09-02T21:49:45Z,Accounting-Fraud Allegation,in,Anonymous Letter
2011-09-02T21:53:02Z,Failure Tally,Climbs to,70
2011-09-02T21:53:02Z,Georgia Commerce,Buys,Two Lenders
2011-09-02T21:53:40Z,IMF,Says,Irish Progress With Bank Reforms
2011-09-02T21:53:40Z,Irish Progress With Bank Reforms,Approves,Payment
2011-09-02T21:53:40Z,Progress With Bank Reforms,Approves,Payment
2011-09-02T22:04:12Z,Peru Bonds Post Longest Winning Streak,in,11 Months on Upgrade
2011-09-02T22:09:45Z,Dominion,Says,Crack Found at North Anna Containment Building
2011-09-02T22:25:52Z,SEC,Freezes,Assets of Firm Cited in Life Settlement Broker Case
2011-09-02T23:00:00Z,20 New Brands,in,Stores
2011-09-02T23:47:13Z,Asian Stocks,Pare,Slump
2011-09-02T23:47:13Z,Stocks,Pare Slump Before,Jobs Report
2011-09-03T04:00:00Z,U.S. Stocks,Fall as,Employment Data Fuels Recession Concerns
2011-09-03T04:01:00Z,David Bohnett,Woos,Dudamel
2011-09-03T04:01:00Z,Scientology Racks,Reveals,Victoria ’s Secret
2011-09-03T04:01:00Z,Tiger Woods,Should Visit,Duvall ’s Utopia
2011-09-03T04:01:03Z,Business,in,Abandoning Ozone Rule
2011-09-03T04:01:03Z,Obama Sides,With,Republicans
2011-09-03T04:01:03Z,Republicans,Business in,Abandoning Ozone Rule
2011-09-03T04:18:11Z,Roddick,Wins,Nebraska Showdown
2011-09-03T04:54:38Z,Indonesia,Convince WTO on,U.S. Clove-Cigarette Ban
2011-09-03T12:26:35Z,It,Heads Toward,Louisiana Coast
2011-09-03T12:26:35Z,Storm Lee,Strengthens in,Gulf
2011-09-03T12:26:35Z,Tropical Storm Lee,Strengthens,It Heads
2011-09-09T06:44:35Z,Bond Risk,Rises in,Europe
2011-09-09T06:44:35Z,Corporate Bond Risk,Rises in,Europe
2011-09-29T14:57:04Z,AMR,in,Bid
