2011-07-03T00:30:04Z,Chavez,Has,El Periodico
2011-07-03T01:09:03Z,China Non-Manufacturing Index Slumps,in,June
2011-07-03T04:00:00Z,Trenton Thunder,in,Tune-Up Start
2011-07-03T04:01:08Z,Payrolls,in,U.S. Probably Rose
2011-07-03T04:47:55Z,Hana May,Seek,Price
2011-07-03T05:06:53Z,Etihad Airways,Considers,Global Partnership
2011-07-03T07:16:49Z,Terra Firma,Begins,New Fund Conversations
2011-07-03T07:52:08Z,Persian Gulf Shares Advance,Led by,Dubai
2011-07-03T08:27:47Z,Qatari Diar Opens Hotel Schweizerhof,in,Bern
2011-07-03T08:31:25Z,Premier Foods Investors,Seek,Telegraph Reports
2011-07-03T09:00:00Z,8.8 %,in,1st Quarter
2011-07-03T09:02:33Z,Lib Dem Lawmakers Demand U.K. Bank Split,in,Letter
2011-07-03T09:21:16Z,Brazil,in,Espirito Santo Basin
2011-07-03T09:21:16Z,Onshore Well,in,Brazil ’s Espirito Santo Basin
2011-07-03T09:21:16Z,Vipetro Discovers Oil,in,Onshore Well
2011-07-03T09:25:03Z,Two Thirds,News of,World Poll
2011-07-03T10:20:59Z,Saudi Petrochemicals Exports,Jump,20 %
2011-07-03T10:37:50Z,Vatican Returns,in,2010
2011-07-03T11:05:56Z,McDonald ’s UAE,in,Venture
2011-07-03T11:42:56Z,Carrefour May,Negotiate for,Antitrust Approval
2011-07-03T12:01:38Z,European Missile Shield,With,NATO
2011-07-03T12:01:38Z,Libya,Shield With,NATO
2011-07-03T12:44:14Z,Abhisit Concedes Defeat,in,Thai Election
2011-07-03T12:53:24Z,OPIC,Secures Million Lending to,Egypt
2011-07-03T13:09:36Z,Paragon May,Consider,Offer for Northern Rock
2011-07-03T13:17:02Z,Daimler,Welcome,Chinese Investors
2011-07-03T13:21:53Z,England Scores 246-7,in,One-Day Cricket Match Against Sri Lanka
2011-07-03T14:01:00Z,Gillard Exempts Gasoline,in,Bid
2011-07-03T14:29:35Z,Djokovic,Leading Nadal 2 Sets to,0
2011-07-03T14:29:35Z,He,Seeks,His First Wimbledon Title
2011-07-03T14:31:59Z,28 %,in,April
2011-07-03T14:38:22Z,Newspaper,Over,Olympic Stadium Bid Claims
2011-07-03T14:38:22Z,Taking,Action Over,Newspaper ’s Olympic Stadium Bid Claims
2011-07-03T14:38:22Z,West Ham,Taking,Legal Action
2011-07-03T14:39:05Z,Pickles Letter,Is,Leaked
2011-07-03T14:58:18Z,Inter RAO,Restores Power in,Full on Debt Payment
2011-07-03T15:18:25Z,German Coalition,Agrees,Bild Reports
2011-07-03T15:26:04Z,Obama ’s Afghanistan Plan,Creates,Risk
2011-07-03T16:01:00Z,$ 1.1 Billion,in,Hong Kong IPO
2011-07-03T16:01:00Z,Sun Art Retail Group,Raise,Up to Billion
2011-07-03T16:19:20Z,Greece,Send Flotilla Aid to,Gaza
2011-07-03T16:23:57Z,Garmin,Wins,Time Trial
2011-07-03T16:23:57Z,Hushovd,Takes,Yellow Jersey in Tour de France
2011-07-03T16:23:57Z,Yellow Jersey,in,Tour de France
2011-07-03T16:24:55Z,Foster,Slips in,Final Round
2011-07-03T16:24:55Z,Thomas Levet,Wins,French Open Golf Title
2011-07-03T17:07:01Z,Sudan,Is,Very Tense
2011-07-03T17:45:09Z,Sri Lanka,Take,2-1 Lead
2011-07-03T18:28:58Z,Israel Signs Cooperation Agreement,With,China
2011-07-03T18:31:36Z,Egypt Cabinet,Gives,Approval
2011-07-03T20:00:02Z,Middle East Turmoil Beaten,in,Yields
2011-07-03T20:35:25Z,TNK-BP ’s Chief,Urges,FT Reports
2011-07-03T20:35:25Z,TNK-BP ’s Incoming Chief,Urges,Independent Management
2011-07-03T21:07:37Z,Japan,’s Calls,FT
2011-07-03T22:00:00Z,Bugatti Outfits,With,Berlin Porcelain Caviar Tray
2011-07-03T22:26:50Z,Euro,Strengthens on,Speculation European Central Bank Will Increase Rates
2011-07-03T22:45:00Z,Soybeans,May Rise According to,Survey
2011-07-03T22:46:23Z,Chris Patten Will,Say,FT Reports
2011-07-03T23:00:01Z,Kind,in Donations,Deloitte
2011-07-03T23:00:01Z,Lautrec,’s Gyrates,Vorticists Explode
2011-07-03T23:00:01Z,Pritzker Winner Zumthor ’s Serpentine Pavilion,Is,Retreat
2011-07-03T23:00:01Z,U.K. Companies Favor Donations,in,Kind Over Cash
2011-07-03T23:00:01Z,United Continental,EU Over,Airline Carbon Curbs
2011-07-03T23:01:00Z,CBI Survey,Says About,Employment
2011-07-03T23:01:00Z,Germany,Raises,Borrowing Targets More Than 10 % on Costs of Bailout
2011-07-03T23:01:00Z,Novak Djokovic,Uses,Gained Confidence
2011-07-03T23:01:00Z,U.K. Banks Least Optimistic,Says About,Employment
2011-07-03T23:01:00Z,U.K. Employment Creation,Accelerates on,Engineers
2011-07-03T23:10:55Z,Hynix,Gets,Bids for Stake
2011-07-03T23:16:17Z,Chi-X Takeover,in,Doubt
2011-07-03T23:58:58Z,Capture,in,Raid
2011-07-03T23:58:58Z,Death,to Close,Colombia
2011-07-03T23:58:58Z,FARC Leader Close,Capture in,Raid
2011-07-04T00:40:09Z,May,Help,PRI
2011-07-04T03:25:31Z,Traders,Diverging From,Stevens
2011-07-04T04:01:00Z,Six Yankees,Make,AL Team
2011-07-04T04:01:00Z,Watney,Wins AT&T National for,2nd PGA Golf Tour Title of 2011
2011-07-04T04:01:00Z,Yankees,Make,AL Team
2011-07-04T04:06:10Z,Mets Beat Yankees 3-2,in,10 Innings
2011-07-04T04:06:10Z,Sweep,in,Interleague Series
2011-07-04T04:32:06Z,Chimp Expert Goodall,Teach,Wealthy Children
2011-07-04T04:32:06Z,UBS,Enlists,Chimp Expert Goodall
2011-07-04T06:07:05Z,China Non-Manufacturing Index Slumps,in,June
2011-07-04T06:15:04Z,Euro,Rises on,ECB Interest Rate Speculation
2011-07-04T06:39:01Z,Greece,Buys Time as,Euro Ministers Press Investor Talks
2011-07-04T08:21:01Z,Dlamini,Keep Currency Peg,Swaziland Runs
2011-07-04T08:21:01Z,Swaziland,Runs for,Wages
2011-07-04T11:40:43Z,Wimbledon Champion Kvitova,Shows,Emotion
2011-07-04T11:49:09Z,Standard Bank Unit,Gets License for,Banking Operations
2011-07-04T13:01:32Z,Cornyn,Says,Republicans May Accept Mini Deal
2011-07-04T16:12:28Z,William Hill,Is Seeking Nevada Bets on,Palin
2011-07-07T02:39:39Z,Colombia,Holds,Argentina 0-0
