2011-05-14T00:13:26Z,Ecopetrol Board,Approves,Next Stage of Barrancabermeja Project
2011-05-14T00:19:52Z,Asian Stocks,Fall for,Week
2011-05-14T00:19:52Z,Banks Decline,in,China
2011-05-14T00:19:52Z,Stocks,Fall for,Week
2011-05-14T01:01:56Z,Nuclear-Plant Emergency Equipment Flaws,Cited in,Checks
2011-05-14T01:42:59Z,Tokyo Electric Increases Crude Oil Use,in,April
2011-05-14T03:00:08Z,Government Land,in,Malaysia
2011-05-14T03:00:08Z,Sunway,Wins,Bid
2011-05-14T04:00:11Z,Treasuries,Drop Amid,Mixed Economic Data
2011-05-14T04:01:01Z,Harvard Paid Endowment CEO Jane Mendillo,in,2009
2011-05-14T05:05:57Z,New York Rangers ’ Derek Boogaard,Is,Dead
2011-05-14T06:00:57Z,Australian Finance Minister Wong,Says,Positive Budget Aims
2011-05-14T06:00:57Z,Finance Minister Wong,Says,Budget Aims to Boost Jobs
2011-05-14T07:15:07Z,M&S,Hires Marcel Wanders to,Design Homewares Range
2011-05-14T08:54:40Z,Berlin Philharmonic,Quits,Scandal-Hit Salzburg Easter Festival
2011-05-14T09:34:35Z,Aviva ’s RAC Deal Expected,in,Weeks
2011-05-14T09:47:28Z,Dutch Finance Minister,Opposes,Aid
2011-05-14T10:00:59Z,Weise,Says,Germany Needs
2011-05-14T10:01:38Z,Kenya Energy Regulator Increases Most-Commonly,Used by,3.8 %
2011-05-14T10:23:07Z,Spain ’s Renta Corporacion Increases Losses,in,Firsts Quarter
2011-05-14T10:34:20Z,Debt,Invest in,Le Soir
2011-05-14T10:58:32Z,Medvedev,Renews,Calls for Joint Anti-Missile Shield
2011-05-14T11:05:01Z,DZ ’s Koehler,Says,Basel III Will Hurt Profits
2011-05-14T11:45:42Z,Morel,Tells,Investir
2011-05-14T12:21:24Z,U.K. Foreign Office,Investigates,Abduction of Briton
2011-05-14T12:36:41Z,Ahmadinejad,Fires,Industry Ministers Amid Feud
2011-05-14T12:36:41Z,Feud,With,Parliament
2011-05-14T12:36:41Z,Iran Oil,Ministers Amid,Feud With Parliament
2011-05-14T12:37:03Z,Bob Dylan,Denies Censorship on,Beijing
2011-05-14T12:59:53Z,Nobel Laureate Yunus,Opposes,Plan
2011-05-14T13:01:35Z,French Open,With,Abdominal Injury
2011-05-14T13:19:16Z,Turkey ’s Bacheli,Called After,Sex-Tape Release
2011-05-14T13:34:22Z,Obama Taking Steps,Aimed at,Boosting Domestic Oil Output
2011-05-14T13:39:10Z,Manchester United,Wins,Record English Soccer Title With Rooney ’s Goal
2011-05-14T13:43:57Z,Johnny Depp Returns,in,Pirates
2011-05-14T13:46:55Z,Syria,Extends Crackdown on,Protesters
2011-05-14T14:01:31Z,One,Wounded in,Attack
2011-05-14T14:37:04Z,Saudi Shares,Snap,Economy
2011-05-14T14:37:04Z,Winning,Streak on,Swinging Oil Prices
2011-05-14T14:39:03Z,Mississippi River Floodgate,Inundating,Cajun Area
2011-05-14T14:59:58Z,Telebras,With Work,Folha
2011-05-14T14:59:58Z,Telecom Italia May Work,With,Telebras on Broadband
2011-05-14T15:01:15Z,Wolves,Win to,Boost Premier League Survival Chances
2011-05-14T15:15:00Z,India,Raises Gasoline Prices To,Cut Losses At State-Run Refiners
2011-05-14T15:55:19Z,Manchester United,Wins,Record English Soccer Title With Rooney ’s Goal
2011-05-14T15:56:34Z,Manchester City,Defeats,Stoke City 1-0 in F.A. Cup Soccer Final
2011-05-14T15:56:34Z,Stoke City 1-0,in,F.A. Cup Soccer Final
2011-05-14T16:07:48Z,English Soccer,of,F.A. Cup Champions
2011-05-14T16:17:16Z,France ’s Radical Party Votes,Says From,UMP
2011-05-14T16:17:16Z,Le Parisien,Says From,UMP
2011-05-14T16:44:49Z,Manchester City,Defeating,Stoke
2011-05-14T16:44:52Z,Ebola Virus,in,Uganda
2011-05-14T16:44:52Z,Girl,Dies in,Outbreak of Ebola Virus in Uganda
2011-05-14T16:44:52Z,Girl 12,Dies in,Outbreak
2011-05-14T16:45:57Z,35 %,Mideast by,85 %
2011-05-14T16:45:57Z,ExxonMobil,Says Global Energy Demand to,Gain
2011-05-14T16:59:25Z,Group,Banks to,Counter LSE Offer
2011-05-14T16:59:25Z,TMX Group,Gets,Bid
2011-05-14T17:44:20Z,May,Be,Irrevocable
2011-05-14T17:52:41Z,Prime Minister,Wins,Ruling Party Elections
2011-05-14T17:52:41Z,Romanian Prime Minister,Wins,Ruling Party Elections
2011-05-14T18:16:29Z,John Hopkins,Beats,Hofstra 12-5
2011-05-14T18:26:53Z,Mississippi River Floodgate,Inundating,Cajun Area
2011-05-14T18:45:45Z,Finger,Print Verification for,Voting
2011-05-14T19:24:46Z,Wallace McCain,Dies at,Age of 81
2011-05-14T20:17:21Z,Barges Strike,Bridge in,Baton Rouge
2011-05-14T20:17:21Z,Close Mississippi River Bridge,in,Baton Rouge
2011-05-14T21:31:11Z,Mississippi River Floodgate Opens,Inundating Cajun Country in,Louisiana
2011-05-15T01:55:35Z,Djokovic,Take,Win Streak
2011-05-15T04:01:00Z,Duke Win,in,NCAA ’s Lacrosse Tournament Openers
2011-05-15T04:01:00Z,Hopkins,Win in,NCAA ’s Lacrosse Tournament Openers
2011-05-15T04:01:00Z,NCAA,in,Lacrosse Tournament Openers
2011-05-15T05:52:39Z,Sony,Resumes,Europe
2011-05-16T04:07:04Z,Pakistan,Rejects,Challenges
