2011-07-17T04:00:33Z,Construction,Starts,Probably Rose From Depressed Levels
2011-07-17T04:53:44Z,Uruguay,Beats Argentina in,Shootout
2011-07-17T05:09:26Z,Egypt,’s Job,Ahram
2011-07-17T05:09:26Z,Egypt ’s Radwan May Lose Job,in,Cabinet Reshuffle
2011-07-17T05:29:54Z,Kansai Electric,Faces,August Power Shortage
2011-07-17T08:33:23Z,Clarke,Has,One-Shot Lead
2011-07-17T08:47:59Z,Jordan,Detains Policemen After,Beatings
2011-07-17T08:55:34Z,Ecclestone,Says,News Corp
2011-07-17T09:05:25Z,Sahara,Heads for,Biggest Drop
2011-07-17T09:11:23Z,England Names Bowler Bresnan,in,Squad for India
2011-07-17T09:36:11Z,Bangladesh Stocks,Fall After,Finance Chief
2011-07-17T10:12:22Z,China Suntien Green Energy,Sees,1st-Half Profit
2011-07-17T10:12:53Z,Economy,Grows Below,Estimate
2011-07-17T10:12:53Z,Israeli Economy,Grows,4.6 %
2011-07-17T10:25:11Z,GreaterChina Professional May,Buy,20 % of Investor Relations Firm
2011-07-17T10:41:01Z,Italian Politics Fuel Market Concern,Tells,Corriere
2011-07-17T10:41:01Z,Politics Fuel Market Concern,Tells,Corriere
2011-07-17T10:42:05Z,Volkswagen CEO,Sees Savings With,MAN
2011-07-17T10:47:04Z,Clinton,Says,U.S. Stands by Greek Strategy to Deal
2011-07-17T10:47:04Z,Greek Fiscal Strategy,With,Debt Crisis
2011-07-17T10:55:28Z,Rogoff,Tells,Corriere
2011-07-17T11:09:13Z,Roubini,Says,Italy Needs
2011-07-17T11:56:13Z,Denmark,Set Up,Million Energy Fund
2011-07-17T12:00:48Z,Eurobonds,Undermine,Incentives
2011-07-17T12:00:48Z,Weidmann,Tells,Bild
2011-07-17T12:20:24Z,Germany,Approved,Sale
2011-07-17T12:21:15Z,Woman,Arrested Over,Phone Hacking Probe
2011-07-17T12:34:26Z,Saleh,of,Rule
2011-07-17T12:34:26Z,Yemeni,Hold,Pro-Democracy Rallies
2011-07-17T12:54:53Z,Start Drilling,to Subsidiary,Nofal
2011-07-17T13:06:32Z,Murdoch,Makes,Fresh Hacking Apology
2011-07-17T13:48:47Z,Clarke,Leads,Johnson
2011-07-17T13:48:47Z,Golf,of,British Open
2011-07-17T14:01:00Z,Gillard,Spends Million as,Polls Slump
2011-07-17T14:17:30Z,Mickelson Ties Clarke,in,Final Round of British Open
2011-07-17T14:27:18Z,Clarke,Tied for,Lead
2011-07-17T14:44:03Z,German Deficit Fall May Exceed Plan,in,2012
2011-07-17T14:46:34Z,Clarke,Leads Mickelson by,Two Strokes During Final Round
2011-07-17T15:03:16Z,Poland,’s Tarnawa,Parkiet
2011-07-17T15:06:40Z,Harry Potter ’ Finale,Sets,Record $ 168.6 Million
2011-07-17T15:17:29Z,Inflation,Confirms,Rate Bets
2011-07-17T15:22:51Z,Cycling,of,Tour de France
2011-07-17T15:22:51Z,Mark Cavendish,Wins,15th Stage
2011-07-17T15:28:00Z,Brother,on,Trip
2011-07-17T15:32:29Z,Clarke,Leads Mickelson by,Two Shots
2011-07-17T15:35:22Z,Clinton,Set,Cheer
2011-07-17T15:35:22Z,U.S. Women,on,Team in World Cup Final
2011-07-17T15:35:22Z,U.S. Women ’s Team,in,World Cup Final
2011-07-17T15:41:00Z,GDF,Listed for,Jordan Energy Project
2011-07-17T15:52:02Z,Ireland ’s Shannon Airport,Reopens After,Landing Incident
2011-07-17T15:55:26Z,Clarke,Leads Johnson by,Mickelson by Three at British Open
2011-07-17T15:55:26Z,Two Shots,Mickelson at,British Open
2011-07-17T16:02:58Z,Clinton,Pursue,Reforms
2011-07-17T16:20:29Z,Clarke,Leads,Johnson
2011-07-17T16:20:29Z,Three Shots,in,British Open Final Round
2011-07-17T16:28:22Z,Colombia,Sets,Reward After Kidnapping of Workers
2011-07-17T17:05:10Z,Clarke,Wins Open Golf by,Three Strokes Over Mickelson
2011-07-17T17:09:52Z,Egypt ’s Mubarak,in,Coma
2011-07-17T17:50:49Z,Clarke Beats Mickelson,Johnson by,3 Shots
2011-07-17T17:52:53Z,Robin Soderling,Beats Ferrer in,Straight Sets in Swedish Open Final
2011-07-17T17:52:53Z,Straight Sets,in,Swedish Open Final
2011-07-17T18:46:22Z,Drop,in,Blood Pressure
2011-07-17T19:38:16Z,Japan,Tied,0-0
2011-07-17T19:38:16Z,Women,of,World Cup Soccer Final
2011-07-17T20:00:01Z,NBAD,Woos,Japan Investors
2011-07-17T20:00:02Z,Arab Spring,Pits,Saudi Security Against U.S. Support
2011-07-17T20:12:32Z,Brooks,Is,Arrested
2011-07-17T20:12:32Z,Murdoch,Makes Fresh Apology Amid,Phone-Hacking Probe
2011-07-17T20:39:51Z,Euro,Extending,Declines
2011-07-17T21:06:53Z,N.Z. Government,Extends,Lead
2011-07-17T21:22:11Z,Japan,Beats,U.S.
2011-07-17T21:22:11Z,U.S.,Earn,First Women ’s World Cup Soccer Title
2011-07-17T21:45:15Z,30,Fighting Among,Factions
2011-07-17T21:45:15Z,Fighting,Kills,30
2011-07-17T21:45:15Z,Syria,Expands Crackdown on,Protesters
2011-07-17T21:46:23Z,Lloyds Branch Bidders,Seek,Telegraph
2011-07-17T22:00:01Z,Voeckler,Keeps,Race Lead
2011-07-17T22:12:45Z,Gold Advances,Poised on,Demand Haven
2011-07-17T22:16:28Z,U.K. Police Chief Stephenson,Quits on,News Corp
2011-07-17T22:49:22Z,CPI,Climbed,More
2011-07-17T23:00:00Z,Banking Run,Is Year After,Dodd-Frank
2011-07-17T23:00:00Z,Contagion,in,Three Forms
2011-07-17T23:00:00Z,Soybeans,May Rise as,Hot Weather Threatens U.S. Yields
2011-07-17T23:00:01Z,U.K. Business Insolvency Rate Dropped,in,June
2011-07-17T23:00:01Z,Wareing ’s St. Pancras Restaurant,Has,Nostalgia
2011-07-17T23:01:00Z,Darren Clarke Ends,20-Year Wait for,First Major
2011-07-17T23:47:31Z,Japan,Beats,U.S.
2011-07-18T01:04:39Z,Samoa Signals Rugby World Cup Danger,With,32-23 Upset Win Over Australia
2011-07-18T04:00:00Z,PKO May,Be,Active
2011-07-18T06:23:23Z,Sberbank,Enters Ex-Satellites as,$ 13 Billion East Europe Bank Deals Loom
2011-07-18T07:16:49Z,Samsung,in,Talks
2011-07-18T08:36:11Z,Roche Pharmaceutical Margins,Increased,SZ Reports
2011-07-18T09:23:20Z,Bomb Squads,Race Against,Time
2011-07-18T09:23:20Z,German Bomb Squads,Find,Aged World War II Explosives
2011-07-18T10:13:52Z,Fed ’s Recovery Forecast,Buoyed by,Dudley Expecting Dollar-Driven Exports
2011-07-18T10:17:40Z,Factory Output Gains,With,Toyota
2011-07-18T10:17:40Z,Japan,Stocks World as,Factory Output Gains
2011-07-18T15:13:19Z,Aussie,Decline as,Europe Debt Concern Curbs Demand
2011-07-18T15:13:19Z,Risk,for Aussie,Kiwi Dollars Decline as Europe Debt Concern Curbs Demand
2011-07-18T15:20:53Z,Murdoch,Struggles to,Control News Corp.
2011-07-18T15:47:55Z,U.K. Stocks,Slide as,RBS
2011-07-18T15:48:06Z,EU Bank Stress Tests,Missing,Sovereign Defaults Fail
2011-07-18T19:18:53Z,Darren Clarke ’s Open Win,Gives,Northern Ireland
2011-07-18T20:08:35Z,Bulls,Record,S&P 500 Return
2011-07-18T21:52:16Z,Potter Finale,Has,Record Million
2011-07-19T17:23:48Z,Southwest Pilot Unions,Reach,Accord
