2011-03-12T00:30:24Z,Global Reinsurers,May Sidestep,Costs
2011-03-12T00:30:24Z,Japan,Faces,Most Losses
2011-03-12T00:30:24Z,Reinsurers,May Sidestep,Costs
2011-03-12T00:30:52Z,Sniffer Dogs,Offers Help to,Japan
2011-03-12T01:14:21Z,Qaddafi,’s Plane,Firepower Advantage
2011-03-12T01:14:21Z,Qaddafi ’s Plane,Puts,Libyan Rebels on Defensive
2011-03-12T01:47:55Z,Ireland Bid,Rejected on,Increasing Taxes
2011-03-12T01:59:58Z,Papandreou,Says,Help
2011-03-12T02:15:22Z,HP Probe,Says,More Time
2011-03-12T02:15:22Z,Hurd,of,Departure Needs
2011-03-12T02:15:22Z,Lawyer,Says,More Time
2011-03-12T04:04:25Z,Gas,Released From,Plant Damaged
2011-03-12T04:04:25Z,Japan,by,EarthQuake
2011-03-12T04:04:25Z,Radioactive Gas,Released From,Plant
2011-03-12T04:57:32Z,Icahn Investment Lawson Software,Gets,Infor Takeover Offer
2011-03-12T05:00:01Z,BHP Billiton,Wins U.S. Deep-Water Drilling Permit,Oil Surges
2011-03-12T05:00:07Z,Leaders,Set Stage to,Address Debt Crisis
2011-03-12T05:00:07Z,Spider-Man,Sets,June 14 Opening
2011-03-12T05:00:23Z,Libya Turmoil,Bolsters Demand at,Debt Auctions
2011-03-12T05:00:27Z,Canadian Currency,Touches Risk Appetite in,3 Years
2011-03-12T05:00:27Z,Currency,Touches Strongest Level in,3 Years on Oil
2011-03-12T05:01:00Z,Hunter Mahan,Holds,Lead in Cadillac Golf
2011-03-12T05:01:00Z,Reports,Damp,Optimism
2011-03-12T05:01:00Z,SEC,Notifies,Fannie Mae Ex-CEO Mudd
2011-03-12T06:54:27Z,Earthquake Relief,in,Japan
2011-03-12T07:00:00Z,Investors,Back Bets on,BOE Rate Increases
2011-03-12T07:04:06Z,Niger,in,Presidential Runoff Election
2011-03-12T07:04:06Z,Salou,Casts,Ballot
2011-03-12T08:03:46Z,Japan Reactor Fuel Rods,May Have,Begun
2011-03-12T08:05:14Z,South Sudan,’s Attack,Spokesman
2011-03-12T08:09:00Z,China Will,Hold,Local Governments
2011-03-12T09:22:50Z,BMW,Reaches,Auto News
2011-03-12T09:24:35Z,Moody,’s Rating,Expansion Reports
2011-03-12T09:38:17Z,Berliner,Cites,Schmitz
2011-03-12T09:38:17Z,Europe Debt Crisis,Poses,Insurer Danger
2011-03-12T09:55:43Z,Euro,am,Sonntag Reports
2011-03-12T09:56:51Z,Nick Clegg,Wring,Neck
2011-03-12T09:58:36Z,Former Central Banker,Criticizes,FT
2011-03-12T09:58:36Z,Former Libyan Central Banker,Criticizes,FT
2011-03-12T09:59:36Z,CEO,Tells,Expansion
2011-03-12T10:34:56Z,Paddy Power,Transferring,Spread Betting
2011-03-12T10:43:22Z,Mercedes Wo Start Production,in,Russia
2011-03-12T10:57:33Z,Exempt,in,Small Business
2011-03-12T11:00:00Z,Women,for,Equality
2011-03-12T11:15:56Z,Ukraine,’s Government,Companies Agree to Cap Petroleum Prices
2011-03-12T11:15:56Z,Ukraine ’s Government,Agree to,Cap Petroleum Prices
2011-03-12T11:16:03Z,OHL,Globalvia to,Bid
2011-03-12T11:24:57Z,Lehman Investigation,Hits,WSJ
2011-03-12T12:08:42Z,Nigeria Military Intercept Explosive Devices,in,Jos
2011-03-12T12:10:30Z,CEO,Tells,Investir
2011-03-12T12:10:30Z,Natixis Dividend Policy,Be,Lasting
2011-03-12T12:13:58Z,Earthquake,in,Japan Shutters Plants
2011-03-12T12:22:06Z,Berlusconi,Says,Broad Debt Definition Part of EU Agreement
2011-03-12T12:40:53Z,Welt,am,Sonntag
2011-03-12T12:53:38Z,Lufthansa Will,Hire Spiegel Reports,Year
2011-03-12T13:10:26Z,Everton,'s Rodwell,Sun Reports
2011-03-12T13:10:26Z,Manchester United,Sign,Everton 's Jack Rodwell
2011-03-12T13:17:14Z,Advance,Fails,Occur
2011-03-12T13:33:00Z,Niger Voters,Restore,Civilian-Led Rule
2011-03-12T13:33:42Z,Europe,Boosts,Bailout Fund
2011-03-12T14:31:45Z,Arab League Gathers,in,Cairo
2011-03-12T14:36:07Z,Ukraine Increased Russian Gas Transit,in,February
2011-03-12T14:38:05Z,Sequana,Sees,Higher 2011 Operating Performance
2011-03-12T14:41:46Z,Bolton,Beats,Birmingham 3-2
2011-03-12T14:47:43Z,Nuclear Safety,Meeting After,Japan Quake
2011-03-12T14:47:43Z,Safety,Meeting After,Japan Quake
2011-03-12T15:46:18Z,Birmingham 3-2,in,F.A. Cup
2011-03-12T15:46:18Z,Bolton,Beats,Birmingham 3-2 in F.A. Cup
2011-03-12T15:54:38Z,Schild,Captures,Slalom Title
2011-03-12T15:54:38Z,Vonn,Closes in,Ski Chase
2011-03-12T16:00:24Z,Deutsche Boerse May,Consider,Partnerships
2011-03-12T16:54:22Z,Planting Delays,Seen as,Risks to U.S. Crop Yields
2011-03-12T16:54:46Z,Tokyo Electric,Tries to,Cool Unstable Reactor
2011-03-12T18:20:33Z,South Africa,Hand,India First Cricket World Cup Loss
2011-03-12T19:04:26Z,Italy Defeats France 22-21,in,Six Nations
2011-03-12T19:15:38Z,Manchester United,Beats,Arsenal 2-0
2011-03-12T19:25:04Z,50,to Rise,Supply Drop
2011-03-12T19:25:04Z,Demand,on Rise,Hightower
2011-03-12T19:25:04Z,Silver,Will,Rise
2011-03-12T19:27:26Z,Japan Quake,Spawns,Waves
2011-03-12T20:30:57Z,Manchester United,Beats,Arsenal 2-0
2011-03-12T21:18:27Z,Russia,Says to,Quake-Hit Japan
2011-03-12T22:12:10Z,Truck,Is,Sought
2011-03-12T23:00:57Z,Princeton,Tops Harvard on,Last-Second Shot
2011-03-12T23:13:34Z,Morgan Stanley Unit,Probed on,Military Foreclosures
2011-03-13T14:02:51Z,Japan Plans,Spending,Package
2011-03-13T14:02:51Z,Quake,Slams,World 's Most Indebted Economy
2011-03-14T19:33:17Z,Qaddafi,Pushes East as,U.S. Mulls Action
2011-05-18T17:06:41Z,Wheat,Threatened Across,Europe
