2011-08-06T00:02:53Z,Rose 0.14 %,in,July
2011-08-06T00:40:49Z,Kan,Vows,Push for Nuclear-Free Japanese Society
2011-08-06T01:10:41Z,Typhoon Muifa,Nears,China
2011-08-06T01:30:01Z,Federal Reserve,Says,Risk Weights
2011-08-06T01:44:14Z,Columbia Banking,Picks Up,Lender
2011-08-06T01:44:14Z,Failure Count,Reaches,63
2011-08-06T04:00:11Z,U.S. Two-Year Yield,Hits,Record Low
2011-08-06T04:00:34Z,Dollar,Climbs,Versus Most Peers
2011-08-06T04:00:34Z,Risk Appetite,Ebbs on,Economic Outlook
2011-08-06T04:01:01Z,Washington Mutual Investigation,Concludes Without,Criminal Charges
2011-08-06T04:01:15Z,Forecast,in,July
2011-08-06T07:24:51Z,Li Daokui,Says After,S&P Rating Cut
2011-08-06T07:24:51Z,U.S. Will Roll,Says After,S&P Rating Cut
2011-08-06T07:48:49Z,53 % Stake,in,Cash Converters
2011-08-06T08:48:48Z,Dixons,Considered With,Carphone Warehouse
2011-08-06T09:19:45Z,French Lack Confidence,in,Leaders
2011-08-06T09:19:45Z,Leaders,in Confidence,Polls
2011-08-06T10:20:48Z,3 Points,in,Latest Poll
2011-08-06T10:20:48Z,French President ’s Popularity,Rises,3 Points
2011-08-06T10:20:48Z,President ’s Popularity,Rises,3 Points
2011-08-06T10:20:49Z,Bond Spreads,Widen as,Deficit Crisis Deepens
2011-08-06T10:20:49Z,Italian Bond Spreads,Widen as,Deficit Crisis Deepens
2011-08-06T10:20:49Z,Italian Spanish Bond Spreads,Widen as,Deficit Crisis Deepens
2011-08-06T10:20:49Z,Spanish Bond Spreads,Widen as,Deficit Crisis Deepens
2011-08-06T10:27:07Z,Trichet,Sends Letters to,Corriere Reports
2011-08-06T11:07:27Z,Somali Government,Says,Withdraws
2011-08-06T11:19:12Z,Spain,’s Calls,El Pais
2011-08-06T11:37:44Z,Americans,Have,Negative View
2011-08-06T13:06:03Z,New Zealand Defeats Australia 30-14,in,Rugby
2011-08-06T13:10:13Z,Swift Action,for Calls,Reuters
2011-08-06T13:14:24Z,Bailout May,Be Costly for,German Taxpayer
2011-08-06T13:14:24Z,Greek Bailout May,Be,Costly
2011-08-06T13:19:47Z,Roesler,Tells,Focus
2011-08-06T13:59:56Z,Germany,From Production,Wiwo
2011-08-06T14:16:54Z,Degenhart,Tells,Automotive
2011-08-06T14:24:57Z,Petrobras,Says,Share Slump May Hurt Investments
2011-08-06T15:18:08Z,Summer Residence,in,Sardinia
2011-08-06T15:41:41Z,Pemex,Hire,Guards
2011-08-06T16:02:03Z,England Defeats Wales 23-19,in,Rugby World Cup Warm-Up Match
2011-08-06T16:37:28Z,Xavier-Luc Duval,Named,Mauritius Finance
2011-08-06T17:03:32Z,Borrowers,Rated,AAA
2011-08-06T17:03:32Z,Sovereign Borrowers,Rated AAA by,S&P
2011-08-06T17:05:52Z,Dilshan Century,Leads Sri Lanka Past Australia in,Twenty20 Match
2011-08-06T17:17:36Z,U.S.,Loses AAA Credit Rating as,S&P Slams Debt Levels
2011-08-06T17:34:52Z,Perry,Urge,Prayer
2011-08-06T17:43:12Z,Venezuela Legislature,Approves Chavez Chemotherapy Trip to,Cuba
2011-08-06T17:55:42Z,Adam Scott,Holds,One-Stroke Lead
2011-08-06T18:42:35Z,Faith,in,Dollar Debt
2011-08-06T18:42:35Z,Jordan,Has,Faith
2011-08-06T19:37:58Z,Chelsea,Reaches Agreement on,Signing of Lukaku
2011-08-06T21:00:05Z,Record Discount,Created by,Rout
2011-08-06T23:56:40Z,Buffett,Says,Cutting U.S. Rating Was Mistake
2011-08-07T08:12:04Z,S&P,to,Math
2011-08-07T08:12:04Z,Treasury,Takes Exception to,S&P ’s Math
2011-08-07T19:12:09Z,Italy,Contagion in,Call
2011-08-07T19:12:09Z,Spain Contagion,in,Call
2011-08-07T20:45:58Z,NATO Helicopter Shot Down,in,Afghanistan
2011-08-08T04:01:00Z,Director Leading Phone-Hack Probe,Has,Personal Ties
2011-08-08T04:01:00Z,Director Phone-Hack Probe,Has,Personal Ties
2011-08-08T04:01:00Z,Square,Are,Said
