2011-10-17T00:00:00Z,Wall Street,Loves,Capitalism ’s Pearls
2011-10-17T00:00:40Z,Storage,Makes,Difference
2011-10-17T00:01:01Z,EDF,in,French Greenpeace Spying Case
2011-10-17T00:26:55Z,Climb,Was,Excessive
2011-10-17T00:26:55Z,Recent Climb,Was Excessive Amid,Bets
2011-10-17T00:27:28Z,Japan ’s 5-Year Note Yield,Rises Since,July 29
2011-10-17T00:27:28Z,Japan ’s Note Yield,Rises Since,July 29
2011-10-17T00:30:00Z,Singapore Exports,Declined as,Electronics Slump
2011-10-17T00:48:28Z,Shining Unit,Use Nanjing Land for,678 Million Yuan
2011-10-17T00:48:28Z,Unit,Use,Nanjing Land
2011-10-17T00:56:31Z,Olympus,Plunges as,Brokerages Cut Ratings on President ’s Ouster
2011-10-17T00:56:31Z,President,on,Ouster
2011-10-17T01:05:07Z,TRC Synergy,Rises,Most
2011-10-17T01:55:47Z,YTL Power,Rise After,Edge Report of Possible Buyouts
2011-10-17T01:57:01Z,Carlyle-Led Consortium,Acquires,80 %
2011-10-17T02:04:28Z,Carlyle Group,Buys,80 % Stake
2011-10-17T02:42:23Z,International Nickel,Rises to,Three-Week High
2011-10-17T02:49:43Z,S&P 500 Futures,Rising,0.6 %
2011-10-17T02:49:43Z,S&P Futures,Rising,0.6 %
2011-10-17T03:04:11Z,Sanford,’s Bank,ICBC
2011-10-17T03:46:57Z,Banks,Ask,High Court
2011-10-17T03:46:57Z,High Court,Stop,Imposing 20 % Bond Tax
2011-10-17T03:46:57Z,Philippine Banks,Ask,High Court
2011-10-17T03:48:53Z,Oberoi Realty Gains,in,Mumbai
2011-10-17T03:50:22Z,NLCS,Advance to,Baseball World Series
2011-10-17T04:00:01Z,Cain ’s Social Security Model Risks,Miring,U.S.
2011-10-17T04:00:04Z,Transneft,Buys,Vedomosti
2011-10-17T04:00:15Z,Constraints,Seen for,Market Makers
2011-10-17T04:00:41Z,Growth,Predicted,Slow
2011-10-17T04:01:00Z,Bulbs Rally Lawmakers,in,Fight for State Rights
2011-10-17T04:01:00Z,California,Diminished by,Tax Revolt of 1978
2011-10-17T04:01:00Z,Gifts,in,2010
2011-10-17T04:01:00Z,Met Opera Donations Rose,Gifts to,Goldman Charity Fell
2011-10-17T04:01:00Z,U.S.,Invites,Decline
2011-10-17T04:01:03Z,Industrial Production,in,U.S. Probably Rose Again
2011-10-17T04:11:25Z,Philippine Tax Agency,Misses,September Collection Target
2011-10-17T04:11:25Z,Tax Agency,Misses,September Collection Target
2011-10-17T04:31:00Z,Chavez,Heads to,Cuba
2011-10-17T04:52:42Z,National Bank,Jumps,26 %
2011-10-17T04:56:24Z,500 MW Power Projects,in,India
2011-10-17T04:56:38Z,Charge Co-Payments,to Turkey,Hurriyet Reports
2011-10-17T05:00:16Z,Hong Kong Short Selling Turnover,Recorded,10/17/2011
2011-10-17T05:11:33Z,Bangladesh ’s Inflation,Accelerates in,September
2011-10-17T05:21:53Z,Cigarette Cost,Jumps,Milliyet Reports
2011-10-17T05:21:53Z,Turkish Cigarette Cost,Jumps,Milliyet Reports
2011-10-17T05:28:12Z,Balanced Budget,for Plan,Rimsevics
2011-10-17T05:28:12Z,Plan,in,2013
2011-10-17T05:30:07Z,Yaskawa Info Sys,Announces,Planned FY Group Dividend
2011-10-17T05:37:57Z,KKR,Looking,Opportunities Invest
2011-10-17T05:37:57Z,Opportunities,Invest in,Mideast
2011-10-17T05:48:17Z,Roche,Buy,Anadys
2011-10-17T05:51:36Z,3.3,for Aims,Sabah
2011-10-17T05:51:36Z,Billion,in,2017
2011-10-17T05:53:25Z,Belgium,Must,Cut 10 Billion Euros in 2012 Budget
2011-10-17T05:53:25Z,Cut 10 Billion Euros,in,2012 Budget
2011-10-17T06:00:07Z,House Foods Corp,Revises Planned FY Group Dividend to,28.00 Yen
2011-10-17T06:06:59Z,Medco Health,Buy Out,U.K. Joint Venture
2011-10-17T06:06:59Z,United Drug,Says,Medco Health
2011-10-17T06:10:07Z,Fx Prime Parent,Announces,Planned 1H Dividend of 2.50 Yen
2011-10-17T06:13:15Z,Cardinals,Oust,Brewers
2011-10-17T06:18:51Z,Zimbabwe,’s Mall,Herald
2011-10-17T06:20:06Z,Bronco Billy Parent,Announces,Planned FY Dividend of 40.00 Yen
2011-10-17T06:38:04Z,Orco,Completes Sale for,53 Million Euros
2011-10-17T06:55:24Z,Australia,in,Bid
2011-10-17T06:55:24Z,Japan,Australia in,Bid
2011-10-17T06:55:24Z,Samsung,Sues Apple in,Australia in Bid
2011-10-17T07:00:07Z,Yaskawa Electri,Announces,Planned FY Group Dividend of 10.00 Yen
2011-10-17T07:02:19Z,September Consumer Confidence Index,Rises to,93.7
2011-10-17T07:02:19Z,Turkish September Consumer Confidence Index,Rises to,93.7
2011-10-17T07:02:39Z,Philips,Rises,as Much
2011-10-17T07:04:22Z,G-20,Eases,Europe Concern
2011-10-17T07:11:44Z,Deeper Contraction,in,2012 GDP
2011-10-17T07:17:32Z,Banks,Increase Mortgage Rates,Property Prices Decline
2011-10-17T07:17:32Z,Chinese Banks,Increase,Mortgage Rates
2011-10-17T07:21:32Z,Rise,to Tariff,Diario
2011-10-17T07:23:01Z,987.2 Million Yen,in,Public Share Sale
2011-10-17T07:24:00Z,EU,Must Get Authority to,Volkskrant Reports
2011-10-17T07:26:41Z,ECB,Says to,136.2 Billion Euros
2011-10-17T07:34:59Z,Nationwide Increase,in,Minimum Wage
2011-10-17T07:34:59Z,Thai Committee,Agrees to,Nationwide Increase
2011-10-17T07:36:14Z,Spanish Stock Market,Extends Trading Band For,NH Hoteles
2011-10-17T07:53:56Z,NH Hoteles Pre-Market Auction,End at,10 a.m.
2011-10-17T07:57:41Z,Uganda Police Fire Rubber Bullets,Gas at,Protesters
2011-10-17T07:59:12Z,El Sewedy Electric,Resumes Exports to,Al Mal Reports
2011-10-17T08:01:36Z,16.6 Percent,in,Madrid Trading
2011-10-17T08:01:36Z,NH Hoteles Shares,Climbs,16.6 Percent
2011-10-17T08:03:16Z,Talks,With,Regulator
2011-10-17T08:03:49Z,1.1 MW Peak Solar Power Plant,in,Greece
2011-10-17T08:06:36Z,Samsung Life Shareholder,Selling,4 Million Shares
2011-10-17T08:13:20Z,Billionaire Saban,Acquires,5 %
2011-10-17T08:13:20Z,Indonesia,of,Media Nusantara in Asia Push
2011-10-17T08:13:20Z,Indonesia ’s Media Nusantara,in,Asia Push
2011-10-17T08:25:59Z,Asia Currencies Gain,Led by,Won
2011-10-17T08:26:25Z,Gilts,Decline on,Speculation Europe
2011-10-17T08:34:55Z,Verhofstadt,Urges,Approach
2011-10-17T08:35:02Z,Choice,in,Elections
2011-10-17T08:36:00Z,Bonds,Drop on,Plan
2011-10-17T08:44:16Z,Bank,Selling,5 Billion Euros
2011-10-17T08:44:19Z,Gopalan,Says India Economic Growth in,5 Years ’ Possible
2011-10-17T08:46:36Z,Swedish Housing Slowdown,Gives,Riksbank Room
2011-10-17T08:54:13Z,Makhteshim,Completes Merger With,ChemChina
2011-10-17T08:54:57Z,Telecom Egypt Workers,Threaten,Work Stoppage
2011-10-17T08:58:32Z,Taiwan Central Bank Sells NT$ 304.18 Billion,in,Certificates
2011-10-17T09:05:42Z,Basu,Says,India ’s Current Inflation Partly Driven
2011-10-17T09:06:37Z,Belgium ’s Verhofstadt,Urges EU Approach to,Bank Recapitalization
2011-10-17T09:07:00Z,China ’s Growth Seen,Remaining Above,9 %
2011-10-17T09:07:22Z,Liverpool Striker Suarez,Denies,Abuse
2011-10-17T09:12:16Z,211.5 Mln Euros,in,Bonds
2011-10-17T09:18:34Z,Seven Months,in,Tel Aviv Trading
2011-10-17T09:19:41Z,Neptune Orient Lines,Appoints,Regional President North Asia
2011-10-17T09:37:43Z,Papandreou,Says,Europe Face Crucial Week
2011-10-17T09:42:06Z,One-Month High,in,Hong Kong Trading
2011-10-17T09:46:45Z,Tanzania Shilling,Appreciates as,Banks Supply Dollars
2011-10-17T09:46:48Z,Credit-Default Swap Payout,Should,Should Allowed
2011-10-17T09:46:48Z,Greek Credit-Default Swap Payout,Should,Should Allowed
2011-10-17T09:47:03Z,Michael Dell Hotel Purchase,Sidesteps,California Taxes
2011-10-17T09:47:49Z,Komercni Banka,Downgraded Dividend at,Raiffeisen
2011-10-17T09:48:14Z,Bunds,Erase,Their Decline
2011-10-17T09:48:14Z,German Bunds,Erase,Their Decline
2011-10-17T09:54:46Z,Yen,Erases Decline to,Trade Little
2011-10-17T09:57:51Z,Singapore Exchange,Exceeds Profit Estimates on,Derivatives
2011-10-17T10:00:00Z,Sofinnova,Raises Largest Life Sciences Venture Fund,Year
2011-10-17T10:00:01Z,Sunpreme,Build Solar-Cell Factory in,China
2011-10-17T10:03:19Z,U.K. Government Bonds Rise,Falls to,2.59 Percent
2011-10-17T10:14:30Z,Angola,’s Economy,BPI
2011-10-17T10:16:19Z,Philips Retreat,Drags,TPV Talks Continue
2011-10-17T10:19:11Z,Mauritius Rupee,Depreciates Against,Euro
2011-10-17T10:20:40Z,50 Million Euros,in,Russian Sauce Production
2011-10-17T10:24:28Z,RBS ’s Sian,Says,Bank Support
2011-10-17T10:33:43Z,$ 340 Million,in,Swiss Banks
2011-10-17T10:33:43Z,Mubarak Sons,Have,$ 340 Million
2011-10-17T10:34:12Z,Bank,Sees,2011 Budget Deficit
2011-10-17T10:46:13Z,Bangladesh Inflation,Accelerates to,High
2011-10-17T10:51:02Z,Fed Funds Projected,Open at,0.08 ICAP Says
2011-10-17T10:51:45Z,ICE Brent Crude Money Managers,Raise,Net-Longs
2011-10-17T10:59:12Z,Barroso,Says,EU Eventually May Need Change of Treaty
2011-10-17T10:59:58Z,Asian Stocks,Extend,Biggest Weekly Gain
2011-10-17T10:59:58Z,Stocks,Extend Weekly Gain Since,March
2011-10-17T11:04:42Z,Banks,in,Crisis Strategy
2011-10-17T11:04:42Z,EU Officials,Seek,Burdens for Banks in Crisis Strategy
2011-10-17T11:09:41Z,Repsol,Wins,Irish Exploration Rights
2011-10-17T11:11:53Z,Impax,Buys,100 MW of Wind Parks in France
2011-10-17T11:11:53Z,Wind Parks,Poland From,Eolia
2011-10-17T11:12:06Z,Noyer,Expects,Banks
2011-10-17T11:12:17Z,Critical Negotiations,Seen at,EU Summit
2011-10-17T11:12:17Z,Greece ’s Papandreou,Says,Negotiations Seen at EU Summit
2011-10-17T11:12:17Z,Negotiations,Seen at,EU Summit
2011-10-17T11:13:55Z,Brent Crude Declines,in,London
2011-10-17T11:14:28Z,Banks FDIC Cost,Rises,Billion
2011-10-17T11:17:10Z,Hungarian Refiner Mol,Reverses,Gains
2011-10-17T11:17:10Z,Refiner Mol,Reverses,Gains
2011-10-17T11:21:24Z,Ex-EU Commissioner Monti,Says,Euro Bonds Better Than ECB Funding
2011-10-17T11:26:55Z,Levitt,Surprised Strength by,Length
2011-10-17T11:27:05Z,South Africa,Must Spend,$ 29 Billion
2011-10-17T11:28:06Z,India May Raise Overseas Investment Limit,in,Sovereign Debt
2011-10-17T11:28:59Z,Austrian Banks,Said,Need in Recapitalization
2011-10-17T11:28:59Z,Banks,Said,Need
2011-10-17T11:32:06Z,CBQ Signs Outsourcing Deal,With,Tata Consultancy Services
2011-10-17T11:33:47Z,1 %,in,2013
2011-10-17T11:33:47Z,Ukraine,Wants to,1 %
2011-10-17T11:37:21Z,South Africa Stocks,Gains on,European Debt Concern
2011-10-17T11:40:57Z,Ocimum Biosolutions Files,in,Delaware
2011-10-17T11:43:44Z,Soft Landing,in,China
2011-10-17T11:45:08Z,Barroso,Says,EU Discussing Proposal for Bank-Liquidity Guarantee
2011-10-17T11:45:49Z,Munich Re,Confirms,Full-Year Profit Forecast
2011-10-17T11:46:02Z,Hong Kong,Starts Consultation on,Over-the-Counter Derivatives Regulation
2011-10-17T11:46:47Z,SeaPower,Talking to,Investors for Tidal Power Sea Test Trials
2011-10-17T11:52:53Z,China Merchants Bank,Receives,CBRC Approval
2011-10-17T11:54:00Z,EU,Boosts,Defense Rights
2011-10-17T11:54:27Z,Companies,Buy,Dollar
2011-10-17T11:54:27Z,Uganda Shilling,Slips for,First Day
2011-10-17T11:56:47Z,First Day,in,5
2011-10-17T11:59:13Z,Mexico,Near,Yucatan May Intensify
2011-10-17T12:00:00Z,Liquidnet,Hires,Kerner
2011-10-17T12:00:03Z,Noyer,Says,ECB Sovereign Debt Purchases Will Remain Limited
2011-10-17T12:05:18Z,Reliance,Leads Retreat on,Earnings Report
2011-10-17T12:05:28Z,Ex-Anglo Irish CEO ’s House Sold,in,Bankruptcy
2011-10-17T12:08:22Z,Copper,Be,Contained
2011-10-17T12:11:58Z,Brazil Economists,Raise,2012 Inflation Forecast
2011-10-17T12:12:52Z,Al Ahli Bank 9-Month Net,Rises to,349 Million Riyals
2011-10-17T12:15:18Z,He,Continues,Cabinet Shuffle
2011-10-17T12:15:18Z,Yudhoyono,Picks,Five Ministers
2011-10-17T12:19:34Z,Failed,May Share,Future Gains
2011-10-17T12:19:34Z,Future Gains,Failed,Banks ’ Bondholders
2011-10-17T12:19:46Z,Ellis,Enters,Agreement
2011-10-17T12:19:46Z,Grubb,Enters,Agreement
2011-10-17T12:24:17Z,United,in,Court
2011-10-17T12:27:22Z,Crude Oil,Slips From,Its Highest in Month
2011-10-17T12:27:22Z,Oil,Slips From,Its Highest
2011-10-17T12:33:10Z,India ’s Rupee,Rises to,2-Week High on Europe Debt Plan Optimism
2011-10-17T12:34:22Z,Manufacturing,in,New York Fed Region
2011-10-17T12:35:51Z,German Ministry,Discuss,Separation
2011-10-17T12:38:16Z,Emaar Properties Rating,Raised to,Ba3
2011-10-17T12:40:28Z,India Regulator,Asked NSE to,Cut Ncdex Stake
2011-10-17T12:44:08Z,Additional Stakes,in,Iguatemi Salvador
2011-10-17T12:44:08Z,Aliansce,in,Talks
2011-10-17T12:46:12Z,General Growth,Refinances Million on,Four Shopping Malls
2011-10-17T12:47:16Z,Roubini,Says,Default May Spark Lehman-Magnitude Shock
2011-10-17T12:54:05Z,Telekom Austria,Says,Pecik Fund Bought Options
2011-10-17T12:56:49Z,Portuguese Labor Group CGTP,Calling,General Srike
2011-10-17T12:58:11Z,MCC,Raises,10 Billion Yuan
2011-10-17T12:59:37Z,Moody,as,Lifts Rating
2011-10-17T12:59:39Z,Industry,Expands at,Slowest Pace
2011-10-17T12:59:39Z,Russian Industry,Expands at,Slowest Pace
2011-10-17T13:06:29Z,Abu Dhabi Shares,Sink to,Two-Year Low Led
2011-10-17T13:11:02Z,Arabian Cement,Bank of,Oman
2011-10-17T13:13:47Z,Bank,HSBC for,2022 Dollar Bond Sale
2011-10-17T13:13:47Z,Turkey,Hires,HSBC for 2022 Dollar Bond Sale
2011-10-17T13:15:01Z,Minority Stake,in,Saudi Arabian Food Company
2011-10-17T13:18:30Z,S&P 500 Dividend Health,Changes for,Oct. 17
2011-10-17T13:20:00Z,End-September Budget Gap,Widens to,54.5 % of 2011 Limit
2011-10-17T13:20:00Z,Poland Repaid 144.1 Million Euros,in,September
2011-10-17T13:20:00Z,Polish End-September Budget Gap,Widens to,54.5 %
2011-10-17T13:22:49Z,Kosovo,Sale of,PTK Phone Company
2011-10-17T13:29:29Z,New Markets,in,Brands Push
2011-10-17T13:29:29Z,Orkla Seeks Larger Acquisitions,Markets in,Brands Push
2011-10-17T13:32:25Z,BlackRock ’s Evy Hambro,Buys,Mining Stocks
2011-10-17T13:37:46Z,Kinder,Raises,Bet on Natural Gas
2011-10-17T13:39:10Z,Amazon Kindle Fire Sale,Narrows,Margins
2011-10-17T13:44:31Z,Tanzania Inflation Rate,Jumps in,September
2011-10-17T13:45:28Z,Romania Seeks Investor,in,Posta Romana
2011-10-17T13:49:28Z,Scotia Capital Expanding Fixed Income,in,New York
2011-10-17T13:50:16Z,G4S,Acquires,ISS From Funds
2011-10-17T13:58:07Z,DAX Companies,Set Quotas for,Female Bosses
2011-10-17T13:58:07Z,German DAX Companies,Set,Voluntary Quotas
2011-10-17T13:58:50Z,Rangers,Are,Favored
2011-10-17T14:02:21Z,Schaeuble,Says,Greece ’s Debt May Need Restructuring
2011-10-17T14:05:21Z,Region,to,Debt Crisis
2011-10-17T14:13:22Z,Australia ’s Swan,Urges,Europe
2011-10-17T14:13:22Z,Europe,End,Crisis
2011-10-17T14:15:44Z,Federal Reserve,Begins,Sales of TIPS
2011-10-17T14:20:33Z,Flaherty,Says,Lack
2011-10-17T14:21:37Z,30 % Jump,in,Pre-Tax Profit This Year
2011-10-17T14:21:37Z,Guinness Ghana,Sees,Jump in Pre-Tax Profit Year
2011-10-17T14:27:15Z,KBC,Sell,Insurance Broker Fidea
2011-10-17T14:27:38Z,Kenya,Pursue Al-Shabaab Rebels After,Abductions
2011-10-17T14:27:57Z,Hungary Seeks Drastic Cut,in,Swiss Franc-Loan Exposure
2011-10-17T14:30:01Z,Cushing Crude Inventories,Fall,2 %
2011-10-17T14:31:28Z,Citigroup,Has,Billion
2011-10-17T14:31:28Z,Commitments,in,France
2011-10-17T14:41:34Z,Bombardier,Is,Bidding
2011-10-17T14:47:16Z,Government,Wobbles as,Six Defect
2011-10-17T14:47:16Z,Latvian Government,Wobbles as,Six Defect
2011-10-17T14:51:20Z,Clients,Curb,Software Spending
2011-10-17T14:51:20Z,Forint,Weakens,Third Day
2011-10-17T14:51:20Z,Tata Consultancy Profit,Misses,Estimates
2011-10-17T14:52:31Z,Top 4 Million,in,Record Debut Weekend
2011-10-17T14:54:40Z,AmeriGas,Buy,Energy Transfer Propane Unit
2011-10-17T14:55:40Z,Tax Increase,in,Payroll Bil
2011-10-17T14:58:56Z,Schaeuble,Says,Need at Banks
2011-10-17T15:00:00Z,Fed,Approves,Final Rule
2011-10-17T15:00:58Z,Greek Pasok Lawmaker,Quits Over,TV
2011-10-17T15:00:58Z,Pasok Lawmaker,Quits Over,Mega TV
2011-10-17T15:05:20Z,Brazil Grower,Sees,Great Coffee Quality
2011-10-17T15:05:20Z,Top Brazil Grower,Sees Great Coffee Quality on,Flowering
2011-10-17T15:09:03Z,Bolivians Spoil Ballots,in,Rebuff to Morales
2011-10-17T15:10:44Z,Cedi,Strengthens as,Central Bank Sells Dollars
2011-10-17T15:13:45Z,Lawyer,Weavering,$ 600 Million Fraud
2011-10-17T15:25:35Z,Dealer Holdings May Crimp Gain,in,Longer Treasuries
2011-10-17T15:30:18Z,Biggest Changes,in,Implied Volatility
2011-10-17T15:30:18Z,U.S. Stock Options,With,Biggest Changes in Implied Volatility
2011-10-17T15:35:56Z,Pound,Weakens,Gilts Advance Amid Concern U.K. Economic Growth Will Falter
2011-10-17T15:39:26Z,Peru GDP Growth,Accelerates on,Fishing
2011-10-17T15:41:46Z,Hungary ’s Mol,Climbs to,Six-Week High
2011-10-17T15:43:14Z,TIAA-CREF,Joins APG in,Venture
2011-10-17T15:45:56Z,Belgian-German Yield Spread,Widens,235 Bps
2011-10-17T15:46:17Z,Kluge,Chairman of,Supervisory Board
2011-10-17T15:49:10Z,Brazil ’s Hering,Leads,Bovespa Gains
2011-10-17T15:49:48Z,Dolphin,Enters,Plans Share Issue
2011-10-17T15:55:59Z,Concepts,Makes Changes to,Financing
2011-10-17T15:55:59Z,Kinetic Concepts,Makes,Changes
2011-10-17T15:56:30Z,Spreads,Drop,Most of 11
2011-10-17T15:56:35Z,U.S. Supreme Court Review,in,Speech Case
2011-10-17T15:56:40Z,Commerzbank,Sell,Debt
2011-10-17T15:56:40Z,HSBC,Sell Debt as,Euro Debt Crisis Jitters Return
2011-10-17T15:56:55Z,Austria ’s Banks,May Need,Extra Billion
2011-10-17T16:00:46Z,Greek Banks,Retreat as,BP
2011-10-17T16:03:08Z,Europe Corporate Debt Risk,Erases Drop on,German Crisis Warning
2011-10-17T16:03:39Z,Mozambique ’s Aquapesca Prawn Farm,Closes on,Disease Outbreak
2011-10-17T16:04:22Z,Cantwell,Urges,Equal Treatment
2011-10-17T16:05:53Z,Shell,Draw,U.S High Court Review
2011-10-17T16:08:47Z,Grifols,Sees Savings After,2015
2011-10-17T16:10:20Z,Anadarko Will,Pay,$ 4 Billion
2011-10-17T16:14:59Z,Europe,Hopes,Fade
2011-10-17T16:18:08Z,Commodities ETFs,May Become,Key Diversifier
2011-10-17T16:20:27Z,HSBC,Tells,Bankers
2011-10-17T16:22:03Z,Olympus Investors,Lose Billion After,Woodford Fired
2011-10-17T16:24:50Z,Canadian Home Sales Rose 2.7 %,in,September
2011-10-17T16:29:14Z,MTN Group,Said to,Bid
2011-10-17T16:29:14Z,Vodafone,for,Congo Wireless Venture
2011-10-17T16:29:32Z,Botswana ’s Central Bank,Keeps,Benchmark Rate Unchanged
2011-10-17T16:31:28Z,Cooling Equipment Shipments,in,Aug
2011-10-17T16:31:28Z,U.S. Heating,Shipments in,Aug
2011-10-17T16:33:02Z,He ’ll Stay,in,Office
2011-10-17T16:33:33Z,Bettencourt,Manage,Affairs
2011-10-17T16:34:00Z,10-Year Bonds,First Since,March
2011-10-17T16:37:45Z,Stark,Says,Consequences
2011-10-17T16:44:36Z,N.Y. Gasoline,Weakens to,Return
2011-10-17T16:47:36Z,Lehman Italian Real Estate May,Reap,Million Gain
2011-10-17T16:49:54Z,Bank,Shows,Sales Optimism
2011-10-17T16:49:54Z,Canada,of,Business Survey
2011-10-17T16:51:07Z,May Open,in,2013
2011-10-17T16:58:35Z,Futures,Drop in,Month
2011-10-17T16:58:35Z,Oil Volatility,Rises,Futures Drop
2011-10-17T17:00:22Z,Citigroup,Say,Revenue Falls
2011-10-17T17:09:20Z,Percentage,Feeling,Healthy Rises
2011-10-17T17:16:39Z,2.8 % GDP Contraction,in,2012
2011-10-17T17:16:39Z,Portuguese Goverment,Expects,2.8 % GDP Contraction
2011-10-17T17:17:42Z,Bank ’s Dollar Offer,Beats,Demand
2011-10-17T17:19:01Z,Belgium ’s Rescue,Faces,In-Depth Probe
2011-10-17T17:23:29Z,News Corp.,Sued Over,Sun Editor Nixson ’s Firing
2011-10-17T17:23:29Z,Sun Editor Nixson,Over,Firing
2011-10-17T17:27:11Z,Central Bank,Before,Minutes
2011-10-17T17:29:25Z,Idea,to Open,Rutte
2011-10-17T17:40:05Z,Angola,’s Plans,O Pais
2011-10-17T17:41:44Z,Domino ’s Ads,Attract,Sales
2011-10-17T17:41:44Z,Domino ’s Honest Ads,Attract,Sales
2011-10-17T17:43:50Z,Farm Cuts,Should,Should Held
2011-10-17T17:44:36Z,Portugal Will,Take,Measures
2011-10-17T17:54:37Z,Aides Getting Canada Data Day,Hurts,Market Confidence
2011-10-17T17:54:37Z,Political Aides Getting Canada Data Day,Hurts,Market Confidence
2011-10-17T18:06:59Z,Weaker Enforcement Will,Follow,Cuts
2011-10-17T18:09:49Z,Portugal ’s Gaspar Confident Parliament Will,Pass,Budget Proposal
2011-10-17T18:16:58Z,FDA Committee,Discusses,Part
2011-10-17T18:16:58Z,Teva,'s Azilect,Part
2011-10-17T18:18:57Z,FDA Committee,Meets on,Teva 's Azilect
2011-10-17T18:18:57Z,Teva,'s Azilect,Part
2011-10-17T18:25:24Z,Wife,Pay,$ 1 Million
2011-10-17T18:40:12Z,AIG Assembles Managers,Distributors at,Ultra Luxury ’ Resort
2011-10-17T18:42:37Z,Investors Exercise 3.31 Billion Reais,in,Options on Bovespa
2011-10-17T18:45:20Z,France ’s Fillon,Says,Growth Depends
2011-10-17T18:54:44Z,Ex-Deloitte Partner ’s Wife,Settles SEC Case for,Million
2011-10-17T18:55:40Z,Canada Wage Settlements,Averaged,1.9 % Increase
2011-10-17T18:55:46Z,Astori,Says Under,Under Control
2011-10-17T18:55:46Z,Uruguay ’s Inflation,Says Under,Under Control
2011-10-17T19:00:00Z,Malaria May,Be Eliminated From,Quarter
2011-10-17T19:07:03Z,Quinn,Promises,Veto of Illinois Gambling Bill Changes
2011-10-17T19:28:30Z,Standard,for,500 Index in 2012
2011-10-17T19:28:30Z,Standard ’s 500 Index,in,2012
2011-10-17T19:32:59Z,Strategists,’,Allocations
2011-10-17T19:36:36Z,Ethanol,Rises on,Supply
2011-10-17T19:36:51Z,BofA ’s Stake,in,Ex-Merrill Headquarters
2011-10-17T19:39:34Z,Cain ’s 2012 Campaign,Built on,Fly Fights
2011-10-17T19:39:34Z,Cain ’s Campaign,Keep,Momentum
2011-10-17T19:48:09Z,Panetta,Keeping,U.S. Troops
2011-10-17T19:50:20Z,Ex-Olympus President Woodford,Would,Would Delighted
2011-10-17T20:00:00Z,Easing Prices,Buoy,Demand
2011-10-17T20:00:00Z,Weight-Loss Surgery,Spurs,Slimmer
2011-10-17T20:01:08Z,Spending,as Flat,Study
2011-10-17T20:06:42Z,Operator Compensation,Restore,Trust
2011-10-17T20:06:42Z,RIM CEO,Considers,Operator Compensation
2011-10-17T20:08:05Z,U.S. Gulf Crude Premiums,Weaken After,Gap
2011-10-17T20:08:16Z,Workers ’ Comp Sales,Fall,11 %
2011-10-17T20:08:16Z,Workers ’ Comp Sales Fall,in,Grim Market
2011-10-17T20:11:14Z,Plan,is,Balanced
2011-10-17T20:14:15Z,Barton Biggs,Raises,Bets
2011-10-17T20:16:17Z,Express Scripts Extension,in,Kansas City
2011-10-17T20:16:17Z,Walgreen,Climbs on,Express Scripts Extension
2011-10-17T20:17:05Z,Citigroup,Beats,Estimates
2011-10-17T20:18:27Z,Gannett Shares Tumble,in,Ad Revenue
2011-10-17T20:18:29Z,Intel,Puts Before,Earnings
2011-10-17T20:20:13Z,$ 3 Billion,in,Local Market
2011-10-17T20:20:26Z,Sun Life Financial,Had,Third-Quarter Loss
2011-10-17T20:21:38Z,Industrial Production,in,U.S. Increases
2011-10-17T20:21:38Z,U.S. Increases,in Production,Computers
2011-10-17T20:29:13Z,Stocks,Weaken as,Germany Damps Expectations on Debt-Crisis Solution
2011-10-17T20:29:50Z,Solar Stocks,Tumble as,Solar Cuts Margin Forecast
2011-10-17T20:32:42Z,Shanda Interactive Soars,in,New York
2011-10-17T20:33:01Z,Brown Brothers,’ Dentsply,EnergySolutions
2011-10-17T20:37:19Z,Former JPMorgan Commodities Trader Bombell,Starts,Hedge Fund
2011-10-17T20:38:09Z,China Ming Yang,Getting,$ 5 Billion
2011-10-17T20:40:31Z,PG&E,Selects,Developers
2011-10-17T20:40:31Z,Three Solar Projects,in,California
2011-10-17T20:40:44Z,Chinese Stocks,in,U.S.
2011-10-17T20:42:21Z,Peltz,Warns State Street on,Shareholder Return
2011-10-17T20:45:17Z,California-Blend Gasoline,Slips,Refiners Recover
2011-10-17T20:45:17Z,Refiners,Recover From,Upsets
2011-10-17T20:45:48Z,Christie,Says,Occupy Wall Street ’ Protesters Share Tea Party Frustration
2011-10-17T20:49:30Z,Carlos Slim ’s America Movil,Buys,Concert Channel
2011-10-17T20:51:09Z,MF Global Increased Capital,in,U.S
2011-10-17T20:51:09Z,Regulator,After,Query
2011-10-17T20:54:16Z,Madoff Feeder-Fund Investors,Ask for,Customer Status
2011-10-17T21:00:00Z,New York Union Deal,Averts Layoffs Until,Full Membership Vote
2011-10-17T21:00:49Z,Central Fund,are,Unchanged
2011-10-17T21:03:21Z,Morgan ’s El Paso Deal,Hinges on,Production Unit Sale
2011-10-17T21:11:54Z,Pushing,Yields Down,Down 7-Week High
2011-10-17T21:11:54Z,Treasuries,Pushing,Yields Down From 7-Week High
2011-10-17T21:12:25Z,STR Holdings Cuts Earnings Forecast,Drops on,Weak Solar Demand
2011-10-17T21:18:52Z,Germany,on,Euro-Zone Comments
2011-10-17T21:22:52Z,Statoil,Buys,Brigham Exploration
2011-10-17T21:23:10Z,McCourts,Reach Divorce Settlement With,Frank Gaining Control of Dodgers
2011-10-17T21:32:57Z,GE,Redeems,$ 3.3 Billion Stake Buffett Bought
2011-10-17T21:37:58Z,Philip Morris,Misled,Jury Told
2011-10-17T21:39:16Z,GDP,Shrink,More
2011-10-17T21:39:16Z,Portugal,Says,GDP
2011-10-17T21:45:54Z,Obama,Blocking,His Jobs Proposal
2011-10-17T22:00:01Z,France Rating Cut,Undermine,EFSF
2011-10-17T22:00:21Z,Barclays ’s Loan,Boosts,Ranking
2011-10-17T22:06:53Z,370 Million Reais,in,Third Quarter
2011-10-17T22:09:09Z,BofA,With,New Fees
2011-10-17T22:16:39Z,VMware,Says,2012 May
2011-10-17T22:23:57Z,Chile Peso,Weakens,Germany Damps Hopes
2011-10-17T22:23:57Z,Germany Damps,Hopes of,Europe Debt
2011-10-17T22:26:35Z,Grupo Mexico,Must Pay,$ 1.3 Billion
2011-10-17T22:27:52Z,Software Partner,’s Upheld,Damages Cut
2011-10-17T22:28:16Z,DLA Piper,Loses Restructuring Specialist Jeffrey Schwartz to,Brown Rudnick
2011-10-17T22:33:15Z,AT&T Claims Sprint,Working in,T-Mobile Lawsuits
2011-10-17T22:36:11Z,1.08 Billion Reais,in,Third Quarter
2011-10-17T22:36:44Z,FDA Committee,Discusses,Part
2011-10-17T22:36:44Z,Teva,'s Azilect,Part
2011-10-17T22:38:20Z,$ 200 Million,in,U.S. Aid
2011-10-17T22:38:20Z,Texas,Seeks Million to,Lower Cost of Fighting Wildfires
2011-10-17T22:44:59Z,FDA Committee,Discusses,Part
2011-10-17T22:44:59Z,Teva,'s Azilect,Part
2011-10-17T22:54:54Z,Brookfield Third Quarter,Contracted,Sales Rise
2011-10-17T23:00:01Z,Amy Winehouse ’s Embrace,Captured by,Pop Artist Laing
2011-10-17T23:00:01Z,Tunisia Parties,Selling,Ben Ali Yachts
2011-10-17T23:01:00Z,Lilly-Amylin ’s Bydureon Diabetes Treatment,Recommended by,U.K. Cost Agency
2011-10-17T23:01:00Z,U.K. Online Grocery Shopping,Set to,Double
2011-10-17T23:11:33Z,Update,After Fall,Dividends
2011-10-17T23:13:24Z,Justice Department,Denies,Lawmaker ’s Fast Claim
2011-10-17T23:30:00Z,Lacker,Says,Fed ’s Attempts to Boost GDP Growth May Risk Stoking Inflation
2011-10-17T23:42:38Z,San Francisco Fed,Sees,Downside Risks
2011-10-18T00:36:19Z,IBM Third-Quarter Revenue,Misses,Estimates
2011-10-18T01:02:54Z,California,Offers,Billion General-Obligation Bonds
2011-10-18T01:40:23Z,New Zealand Salvage Team,Halts,Oil Removal From Freight Ship
2011-10-18T02:00:51Z,Massive Job Shortfalls,Calls for,New
2011-10-18T03:21:03Z,Thai Floods,Adding to,European Risks
2011-10-18T03:54:27Z,Goldman Sachs,Buys Stake With,Morgan Stanley
2011-10-18T04:00:01Z,Bankruptcy,Have Dismissed Month,Harrisburg May
2011-10-18T04:01:01Z,Assured Guaranty Sues Credit Suisse,Mortgage in,New York State Court
2011-10-18T04:01:01Z,DLJ Mortgage,in,New York State Court
2011-10-18T04:01:01Z,Solyndra Judge,Denies Request to,Run Bankruptcy
2011-10-18T04:55:01Z,Clients,Curb,Software Spending
2011-10-18T04:55:01Z,Tata Consultancy Profit,Misses,Estimates
2011-10-18T05:56:05Z,Cochlear Ear-Implant Costs,May Reach,A$
2011-10-18T05:56:05Z,Cochlear Ear-Implant Recall Costs,May Reach,A$
2011-10-18T05:56:05Z,Ear-Implant Costs,May Reach,A$
2011-10-18T05:56:05Z,Ear-Implant Recall Costs,May Reach,A$
2011-10-18T06:40:05Z,Cartier,Signals,Luxury Rebound
2011-10-18T08:11:08Z,Fall,in,Volume on Europe Concern
2011-10-18T08:11:08Z,Japan,Stocks,Fall Amid Low in Volume on Europe Concern
2011-10-18T08:28:17Z,Euro Leaders ’ Crash Crisis Campaign,Bogs Down Over,Timetable
2011-10-18T08:47:15Z,Ex-Marines Fighting,Pirates Off,Africa
2011-10-18T11:02:03Z,Gas Beating Oil,in,Shipping Market
2011-10-18T11:04:50Z,Ukraine,Over,Imprisonment of Tymoshenko
2011-10-18T11:04:50Z,Yanukovych,Dismisses,EU Protests
2011-10-18T11:14:34Z,China Eastern,Replaces,Boeing 787 Order
2011-10-18T14:02:00Z,Porsche Made,Drives,Sales
2011-10-18T15:22:32Z,Blue Square Gain,Helps,Europe
2011-10-18T16:00:01Z,Years,Forced,China Government Action
2011-10-18T18:18:26Z,Shalit Freed,in,Deal That May Aid Peace Talks
2011-10-18T20:34:10Z,Facebook Ownership Claimant Ceglia,Loses,His Legal Team
2011-10-18T20:42:40Z,Anadarko Ends Standoff,Settles With,BP
2011-10-18T21:34:51Z,Moody,After,Downgrades Spanish Government Debt
2011-10-19T15:57:12Z,Ford Vote,Adding,Jobs
