2011-10-16T01:26:26Z,Boehner-Led Group,Defends,Marriage Law in Worker Suit
2011-10-16T01:26:26Z,Marriage Law,in,Worker Suit
2011-10-16T01:57:19Z,Chavez,Kill,Saudi Diplomat
2011-10-16T03:12:50Z,China Potash Output May Rise,in,2011
2011-10-16T04:00:33Z,Inflation,Probably Eased in,September
2011-10-16T04:01:00Z,Preschoolers May,Get,Attention-Deficit Drugs
2011-10-16T04:09:35Z,China,’s Rate,Xinhua
2011-10-16T04:09:35Z,Rise,to Rate,Xinhua
2011-10-16T04:46:26Z,Energy,Health in,Revised Budget
2011-10-16T04:46:26Z,Guinea,Raises,Investments
2011-10-16T04:46:26Z,Health,in,Revised Budget
2011-10-16T05:16:25Z,Oberoi Realty Profit,Rises to,1.11 Billion Rupees
2011-10-16T05:31:43Z,Next Four Ranked Teams,Are,Undefeated
2011-10-16T05:31:43Z,Next Ranked Teams,Are Undefeated in,U.S. College Football
2011-10-16T06:18:34Z,National Bank,Denies,Exposure
2011-10-16T07:14:12Z,Wales Captain Warburton,Gets Three-Week Ban for,Rugby World Cup Tip Tackle
2011-10-16T07:22:29Z,Rights,in,Toronto Property
2011-10-16T07:44:31Z,Orascom Construction Unit,Wins,416 Million Euro Contract
2011-10-16T08:25:31Z,Beattie McGuinness Bungay,Closes,New York Office
2011-10-16T08:53:11Z,Sebastian Vettel,Wins Korean Grand Prix for,Victory
2011-10-16T09:00:37Z,People ’s Party,Widens,Lead Before Spain ’s Nov. 20 Election
2011-10-16T09:00:37Z,Spain,’s Election,Two Polls
2011-10-16T09:17:13Z,Swiss Raiffeisen CEO,Backs,SZ Reports
2011-10-16T09:18:47Z,Protests,in,Street Will
2011-10-16T09:27:30Z,Firefight,With,Loyalists
2011-10-16T09:27:30Z,Libya Fighters,Search,Capital for Opponents
2011-10-16T09:39:57Z,Arab Polvara,Rises,Highest in Week
2011-10-16T09:39:57Z,Workers,End,Strike
2011-10-16T09:46:40Z,Rose Annual 7.2 %,in,September
2011-10-16T09:54:20Z,Syria,in,Talks to Export Crude
2011-10-16T09:55:09Z,Sodic,Says,Nine-Month Sales
2011-10-16T10:00:30Z,UBS ’s Senn,Tells,SonntagsZeitung
2011-10-16T10:04:51Z,D.N.A. Biomedical,Wins,FDA Approval
2011-10-16T10:10:00Z,Biti,Tells,Standard
2011-10-16T10:10:13Z,Djibouti ’s Annual Inflation Rate Declines,in,September
2011-10-16T10:16:00Z,Central Hong Kong Protesters,Enter,Their Second Day
2011-10-16T10:20:39Z,Invesco,Buy,East London ’s Hoxton
2011-10-16T10:28:01Z,Its Stake,In,Music Service
2011-10-16T10:35:55Z,UBS May,Need,Four Years
2011-10-16T10:41:43Z,Brazil,for,Ferrous Resources
2011-10-16T10:49:28Z,Violent Extremists,in,Rome
2011-10-16T11:05:46Z,Indian Oil,Lowers,Mumbai Jet Fuel Price Starting
2011-10-16T11:05:46Z,Mumbai Jet Fuel Price,Starting,Oct. 16
2011-10-16T11:05:46Z,Oil,Lowers,Mumbai Jet Fuel Price Starting Oct. 16
2011-10-16T11:40:04Z,Ermotti,Tells,SonntagsBlick
2011-10-16T11:49:00Z,Sodic,Heads for,Biggest Gain
2011-10-16T11:53:57Z,U.S. Probes DC Mayor Gray,’s Campaign,Washington Post
2011-10-16T12:02:17Z,Pang Da Auto,Gets Regulator Approval for,3.8 Bln Yuan Bond Sale
2011-10-16T12:02:18Z,Arabian Inflation,Accelerates to,Fastest
2011-10-16T12:02:18Z,Inflation,Accelerates Since,January
2011-10-16T12:02:18Z,Saudi Arabian Inflation,Accelerates Since,January
2011-10-16T12:02:18Z,Saudi Inflation,Accelerates to,Fastest
2011-10-16T12:27:42Z,Egypt T-Bill Yields,Drop After,Saudi Arabia Pledges Support
2011-10-16T12:28:07Z,Brenntag Seeks Asian Acquisitions,am,Sonntag
2011-10-16T12:29:00Z,German Politicians,’ Accounts,Focus
2011-10-16T12:34:40Z,Stakes,in,SGL Carbon
2011-10-16T12:35:30Z,Andy Murray,Defends,Shanghai Masters for Third Straight ATP Tennis Title
2011-10-16T12:37:04Z,Shares,in,Shanghai
2011-10-16T12:41:33Z,Sudan Government Seeks Military Cuts,in,2012 Budget
2011-10-16T12:45:10Z,New Zealand,in,Rugby World Cup Final
2011-10-16T12:51:51Z,Iran May Start Exporting Jet Fuel,Hopes for,Gas Link to China
2011-10-16T13:03:01Z,West Brom,Beats,Wolves
2011-10-16T13:03:01Z,Wolves,in,Premier League
2011-10-16T13:14:24Z,Night Flight Ban Causing Problems,Tells,Focus
2011-10-16T13:23:39Z,Israeli Stocks,Rise,Most in Two Years on Shufersal Sale
2011-10-16T13:23:39Z,Stocks,Rise,Most in Two Years
2011-10-16T13:23:59Z,Banco,do,Estado Reports
2011-10-16T13:23:59Z,Caixa Cut Loan-Loss Provisions,in,August
2011-10-16T13:27:27Z,62 %,to Drops,Poll
2011-10-16T13:31:14Z,Boost Workforce,to Plans,Folha
2011-10-16T13:31:14Z,Vale CEO Ferreira Plans,in,2012
2011-10-16T13:32:23Z,Shufersal,Climbs to,2-Month High on Discount Sale Agreement
2011-10-16T13:43:42Z,Qatar Shares Rise,in,Three Weeks on Earnings Optimism
2011-10-16T13:47:07Z,Palestinians,EU Criticize,Israeli East Jerusalem Building Plans
2011-10-16T14:01:12Z,Allot Communications,Surges,Most
2011-10-16T14:03:05Z,Ahmadinejad,Rejects,U.S. Claim
2011-10-16T14:03:15Z,Gingrich,Administration for,Iran Policy
2011-10-16T14:22:08Z,Prices,Enter,Target Range
2011-10-16T14:29:41Z,Arminio Fraga,Tells,Veja
2011-10-16T14:39:41Z,Cantor,Sees,Growing
2011-10-16T16:05:11Z,Business,Is,Outstanding
2011-10-16T17:01:12Z,Noyer,Says Restoring Confidence May Re-Start Growth in,2012
2011-10-16T19:24:30Z,Dollar,Rises Against,Kiwi
2011-10-16T19:24:30Z,Falls Versus Yen,in,Early Asia Trading
2011-10-16T19:24:30Z,Kiwi,Yen in,Early Asia Trading
2011-10-16T20:05:38Z,Bengals,Win,NFL Early Games
2011-10-16T20:05:38Z,Falcons,Win,NFL Early Games
2011-10-16T20:05:38Z,Steelers,Win,NFL Early Games
2011-10-16T20:19:14Z,Packers Stay Undefeated,Bills on,Late Field Goal
2011-10-16T21:00:00Z,South Korea ’s Department Store Sales,Grew in,Seven Months
2011-10-16T22:00:01Z,Arab Protests,Send,Costing Region
2011-10-16T22:01:00Z,Hollande,Secures,France ’s Socialist Party Nomination
2011-10-16T22:30:26Z,Merchant Marine,Says in,Gulf
2011-10-16T22:34:41Z,Advance Versus Euro,Trades at,1.3883
2011-10-16T22:34:41Z,Euro,Pares,Yen Loss
2011-10-16T23:00:00Z,Dead Poet Brightens Met,’,Don Giovanni
2011-10-16T23:00:00Z,Spy Chief Rimington,Sparks,Backlash
2011-10-16T23:00:01Z,Dine,in,Johannesburg
2011-10-16T23:00:01Z,Government May,Sell Five-Year Debt at,1.05 %
2011-10-16T23:00:01Z,Matisse Paintings Dazzle,in,Paris Stein Show
2011-10-16T23:00:01Z,Picasso,Dazzle in,Paris Stein Show
2011-10-16T23:01:28Z,Seal Arsenal,Win as,Van Persie ’s Two Goals
2011-10-16T23:01:28Z,Van Persie,as,Two Goals
2011-10-16T23:01:28Z,Wenger,Sees,Confidence
2011-10-16T23:09:01Z,Citigroup,Jump on,Credit Costs
2011-10-16T23:44:46Z,Barcelona,Madrid Atop,La Liga
2011-10-16T23:44:46Z,Lazio,Wins,Rome Derby
2011-10-16T23:55:41Z,CEO,After,Ouster
2011-10-16T23:55:41Z,Fall,in,Tokyo
2011-10-17T01:23:57Z,UAW,Says in,Favor of Ford Agreement
2011-10-17T04:39:40Z,Blacks,Relive,Times Against France
2011-10-17T04:39:40Z,Good Times,in,World Cup Final
2011-10-17T05:03:17Z,15-Car Crash,in,Las Vegas
2011-10-17T05:03:17Z,IndyCar Driver Dan Wheldon,Dies From,Crash
2011-10-17T05:20:16Z,Giants Beat Bills,in,NFL Week 6
2011-10-17T07:39:12Z,Ambani Armed,With,12.6 Billion
2011-10-17T08:22:48Z,Olympus Payments,Should,Should Probed
2011-10-17T08:22:48Z,Should Probed,Ordered by,Ousted CEO
2011-10-17T08:29:52Z,Jets,Push to,Triple Defense Exports
2011-10-17T09:21:36Z,Hong Kong,Tap,Demand
2011-10-17T09:47:19Z,China Currency Message May,be,Stronger
2011-10-17T10:02:23Z,U.S. Republican,Says Against,Iran
2011-10-17T14:43:29Z,Families,Attempt in,Court
2011-10-17T14:43:29Z,Israeli Families,Attempt to,Block Palestinian Prisoner Exchange
2011-10-17T14:55:35Z,EU,at,Push
2011-10-17T14:57:00Z,Hedge Funds,Add in,Biggest Rally
2011-10-17T15:01:50Z,Banks,Selling,Most Treasuries
2011-10-17T15:01:50Z,Central Banks,Selling Most Treasuries Since,2007 Prove No Barrier
2011-10-17T17:06:52Z,13 Aluminum Assets,in,Australia
2011-10-17T18:32:47Z,Saleh,as,Troops Battle Yemen Tribal Forces
2011-10-17T18:32:47Z,Sana’a,Rocked by,Explosions
2011-10-17T20:05:08Z,$ 21 Billion,in,Cash
2011-10-17T20:09:21Z,Bulls Converge,With,Bears
2011-10-17T21:14:56Z,Region,to,Debt Turmoil
2011-10-17T21:49:09Z,No. 1 Film Again,With,Sales of 16.3
2011-10-17T21:49:09Z,Real Steel,Is,No. 1 Film Again
2011-10-17T21:49:09Z,Steel,Is,No. 1 Film Again With Sales
2011-10-18T06:43:51Z,Floods Besiege Thailand,as,Capital
2011-10-18T08:07:33Z,Air France,Turns as,CEO Gourgeon Ousted
