2011-02-18T00:00:00Z,Crooks,Get,Ideal Conditions
2011-02-18T00:00:00Z,N.Y.,in Advance,Survey
2011-02-18T00:00:00Z,Sales Silver Maple Leaf Coins Surged,in,2010
2011-02-18T00:00:00Z,Sugar May Advance,in,N.Y. on Tight Supply
2011-02-18T00:00:00Z,Tight Supply,on N.Y.,London
2011-02-18T00:00:00Z,Your $ Defense Bill,Chokes on,Waste
2011-02-18T00:00:00Z,Your Defense Bill,Chokes on,Waste
2011-02-18T00:00:01Z,Europe,of,Biggest Retail Center
2011-02-18T00:00:01Z,Genghis Khan Dentists,Vie for,Odd Title Prize
2011-02-18T00:00:01Z,U.S.,Shows,Europe
2011-02-18T00:01:00Z,Britain,Lacks,Comprehensive Growth Strategy
2011-02-18T00:01:00Z,Buyers,Delay,Purchases
2011-02-18T00:01:00Z,Demand,on Advance,Survey
2011-02-18T00:01:00Z,January,in Rises,Plants
2011-02-18T00:01:00Z,Second Month,for Fall,LSL
2011-02-18T00:01:00Z,Shoppers,Pay for,Travel
2011-02-18T00:01:00Z,U.K. Online Spending Rises,in,January
2011-02-18T01:14:58Z,Cable,Writes in,FT
2011-02-18T01:14:58Z,Investment,Be,Driver
2011-02-18T01:14:58Z,Private Investment,Be Driver of,Growth
2011-02-18T01:19:22Z,Rise,With,End of Fed Easing
2011-02-18T02:06:12Z,Beijing,Rise From,Year
2011-02-18T02:19:28Z,U.S. Senate,Approves,FAA Bill
2011-02-18T03:05:59Z,20 %,in,2011
2011-02-18T03:30:57Z,Buyers,Choose,CERs
2011-02-18T04:02:40Z,China Money Rates,Set for,Weekly Gain
2011-02-18T04:02:42Z,BPMigas,Genting,Unit Discovers Gas in Indonesia ’s Project
2011-02-18T04:02:42Z,Indonesia,in,Project
2011-02-18T04:02:42Z,Unit Discovers Gas,in,Indonesia ’s Project
2011-02-18T04:48:32Z,AAP,Says Against,Fortescue
2011-02-18T04:48:32Z,Australian Court Upholds ASIC Appeal,Says Against,Fortescue
2011-02-18T04:52:03Z,Kenya,'s Exchange,Nation
2011-02-18T04:52:18Z,First Day,in,Four
2011-02-18T04:59:31Z,Ends Longest Win Streak,in,Two Months
2011-02-18T04:59:31Z,Jollibee Falls,Streak in,Two Months
2011-02-18T05:00:01Z,Daley,Bring,Order
2011-02-18T05:00:01Z,House,Cancel Rules,Month
2011-02-18T05:00:01Z,Levin,Says,He Doubts U.S. Senate Will Fund General Electric 's F-35 Engine
2011-02-18T05:00:01Z,Obama Aides Plouffe,Profanity to,West Wing
2011-02-18T05:00:03Z,Buffett,Says,Pricing Power More Important
2011-02-18T05:00:03Z,Pricing Power,Important Than,Good Management
2011-02-18T05:00:58Z,Lippmann ’s LibreMax,Beats Peers With,Bets
2011-02-18T05:01:00Z,Alaska,Cites,Court Ruling in Refusing Federal Health-Care Money
2011-02-18T05:01:00Z,Court Ruling,in,Refusing Federal Health-Care Money
2011-02-18T05:01:00Z,Hispanics,Pick Up,Tab
2011-02-18T05:01:00Z,Next Week,in,Match Play Championship Golf
2011-02-18T05:01:00Z,Rising Hispanics,Pick Up,Tab
2011-02-18T05:01:00Z,Rising Young Hispanics,in,Texas
2011-02-18T05:01:00Z,Spurs ' Tim Duncan,Replaces,Houston 's Yao
2011-02-18T05:01:00Z,Young Hispanics,Pick Up,Tab
2011-02-18T05:01:01Z,Credit Suisse,Must Face Legal Claims by,Upscale Resorts in Montana
2011-02-18T05:01:01Z,Obama Administration,Seeks Clarification on,Scope of Health-Care Ruling
2011-02-18T05:01:01Z,Upscale Resorts,in,Montana
2011-02-18T05:12:40Z,India ’s Bonds,Set for,Second Weekly Advance
2011-02-18T05:19:19Z,Rooibos Farmers,Expect,Yields
2011-02-18T05:30:12Z,Hong Kong Short Selling Turnover,Recorded,02/18/2011
2011-02-18T05:32:11Z,Standard Chartered Invests,in,Australian Livestock Exporter
2011-02-18T05:42:56Z,Iowa Wrestler Defaults,in,State Championship Rather
2011-02-18T05:45:03Z,Diageo,'s Profit,Ndegwa
2011-02-18T05:47:21Z,Cotton,Record for,Third Day
2011-02-18T05:52:26Z,China Car Sales Growth,Slows,Incentives End
2011-02-18T06:12:41Z,Riot Control Gear,of Sale,Guardian
2011-02-18T06:12:46Z,U.S. Geologist,Loses China Appeal on,Secrets
2011-02-18T06:18:24Z,Stagecoach ’s NYC Bus Venture,Rebuked Over,FT
2011-02-18T06:27:19Z,See ’s Candies,Raised,Prices
2011-02-18T06:29:13Z,South Korea,More Tariff-Free,Powdered Milk
2011-02-18T06:38:15Z,Jobs,Zuckerberg With,U.S. Economy
2011-02-18T06:38:15Z,Menu,on Jobs,Zuckerberg With U.S. Economy
2011-02-18T06:38:15Z,Obama Dines,With,Jobs on Menu
2011-02-18T06:38:15Z,Zuckerberg,With,U.S. Economy
2011-02-18T06:42:22Z,Japan 's Topix Retreats,in,10 Days
2011-02-18T06:44:54Z,TomTom Posts Smaller-Than-Expected Drop,in,Fourth-Quarter Net
2011-02-18T06:51:16Z,Moody,’,Downgrades Banks
2011-02-18T06:56:23Z,Gintech Energy 's 2011 Capex NT$ 5.5 Billion Vs NT$,in,2010
2011-02-18T07:19:08Z,Latvia May Lift Property Tax,in,2012 Budget
2011-02-18T07:38:49Z,Ageas Will,Pay Million for,31 % of Aksigorta
2011-02-18T07:40:20Z,ATE Bank Might,Sell,Kathimerini Reports
2011-02-18T07:40:36Z,Pioneer,Says,Revenue for Four Months
2011-02-18T07:44:26Z,China,From,Canadian Solar
2011-02-18T07:44:26Z,S.A.G. Solarstrom,Buys,60 Megawatts
2011-02-18T07:49:02Z,Rentokil,Has,2010 Loss
2011-02-18T07:55:03Z,China Home Prices Rise,in,Most Cities
2011-02-18T07:57:34Z,Nigeria,Cancels Nitel Sale to,New Generation
2011-02-18T08:00:30Z,Oil Falls First Time,in,Three Days
2011-02-18T08:02:31Z,Rwanda,’s Rise,New Trees
2011-02-18T08:22:54Z,Bats Global Markets,Is,Poised
2011-02-18T08:22:54Z,Bats Markets,Is,Poised to Purchase Chi-X Europe
2011-02-18T08:29:04Z,Clashes,With,Protesters
2011-02-18T08:29:04Z,Japan Ends Annual Whale Hunt,in,Antarctica
2011-02-18T08:29:05Z,Tully Sugar Shareholder Vote,Derails,Bunge Bid Plan
2011-02-18T08:31:30Z,Lloyds Banking,Sell,Shipping Loans
2011-02-18T08:34:47Z,Kot Addu ’s Net Profit,Rises on,Interest Income
2011-02-18T08:34:47Z,Kot Addu ’s Profit,Rises on,Interest Income
2011-02-18T08:35:50Z,Barclays,Says,Dollar Versus Aussie
2011-02-18T08:35:50Z,Buy Dollar Versus Aussie,Kiwi on,U.S. Growth
2011-02-18T08:43:30Z,Serbia May Extend Ties,With,IMF
2011-02-18T08:44:30Z,33 Million Euro Loss,in,2009
2011-02-18T08:46:56Z,It,Aims to,Cut Debt
2011-02-18T08:48:09Z,Demand,Jumps to,20-Month High
2011-02-18T08:56:00Z,Ireland ’s Bruton,Says,Fine Gael May Govern
2011-02-18T08:56:47Z,Senegal ’s President Offers Job,Training to,Casamance Militants
2011-02-18T09:00:00Z,Lithuanian Unemployment Rate,Fell in,Quarter
2011-02-18T09:00:00Z,Unemployment Rate,Fell in,Fourth Quarter
2011-02-18T09:06:47Z,Fortescue Disappointed,Misled,Investors
2011-02-18T09:06:47Z,It,Misled,Investors
2011-02-18T09:08:42Z,8.6 % Decline,in,Profit
2011-02-18T09:23:43Z,Gold Rises,Gains as,Unrest Spurs Demand
2011-02-18T09:35:28Z,Force NH,to,Burgio
2011-02-18T09:35:28Z,Force NH ’s Burgio,to Madrid,Confidencial
2011-02-18T09:40:21Z,Gains Versus Euro,Dollar as,U.K. Retail Sales Beat Estimate
2011-02-18T09:40:21Z,Pound,Extends,Gains Versus Euro
2011-02-18T09:41:11Z,Asian Currencies,Strengthen,Week
2011-02-18T09:41:11Z,Currencies,Strengthen,Week
2011-02-18T09:41:11Z,Interest-Rate Premiums,Draw,Funds
2011-02-18T09:51:01Z,Australian Town Changes,Name to,Speedkill
2011-02-18T09:52:57Z,Egypt,Confirms,Iran 's Request
2011-02-18T09:53:48Z,Africa,Should Broaden Coffee Export Destinations According to,ICO 's Sette
2011-02-18T09:53:48Z,ICO,According to,Sette
2011-02-18T09:56:27Z,Barley,in,Tender
2011-02-18T10:03:24Z,France,’s Maker,Tanjug Reports
2011-02-18T10:06:07Z,Double Coffee Output,to Aims,Group
2011-02-18T10:18:37Z,53.5 %,in,2011
2011-02-18T10:29:13Z,Zloty,Drop After,China Increases Reserve Ratio
2011-02-18T10:30:50Z,Asian Stocks,Rise on,Billabong Forecast
2011-02-18T10:30:50Z,Stocks,Rise on,Taiwan Economic Growth
2011-02-18T10:34:10Z,Bulgarian Mutual Fund Assets Rose,Annual,36.6 %
2011-02-18T10:34:10Z,Mutual Fund Assets Rose,Annual,36.6 %
2011-02-18T10:37:49Z,Fiat Ends Negotiations,With,Sollers
2011-02-18T10:37:49Z,Sollers,Strategy for,Russia
2011-02-18T10:43:59Z,China,Gives,4 Billion CFA Franc Grant
2011-02-18T10:55:28Z,Consumers,Resume,Spending After Record Freeze
2011-02-18T10:55:28Z,Retail Sales,Soar,Consumers Resume
2011-02-18T10:58:10Z,$ 65.5 Million,in,Batman
2011-02-18T11:00:01Z,Obama Names Intel ’s Otellini,Headed by,Immelt
2011-02-18T11:01:08Z,U.K.,of,Isle of Wight
2011-02-18T11:08:16Z,Ontario,’s Merger,Globe Reports
2011-02-18T11:12:16Z,%,Climb in,Revenue
2011-02-18T11:12:16Z,17 %,Climb on,Seafood
2011-02-18T11:16:36Z,Habib Bank Net Income,Rises,27 %
2011-02-18T11:19:52Z,In Demand,in,India
2011-02-18T11:28:14Z,Russia Stocks,Drop,Day
2011-02-18T11:28:45Z,BofA,in,Court News
2011-02-18T11:28:45Z,Stanford,BofA in,Court News
2011-02-18T11:29:16Z,Nigerian Workers Shut Power Plant,Handed to,Sepco
2011-02-18T11:34:20Z,PBOC,Picks Up,Pace
2011-02-18T11:47:03Z,Fed Funds Rate Projected,Open at,0.16 ICAP Says
2011-02-18T11:48:19Z,Ghana Central Bank,Holds,Lending Rate
2011-02-18T12:04:34Z,Cashew Prices,in,Double Nigeria
2011-02-18T12:04:34Z,Demand,Lifted by,Tensions
2011-02-18T12:04:34Z,Tensions,in,Ivory Coast
2011-02-18T12:08:08Z,China,Raises Bank Reserve Ratios to,Counter Inflation
2011-02-18T12:15:24Z,Women,in,Tennis Rankings From Clijsters
2011-02-18T12:15:24Z,Wozniacki Will Reclaim Top Spot,in,Women 's Tennis Rankings From Clijsters
2011-02-18T12:24:32Z,China Failing,Drive,Global Growth
2011-02-18T12:24:32Z,Finance Minister Kudrin,Says,China Failing
2011-02-18T12:24:32Z,Russian Finance Minister Kudrin,Says,China Failing
2011-02-18T12:26:21Z,Treasuries,Pare,Weekly Gain
2011-02-18T12:27:50Z,Cairo,to,Tahrir Square
2011-02-18T12:27:52Z,Merkel ’s Defense Minister Drops Doctor Title,in,Plagiarism Spat
2011-02-18T12:29:53Z,Georgia ’s Fast Plus,in,2011
2011-02-18T12:31:19Z,Socar Will Finance Building,in,Azerbaijan
2011-02-18T12:45:14Z,Canada January Inflation,Slows on,Clothing Costs
2011-02-18T12:53:12Z,Bini Smaghi,Says,Rates May Rise on Inflation
2011-02-18T12:53:12Z,Bonds,Extend,Drop
2011-02-18T12:53:12Z,German Bonds,Extend,Drop
2011-02-18T12:59:16Z,Telefonica Czech,Heads for,Best Day
2011-02-18T12:59:16Z,Telefonica O2 Czech,Heads Before,Earnings
2011-02-18T13:05:14Z,African Stocks,Fall For,Fourth Day
2011-02-18T13:05:14Z,African Stocks Fall,Led by,Freeworld
2011-02-18T13:05:14Z,South African Stocks,Fall For,Fourth Day
2011-02-18T13:05:14Z,South African Stocks Fall,Led by,Freeworld
2011-02-18T13:05:14Z,Stocks,Fall For,Fourth Day
2011-02-18T13:05:14Z,Stocks Fall,Led by,Freeworld
2011-02-18T13:09:54Z,Banque Postale Asset Management,Buys,Betting
2011-02-18T13:09:54Z,Debt,Betting on,Euro Recovery
2011-02-18T13:09:54Z,Irish Debt,Betting on,Euro Recovery
2011-02-18T13:16:51Z,ECB ’s Noyer,Says,Capital Controls May Hurt Financial Stability
2011-02-18T13:28:32Z,Maersk Said,Set From,Daewoo
2011-02-18T13:28:32Z,World,of,Biggest Container Ships
2011-02-18T13:33:03Z,Oil,Rises as,Unrest
2011-02-18T13:33:03Z,Unrest,in,Mideast Fuels Supply Concern
2011-02-18T13:35:12Z,China,Cancels,Purchase
2011-02-18T13:36:35Z,Zambia Copper Output Rose 17 %,in,2010
2011-02-18T14:00:51Z,Ghana Cedi,Weakens as,Company Demands Dollars
2011-02-18T14:04:47Z,Hong Kong,Approves,Cathay
2011-02-18T14:06:18Z,Giant Slalom,Title for,American Team
2011-02-18T14:06:18Z,Ted Ligety,Wins,First World Ski Title for American Team
2011-02-18T14:06:29Z,Marvin Miller,Says,NFL
2011-02-18T14:06:35Z,Apple,’s Ward,EU
2011-02-18T14:17:04Z,National Bank,Buy,Smaller Rival Alpha Bank
2011-02-18T14:20:31Z,2.6 %,in,2011
2011-02-18T14:22:05Z,Polish Regulator,Clears,Santander ’s Takeover
2011-02-18T14:22:05Z,Regulator,Clears,Santander ’s Takeover of Bank Zachodni
2011-02-18T14:24:37Z,Year,Shows,Growth Trumps Egypt Concern
2011-02-18T14:29:59Z,$ 4 Billion Investment,in,Ghana
2011-02-18T14:48:50Z,G-20 Needs,Step Up,Efforts on Global Imbalances
2011-02-18T14:48:50Z,King,Says,G-20 Needs
2011-02-18T14:52:41Z,Nestle Nigeria,Rises,Most in Four Months
2011-02-18T14:53:22Z,Falcone ’s LightSquared,Nears,$ 585 Million Loan Accord
2011-02-18T14:56:13Z,Uganda,Closes,Voting
2011-02-18T15:00:00Z,U.S. Fuel Consumption Edged,Higher in,January
2011-02-18T15:00:38Z,J&J Withdraws Simponi,in,Germany
2011-02-18T15:04:52Z,Czech Koruna,Weakens to,Month Low
2011-02-18T15:24:22Z,African Bonds,Head in,4 Months
2011-02-18T15:24:22Z,Bonds,Head for,Gain
2011-02-18T15:24:22Z,South African Bonds,Head in,4 Months
2011-02-18T15:26:53Z,Krawcheck Slaps Cut-Pay Garden,Leave After,Broker Defects
2011-02-18T15:32:33Z,Pound,Strengthens,January Retail Sales Surge
2011-02-18T15:45:29Z,Russia,Leaves,21 %
2011-02-18T15:46:36Z,Miami,Cited in,Audit
2011-02-18T15:47:34Z,Grain Prices,Declined,Researcher SovEcon
2011-02-18T15:47:34Z,Russian Grain Prices,Declined,Researcher SovEcon
2011-02-18T15:49:20Z,Bernanke,Reiterates,Criticism of China Yuan Policy
2011-02-18T16:01:00Z,Growth,Puts,Pressure
2011-02-18T16:01:00Z,Malaysian Growth,Puts,Pressure
2011-02-18T16:01:40Z,Zambia Foreign Investment Pledges Rise,in,Fourth Quarter
2011-02-18T16:06:50Z,Ghana Current Account Deficit,Increased in,2010
2011-02-18T16:07:59Z,BM&FB ovespa Profit,Rises on,Derivatives Trading
2011-02-18T16:08:13Z,Nestle Nigeria Full-Year Profit,Climbs,29 %
2011-02-18T16:08:39Z,December,for Report,Text
2011-02-18T16:14:05Z,Clinton,Stresses,Diplomatic Surge
2011-02-18T16:15:00Z,Protesters,in,Capital
2011-02-18T16:15:54Z,Essar,Offers,$ 350 Million
2011-02-18T16:15:54Z,Shell,for,Stanlow Refinery
2011-02-18T16:17:07Z,$ 350 Million,in,Mexico
2011-02-18T16:19:54Z,Spot Metallurgical Coal,in,U.S. Mixed
2011-02-18T16:24:49Z,Month,Led By,CEZ
2011-02-18T16:26:23Z,Ex-Sadia Executives,Sentenced in,Insider Trading Case
2011-02-18T16:27:19Z,Endesa,Halt to,Coal Plan
2011-02-18T16:30:03Z,Kenyan President Kibaki,Says to,Rule
2011-02-18T16:30:03Z,President Kibaki,Says to,Rule on Nominations
2011-02-18T16:30:25Z,$ 17 Billion,in,New Financing
2011-02-18T16:36:09Z,MRSK,Slumps on,Putin Pledge
2011-02-18T16:39:53Z,Default Risk,Climbs to,5-Month High
2011-02-18T16:39:53Z,Turkish Default Risk,Climbs on,Unrest
2011-02-18T16:55:08Z,Bolivia Unions Strike,Raise,Inflation Accelerates
2011-02-18T16:56:25Z,Ghana Budget Gap,in,2010
2011-02-18T16:58:20Z,CA Immobilien,Move in,Vienna
2011-02-18T16:58:51Z,Spending,Increases,0.3 %
2011-02-18T17:03:42Z,May,Spend,Billion
2011-02-18T17:05:27Z,Stocks Rise,Led by,ABB
2011-02-18T17:05:27Z,Swiss Stocks Rise,Led by,ABB
2011-02-18T17:08:34Z,Shell,Sell,North Sea Forties Crude
2011-02-18T17:10:50Z,Colombian Peso,Rises on,End
2011-02-18T17:10:50Z,Peso,Rises,Most in Month
2011-02-18T17:14:14Z,China,Raises,Reserve Requirements
2011-02-18T17:15:36Z,Clariant,’s Investors,Finanz
2011-02-18T17:18:02Z,Ageas,Are,Active
2011-02-18T17:19:55Z,Won Super Bowls,With,Bears
2011-02-18T17:42:35Z,Bini Smaghi,Says as,Price Pressures Mount
2011-02-18T17:43:37Z,Holcim,Joins Suit Over,CO2 Theft
2011-02-18T17:58:58Z,Allstate,Sues,Deutsche Bank
2011-02-18T17:58:58Z,Citigroup,Bank Over,Securities
2011-02-18T18:14:40Z,ConocoPhillips Said,Shut down for,Work
2011-02-18T18:14:41Z,Bank,Operating,Profit
2011-02-18T18:16:19Z,Goldman May Repay Buffett,% of,Shares
2011-02-18T18:20:05Z,N.Y.,Fuel at,19-Month High Levels Amid Refinery Work
2011-02-18T18:25:17Z,Republican Budget Proposal,Would Shut,Chairman
2011-02-18T18:26:07Z,Gain,% to,86.06 Barrel
2011-02-18T18:26:07Z,N.Y. Crude Oil,Reverses,Falls 0.4 %
2011-02-18T18:45:17Z,New York 's Nassau County,Wins Stay on,Revised Budget
2011-02-18T19:01:12Z,Yemen Protests,Kill,Four
2011-02-18T19:06:44Z,E.ON,for,U.K. Power Network
2011-02-18T19:08:51Z,Banks,Thwart CFTC on,Oliver Wyman
2011-02-18T19:12:13Z,NFL,Meet With,Federal Mediator for Labor Contract Talks
2011-02-18T19:12:13Z,Players Union Meet,With,Federal Mediator for Labor Contract Talks
2011-02-18T19:14:01Z,Rabbi,in,SAC Extortion Plot Sentenced to 4 Years
2011-02-18T19:20:01Z,U.S. May,Spreading,Power-Line Costs
2011-02-18T19:25:27Z,Copper Prices,Climb on,Bets Demand
2011-02-18T19:26:37Z,Obama Toasts Tech Industry Executives,Including,Jobs
2011-02-18T19:53:48Z,Geithner,Sees,More Enthusiasm in Europe for Bank Bailouts
2011-02-18T19:53:48Z,More Enthusiasm,in,Europe
2011-02-18T20:01:54Z,Brown Order,Halts,California Give-Aways of Key Chains
2011-02-18T20:12:47Z,Merscorp,Replaces,Corporate Secretary
2011-02-18T20:22:13Z,30-Year High,Gains on,Middle East Unrest
2011-02-18T20:33:16Z,Brasil Foods,Hits,Record
2011-02-18T20:46:18Z,Cocoa,Surges to,High on Ivory Coast Political Unrest
2011-02-18T21:08:38Z,Merck Vioxx Accord,Spawns,Pay-Day Scrap
2011-02-18T21:24:06Z,RIM,Hires,Ex-Prime Minister Aide Amid Service Threats
2011-02-18T21:24:13Z,Little,Changed as,Corn Declines
2011-02-18T21:26:54Z,Verizon,Asked to,Probe
2011-02-18T21:29:27Z,Egypt Will,Allow,Iran
2011-02-18T21:29:27Z,Iran,Send,Two Naval Ships
2011-02-18T21:30:16Z,Obama,Says,U.S. Must Foster Business-Friendly Climate
2011-02-18T21:37:33Z,U.S. Apartment Construction,Climbs With,More Renters
2011-02-18T21:40:47Z,SunPower,Rises on,Guidance
2011-02-18T21:41:35Z,Bats,Buy Chi-X Europe,Competition Grows
2011-02-18T21:44:35Z,Canadian Stocks,Retreat as,Mining Shares Decline
2011-02-18T21:44:35Z,Stocks,Retreat as,Mining Shares Decline
2011-02-18T21:46:34Z,$ 5 Billion Chip Plant,in,Arizona
2011-02-18T22:06:49Z,Euro,Touches,One-Week High
2011-02-18T22:06:49Z,Official Signals ECB May,Increase,Rates
2011-02-18T22:13:32Z,Brazil,Salvador for,March 19-23
2011-02-18T22:13:32Z,Obama,Sets Trip to,Brazil
2011-02-18T22:21:17Z,U.S. Company Credit Swaps Index,Holds in,13 Months
2011-02-18T22:30:00Z,Osborne Will Open U.K.,in,Effort
2011-02-18T22:34:26Z,Asia Stocks,Rebounded Profit Reports on,Economic Growth Outlook
2011-02-18T22:37:38Z,CSR,in,Talks
2011-02-18T22:39:34Z,Tension,in,Mideast
2011-02-18T22:39:34Z,Treasuries Rise,Boosts,Demand
2011-02-18T23:18:22Z,Ambac,Gets,Four-Month Extension
2011-02-18T23:50:04Z,Lawful Websites,Seized in,U.S. Operation
2011-02-18T23:50:04Z,Websites,Seized Against,Child Porn
2011-02-18T23:55:27Z,U.S.,Joins,2007 KBR Unit Military Contract Case
2011-02-19T00:00:00Z,European Stocks,Gain for,Third Week
2011-02-19T00:00:00Z,Stocks,Gain for,Third Week
2011-02-19T00:03:24Z,Ford Motor Forms Russian Joint Venture,With,Sollers
2011-02-19T00:19:31Z,Geithner,Called,Housing Giants Moral Hazard
2011-02-19T05:01:00Z,IBM,Had Reason,Scared
2011-02-19T05:01:00Z,Identity,Wife in,Creepy Berlin
2011-02-19T05:01:00Z,Jeopardy,Had,Reason
2011-02-19T05:01:00Z,King George,Was,Viewed Fondly by Postwar Patriots
2011-02-19T05:01:00Z,Neeson ’s Botanist,Loses,Wife
2011-02-19T05:01:00Z,Rush,Tops Oscar Role as,Dog-Whispering Madman
2011-02-19T05:01:00Z,SEC May Risk Harming Investors,With,Trade-At Rule for Stocks
2011-02-19T05:01:00Z,Wife,in,Creepy Berlin
2011-02-19T12:07:26Z,China,Leads Fight in,Scrap at G-20
2011-02-19T12:07:26Z,West,Against,Economic Formula
2011-02-19T15:39:58Z,U.S.,Vetoes,Bid
2011-02-19T20:19:47Z,Anthony,Knock Nets Out of,N.Y. Post
2011-02-22T18:57:51Z,Canada,Stocks,Fall
2011-02-22T18:57:51Z,Copper Producers,Decline on,Growth Concern
2011-02-23T21:08:00Z,Senegal Signs Alternative Energy Accord,With,Plambeck
2011-05-18T16:21:22Z,Saudi Arabia Gasoline,Decline,43 %
2011-05-18T16:25:25Z,ICAP,Says Profit Rose as,Political Turmoil Fueled Volatility
2011-06-18T04:00:00Z,Lugar,Gives,Obama
