2011-03-02T00:00:00Z,Customers,Are,Smarter
2011-03-02T00:00:00Z,U.S. Teachers,Are,Failing
2011-03-02T00:00:01Z,Jumbo-Sized Smoker,Sheds,64 Pounds
2011-03-02T00:00:01Z,Jumbo-Sized Smoker 47,Sheds,64 Pounds
2011-03-02T00:00:01Z,Regling 's ECB Job Odds,Improve,Draghi Stays
2011-03-02T00:00:16Z,SEC Lawyer Cover,Missing,Madoff ’s Fraud
2011-03-02T00:00:16Z,Top SEC Lawyer Cover,Missing,Madoff ’s Fraud
2011-03-02T00:01:01Z,%,Handle on,Unemployment Is/Isn
2011-03-02T00:01:01Z,7 %,Handle on,Unemployment Is/Isn
2011-03-02T00:01:01Z,t Done Deal,in,Just Time
2011-03-02T00:30:53Z,0.7 %,in,Fourth Quarter
2011-03-02T00:30:57Z,Shares,Tumble,Most
2011-03-02T00:30:57Z,Sharp Shares,Tumble,Most
2011-03-02T00:34:25Z,Allstate,Sues Merrill Lynch for,Fraud
2011-03-02T00:34:56Z,Yahoo Japan,Rises,Most in Four Months on Yahoo Inc
2011-03-02T00:35:48Z,Australian Dollar,Weakens After,Economic Growth of 0.7 %
2011-03-02T00:35:48Z,Dollar,Weakens After,Economic Growth
2011-03-02T00:46:48Z,Morrison May,Buy,Back 1 Billion Pounds of Shares
2011-03-02T00:57:09Z,ADVANCED WIRELES February Sales,Fall,Table
2011-03-02T00:57:09Z,WIRELES February Sales,Fall,26.47 %
2011-03-02T01:14:51Z,Credit Suisse,Sees,Oil Prices Falling
2011-03-02T01:14:51Z,Saudi Arabia,on,Supply
2011-03-02T01:20:00Z,More Shares,in,Pakistan 's NIB Bank
2011-03-02T01:20:00Z,Pakistan,in,NIB Bank
2011-03-02T01:20:00Z,Temasek,Buys,Shares in Pakistan 's NIB Bank
2011-03-02T01:51:28Z,PPL,Acquires,E.ON ’s U.K. Electricity Network
2011-03-02T01:54:57Z,Italy Mulls Freezing Libyan Entities,' Holdings,Financial Times Reports
2011-03-02T01:55:53Z,Marcus Theaters,Breaking,U.S. Child Labor Laws
2011-03-02T01:57:12Z,BP,Hires,Itochu 's Steven Wee
2011-03-02T02:06:52Z,Mitsubishi ’s Oakajee Port Project,Gets,Deadline Extension
2011-03-02T02:24:19Z,22 %,in,2010
2011-03-02T02:49:17Z,Oil Price,Rises on,Middle East Turmoil
2011-03-02T02:49:17Z,Thai Baht,Weakens,Oil Price Rises
2011-03-02T03:00:00Z,G-20 Needs,Kim ’s,BOK
2011-03-02T03:16:49Z,Sell-Off,in,Asian Stocks
2011-03-02T03:53:06Z,Greece Ratings,Kept by,S&P
2011-03-02T03:53:06Z,Portugal,Kept on,Debt Concerns
2011-03-02T04:21:43Z,China Swaps,Drop,Middle East Tensions Push Oil Prices Higher
2011-03-02T04:34:23Z,Chelsea,Defeat,Premier League Leader Manchester United
2011-03-02T05:00:01Z,Hedge Funds,in,U.S. May Face Unprecedented Demands
2011-03-02T05:00:07Z,Harvard 's Crimson Cubs,With,$ 43 Billion Dwarf
2011-03-02T05:01:00Z,Broker,Getting,Stock Prices
2011-03-02T05:01:00Z,Hanged Girl,Haunts,Dowser
2011-03-02T05:01:00Z,Jenkins,Woody Before,NFL 's New Year
2011-03-02T05:01:00Z,NFL,Before,New Year
2011-03-02T05:01:00Z,Sushi Yasuda,Serves,90-Minute Meal
2011-03-02T05:01:01Z,Bonds,of,Ex-Mistress
2011-03-02T05:01:01Z,Playboy Photos,Barred as,Trial Evidence
2011-03-02T05:04:13Z,Steinhoff,in,Europe
2011-03-02T05:07:45Z,Afgri,Says,Its Six-Month Headline Earnings From Operations Fell 1.3 %
2011-03-02T05:09:45Z,Losberg,in,South Africa
2011-03-02T05:09:45Z,Omnia,Says,Three Workers
2011-03-02T05:09:45Z,Three Workers,Killed in,Explosion Losberg South Africa
2011-03-02T05:10:37Z,Falcone,'s Harbinger,Solus Make Rival Bid Against Dish for Bankrupt DBSD
2011-03-02T05:10:37Z,Falcone 's Harbinger,Bid Against,Dish for Bankrupt DBSD
2011-03-02T05:11:26Z,50 % Interest,in,Canada 's Montney Shale Basin
2011-03-02T05:11:26Z,Canada,in,Montney Shale Basin
2011-03-02T05:11:26Z,Sasol,Completes,Purchase of 50 % Interest in Canada 's Montney Shale Basin
2011-03-02T05:15:28Z,Arab League,'s Meet,MENA
2011-03-02T05:15:28Z,Arab League 's Foreign Ministers Meet,in,Cairo
2011-03-02T05:15:28Z,Cairo,in Meet,MENA
2011-03-02T05:15:37Z,Key,Expects,New Zealand Central Bank
2011-03-02T05:18:06Z,$ 858 Million,Business,Its
2011-03-02T05:19:10Z,Foreign Stock Exchanges,Enter,Market
2011-03-02T05:24:37Z,Banks Shut Today,in,Mumbai
2011-03-02T05:24:37Z,India Markets,Today in,Mumbai
2011-03-02T05:30:14Z,Hong Kong Short Selling Turnover,Recorded,03/02/2011
2011-03-02T05:32:55Z,Operations Rose 63 %,in,Six Months
2011-03-02T05:32:55Z,Petmin,Says,Cash Generated By Operations Rose 63 %
2011-03-02T05:33:53Z,Government,'s Lapse,Business Report
2011-03-02T05:37:45Z,Richard Thomas Sprints,in,Timon
2011-03-02T05:57:26Z,Lehman,Advise of,CDO Risks Australian
2011-03-02T05:57:41Z,F February Sales,Rise,Table
2011-03-02T05:57:41Z,FORMOSA CHEM,Rise,27.12 %
2011-03-02T06:00:08Z,FORMOSA PLASTIC February Sales,Rise,9.98 %
2011-03-02T06:03:20Z,Bank,Is Seeking,MF Reports
2011-03-02T06:10:58Z,GREEN ENERGY TEC February Sales,Rise,103.57 %
2011-03-02T06:14:29Z,AGM,at Markets,Handelsblatt
2011-03-02T06:29:09Z,Vehicle Data,Issue 's,Brait
2011-03-02T06:39:02Z,Estonian Retail Sales,Declined for,First Time
2011-03-02T06:39:02Z,Retail Sales,Declined in,Six Months
2011-03-02T06:44:30Z,Mercator Poslovni Profit,Rises on,Croatian
2011-03-02T06:47:07Z,Bank Governor,'s Illegal,Nation Reports
2011-03-02T06:47:07Z,Kenyan Lawmakers,Say,Nation Reports
2011-03-02T06:47:07Z,Lawmakers,Say,Bank Governor 's Reappointment Illegal
2011-03-02T06:49:58Z,CEZ May Gain More Gas Clients,in,Slovakia
2011-03-02T06:54:03Z,Cash,Rebates After,Backlash Over Budget
2011-03-02T06:55:47Z,Czech Finance Minister May,Consider,Pravo
2011-03-02T07:01:45Z,Majority,Raise,Rate
2011-03-02T07:04:45Z,Swiss Life,Raises Dividend After,Second-Half Profit Doubles
2011-03-02T07:04:52Z,Qantas Suffers Second A380 Engine-Oil Loss,in,Past Two Weeks
2011-03-02T07:09:36Z,China Stocks,Drop,Most
2011-03-02T07:09:36Z,Oil,Spurs,Inflation Concern
2011-03-02T07:11:14Z,Indonesia May,Allow,Exports
2011-03-02T07:14:40Z,Foxtel,Buy,Pay-TV Operator
2011-03-02T07:16:52Z,Finaport,Reduces,Clients
2011-03-02T07:21:26Z,Admiral ’s Profit,Beats,Estimates
2011-03-02T07:23:22Z,China Forestry,Says,Ex-CEO Li Han Chun Detained
2011-03-02T07:23:22Z,Ex-CEO Li Han Chun,Detained by,Police
2011-03-02T07:23:40Z,U.S. Yield,Is,One Basis Point From Low on Safety Demand
2011-03-02T07:23:42Z,Hong Kong Stocks,Fall,Most in Week
2011-03-02T07:26:22Z,NetVision,Says Smile Purchase by,Partner Communications May Hurt Company
2011-03-02T07:28:19Z,Azeri Leader,Vows Corruption Fight as,Opposition Plans Protests
2011-03-02T07:35:32Z,POWERCHIP TECHNO February Sales,Fall,Table
2011-03-02T07:37:33Z,Rule,to Regulator,Tanjug Reports
2011-03-02T07:37:33Z,Telekom,on Regulator,Tanjug Reports
2011-03-02T07:37:57Z,10 Hedge Funds ’ Profits,Surpass,Those
2011-03-02T07:37:57Z,Hedge Funds ’ Profits,Surpass,Those of Banks
2011-03-02T07:37:57Z,Profits,Surpass,Those of Banks
2011-03-02T07:37:57Z,Top 10 Hedge Funds ’ Profits,Surpass,Those
2011-03-02T07:37:57Z,Top Hedge Funds ’ Profits,Surpass,Those
2011-03-02T07:38:00Z,Slovenians Close Schools,Roads Amid,Strong Winds
2011-03-02T07:45:53Z,Earnings,Declining Up on,Lower Revenue
2011-03-02T07:45:53Z,UCB,Sees,Earnings
2011-03-02T07:55:04Z,REXCHIP ELECTRO February Sales,Fall,Table
2011-03-02T07:55:50Z,Indian Court,Allows Ansaldo Venture to,Bid for NTPC Contract
2011-03-02T07:56:10Z,Chevrolet Cars,in,Turkey
2011-03-02T08:00:00Z,Registered Unemployment,Rises,Deepening
2011-03-02T08:00:00Z,Spanish Registered Unemployment,Rises,Deepening
2011-03-02T08:00:01Z,$ 146 Million Contract,in,Abu Dhabi
2011-03-02T08:00:01Z,Orascom Construction,Wins,$ 146 Million Contract in Abu Dhabi
2011-03-02T08:03:40Z,European Stocks,Fall on,Energy-Cost Concerns
2011-03-02T08:03:40Z,Stocks,Led by,Miners
2011-03-02T08:05:57Z,29 People,Accused of,Kigali Grenade Attacks
2011-03-02T08:05:57Z,Rwandan Court,Denies Bail to,29 People
2011-03-02T08:08:15Z,Bond Risk,Rises in,Europe
2011-03-02T08:08:15Z,Corporate Bond Risk,Rises in,Europe
2011-03-02T08:16:18Z,30-Month High,in,New York
2011-03-02T08:17:15Z,Soho China,Net Rises,10 %
2011-03-02T08:17:15Z,Soho China 2010,Rises,10 %
2011-03-02T08:17:27Z,BBA Full-Year Profit,Rises on,Sales
2011-03-02T08:19:30Z,Load,in,Kandla
2011-03-02T08:20:37Z,Japan,Says,Missile Deployment
2011-03-02T08:27:08Z,Oi,Buy,Shares
2011-03-02T08:27:08Z,Shares,in,Portugal Telecom
2011-03-02T08:27:14Z,Irish Life 2010 Bank Losses Rise,Offsets,Life Improvement
2011-03-02T08:27:14Z,Irish Life Bank Losses Rise,Offsets,Life Improvement
2011-03-02T08:29:55Z,Kenya,Provides,Fertilizer Subsidy
2011-03-02T08:29:57Z,Feed Wheat,Barley on,March 9
2011-03-02T08:32:22Z,Bonds,Fall as,Central Bank Signals Rate Increase
2011-03-02T08:32:22Z,Philippine Bonds,Fall as,Central Bank Signals Rate Increase
2011-03-02T08:37:20Z,South Africa 's Estate Agency Affairs Board,Is Probing,Four Estate Agencies
2011-03-02T08:39:29Z,Banking,Insurance With,Gazprom
2011-03-02T08:39:29Z,Insurance,With,Gazprom
2011-03-02T08:39:29Z,Srbijagas,Expand to,Insurance
2011-03-02T08:45:05Z,Taiwan Bonds,Snap Decline as,Stocks Retreat on Oil
2011-03-02T08:53:04Z,Asia,’s Imports,ICIS Reports
2011-03-02T08:53:04Z,West,from Imports,ICIS Reports
2011-03-02T08:53:10Z,Moscow,Cancels,St. Patrick ’s Parade
2011-03-02T08:53:38Z,Russia,Holds Oil Output in,February
2011-03-02T09:00:01Z,Vehicle Sales Growth,in,South Africa
2011-03-02T09:01:56Z,Iberdrola Renovables,in,2012
2011-03-02T09:01:56Z,Shares Fall,in,Madrid
2011-03-02T09:05:27Z,Dong,Is,Unchanged
2011-03-02T09:05:52Z,Oil,Spurs,Growth Concern
2011-03-02T09:05:52Z,Rising Oil,Spurs,Growth Concern
2011-03-02T09:09:40Z,Nokia Chief Elop,Says,Factory
2011-03-02T09:11:23Z,Gold Jumps,as Slump,UBS
2011-03-02T09:11:23Z,Mideast Unrest,on Slump,UBS
2011-03-02T09:12:19Z,South Africa 's Competition Agency Refers Pilings Case,Settles With,Aveng
2011-03-02T09:20:15Z,Russia Stocks,Drop Day as,Oil Fans Growth Concern
2011-03-02T09:23:53Z,Capital Earnings,Decline,39 %
2011-03-02T09:28:54Z,Gold Buying,in,China
2011-03-02T09:29:06Z,Chalco,in,2011
2011-03-02T09:29:42Z,Second Day,in,New York
2011-03-02T09:32:43Z,Coda Automative,Reaffirms,Goal of Selling Electric Cars From Second Half
2011-03-02T09:37:28Z,$ 700 Million,in,Clean Energy
2011-03-02T09:37:28Z,Terra Firma Capital May Invest,in,2011
2011-03-02T09:43:36Z,Latvian Inflation,in,2011
2011-03-02T09:47:17Z,Banco Pastor,Says to,Issue Bonds Convertible Into Shares
2011-03-02T09:48:47Z,Kenya 's Shilling,Strengthens,Boosted by Inflows
2011-03-02T09:48:47Z,Nigeria ’s Senate,Passes,Bill Against Money Laundering
2011-03-02T09:50:44Z,South Africa ’s $ 750 Million,Gain on,1st Day
2011-03-02T09:52:09Z,Eight Months,in,February
2011-03-02T09:52:09Z,U.K. Construction Expanded,in,Eight Months
2011-03-02T09:54:46Z,Togo,’s Minister,TVT Reports
2011-03-02T10:00:00Z,Half,in,2011
2011-03-02T10:04:11Z,European Producer-Price Inflation,Accelerates Than,Forecast on Energy
2011-03-02T10:04:11Z,Producer-Price Inflation,Accelerates Than,Forecast on Energy
2011-03-02T10:04:45Z,I,Want,Prime Minister ’ Party
2011-03-02T10:04:45Z,Putin Aides,Seek,Club Owners
2011-03-02T10:17:00Z,Tabreed,Gets,Million From Mubadala of Abu Dhabi
2011-03-02T10:26:46Z,Iron Ore,in,Brazil
2011-03-02T10:27:39Z,Australian Dollar,Erases,Decline Versus U.S. Dollar
2011-03-02T10:27:39Z,Dollar,Erases,Decline Versus U.S. Dollar
2011-03-02T10:32:21Z,Mukherjee,Says,Uncertainty in Oil Prices for India
2011-03-02T10:32:21Z,Uncertainty,in,Global Oil Prices
2011-03-02T10:44:04Z,Saudi Stocks,Slump,5.4 % Led
2011-03-02T10:44:04Z,Stocks,Slump,5.4 % Led
2011-03-02T10:44:29Z,Crude,as,Rally Increases Attraction of Biofuel
2011-03-02T10:45:00Z,Nortel Group Transaction,Wins,EU Antitrust Approval
2011-03-02T10:52:17Z,Each,Must Give Billion in,Guarantees
2011-03-02T10:52:17Z,RWE,Must Give Billion in,Guarantees
2011-03-02T10:53:18Z,10-Year Bonds,Leaving,Yields Changed at 3.18 %
2011-03-02T10:53:18Z,Bonds,Leaving,Yields Changed
2011-03-02T10:53:18Z,German 10-Year Bonds,Leaving,Yields Changed at 3.18 %
2011-03-02T10:53:18Z,German Bonds,Leaving,Yields Little Changed at 3.18 %
2011-03-02T10:53:18Z,Yields,Changed at,3.18 %
2011-03-02T10:59:53Z,Bank Zachodni Profit,Rises on,Interest
2011-03-02T11:02:52Z,Adidas,Rises After,Revenue
2011-03-02T11:02:52Z,Forecasting Higher Profit,Revenue for,Year
2011-03-02T11:05:12Z,Euro,Rises After,Producer Prices Gain
2011-03-02T11:19:39Z,REITs,Bolster,Mortgages
2011-03-02T11:34:39Z,Fitch,Assigns,Sovereign Rating
2011-03-02T11:35:46Z,$ 7.6 Million Food-Aid Agreement,With,Japan
2011-03-02T11:38:49Z,Polish Recovery,Accelerates on,Demand
2011-03-02T11:38:49Z,Recovery,Matching,Forecast
2011-03-02T11:42:13Z,Docklands Rail Operator Serco ’s Profit,Rises Abroad on,Deals
2011-03-02T11:50:20Z,Polish Central Bank,Matching,Forecast
2011-03-02T12:00:00Z,Mortgage Applications,in,U.S. Dropped Last Week
2011-03-02T12:03:07Z,NYSE Euronext,Holds,Talks
2011-03-02T12:04:50Z,Irish Jobless Claims Fall,in,Eight Months
2011-03-02T12:10:42Z,Pimentel,Tells,Valor
2011-03-02T12:13:06Z,Qaddafi 's African Dream,in,Tatters
2011-03-02T12:16:01Z,Above-Average Summer Crop,in,South Africa
2011-03-02T12:16:01Z,Afgri,Expecting Above-Average Summer Crop,Season
2011-03-02T12:21:36Z,Hydro Stocks,Fell Than,More Average Last Week
2011-03-02T12:21:36Z,Swedish Hydro Stocks,Fell Than,More Average Last Week
2011-03-02T12:32:26Z,Longest,Winning Streak in,Five Months
2011-03-02T12:43:07Z,Ireland,in,Cricket World Cup Group B Match
2011-03-02T12:58:58Z,Poland,Wants,EU Excise Tax Cut Rules
2011-03-02T13:08:14Z,Hong Kong,Says,February Home Sales
2011-03-02T13:08:37Z,Housing Finance,Jumps on,Loans
2011-03-02T13:14:53Z,Poland,Leaves,Rates Steady
2011-03-02T13:16:17Z,Muhammad Yunus,Ousted From,Grameen
2011-03-02T13:25:32Z,U.S. Treasury Department,Schedule for,March 2
2011-03-02T13:29:58Z,Euro,Rises,PPI Climbs
2011-03-02T13:30:33Z,Surge,in,Oil Prices
2011-03-02T13:30:33Z,U.S. Stock Futures Drop,Overshadows,Jobs Growth
2011-03-02T13:35:23Z,May Replace Western Oil Firms,With,Chinese
2011-03-02T13:35:23Z,Qaddafi,Says,May Replace Western Oil Firms With Chinese
2011-03-02T13:37:47Z,NIS Refinery,Posted,2010 Profit
2011-03-02T13:46:12Z,Madagascar Opposition Groups,Say to,Form Government
2011-03-02T13:47:24Z,Aid Bahrain,to Plan,Al-Qabas Reports
2011-03-02T13:53:23Z,ADP Estimates U.S. Companies,Added in,February
2011-03-02T13:57:28Z,ProAgro,Says Than,More Doubled Last Month
2011-03-02T13:57:28Z,Ukraine Grain Exports,Says Than,Doubled Last Month
2011-03-02T14:06:35Z,Petrobras,Halts Test Production at,Guara Field
2011-03-02T14:10:56Z,Grains,May Open,Higher as Rain
2011-03-02T14:10:56Z,Soybeans,May Open,Higher as Rain
2011-03-02T14:15:24Z,German Run-off Insurer Darag,Seeks,12 Acquisitions
2011-03-02T14:15:24Z,Run-off Insurer Darag,Seeks,12 Acquisitions
2011-03-02T14:17:48Z,Blood Clot,in,Lung
2011-03-02T14:17:48Z,Serena Williams,Is Treated for,Blood Clot
2011-03-02T14:25:00Z,S. Africa,Buys,Trains From Mitsui
2011-03-02T14:30:16Z,Rebel Militia,in,Jonglei State
2011-03-02T14:30:16Z,Southern Sudan 's Army Reports Clashes,With,Rebel Militia in Jonglei State
2011-03-02T14:33:00Z,Cuts,Draw,Committee Chairman ’s Anger
2011-03-02T14:33:00Z,Republican Cuts,Draw,Committee Chairman ’s Anger
2011-03-02T14:37:10Z,Gasoline,Surges to,30-Month High
2011-03-02T14:48:02Z,Amazon.com Threatens,With,California Affiliates Over Tax Issue
2011-03-02T14:49:51Z,Gold,Reaches,Record
2011-03-02T14:50:56Z,Chile Central Bank,Sets Yield on,Inflation-Linked 10-Year Bonds
2011-03-02T14:51:19Z,Housing Finance,Are,Active
2011-03-02T14:56:56Z,PPL,Buys,E.ON 's U.K. Power Grid
2011-03-02T14:58:07Z,Sweden,’s Hints,Dagens Nyheter
2011-03-02T14:59:50Z,Cotton South Africa,Reduces,2010-11 Production Estimate
2011-03-02T15:00:00Z,Credit Ratings,in,Money-Market Fund Rules
2011-03-02T15:00:00Z,SEC,Replacing,Credit Ratings in Money-Market Fund Rules
2011-03-02T15:02:21Z,Chile Central Bank,Buys,$ 50 Million
2011-03-02T15:02:45Z,Best Emerging Market Debt,Lifted as,Correa Tightens Grip
2011-03-02T15:02:45Z,Best Market Debt,Lifted by,Oil
2011-03-02T15:02:45Z,Emerging Market Debt,Lifted as,Correa Tightens Grip
2011-03-02T15:02:45Z,Market Debt,Lifted by,Oil
2011-03-02T15:04:55Z,U.S. Stocks,Rise as,Jobs Growth
2011-03-02T15:12:45Z,Freddie Mac May,Be,Profitable
2011-03-02T15:13:08Z,Total,Sees Output at,Libyan Mabruk Field Stopping
2011-03-02T15:15:36Z,Fed,Approaches,End of Asset Buying
2011-03-02T15:15:36Z,Gross,Says,Treasury Yields Too Low
2011-03-02T15:18:58Z,Flint Hills,Starts,Work
2011-03-02T15:36:30Z,H&R Block,Put,Options
2011-03-02T15:41:06Z,Feb. 25,for Report,Text
2011-03-02T15:44:02Z,Ethanol Output,in,U.S. Declines
2011-03-02T15:55:59Z,Yunus,Remains,Chairman Says
2011-03-02T15:57:22Z,Mining Shares,Drop,Bombardier Gains
2011-03-02T16:09:01Z,Deaths,in,Zambia
2011-03-02T16:09:01Z,Man United,Sparks,Deaths in Zambia
2011-03-02T16:09:01Z,Stampede,Deaths in,Zambia
2011-03-02T16:09:13Z,Samsung,Step Up,Challenge
2011-03-02T16:09:54Z,Ruble,Shows,Emerging Inflation Concern
2011-03-02T16:19:29Z,Qaddafi Counterattacks,in,Rebel-Held East
2011-03-02T16:23:37Z,Ivory Coast Papers Halt Publication,BBC Off,Air
2011-03-02T16:26:07Z,BBB,to Tunisia,Negative Outlook on Uncertainty
2011-03-02T16:26:07Z,Fitch Cuts Tunisia,Outlook on,Uncertainty
2011-03-02T16:28:05Z,Turkish Shares Retreat,With,Oil
2011-03-02T16:37:40Z,Ghana Currency,Halts Slide to,Lenders
2011-03-02T16:38:44Z,Clinical Data,Sued by,Shareholder Forest Laboratories Acquisition
2011-03-02T16:38:44Z,Data,Sued by,Shareholder
2011-03-02T16:43:07Z,Williams F1 Drops,in,Frankfurt Trading
2011-03-02T16:46:05Z,Standard Chartered,Posting,Record Profit
2011-03-02T16:46:30Z,Hungary Stocks,Fall,Day
2011-03-02T16:47:24Z,Construction Growth,Beats,Estimates
2011-03-02T16:47:24Z,Pound,Strengthens Against,Dollar
2011-03-02T16:49:04Z,Crude Oil,Extends,Rally Above
2011-03-02T16:49:04Z,Oil,Extends,Rally Above
2011-03-02T16:49:04Z,Stocks,in,U.S. Erase Gains
2011-03-02T16:49:08Z,Owner,Without,Millions
2011-03-02T16:49:08Z,Wigan Auditor,Says,Soccer Club
2011-03-02T16:52:09Z,International Personal Finance,Considers,Bulgaria
2011-03-02T16:53:33Z,Budget Deficit,Narrows,19 %
2011-03-02T16:58:30Z,ITV Full-Year Profit,Beats,Estimates on TV Advertising Rebound
2011-03-02T16:58:34Z,Merck KGaA,Win,FDA 's Backing for Pill
2011-03-02T16:59:05Z,Beke,Revive,Coalition Talks
2011-03-02T17:03:56Z,Record Operating Profit,Meet,Estimates
2011-03-02T17:03:58Z,German Two-Year Yields,Approach 18-Month High,Producer Prices Increase
2011-03-02T17:03:58Z,Two-Year Yields,Approach,18-Month High
2011-03-02T17:12:00Z,Verbund,Move in,Vienna Trading
2011-03-02T17:12:00Z,Zumtobel Shares,Move in,Vienna Trading
2011-03-02T17:16:09Z,Two Hurt,in,Frankfurt Airport Shooting
2011-03-02T17:16:09Z,Two U.S. Airmen Killed,Hurt in,Frankfurt Airport Shooting
2011-03-02T17:17:48Z,Citigroup,Say,BofA
2011-03-02T17:21:01Z,Player Agent Condon,Backs,Decertification
2011-03-02T17:24:42Z,Flaherty,Says,His March 22 Budget
2011-03-02T17:24:42Z,His March 22 Budget,Have,Measures Opposition May Support
2011-03-02T17:27:31Z,$ Oil,Hits,Copper Futures
2011-03-02T17:27:31Z,Oil,Hits,Copper Futures
2011-03-02T17:48:53Z,Ukraine Seed Imports,Delayed by,Customs Procedures
2011-03-02T17:53:31Z,Labor Laws,in,States
2011-03-02T17:59:14Z,Brazil Port Backlog,Ease on,Improved Rain Outlook
2011-03-02T18:00:03Z,Colder Weather,Comes,Tomorrow
2011-03-02T18:12:54Z,Sony,Hires,Universal ’s Doug Morris
2011-03-02T18:13:12Z,Irish Life Falls,Widen on,Provisions
2011-03-02T18:13:53Z,$ 816 Million Sale,in,Private-Equity Funds
2011-03-02T18:27:06Z,Designer Galliano,Apologizes for,Drunken Behavior
2011-03-02T18:34:06Z,Ecuador,Seeks,$ 7.5 Billion Infrastructure Investment
2011-03-02T18:34:38Z,Ghana Parliament,Approves,Oil Revenue Bill
2011-03-02T18:39:28Z,Dip,in,Imports
2011-03-02T18:39:28Z,New York Gasoline,Strengthens Inventories After,Dip
2011-03-02T18:44:26Z,Obama,Proposes Panel to,Cut Government Property Costs
2011-03-02T18:44:42Z,Airlines,Can Stop,Intrusive ’ Check
2011-03-02T18:44:42Z,Rolls,on,Trent 900 Engine
2011-03-02T18:49:37Z,McDonalds,’ Disrupted,Shanghai Daily Reports
2011-03-02T18:50:24Z,U.K Companies,Products,Their
2011-03-02T18:56:51Z,Shanghai,Eases,Eligibility for Budget Homes
2011-03-02T18:59:28Z,U.S. Senator Durbin,Fight Republican Funding Cuts for,Regulators
2011-03-02T19:03:15Z,Surging Energy Costs,Spur,Concern Economies
2011-03-02T19:05:34Z,Pillsbury,Hires,6 Howrey Partners
2011-03-02T19:08:35Z,Serena Williams,Is Treated for,People Reports
2011-03-02T19:15:12Z,Elton John Will,Give Free Performance at,Tribeca Film Festival
2011-03-02T19:36:50Z,Banco de Occidente Sells 400 Billion Pesos,in,Colombia
2011-03-02T19:39:53Z,Streep,Lee at,Ceremony
2011-03-02T19:58:03Z,Gold,Extends Rally Amid,Inflation Concerns
2011-03-02T20:02:58Z,Roubini 's Firm,Sees,$ 100 Billion
2011-03-02T20:08:31Z,India May Boost Wheat,Production in,2011
2011-03-02T20:08:31Z,Rice Production,in,2011
2011-03-02T20:13:57Z,U.S. Stocks,Rise on,Job-Market Strength
2011-03-02T20:16:36Z,2011,in Rise,USDA
2011-03-02T20:16:36Z,Kenya Corn Output May Rise,in,2011
2011-03-02T20:34:31Z,Second Day,in,New York
2011-03-02T20:39:10Z,Credit Suisse,Hires Miller to,Run Global Fixed-Income Research
2011-03-02T20:40:10Z,Year,With,Revenue
2011-03-02T20:44:45Z,Northeast Natural Gas,Rises in,Week on Colder Weather
2011-03-02T20:47:09Z,Serena Williams,Hopes for,Summer
2011-03-02T20:53:43Z,Gasoline,Surges on,Libyan Concern
2011-03-02T21:00:00Z,Parkinson ’s Risk,May,May Reduced
2011-03-02T21:07:03Z,One Year,for Debt,S&P
2011-03-02T21:17:36Z,Southwest Call Volume,Jumps After,One Trade Bets
2011-03-02T21:19:23Z,Frankfurt Attacker,Targeted,U.S. Military Members
2011-03-02T21:21:22Z,Volume,Surges Since,November
2011-03-02T21:30:07Z,Fed 's Lockhart,Rising,Commodity Prices
2011-03-02T21:38:00Z,Bank,Raises,Euro Forecasts
2011-03-02T21:39:36Z,Volume,Surges to,Highest
2011-03-02T21:46:44Z,China,Joins Russia in,Signaling Potential Opposition
2011-03-02T21:46:49Z,Washington Post,Discloses,Illinois Probe
2011-03-02T21:49:02Z,Joy Global Drops,Misses,Analysts ’ Estimates
2011-03-02T21:52:51Z,Banks,Give Up,Space
2011-03-02T21:52:51Z,Twitter,Boosts,San Francisco Offices
2011-03-02T21:56:19Z,Loss,Narrows on,Lower Land Impairment Charges
2011-03-02T21:56:19Z,Quarterly Loss,Narrows on,Lower Land Impairment Charges
2011-03-02T21:56:19Z,St. Joe,Climbs,Quarterly Loss Narrows on Lower Land Impairment Charges
2011-03-02T21:57:13Z,Soquimich,Rises as,Profit Increases on Potash Prices
2011-03-02T22:00:00Z,30 %,in,2010
2011-03-02T22:05:59Z,NCAA Basketball Tournament Games,Will,Will Offered Free on IPhone
2011-03-02T22:29:23Z,Ecuador 's Correa,Vows,Interest
2011-03-02T22:30:00Z,Australian Service Industry,Contracted on,Borrowing Costs
2011-03-02T22:46:29Z,Ireland,Stuns England at,Cricket World Cup
2011-03-02T22:46:29Z,O’Brien,Hits,Fastest Hundred
2011-03-02T22:54:44Z,UBS,Says,Madoff Trustee Might Make Privacy Illusory
2011-03-02T22:56:58Z,Breast Implant Risks,Downplayed by,Plastic Surgeons
2011-03-02T22:57:09Z,Seniors,in,Senate Hearing
2011-03-02T23:03:20Z,Ex-Colonial Bank Official,Admits,Role in Lender ’s Fraud
2011-03-02T23:03:20Z,Lender,in,Fraud
2011-03-02T23:03:20Z,Role,in,Lender ’s Fraud
2011-03-02T23:04:42Z,Gold,Extends Rally,Record
2011-03-02T23:11:35Z,Turmoil,in,Middle East
2011-03-02T23:24:27Z,Barcelona 10 Points Clear,in,Spanish Soccer
2011-03-02T23:24:27Z,Messi ’s 27th League Goal,Lifts,Barcelona 10 Points Clear in Spanish Soccer
2011-03-02T23:24:27Z,Messi ’s League Goal,Lifts,Barcelona 10 Points Clear in Spanish Soccer
2011-03-02T23:26:23Z,Treasury,of,TruPS Stake
2011-03-02T23:27:41Z,CEO,Tells,Sky
2011-03-02T23:40:02Z,Buffett Takeover Criteria,Includes,General Dynamics
2011-03-02T23:51:43Z,Sugar,in,Expiring Futures Contracts
2011-03-03T00:00:01Z,Rogoff,Says,Debt Restructuring
2011-03-03T00:00:01Z,Spain,Is Inescapable in,Ireland
2011-03-03T02:30:37Z,South Korea 's 14 % Jump,in,Factory Output May Bolster Case
2011-03-03T02:45:23Z,NFL,Meet in,Washington
2011-03-03T02:45:23Z,Owners Meet,in,Washington
2011-03-03T03:04:48Z,Mukherjee,Signals,Higher Oil Costs
2011-03-03T03:29:36Z,BI,Set,Meet
2011-03-03T03:29:36Z,Indonesia Rate-Rise Case,Slowing Inflation,BI Set
2011-03-03T05:00:02Z,EPA Carbon Rules,Would,Would Blocked Under U.S. Bill
2011-03-03T05:01:00Z,Cheaper Treatments,in,Study
2011-03-03T05:01:00Z,J&J 's Risperdal Consta No,Effective Than,Cheaper Treatments in Study
2011-03-03T05:01:01Z,Ex-Goldman Programmer Aleynikov Declared Flight Risk,Returned to,Custody
2011-03-03T05:01:01Z,Starr,Defrauding,His Celebrity Clients
2011-03-03T05:01:14Z,Insider Trading Suspect Jiau,Loses,Bail
2011-03-03T05:01:33Z,Republican McCarthy,Says,U.S. Budget Will Tackle Entitlement Program Cuts
2011-03-03T05:04:58Z,Pakistani Minister Assassinated,in,Second Killing
2011-03-03T06:12:24Z,$ 500 Million,in,First Dollar Bond Sale
2011-03-03T06:42:10Z,Japan 's Bonds,Drop,Most in Two Weeks on Signs
2011-03-03T08:03:42Z,Yen,Erases,Its Gains
2011-03-03T08:21:41Z,Asia Stocks,Rise as,Oil Price
2011-03-03T09:08:55Z,Dubai Stocks,Extends,Drop
2011-03-03T10:12:14Z,Merkel,Digs In on,Bailout Terms
2011-03-03T10:22:08Z,Germany 's Top Prosecutor Probes Fatal Shooting,in,Frankfurt
2011-03-03T11:54:34Z,$ 4 Billion Stake,in,Novatek
2011-03-03T12:07:28Z,Poles,in,Germany
2011-03-03T14:22:14Z,Motorola Solutions,Looks to,Turkey
2011-03-03T17:23:53Z,Chavez,Offer as,Qaddafi Attacks
2011-03-03T17:23:53Z,Libya War,Draws,Arab Mediation Offer as Qaddafi Attacks
2011-03-03T21:51:37Z,Canadian Stocks,Gain as,TD Bank Top Estimates
2011-03-03T21:51:37Z,Stocks,Gain as,TD Bank Top Estimates
2011-03-04T01:48:26Z,Treasuries,Head for,Weekly Loss
2011-04-20T23:39:57Z,Brazil,Raises Interest Rate from,Two-Year High
