2011-09-09T00:00:00Z,Bankers Hooked,Need,Capital Intervention
2011-09-09T00:00:07Z,Payback,Leads to,More Terrorism
2011-09-09T00:00:16Z,9/11,Began Whole New Ballgame For,U.S. Muslims
2011-09-09T00:00:25Z,Bin Laden,of,Jihad
2011-09-09T00:00:44Z,Dangerous Terrorists Might,Be,Our Own
2011-09-09T00:00:44Z,Most Dangerous Terrorists Might,Be,Our Own
2011-09-09T00:05:23Z,MAXIGEN BIOTECH August Sales,Fall,Table
2011-09-09T00:09:28Z,Treasuries Decline,Offers,Tax-Cut Plan
2011-09-09T00:15:44Z,HI-LIGHT TEK CO August Sales,Fall,Table
2011-09-09T00:15:44Z,TEK CO August Sales,Fall,11.77 %
2011-09-09T00:17:27Z,DAXIN MATERIALS August Sales,Rise,26.48 %
2011-09-09T00:22:17Z,AMBASSADOR HOTEL August Sales,Rise,Table
2011-09-09T00:23:19Z,YIEH HSING ENTER August Sales,Fall,Table
2011-09-09T00:29:09Z,Obama,Makes,His Case
2011-09-09T00:33:40Z,AURIA SOLAR CO L August Sales,Fall,Table
2011-09-09T00:35:02Z,GIGABYTE TECH August Sales,Rise,Table
2011-09-09T00:35:02Z,TECH August Sales,Rise,Table
2011-09-09T00:37:06Z,K LASER TECH August Sales,Fall,Table
2011-09-09T00:42:38Z,Dollar,Weakens Against,Euro
2011-09-09T00:42:38Z,Obama,Proposes Jobs Plan to,Congress
2011-09-09T00:45:23Z,CHEMICA August Sales,Fall,5.56 %
2011-09-09T00:48:28Z,CRYOMAX COOLING August Sales,Fall,1.20 %
2011-09-09T00:56:46Z,WISTRON INFORMAT August Sales,Fall,Table
2011-09-09T00:59:58Z,FENG CHING METAL August Sales,Fall,3.40 %
2011-09-09T00:59:59Z,FORTUNE SEMICON August Sales,Fall,49.45 %
2011-09-09T01:01:41Z,ANPEC ELECTRONIC August Sales,Fall,Table
2011-09-09T01:01:41Z,FITIPOWER INTEGR August Sales,Fall,Table
2011-09-09T01:09:37Z,YULON MOTOR CO August Sales,Fall,Table
2011-09-09T01:10:21Z,LEADER ELECTRONI August Sales,Fall,Table
2011-09-09T01:12:08Z,CYTO BIOTECH INC August Sales,Fall,Table
2011-09-09T01:17:33Z,TA-I TECHNOLOGY August Sales,Fall,Table
2011-09-09T01:17:34Z,TAK TECHNOLOGY C August Sales,Fall,37.57 %
2011-09-09T01:18:38Z,CHINA CONTAINER August Sales,Fall,5.70 %
2011-09-09T01:20:48Z,CLEVO COMPANY August Sales,Fall,Table
2011-09-09T01:22:35Z,TECO IMAGE SYS August Sales,Fall,35.47 %
2011-09-09T01:26:12Z,DELTAMAC TAIWAN August Sales,Fall,Table
2011-09-09T01:29:49Z,AVERTRONICS INC August Sales,Fall,10.58 %
2011-09-09T01:29:50Z,LUMINOUS TOWN EL August Sales,Fall,18.10 %
2011-09-09T01:29:51Z,ACTI CORP August Sales,Fall,Table
2011-09-09T01:31:37Z,ONENESS BIOTECH August Sales,Fall,100.00 %
2011-09-09T01:37:47Z,SKYMEDI CORP August Sales,Fall,3.06 %
2011-09-09T01:39:37Z,WEIKENG INDS CO August Sales,Fall,Table
2011-09-09T01:44:02Z,PHIHONG TECHNOLO August Sales,Fall,42.95 %
2011-09-09T01:46:57Z,HOLIDAY ENTERTAI August Sales,Rise,Table
2011-09-09T01:47:12Z,Baht,Set for,Weekly Loss
2011-09-09T01:47:41Z,SUBTRON TECH August Sales,Fall,7.55 %
2011-09-09T01:47:41Z,TECH August Sales,Fall,Table
2011-09-09T01:48:47Z,LONGDA CONSTRUCT August Sales,Fall,Table
2011-09-09T01:48:48Z,MKS CORP August Sales,Fall,Table
2011-09-09T01:49:53Z,DYNAMIC MEDICAL August Sales,Rise,Table
2011-09-09T01:49:53Z,MEDICAL August Sales,Rise,29.64 %
2011-09-09T01:50:37Z,U.S. Senate,Thwarts,Republican Debt-Disapproval Resolution
2011-09-09T01:53:33Z,TA CHONG BANK August Sales,Fall,Table
2011-09-09T01:57:13Z,FENG SHENG TECHN August Sales,Fall,Table
2011-09-09T02:09:20Z,HUIKWANG CORP August Sales,Fall,29.45 %
2011-09-09T02:11:28Z,40 % Stake,in,Thai Biomass Project Developer
2011-09-09T02:11:28Z,Ratchaburi,Buys,40 % Stake
2011-09-09T02:16:27Z,HEALTH CO August Sales,Fall,24.94 %
2011-09-09T02:18:41Z,TAI-TECH ADVANCE August Sales,Rise,Table
2011-09-09T02:18:43Z,MUNSIN GARMENT C August Sales,Fall,5.45 %
2011-09-09T02:18:44Z,ETURBOTOUCH TECH August Sales,Rise,17.11 %
2011-09-09T02:18:44Z,TECH August Sales,Rise,Table
2011-09-09T02:24:26Z,UNITED ORIENTAL August Sales,Fall,Table
2011-09-09T02:24:49Z,DEXIN CORP August Sales,Fall,3.54 %
2011-09-09T02:26:01Z,MAYER STEEL PIPE August Sales,Fall,0.24 %
2011-09-09T02:28:50Z,Taiwan Dollar,Headed for,Weekly Slide
2011-09-09T02:32:34Z,INTERNATIONAL BR August Sales,Fall,Table
2011-09-09T02:33:45Z,ALLIED CIRCUIT C August Sales,Fall,Table
2011-09-09T02:33:45Z,CIRCUIT C August Sales,Fall,1.39 %
2011-09-09T02:36:08Z,BIOTECH,Fall,19.73 %
2011-09-09T02:36:08Z,E August Sales,Fall,19.73 %
2011-09-09T02:36:08Z,MEGA BIOTECH,Fall,Table
2011-09-09T02:37:55Z,CHONG HONG CONST August Sales,Fall,86.01 %
2011-09-09T02:37:58Z,CHINGIS TECHNOLO August Sales,Fall,Table
2011-09-09T02:37:58Z,I-HWA INDUS CO August Sales,Fall,3.88 %
2011-09-09T02:37:58Z,INDUS CO August Sales,Fall,Table
2011-09-09T02:40:55Z,ARCLITE OPTRONIC August Sales,Fall,17.78 %
2011-09-09T02:41:47Z,Mexico,Proposes Spending Increase in,2012 Budget
2011-09-09T02:47:04Z,KDI August Sales,Fall,Table
2011-09-09T02:48:39Z,AMIGO TECHNOLOGY August Sales,Fall,Table
2011-09-09T02:49:30Z,FARGLORY FTZ August Sales,Fall,205.80 %
2011-09-09T02:53:02Z,ENTERPRIS August Sales,Fall,Table
2011-09-09T02:53:02Z,HAKERS ENTERPRIS August Sales,Fall,Table
2011-09-09T02:54:50Z,Yuan Forwards,Snap,Five-Day Losing Streak
2011-09-09T03:03:06Z,EMINENT LUGGAGE August Sales,Fall,Table
2011-09-09T03:03:06Z,LUGGAGE August Sales,Fall,Table
2011-09-09T03:06:35Z,EASTERN MEDIA,Fall,Table
2011-09-09T03:06:35Z,MEDIA,Fall,35.09 %
2011-09-09T03:09:32Z,Impact,Is,Limited
2011-09-09T03:11:01Z,COMPUCASE ENTERP August Sales,Fall,Table
2011-09-09T03:15:57Z,Funds,Buy,7.49 Billion Rupees of Derivatives
2011-09-09T03:15:57Z,Global Funds,Buy,Net 7.49 Billion Rupees
2011-09-09T03:22:19Z,POWER SOURCE ENE August Sales,Rise,Table
2011-09-09T03:22:21Z,TAIWAN TEA CORP August Sales,Fall,Table
2011-09-09T03:22:22Z,SUNREX TECH August Sales,Fall,28.73 %
2011-09-09T03:24:26Z,SHUANG BANG INDU August Sales,Fall,10.64 %
2011-09-09T03:24:46Z,RBS ’s Sinche,Sees,Downside Risks for Euro on Policy Outlook
2011-09-09T03:26:59Z,CHIU TING MACHIN August Sales,Fall,Table
2011-09-09T03:30:12Z,Taiwan,’s Tsai,Times
2011-09-09T03:33:41Z,BENQ MEDICAL TEC August Sales,Fall,Table
2011-09-09T03:33:43Z,GLOBE UNION IND August Sales,Rise,28.49 %
2011-09-09T03:34:47Z,FORMOSAN RUBBER August Sales,Fall,37.34 %
2011-09-09T03:38:34Z,TECHNOLOGY QUART August Sales,Rise,Table
2011-09-09T03:38:36Z,TECHNOLOGY August Sales,Fall,52.31 %
2011-09-09T03:38:36Z,V-TAC TECHNOLOGY August Sales,Fall,52.31 %
2011-09-09T03:49:04Z,GISH INTERNATION August Sales,Fall,Table
2011-09-09T03:49:47Z,Green Bay Packers Defeat New Orleans Saints 42-34,in,NFL Season ’s Opener
2011-09-09T03:49:47Z,NFL Season,in,Opener
2011-09-09T03:49:56Z,FIRST COPPER TEC August Sales,Fall,3.72 %
2011-09-09T03:55:53Z,HSIN-LI CHEMICAL August Sales,Fall,Table
2011-09-09T03:59:00Z,ZIPPY TECHNOLOGY August Sales,Fall,Table
2011-09-09T03:59:01Z,RITZ LANDIS August Sales,Fall,14.28 %
2011-09-09T04:00:02Z,Strip-Club Bills,Paid With,Union Cash
2011-09-09T04:00:15Z,Obama,Add,Jobs
2011-09-09T04:00:31Z,FULL RISE ELECTR August Sales,Fall,59.70 %
2011-09-09T04:00:32Z,CHANG HO FIBRE August Sales,Fall,Table
2011-09-09T04:00:54Z,Colts Super Bowl Odds Slide,Due to,Injury
2011-09-09T04:00:54Z,Manning,Shows Value,Colts Super Bowl Odds Slide Due
2011-09-09T04:00:54Z,Value,in,Vegas
2011-09-09T04:01:00Z,Florida,as,Prison Health-Care Plan
2011-09-09T04:01:00Z,N.Y. Sale,Shows,Investors Bet
2011-09-09T04:01:00Z,Perry ’s Ponzi-Talk Implies Fraud,in,Social Security
2011-09-09T04:01:00Z,Tax-Backed N.Y. Sale,Shows Investors Bet on,Wall Street Gains
2011-09-09T04:01:00Z,Union Pacific CEO,Sees Rail-Crash Systems as,Terrible Waste
2011-09-09T04:01:00Z,Yahoo Chairman Roy Bostock Risks,Losing,Own Job
2011-09-09T04:01:24Z,It,May Compete for,Raw Materials
2011-09-09T04:03:56Z,TA JIANG DEVELOP August Sales,Fall,Table
2011-09-09T04:10:53Z,May,Set Up,Venture
2011-09-09T04:32:19Z,Deutsche Bank Risk Seen,Puts,Appreciate Most in Europe
2011-09-09T04:39:50Z,Absa Group,Buys,South African Islamic Insurer Takafol
2011-09-09T04:45:01Z,ANT PRECISION,IN,August Sales Rise
2011-09-09T04:45:48Z,TY-OHM ELEC,WORK,Table
2011-09-09T04:52:06Z,Somalia,in,October
2011-09-09T05:00:00Z,Calderon Seeks,in,2012
2011-09-09T05:00:00Z,Mexico,Spending Increase for,2012 Budget
2011-09-09T05:00:19Z,Hong Kong Short Selling Turnover,Recorded,09/09/2011
2011-09-09T05:12:50Z,Ceramic Industries,Halts,Tile-Plant Plan
2011-09-09T05:12:50Z,Industries,Halts Tile-Plant Plan on,Business Report
2011-09-09T05:18:28Z,ARBOR TECHNOLOGY August Sales,Fall,24.81 %
2011-09-09T05:20:07Z,Monday Final,Become Rites at,U.S. Open
2011-09-09T05:21:31Z,INFO-TEK TECHNOL August Sales,Fall,13.63 %
2011-09-09T05:26:45Z,LITEMAX ELECTRON August Sales,Fall,33.89 %
2011-09-09T05:27:10Z,DATAFAB SYSTEMS August Sales,Fall,Table
2011-09-09T05:31:10Z,CHIPBOND TECHNOL August Sales,Fall,Table
2011-09-09T05:31:10Z,ELECTRONI August Sales,Rise,18.49 %
2011-09-09T05:31:10Z,TAISOL ELECTRONI August Sales,Rise,18.49 %
2011-09-09T05:31:12Z,SAMYA TECH August Sales,Fall,Table
2011-09-09T05:31:12Z,TECH August Sales,Fall,Table
2011-09-09T05:31:52Z,Allied Technologies,Says,Buys Digital Video Company SetOne
2011-09-09T05:32:11Z,BEYONDPV CO LTD August Sales,Fall,70.60 %
2011-09-09T05:33:27Z,SOFT-WORLD INTL August Sales,Fall,Table
2011-09-09T05:33:28Z,HIGH POWER OPTO August Sales,Fall,17.57 %
2011-09-09T05:33:28Z,POWER OPTO August Sales,Fall,Table
2011-09-09T05:33:29Z,TAIWAN TAKISAWA August Sales,Fall,11.30 %
2011-09-09T05:35:09Z,CASING MACRON TE August Sales,Fall,Table
2011-09-09T05:35:13Z,GAMANIA DIGITAL August Sales,Fall,6.89 %
2011-09-09T05:37:00Z,SIMULA TECHNO August Sales,Fall,43.57 %
2011-09-09T05:37:01Z,VANGUARD INTL August Sales,Fall,17.97 %
2011-09-09T05:37:02Z,CHINA STEEL CORP August Sales,Fall,6.91 %
2011-09-09T05:37:04Z,FOODS August Sales,Rise,8.43 %
2011-09-09T05:37:04Z,STANDARD FOODS August Sales,Rise,Table
2011-09-09T05:37:05Z,DATA IMAGE CORPO August Sales,Fall,34.41 %
2011-09-09T05:37:08Z,EVERTEX FABRINOL August Sales,Fall,5.25 %
2011-09-09T05:38:08Z,Forces,Kill,7 Protesters
2011-09-09T05:38:08Z,Syrian Forces,Kill,7 Protesters
2011-09-09T05:38:39Z,TAIWAN SEMICONDU August Sales,Fall,Table
2011-09-09T05:38:43Z,NAK,SEALING,TECH August Sales
2011-09-09T05:38:44Z,TOPCO TECH August Sales,Fall,24.96 %
2011-09-09T05:41:31Z,WALTON CHAINTECH August Sales,Fall,97.23 %
2011-09-09T05:41:34Z,AIRLUX ELECTRICA August Sales,Fall,17.15 %
2011-09-09T05:41:38Z,MEGA FINANCIAL H August Sales,Fall,4.74 %
2011-09-09T05:41:41Z,GRAND HALL ENTER August Sales,Fall,Table
2011-09-09T05:41:48Z,VE WONG CORP August Sales,Fall,4.06 %
2011-09-09T05:41:54Z,KING,'S,TOWN CONS August Sales
2011-09-09T05:41:54Z,KING 'S TOWN CONS August Sales,Fall,51.13 %
2011-09-09T05:42:39Z,CHINA LIFE INSUR August Sales,Fall,24.09 %
2011-09-09T05:42:42Z,FIRST HI-TEC ENT August Sales,Fall,16.53 %
2011-09-09T05:42:44Z,TAI TWUN ENTERPR August Sales,Fall,Table
2011-09-09T05:43:01Z,UNION INSURANCE August Sales,Fall,42.20 %
2011-09-09T05:43:33Z,L&K PRECISION TE August Sales,Fall,80.24 %
2011-09-09T05:47:04Z,PRECISION SILICO August Sales,Fall,9.94 %
2011-09-09T05:47:09Z,HANPIN ELECTRON August Sales,Fall,Table
2011-09-09T05:47:12Z,ADVANCED CONNECT August Sales,Fall,Table
2011-09-09T05:47:12Z,CONNECT August Sales,Fall,Table
2011-09-09T05:47:15Z,SOFTSTAR ENTER August Sales,Fall,Table
2011-09-09T05:47:21Z,SUMAGH HIGHTECH August Sales,Fall,Table
2011-09-09T05:47:24Z,H&T ELECTRONICS August Sales,Fall,Table
2011-09-09T05:47:26Z,GOOD WAY TECHNOL August Sales,Fall,32.87 %
2011-09-09T05:47:26Z,WAY TECHNOL August Sales,Fall,32.87 %
2011-09-09T05:47:27Z,PAP August Sales,Fall,Table
2011-09-09T05:47:27Z,TAIWAN PULP,Fall,14.54 %
2011-09-09T05:47:31Z,CENTRAL REINS CO August Sales,Fall,12.90 %
2011-09-09T05:50:02Z,YEASHIN INTERNAT August Sales,Fall,95.34 %
2011-09-09T05:50:42Z,YEA SHIN DEVELOP August Sales,Fall,Table
2011-09-09T05:52:11Z,AKER TECHNOLOGY August Sales,Fall,30.77 %
2011-09-09T05:52:12Z,GIA TZOONG August Sales,Fall,26.69 %
2011-09-09T05:53:13Z,KINDOM CONSTRUCT August Sales,Fall,1.86 %
2011-09-09T05:53:14Z,TURVO INTERNATIO August Sales,Fall,2.24 %
2011-09-09T05:53:22Z,L.M. DEVELOPMENT August Sales,Fall,100.00 %
2011-09-09T05:53:23Z,CAMEO COMMUNICAT August Sales,Fall,0.08 %
2011-09-09T05:53:24Z,POWERASE TECHNOL August Sales,Fall,Table
2011-09-09T05:53:26Z,TAINET COMMUNICA August Sales,Fall,Table
2011-09-09T05:53:27Z,KUNG SING ENGINE August Sales,Fall,Table
2011-09-09T05:53:32Z,Croda Entering Acrylic Polymers Market,Bank of,America
2011-09-09T05:54:18Z,KUO TOONG INTL August Sales,Fall,Table
2011-09-09T05:55:38Z,ARCADYAN TECHNOL August Sales,Fall,14.32 %
2011-09-09T05:55:40Z,WEI MON INDUSTRY August Sales,Fall,24.98 %
2011-09-09T05:56:31Z,AECO TECHNOLOGY August Sales,Fall,Table
2011-09-09T05:57:50Z,TONLIN DEPT STOR August Sales,Fall,Table
2011-09-09T05:57:53Z,REWARD WOOL IND August Sales,Fall,Table
2011-09-09T05:58:44Z,INFODISC TECHNOL August Sales,Fall,4.10 %
2011-09-09T05:58:45Z,TAITIEN ELECTRON August Sales,Fall,24.52 %
2011-09-09T05:58:48Z,GLOBAL MIXED-MOD August Sales,Rise,0.68 %
2011-09-09T05:58:48Z,MIXED-MOD August Sales,Rise,0.68 %
2011-09-09T06:00:15Z,CHIEN WEI PRECIS August Sales,Fall,Table
2011-09-09T06:00:54Z,TONG-HWA SYN.FIB August Sales,Rise,21.16 %
2011-09-09T06:01:00Z,YA HORNG ELECTRO August Sales,Fall,Table
2011-09-09T06:01:10Z,YUEN FOONG YU PA August Sales,Fall,Table
2011-09-09T06:03:12Z,C-MEDIA ELECTRON August Sales,Fall,Table
2011-09-09T06:03:15Z,INVENTEC BESTA August Sales,Fall,31.47 %
2011-09-09T06:03:20Z,TEST-SERV INC August Sales,Fall,19.25 %
2011-09-09T06:03:21Z,DRAYTECK CORP August Sales,Fall,Table
2011-09-09T06:03:22Z,JANFUSUN FANCY August Sales,Fall,14.57 %
2011-09-09T06:03:25Z,GENESIS GENETICS August Sales,Rise,Table
2011-09-09T06:03:26Z,ATECH TECHNOLOGY August Sales,Fall,18.14 %
2011-09-09T06:05:00Z,TTY BIOPHARM CO August Sales,Fall,Table
2011-09-09T06:05:09Z,HOLTEK SEMI INC August Sales,Fall,24.65 %
2011-09-09T06:05:13Z,COSMO ELECTRONIC August Sales,Fall,Table
2011-09-09T06:06:42Z,YUEN JEN ENTERPR August Sales,Fall,Table
2011-09-09T06:06:45Z,KENMOS August Sales,Fall,Table
2011-09-09T06:06:46Z,NISHOKU TECH August Sales,Fall,1.17 %
2011-09-09T06:06:46Z,TECH August Sales,Fall,Table
2011-09-09T06:06:47Z,NETRONIX INC August Sales,Fall,11.74 %
2011-09-09T06:09:27Z,REXON INDUS CORP August Sales,Fall,Table
2011-09-09T06:10:18Z,TEAPO ELECT August Sales,Fall,21.25 %
2011-09-09T06:11:24Z,ENGINEERI August Sales,Fall,Table
2011-09-09T06:11:24Z,JU-KAO ENGINEERI August Sales,Fall,57.33 %
2011-09-09T06:13:11Z,MOSEL VITELIC August Sales,Fall,23.90 %
2011-09-09T06:13:14Z,PROMASTER TECHNO August Sales,Fall,37.25 %
2011-09-09T06:13:15Z,August Sales,Fall,63.98 %
2011-09-09T06:15:29Z,HWANG CHANG CONT August Sales,Fall,42.69 %
2011-09-09T06:15:30Z,SUNTY PROPERTY D August Sales,Fall,43.76 %
2011-09-09T06:16:10Z,PRESCOPE TECHNOL August Sales,Fall,Table
2011-09-09T06:16:12Z,DIMENSION COMPU August Sales,Fall,Table
2011-09-09T06:16:16Z,FULLTECH FIBER G August Sales,Fall,Table
2011-09-09T06:16:18Z,APEX INTERNATION August Sales,Fall,21.84 %
2011-09-09T06:16:21Z,CHYANG SHENG DYE August Sales,Fall,9.67 %
2011-09-09T06:16:24Z,GEM TERMINAL IND August Sales,Fall,13.35 %
2011-09-09T06:17:13Z,CVILUX CORP August Sales,Fall,Table
2011-09-09T06:17:15Z,SOUTHEAST CEMENT August Sales,Fall,Table
2011-09-09T06:17:18Z,TYNSOLAR CORP August Sales,Fall,Table
2011-09-09T06:19:21Z,TAILYN COMMUN August Sales,Fall,35.48 %
2011-09-09T06:19:23Z,AN-SHIN FOOD August Sales,Rise,Table
2011-09-09T06:19:24Z,BES ENGINEERING August Sales,Fall,Table
2011-09-09T06:19:26Z,MICROTEK INTL August Sales,Fall,Table
2011-09-09T06:21:03Z,Cimpor Mozambique Unit Opens Matola Cement Mill,Doubling,Capacity
2011-09-09T06:25:10Z,CENTER LABORATOR August Sales,Fall,0.91 %
2011-09-09T06:25:11Z,CHINA DEVELOPMEN August Sales,Fall,Table
2011-09-09T06:25:13Z,THECUS TECHNOLOG August Sales,Fall,Table
2011-09-09T06:25:16Z,GOLD RAIN ENTERP August Sales,Rise,97.86 %
2011-09-09T06:25:17Z,AUROTEK CORP August Sales,Fall,Table
2011-09-09T06:25:18Z,HWA WOEI LAMINAT August Sales,Fall,Table
2011-09-09T06:25:20Z,MOLD,IN,August Sales Rise
2011-09-09T06:27:31Z,FOUNDING CONSTRU August Sales,Fall,97.63 %
2011-09-09T06:27:39Z,GIO OPTOELECTRON August Sales,Fall,Table
2011-09-09T06:28:59Z,CHINA MET August Sales,Fall,9.22 %
2011-09-09T06:28:59Z,GREAT CHINA MET August Sales,Fall,Table
2011-09-09T06:30:32Z,NICHIDENBO CORP August Sales,Fall,28.30 %
2011-09-09T06:30:38Z,PRESIDENT SEC August Sales,Fall,57.73 %
2011-09-09T06:30:42Z,LOYALTY FOUNDER August Sales,Rise,58.89 %
2011-09-09T06:30:45Z,YAO SHENG ELECTR August Sales,Fall,20.97 %
2011-09-09T06:30:48Z,CHOICE DEVELOPME August Sales,Rise,Table
2011-09-09T06:32:19Z,Mauritian Gross Reserves Rise,in,August
2011-09-09T06:32:20Z,CHINA MANMADE FI August Sales,Fall,45.25 %
2011-09-09T06:32:21Z,CHUNG SHING TEXT August Sales,Fall,1.95 %
2011-09-09T06:32:23Z,ENTERPRIS August Sales,Fall,22.19 %
2011-09-09T06:32:23Z,SHINIH ENTERPRIS August Sales,Fall,22.19 %
2011-09-09T06:34:25Z,SUNONWEALTH ELEC August Sales,Fall,13.01 %
2011-09-09T06:34:31Z,CHANNEL WELL TEC August Sales,Rise,Table
2011-09-09T06:34:34Z,KUEN CHAANG UPPE August Sales,Fall,28.69 %
2011-09-09T06:34:37Z,TECH CO August Sales,Fall,48.04 %
2011-09-09T06:34:37Z,USERJOY TECH CO August Sales,Fall,Table
2011-09-09T06:34:57Z,ADLINK TECH INC August Sales,Fall,Table
2011-09-09T06:34:57Z,TECH INC August Sales,Fall,18.10 %
2011-09-09T06:37:19Z,Germany ’s Inflation,Slowed on,Energy Rebound
2011-09-09T06:40:00Z,ARGOSY RESEARCH August Sales,Fall,16.98 %
2011-09-09T06:41:53Z,PROMISE TECH INC August Sales,Fall,Table
2011-09-09T06:42:02Z,TAIWAN FU HSING August Sales,Fall,Table
2011-09-09T06:42:42Z,Mr. Euro,’ Post,FTD
2011-09-09T06:42:50Z,Ghizzoni,Tells,Handelsblatt
2011-09-09T06:43:36Z,EXCELLENCE OPTO August Sales,Fall,21.44 %
2011-09-09T06:43:39Z,ALTEK CORP August Sales,Fall,7.13 %
2011-09-09T06:43:43Z,HUA JUNG COMP August Sales,Fall,Table
2011-09-09T06:43:44Z,DIMERCO DATA SYS August Sales,Fall,Table
2011-09-09T06:43:48Z,KYE SYSTEMS August Sales,Fall,Table
2011-09-09T06:44:01Z,Kavanek,Tells,HN
2011-09-09T06:44:53Z,Sony Financial,Sees,39 Billion Yen Profit
2011-09-09T06:46:28Z,REALY DEVELOPMEN August Sales,Fall,Table
2011-09-09T06:46:32Z,SMARTEAM CORP August Sales,Fall,Table
2011-09-09T06:47:58Z,TOPVISION DISPLA August Sales,Fall,59.17 %
2011-09-09T06:48:22Z,NEXCOM INTERNATI August Sales,Fall,3.65 %
2011-09-09T06:50:53Z,JENN FENG NEW EN August Sales,Fall,27.00 %
2011-09-09T06:50:56Z,ASIX ELECTRONICS August Sales,Fall,35.43 %
2011-09-09T06:50:58Z,CORP August Sales,Fall,Table
2011-09-09T06:50:58Z,E-CMOS CORP August Sales,Fall,Table
2011-09-09T06:51:01Z,JAAN CHERNG TECH August Sales,Fall,Table
2011-09-09T06:51:11Z,SIGNALITY SYSTEM August Sales,Fall,Table
2011-09-09T06:51:13Z,PROWARE TECH August Sales,Rise,20.89 %
2011-09-09T06:51:13Z,TECH August Sales,Rise,Table
2011-09-09T06:52:32Z,HUNG TU CONS CO August Sales,Fall,Table
2011-09-09T06:52:35Z,SUNNIC TECHNOLOG August Sales,Fall,Table
2011-09-09T06:52:41Z,XPEC ENTERTAINME August Sales,Fall,Table
2011-09-09T06:53:29Z,AVID ELECTRONICS August Sales,Rise,Table
2011-09-09T06:53:29Z,ELECTRONICS August Sales,Rise,21.07 %
2011-09-09T06:54:04Z,CHAUN-CHOUNG TEC August Sales,Fall,Table
2011-09-09T06:54:04Z,GREATEK ELECTRIC August Sales,Fall,Table
2011-09-09T06:57:23Z,ELECTRO August Sales,Fall,Table
2011-09-09T06:57:23Z,K-BRIDGE ELECTRO August Sales,Fall,75.45 %
2011-09-09T06:57:26Z,GLORY SCIENCE August Sales,Rise,6.71 %
2011-09-09T06:57:28Z,PLOTECH CO LTD August Sales,Fall,Table
2011-09-09T06:57:32Z,LONGTEK SCIENTIF August Sales,Fall,Table
2011-09-09T07:01:18Z,ESMT August Sales,Fall,Table
2011-09-09T07:01:19Z,ENTERPRIS August Sales,Fall,Table
2011-09-09T07:01:19Z,FIRICH ENTERPRIS August Sales,Fall,Table
2011-09-09T07:01:22Z,MERCURIES DATA August Sales,Fall,43.69 %
2011-09-09T07:01:23Z,SUPER DRAGON TEC August Sales,Rise,25.50 %
2011-09-09T07:02:09Z,BIG SUN ENERGY August Sales,Fall,Table
2011-09-09T07:03:47Z,DIVA LABORATORIE August Sales,Fall,10.39 %
2011-09-09T07:03:49Z,Earthquakes,May Make,Swiss Re
2011-09-09T07:07:17Z,TOPGREEN TECHNOL August Sales,Fall,Table
2011-09-09T07:07:18Z,GRAND-TEK TECHNO August Sales,Fall,24.26 %
2011-09-09T07:07:18Z,TECHNO August Sales,Fall,Table
2011-09-09T07:09:39Z,LAUNCH TECHNOLOG August Sales,Fall,Table
2011-09-09T07:09:40Z,ATM ELECTRONIC August Sales,Fall,Table
2011-09-09T07:09:42Z,ALL RING TECH CO August Sales,Fall,Table
2011-09-09T07:09:42Z,RING TECH CO August Sales,Fall,63.16 %
2011-09-09T07:09:45Z,MAX ZIPPER CO L August Sales,Fall,36.17 %
2011-09-09T07:09:46Z,FIC GLOBAL INC August Sales,Fall,54.48 %
2011-09-09T07:09:47Z,PROSPERITY DIELE August Sales,Fall,32.56 %
2011-09-09T07:09:49Z,YIEH PHUI ENTERP August Sales,Fall,1.52 %
2011-09-09T07:09:50Z,STAR WORLD TECH August Sales,Fall,49.05 %
2011-09-09T07:10:31Z,SYNCOMM TECHNOLO August Sales,Fall,27.19 %
2011-09-09T07:10:32Z,QUANMAX INC August Sales,Fall,20.35 %
2011-09-09T07:10:34Z,PRODISC TECH August Sales,Fall,15.65 %
2011-09-09T07:10:38Z,TUNG KAI TECH August Sales,Fall,Table
2011-09-09T07:10:39Z,OTSUKA INFORMATI August Sales,Fall,Table
2011-09-09T07:12:46Z,KEY WARE ELECT August Sales,Fall,31.88 %
2011-09-09T07:16:17Z,WEI CHUAN FOOD August Sales,Rise,Table
2011-09-09T07:16:19Z,FAVITE INC August Sales,Fall,98.12 %
2011-09-09T07:17:47Z,Obama Job Plan,Storm in,Gulf of Mexico
2011-09-09T07:17:47Z,Oil,Heads on,Storm in Gulf of Mexico
2011-09-09T07:17:47Z,Storm,in,Gulf of Mexico
2011-09-09T07:19:05Z,CHINA FINEBLANKI August Sales,Fall,4.52 %
2011-09-09T07:19:06Z,TAIWAN CALSONIC August Sales,Fall,15.83 %
2011-09-09T07:19:08Z,SOLIDWIZARD TECH August Sales,Fall,Table
2011-09-09T07:19:08Z,TECH August Sales,Fall,3.08 %
2011-09-09T07:20:28Z,LOGAH TECHNOLOGY August Sales,Fall,Table
2011-09-09T07:20:32Z,Japan ’s METI,Wants,200 Billion Yen
2011-09-09T07:20:56Z,ASTRAL EPOCH August Sales,Fall,85.63 %
2011-09-09T07:20:56Z,EPOCH August Sales,Fall,85.63 %
2011-09-09T07:21:57Z,SITRONIX TECHNOL August Sales,Fall,Table
2011-09-09T07:21:58Z,KINTECH ELECTRON August Sales,Fall,0.90 %
2011-09-09T07:22:02Z,FORMOSA EPITAXY August Sales,Fall,Table
2011-09-09T07:22:03Z,CHIN FONG MACHIN August Sales,Fall,Table
2011-09-09T07:22:04Z,GENERALPLUS TECH August Sales,Fall,Table
2011-09-09T07:22:04Z,TECH August Sales,Fall,Table
2011-09-09T07:22:06Z,LIEN CHANG ELEC August Sales,Fall,38.67 %
2011-09-09T07:23:11Z,IBASE TECHNOLOGY August Sales,Fall,10.04 %
2011-09-09T07:25:05Z,JUNG SHING WIRE August Sales,Fall,Table
2011-09-09T07:25:09Z,YUAN FENG INDUS August Sales,Fall,Table
2011-09-09T07:25:10Z,RUENTEX IND August Sales,Fall,7.04 %
2011-09-09T07:26:13Z,Korean Stocks,Drop,Most
2011-09-09T07:26:13Z,South Korean Stocks,Drop,Most in Asia
2011-09-09T07:26:13Z,Stocks,Drop,Most
2011-09-09T07:28:39Z,AOPEN INC August Sales,Fall,9.63 %
2011-09-09T07:28:42Z,ACULA TECH CORP August Sales,Fall,23.73 %
2011-09-09T07:28:45Z,SILICON OPTRONIC August Sales,Fall,34.22 %
2011-09-09T07:28:50Z,BILLIONTON SYSTE August Sales,Fall,79.25 %
2011-09-09T07:28:52Z,ASIA TECH IMAGE August Sales,Fall,Table
2011-09-09T07:28:53Z,SUNRISE GLOBAL August Sales,Fall,Table
2011-09-09T07:28:56Z,CHANGS ASCENDING August Sales,Fall,Table
2011-09-09T07:31:48Z,CHIMEI INNOLUX C August Sales,Fall,Table
2011-09-09T07:31:55Z,AMPIRE CO LTD August Sales,Fall,3.60 %
2011-09-09T07:32:06Z,L&K ENGINEERING August Sales,Fall,16.37 %
2011-09-09T07:32:10Z,FORCECON TECH August Sales,Rise,26.72 %
2011-09-09T07:32:10Z,TECH August Sales,Rise,Table
2011-09-09T07:36:35Z,Toyota Said,Add,Minicars
2011-09-09T07:40:16Z,GLOBAL VIEW CO August Sales,Fall,Table
2011-09-09T07:40:16Z,VIEW CO August Sales,Fall,37.93 %
2011-09-09T07:40:17Z,YOKO TECHNOLOGY August Sales,Fall,Table
2011-09-09T07:40:21Z,WAFER,WORKS,CORP August Sales
2011-09-09T07:42:53Z,DEVELOPMENT August Sales,Fall,Table
2011-09-09T07:42:53Z,RICH DEVELOPMENT August Sales,Fall,Table
2011-09-09T07:42:56Z,GOLDSUN DEV CONS August Sales,Fall,Table
2011-09-09T07:42:57Z,SHEN,'S,ART PRINT August Sales
2011-09-09T07:42:57Z,SHEN 'S ART PRINT August Sales,Fall,Table
2011-09-09T07:42:59Z,ANSWER TECHNOLOG August Sales,Fall,Table
2011-09-09T07:44:26Z,EON SILICON August Sales,Fall,41.71 %
2011-09-09T07:44:27Z,AZUREWAVE TECH August Sales,Rise,35.46 %
2011-09-09T07:44:27Z,TECH August Sales,Rise,Table
2011-09-09T07:46:11Z,SINHER TECHNOLOG August Sales,Fall,31.13 %
2011-09-09T07:46:22Z,LEVEL BIOTECHNOL August Sales,Fall,Table
2011-09-09T07:46:25Z,FUBURG INDS LTD August Sales,Fall,Table
2011-09-09T07:46:26Z,SHUTTLE INC August Sales,Fall,Table
2011-09-09T07:47:35Z,Treasuries Fall,Gain on,Obama Jobs Plan
2011-09-09T07:48:58Z,CHINA WIRE&CABLE August Sales,Rise,113.41 %
2011-09-09T07:49:55Z,AGI CORP August Sales,Fall,55.13 %
2011-09-09T07:50:42Z,TAIWAN ARIES CO August Sales,Fall,Table
2011-09-09T07:50:43Z,FIRST STEAMSHIP August Sales,Fall,46.41 %
2011-09-09T07:50:46Z,KGI SECURITIES C August Sales,Fall,30.94 %
2011-09-09T07:50:48Z,SINOPAC FINANCIA August Sales,Fall,Table
2011-09-09T07:50:51Z,Hungarian Stocks,Fall for,Second Day
2011-09-09T07:50:51Z,Stocks,Fall for,Day
2011-09-09T07:51:18Z,GORDON AUTO BODY August Sales,Fall,Table
2011-09-09T07:53:00Z,ERIS TECHNOLOGY August Sales,Fall,31.60 %
2011-09-09T07:53:03Z,MACAUTO INDUSTRI August Sales,Fall,20.01 %
2011-09-09T07:53:04Z,NIKO SEMICONDUCT August Sales,Fall,5.54 %
2011-09-09T07:53:44Z,Slovakia,’s Growth,Miklos
2011-09-09T07:54:26Z,CHINA GEN PLAST August Sales,Fall,0.26 %
2011-09-09T07:54:29Z,HOWARM CONSTRUCT August Sales,Fall,Table
2011-09-09T07:57:23Z,UNIVACCO August Sales,Fall,Table
2011-09-09T07:58:44Z,ACTION ELECT August Sales,Fall,Table
2011-09-09T07:59:32Z,CYBERPOWER SYSTE August Sales,Fall,Table
2011-09-09T07:59:39Z,CORETRONIC CORP August Sales,Fall,42.15 %
2011-09-09T07:59:40Z,HARMONY ELECTRON August Sales,Fall,Table
2011-09-09T07:59:43Z,HONG HO TEXTILE August Sales,Fall,68.01 %
2011-09-09T07:59:45Z,PIHSIANG MACHINE August Sales,Fall,Table
2011-09-09T08:00:48Z,Zimbabwe,’s Plans,Herald Reports
2011-09-09T08:02:48Z,Tullow ’s Offshore French Guiana,Find,Mirrors Ghana ’s Jubilee
2011-09-09T08:03:16Z,SOLELYTECH ENTER August Sales,Fall,15.48 %
2011-09-09T08:03:17Z,TONG-TAI MACHINE August Sales,Fall,28.86 %
2011-09-09T08:03:21Z,EVERFOCUS,ELECT,August Sales
2011-09-09T08:03:24Z,TAITA CHEMICAL August Sales,Fall,Table
2011-09-09T08:03:27Z,XU YUAN PACKAGIN August Sales,Fall,0.58 %
2011-09-09T08:03:29Z,HEP TECH CO LTD August Sales,Fall,Table
2011-09-09T08:03:31Z,WHOLETECH SYSTEM August Sales,Fall,51.38 %
2011-09-09T08:06:13Z,QUANTA STORAGE August Sales,Fall,55.13 %
2011-09-09T08:06:16Z,C.T.I. TRAFFIC August Sales,Fall,Table
2011-09-09T08:06:22Z,HSIN TAI GAS August Sales,Rise,2.10 %
2011-09-09T08:06:25Z,UNIVERSAL INC August Sales,Fall,15.72 %
2011-09-09T08:06:26Z,DE POAN PNEUMATI August Sales,Fall,Table
2011-09-09T08:06:28Z,KIN TECH TECH August Sales,Fall,Table
2011-09-09T08:06:53Z,PORTWELL INC August Sales,Fall,Table
2011-09-09T08:06:55Z,RUENTEX ENGINEER August Sales,Fall,0.13 %
2011-09-09T08:06:57Z,POWERTECH August Sales,Fall,Table
2011-09-09T08:08:16Z,Uchumi,Rises on,Customer Growth
2011-09-09T08:09:14Z,ORIENT SEMICOND August Sales,Fall,Table
2011-09-09T08:09:16Z,ASSOC INDS CHINA August Sales,Fall,23.81 %
2011-09-09T08:09:20Z,MICRO BASE TECHN August Sales,Fall,11.21 %
2011-09-09T08:09:49Z,SHIH WEI August Sales,Fall,Table
2011-09-09T08:13:55Z,POWER QUOTIENT August Sales,Fall,Table
2011-09-09T08:16:00Z,MEC IMEX INC August Sales,Fall,22.86 %
2011-09-09T08:16:02Z,HUNG POO REAL ES August Sales,Fall,Table
2011-09-09T08:17:19Z,O-TA PRECISION August Sales,Fall,Table
2011-09-09T08:17:19Z,PRECISION August Sales,Fall,43.28 %
2011-09-09T08:18:51Z,LICO TECHNOLOGY August Sales,Fall,46.40 %
2011-09-09T08:18:54Z,JEILIN TECH CORP August Sales,Fall,Table
2011-09-09T08:18:54Z,TECH CORP August Sales,Fall,Table
2011-09-09T08:18:56Z,CHINA TELEVISION August Sales,Rise,30.78 %
2011-09-09T08:18:57Z,BIOTECH August Sales,Fall,Table
2011-09-09T08:18:57Z,GENMONT BIOTECH August Sales,Fall,Table
2011-09-09T08:19:45Z,ALBATRON TECHNOL August Sales,Fall,Table
2011-09-09T08:23:49Z,Crude Oil Futures Decline,Reversing,Gains
2011-09-09T08:23:49Z,Oil Futures Decline,Reversing,Earlier Gains
2011-09-09T08:26:23Z,LUMAX INTL CORP August Sales,Fall,Table
2011-09-09T08:26:29Z,CHIA HSIN CEMENT August Sales,Fall,88.93 %
2011-09-09T08:26:31Z,KS TERMINALS August Sales,Rise,Table
2011-09-09T08:26:32Z,ACTHERM INC August Sales,Fall,23.27 %
2011-09-09T08:26:55Z,SINO-AMERICAN August Sales,Fall,Table
2011-09-09T08:28:13Z,ADDA CORP August Sales,Fall,Table
2011-09-09T08:28:14Z,JOHNSON HEALTH T August Sales,Fall,Table
2011-09-09T08:28:16Z,MITAC INTL August Sales,Fall,Table
2011-09-09T08:28:17Z,BENQ MATERIALS C August Sales,Fall,23.37 %
2011-09-09T08:29:29Z,FU CHUN SHIN MAC August Sales,Fall,29.49 %
2011-09-09T08:30:16Z,China,in,Zero-Sum Competition
2011-09-09T08:30:16Z,U.S.,China in,Zero-Sum Competition
2011-09-09T08:30:56Z,ALLIED INDUSTRIA August Sales,Fall,Table
2011-09-09T08:30:56Z,INDUSTRIA August Sales,Fall,3.16 %
2011-09-09T08:33:13Z,COMPAL COMMUNICA August Sales,Fall,Table
2011-09-09T08:34:05Z,QUIETEK CORP August Sales,Fall,Table
2011-09-09T08:34:09Z,ZEN VOCE CORP August Sales,Fall,4.53 %
2011-09-09T08:35:56Z,Decline,in,Energy Costs
2011-09-09T08:35:56Z,U.K. Producer Prices Advance Least,in,Year Amid Decline
2011-09-09T08:36:05Z,JIH SUN FINANCIA August Sales,Fall,129.59 %
2011-09-09T08:36:08Z,PHONIC CORP August Sales,Fall,Table
2011-09-09T08:36:12Z,VTC ELECTRONICS August Sales,Fall,30.09 %
2011-09-09T08:36:13Z,ALLIED BIOTECH C August Sales,Fall,32.27 %
2011-09-09T08:36:13Z,BIOTECH C August Sales,Fall,Table
2011-09-09T08:36:16Z,LONG LON CO LTD August Sales,Fall,Table
2011-09-09T08:36:18Z,TAISHIN HOLDINGS August Sales,Fall,34.89 %
2011-09-09T08:37:54Z,RECHI PRECISION August Sales,Fall,Table
2011-09-09T08:37:57Z,PROMOS,TECH,August Sales
2011-09-09T08:38:58Z,ROO HSING CO LTD August Sales,Fall,Table
2011-09-09T08:39:01Z,BIOTEQUE CORPORA August Sales,Fall,14.48 %
2011-09-09T08:39:02Z,MEILOON IND CO August Sales,Fall,Table
2011-09-09T08:39:48Z,Biggest Weekly Loss,in,Month on Rate
2011-09-09T08:39:48Z,Ringgit,Has,Biggest Weekly Loss in Month on Rate
2011-09-09T08:40:26Z,AVALUE TECHNOLOG August Sales,Fall,Table
2011-09-09T08:40:31Z,COM August Sales,Fall,1.37 %
2011-09-09T08:40:31Z,PROFESSIONAL COM August Sales,Fall,1.37 %
2011-09-09T08:42:23Z,JOCHU TECHNOLOGY August Sales,Fall,85.47 %
2011-09-09T08:42:29Z,ACER INC August Sales,Fall,Table
2011-09-09T08:46:36Z,T-MAC TECHVEST P August Sales,Fall,Table
2011-09-09T08:46:39Z,WANSHIH ELECTRON August Sales,Fall,Table
2011-09-09T08:46:41Z,CHINESE GAMER,Fall,Table
2011-09-09T08:46:41Z,GAMER,Fall,Table
2011-09-09T08:48:21Z,CHATEAU INTL August Sales,Fall,6.77 %
2011-09-09T08:48:23Z,GIANT MANUFACTUR August Sales,Rise,11.64 %
2011-09-09T08:48:23Z,MANUFACTUR August Sales,Rise,Table
2011-09-09T08:48:27Z,CHINA METAL PROD August Sales,Rise,23.56 %
2011-09-09T08:48:29Z,YUANTA FINANCIAL August Sales,Fall,48.51 %
2011-09-09T08:48:46Z,CHUN YU,WORKS,August Sales
2011-09-09T08:48:53Z,ZENTEL ELEC CORP August Sales,Fall,Table
2011-09-09T08:48:55Z,APCB INC August Sales,Fall,Table
2011-09-09T08:49:14Z,MOSPEC SEMICOND August Sales,Fall,Table
2011-09-09T08:49:18Z,CHINA,TIMES,PUB August Sales
2011-09-09T08:49:21Z,CHANG TYPE INDUS August Sales,Fall,34.08 %
2011-09-09T08:49:23Z,HYWEB TECHNOLOGY August Sales,Fall,5.71 %
2011-09-09T08:49:26Z,CHIEN TAI CEMENT August Sales,Fall,29.59 %
2011-09-09T08:49:29Z,LUSTROUS TECHNOL August Sales,Fall,Table
2011-09-09T08:52:40Z,UNIPLUS ELECT August Sales,Fall,Table
2011-09-09T08:52:44Z,POLYBLEND August Sales,Fall,Table
2011-09-09T08:52:44Z,PONTEX POLYBLEND August Sales,Fall,32.00 %
2011-09-09T08:52:48Z,TRANSTOUCH TECH August Sales,Fall,Table
2011-09-09T08:52:53Z,YAGEO CORP August Sales,Fall,Table
2011-09-09T08:52:54Z,ROYALTEK CO LTD August Sales,Fall,54.64 %
2011-09-09T08:52:56Z,TAIWAN GLASS IND August Sales,Fall,Table
2011-09-09T08:52:58Z,YUNGTAY ENG CO August Sales,Fall,Table
2011-09-09T08:52:59Z,COLLINS CO LTD August Sales,Fall,Table
2011-09-09T08:54:42Z,August Sales,Fall,10.01 %
2011-09-09T08:54:42Z,TOP August Sales,Fall,Table
2011-09-09T08:54:48Z,DSG TECHNOLOGY August Sales,Fall,Table
2011-09-09T08:54:50Z,SINTRONIC TECH August Sales,Fall,49.21 %
2011-09-09T08:54:50Z,TECH August Sales,Fall,Table
2011-09-09T08:54:52Z,CHUNG HWA PULP August Sales,Fall,Table
2011-09-09T08:54:53Z,ALLIANCE MATERIA August Sales,Fall,19.57 %
2011-09-09T08:54:55Z,MICROLIFE CORP August Sales,Fall,Table
2011-09-09T08:54:59Z,CHUNG YO DEPT August Sales,Fall,Table
2011-09-09T08:54:59Z,CHUNG YO DEPT ST August Sales,Fall,Table
2011-09-09T08:55:00Z,BESTEC POWER ELE August Sales,Fall,14.05 %
2011-09-09T08:55:10Z,Kenyan Presidential Aspirant Karua,Urges,Less Food Imports
2011-09-09T08:55:10Z,Presidential Aspirant Karua,Urges,Food Imports
2011-09-09T08:56:58Z,ARIMA OPTOELECTR August Sales,Fall,44.15 %
2011-09-09T08:57:02Z,ACME ELECTRONICS August Sales,Fall,Table
2011-09-09T08:57:05Z,SYNCMOLD ENTERPR August Sales,Fall,Table
2011-09-09T08:58:39Z,STATS CHIPPAC TA August Sales,Fall,Table
2011-09-09T08:58:41Z,ETREND HIGHTECH August Sales,Fall,41.62 %
2011-09-09T09:00:00Z,BMW Group August Sales,Increase,7.4 Percent
2011-09-09T09:00:00Z,Slovakia,Must Seek,Central Bank
2011-09-09T09:02:00Z,40 % Chance,in,First Quarter
2011-09-09T09:02:00Z,Nomura,Says,40 % Chance of African Interest Rate Cut
2011-09-09T09:05:00Z,CHANG-YU TECHNOL August Sales,Fall,Table
2011-09-09T09:06:00Z,PAN-INTL INDUST August Sales,Fall,10.27 %
2011-09-09T09:06:03Z,CHIMEI MATERIALS August Sales,Rise,8.52 %
2011-09-09T09:09:07Z,Nigeria,Buys,Yuan
2011-09-09T09:11:01Z,China Inflation,Eases From,Giving Room for Pause on Rates
2011-09-09T09:11:01Z,Three-Year High,Room for,Pause
2011-09-09T09:11:25Z,BAOTEK INDUST August Sales,Fall,16.91 %
2011-09-09T09:11:56Z,F&C Fund Manager,Says After,Bailout
2011-09-09T09:19:09Z,Saab Auto ’s Shares Plunge,Rejects,Creditor Protection Request
2011-09-09T09:19:19Z,CATHAY REAL ESTA August Sales,Fall,Table
2011-09-09T09:19:26Z,DYNACARD August Sales,Fall,Table
2011-09-09T09:20:49Z,SENTRONIC INTL August Sales,Fall,26.43 %
2011-09-09T09:20:54Z,AMTRAN TECH August Sales,Fall,Table
2011-09-09T09:22:59Z,DYNACOLOR INC August Sales,Fall,Table
2011-09-09T09:23:06Z,SINONAR CORP August Sales,Fall,17.57 %
2011-09-09T09:23:31Z,PHOENIX TOURS,IN,August Sales Rise
2011-09-09T09:23:34Z,WONTEN TECHNOLOG August Sales,Fall,Table
2011-09-09T09:23:36Z,M August Sales,Fall,Table
2011-09-09T09:23:36Z,TAIWAN FIRE,Fall,Table
2011-09-09T09:23:58Z,Lagarde,Says,Policy Makers
2011-09-09T09:24:01Z,CENTURY IRON August Sales,Rise,57.94 %
2011-09-09T09:24:04Z,FINEART TECH CO August Sales,Fall,8.50 %
2011-09-09T09:24:42Z,Kenya,Than,$ 5 Billion Tatu
2011-09-09T09:25:47Z,LINGSEN PRECIS August Sales,Fall,16.62 %
2011-09-09T09:25:56Z,RMB Holdings,Expecting to,Report Annual Earnings
2011-09-09T09:26:49Z,ENTIE COMMERCIAL August Sales,Fall,24.96 %
2011-09-09T09:26:51Z,EVERSOL CORP August Sales,Fall,42.77 %
2011-09-09T09:26:52Z,KING POLYTECHNIC August Sales,Fall,5.79 %
2011-09-09T09:27:34Z,Belka,Says,FX Loans Undermining Stability of Currency
2011-09-09T09:28:06Z,WAYI INTERNATION August Sales,Fall,Table
2011-09-09T09:28:08Z,GREAT TAIPEI GAS August Sales,Rise,7.26 %
2011-09-09T09:28:08Z,TAIPEI GAS August Sales,Rise,7.26 %
2011-09-09T09:34:24Z,ACTER CO LTD August Sales,Fall,45.97 %
2011-09-09T09:34:29Z,WAFER,WORKS,OPTR August Sales
2011-09-09T09:37:18Z,CRYSTALWISE TECH August Sales,Fall,40.92 %
2011-09-09T09:37:18Z,TECH August Sales,Fall,Table
2011-09-09T09:37:20Z,ZENTEK PHOTONICS August Sales,Fall,99.59 %
2011-09-09T09:37:22Z,TECHMOSA INTL,Fall,15.36 %
2011-09-09T09:37:31Z,Czech Lawmakers,Approve,Pension Overhaul Legislation
2011-09-09T09:37:31Z,Lawmakers,Approve,Pension Overhaul Legislation
2011-09-09T09:38:38Z,Zloty,Extends Slides Versus Euro Since,July 2009
2011-09-09T09:41:04Z,JETWAY INFORMATI August Sales,Fall,Table
2011-09-09T09:41:13Z,EVA TECH CO LTD August Sales,Fall,Table
2011-09-09T09:41:34Z,CHUNG LIEN TRANS August Sales,Fall,1.34 %
2011-09-09T09:45:27Z,TCST TECH CO August Sales,Fall,28.27 %
2011-09-09T09:45:27Z,TECH CO August Sales,Fall,Table
2011-09-09T09:45:55Z,TAIWAN THICK-FIL August Sales,Fall,3.27 %
2011-09-09T09:45:57Z,TECH August Sales,Fall,Table
2011-09-09T09:45:57Z,THERMALTAKE TECH August Sales,Fall,17.82 %
2011-09-09T09:49:11Z,ELITEGROUP COMPU August Sales,Fall,10.14 %
2011-09-09T09:49:37Z,FORMOSA INTL August Sales,Fall,1.14 %
2011-09-09T09:57:42Z,KEE TAI PROPERTI August Sales,Fall,Table
2011-09-09T09:58:20Z,Sun Hung Kai Financial,Buy,Order for China Life
2011-09-09T09:59:02Z,Absa Group,Acquires Islamic Insurance Company Takafol For,Sum
2011-09-09T09:59:29Z,OASIS TEC August Sales,Fall,58.60 %
2011-09-09T09:59:29Z,TAIWAN OASIS TEC August Sales,Fall,Table
2011-09-09T10:00:00Z,PPR,Buy,Suitmaker Brioni
2011-09-09T10:01:36Z,GLOTECH INDS August Sales,Fall,7.89 %
2011-09-09T10:01:38Z,TAIWAN ALPHA ELE August Sales,Fall,26.09 %
2011-09-09T10:02:53Z,ALPHA IMAGING TE August Sales,Fall,Table
2011-09-09T10:04:51Z,Slovakia,’s Minister,Central Bank Clash on Closer Euro Union
2011-09-09T10:04:51Z,Slovakia ’s Minister,Clash on,Closer Euro Union
2011-09-09T10:05:34Z,Tanzania ’s Shilling,Heads in,4
2011-09-09T10:06:11Z,HON YI PRECISION August Sales,Fall,12.76 %
2011-09-09T10:06:13Z,CUB ELECPARTS August Sales,Fall,Table
2011-09-09T10:07:03Z,SUYIN CORP August Sales,Fall,8.96 %
2011-09-09T10:07:08Z,SHIN RUENN August Sales,Fall,100.00 %
2011-09-09T10:08:52Z,Madoff Trustee Picard,Sets,Sept. 15 Claim Record Date
2011-09-09T10:10:40Z,ALPHA CRYSTAL TE August Sales,Fall,Table
2011-09-09T10:11:19Z,Indian Stocks,Paring,Weekly Gain
2011-09-09T10:11:19Z,Stocks,Decline,Steelmakers Drop
2011-09-09T10:12:51Z,SHIN KONG FINANC August Sales,Fall,66.34 %
2011-09-09T10:12:56Z,CARNIVAL INDUSTR August Sales,Rise,Table
2011-09-09T10:13:59Z,Luk Fook,Says,Gold Product Demand on Prices
2011-09-09T10:15:30Z,1.2 %,in,London
2011-09-09T10:16:37Z,FOXCONN TECHNOLO August Sales,Fall,51.39 %
2011-09-09T10:16:39Z,HON HAI PRECISIO August Sales,Fall,Table
2011-09-09T10:17:06Z,APAC OPTO ELECTR August Sales,Fall,30.07 %
2011-09-09T10:17:34Z,Air France Seeks Savings,With,BA
2011-09-09T10:22:09Z,PCHOME ONLINE,IN,August Sales Rise
2011-09-09T10:22:39Z,Advisory Business,in,Zimbabwe
2011-09-09T10:22:39Z,Vunani,Sets Up,Advisory Business in Zimbabwe
2011-09-09T10:23:00Z,LEE CHANGE YUNG August Sales,Fall,Table
2011-09-09T10:23:04Z,LOOP TELECOM INT August Sales,Fall,Table
2011-09-09T10:23:06Z,GLOBALSAT TECHNO August Sales,Fall,10.30 %
2011-09-09T10:23:08Z,TAIWAN LIFE August Sales,Fall,41.84 %
2011-09-09T10:23:09Z,Randgold,Says,W. African Gold Juniors
2011-09-09T10:24:59Z,Foreign Funds,Buy,294 Million Rupees
2011-09-09T10:25:01Z,Monsanto,Weavering in,Court News
2011-09-09T10:25:01Z,Weavering,in,Court News
2011-09-09T10:26:19Z,LASER TEK TAIWAN August Sales,Fall,Table
2011-09-09T10:28:16Z,Gold,Extends,Drop
2011-09-09T10:30:26Z,Zloty,Pares,Drop
2011-09-09T10:35:25Z,CONTINENTAL,HOLD,August Sales
2011-09-09T10:41:05Z,Air France,Says,Autopilot Incident May Aid AF447 Crash Probe
2011-09-09T10:41:20Z,TONS LIGHTOLOGY August Sales,Fall,Table
2011-09-09T10:43:16Z,Policy Maker Kazmierczak,Raise,Rates
2011-09-09T10:43:16Z,Polish Policy Maker Kazmierczak,Raise,Rates
2011-09-09T10:43:56Z,FUBON FINANCIAL August Sales,Fall,110.42 %
2011-09-09T10:47:14Z,RMB Morgan Stanley Retail Analyst Pretorius,Quits,Brokerage
2011-09-09T10:57:33Z,San Diego Utility,Restores Power to,Almost Half of Blacked-Out Households
2011-09-09T11:00:43Z,INVENTEC APPLIAN August Sales,Fall,Table
2011-09-09T11:02:46Z,Three-Month Swiss Franc Libor Increases,in,Two Weeks
2011-09-09T11:02:50Z,Obama Jobs Plan,Packs,Punch
2011-09-09T11:09:36Z,TAIWAN HON CHUAN August Sales,Fall,Table
2011-09-09T11:10:17Z,Gas Field,in,Anbar Province
2011-09-09T11:10:17Z,Iraq Discovers Oil,Field in,Anbar Province
2011-09-09T11:14:33Z,India ’s Steel Ministry,Lowers Demand Growth Forecast by,Half
2011-09-09T11:15:07Z,TERA AUTOTECH CO August Sales,Fall,Table
2011-09-09T11:15:10Z,TERMTEK COMPUTER August Sales,Fall,Table
2011-09-09T11:22:57Z,LUXE CO LTD August Sales,Fall,Table
2011-09-09T11:31:15Z,Euro Area,Should Have,Estonia ’s Ligi
2011-09-09T11:31:21Z,SHINKONG INSUR August Sales,Fall,39.55 %
2011-09-09T11:35:57Z,He,May Run for,Hong Kong Chief Executive
2011-09-09T11:47:04Z,RBI May,Keep,Rates Unchanged
2011-09-09T11:48:55Z,PAN RAM INTERNAT August Sales,Fall,7.91 %
2011-09-09T11:54:28Z,Rupee,Completes,Week
2011-09-09T11:56:36Z,TERA XTAL TECHNO August Sales,Fall,45.89 %
2011-09-09T11:58:59Z,Bigger Role,in,Middle East
2011-09-09T12:01:02Z,Swaziland Unions,Protest Change for,Day to Demand End to Monarchy
2011-09-09T12:06:37Z,Lower Temperatures,May Send,Heating Demand
2011-09-09T12:06:37Z,Temperatures,May Send,Heating Demand
2011-09-09T12:08:13Z,Traders,Seek,U.S. Dollars
2011-09-09T12:09:58Z,Rugby World Cup,Gives,Recession
2011-09-09T12:11:32Z,La Nina May Affect Brazil Cane Yields,Says,Coffee
2011-09-09T12:11:32Z,Macquarie,Says,Coffee
2011-09-09T12:12:59Z,MICROCOSM TECHNO August Sales,Fall,5.67 %
2011-09-09T12:13:54Z,TYNTEK CORP August Sales,Fall,Table
2011-09-09T12:14:32Z,Argentina Expects Trade,Halve in,2012
2011-09-09T12:15:15Z,Alibaba.com,Paying Members to,Combat Fraud
2011-09-09T12:16:44Z,Ahram,Egypt to,Rachid Handover
2011-09-09T12:16:44Z,Request Ghali,Handover From,Qatar
2011-09-09T12:19:48Z,TAIWAN OSTOR COR August Sales,Fall,Table
2011-09-09T12:25:43Z,POU CHEN August Sales,Fall,Table
2011-09-09T12:26:53Z,Brazil Jan. 2013 Futures,Yield at,10.84 %
2011-09-09T12:29:28Z,U.S. Treasury Department,Schedule for,Sept. 9
2011-09-09T12:30:00Z,Canadian 2nd-Qtr Labor Productivity Falls Fastest,in,Five Years
2011-09-09T12:33:43Z,Cyprus,in,Negotiations for Loan
2011-09-09T12:34:08Z,Australia Newcastle Coal,Rises,1.5 %
2011-09-09T12:34:08Z,Australia Newcastle Thermal Coal,Rises,1.5 %
2011-09-09T12:38:06Z,Australia,Take,90-Run Lead
2011-09-09T12:39:16Z,Uganda Shilling,Heads on,Dollar Sales
2011-09-09T12:41:21Z,Bloomberg,Acquire,BNA
2011-09-09T12:46:25Z,Porsche Earnings,Shrink,EU1 .6 Billion
2011-09-09T12:49:39Z,Storm Nate,Likely Become,Hurricane
2011-09-09T12:49:39Z,Tropical Storm Nate,Become,Hurricane
2011-09-09T12:52:55Z,Rand Poised,in,Three
2011-09-09T12:54:48Z,SUNVIC TECHNOLOG August Sales,Fall,Table
2011-09-09T12:57:45Z,BNP,Warn of,Damages
2011-09-09T12:58:56Z,Checkmate Seeks Sea Snake Partner,in,Talks With Listed Investors
2011-09-09T12:58:56Z,Talks,With,Listed Investors
2011-09-09T13:02:42Z,Mozambique Second Quarter Economic Growth,Slows Earlier From,Year
2011-09-09T13:08:15Z,68 %,in,August
2011-09-09T13:08:15Z,Ivory Coast,From,San Pedro Rose
2011-09-09T13:16:09Z,Lithuania,Keeps,Economic Growth Outlook Unchanged
2011-09-09T13:27:00Z,Providence,Is Increasing Blackboard Buyout Loan,Fund Outflows Subside
2011-09-09T13:39:28Z,China,in,Bank of Xi’an
2011-09-09T13:39:28Z,Stake,in,China ’s Bank of Xi’an
2011-09-09T13:42:24Z,$ 105 Million,in,Peru Generator
2011-09-09T13:44:48Z,New Zealand,Starts Quest by,Beating Tonga 41-10
2011-09-09T13:50:16Z,Polish Opposition Leader,Says,Tough
2011-09-09T14:00:00Z,U.S. Inventories,Increased by,0.8 %
2011-09-09T14:00:00Z,U.S. Wholesale Inventories,Increased in,July
2011-09-09T14:03:40Z,Tanzania ’s Economy,Grew at,Pace
2011-09-09T14:08:42Z,Swiss Finance,Buys,2 Million Shares
2011-09-09T14:09:15Z,Usiminas Rallies,Mulls,Counter Bid
2011-09-09T14:16:05Z,SILICON TOUCH TE August Sales,Fall,Table
2011-09-09T14:22:32Z,Baroin,Say,Schaeuble
2011-09-09T14:32:36Z,Bonds Fall,Exceeds,Estimates
2011-09-09T14:32:36Z,Turkish Bonds Fall,Exceeds,Estimates
2011-09-09T14:32:57Z,Canada,Loses Jobs Since,March
2011-09-09T14:32:57Z,Jobless Rate,Rises to,7.3 %
2011-09-09T14:37:52Z,Kroger Falls,Trails,Estimates
2011-09-09T14:39:09Z,Nigeria Attack,Leaves at,Least 13 People Dead
2011-09-09T14:47:34Z,Canada Canola,Rises in,Week Ended
2011-09-09T14:48:14Z,Terrorism Post-Bin Laden,Shifts to,Smaller Strategic Targets
2011-09-09T14:48:34Z,Five Central Bankers,in,SE Europe Warn of Double-Dip Recession
2011-09-09T14:50:49Z,Major Natural-Gas Discovery,in,Caspian Sea
2011-09-09T14:50:49Z,Total,Makes Major Natural-Gas Discovery Off,Azerbaijan
2011-09-09T14:53:36Z,Restaurant Stocks,Reflect,U.S.
2011-09-09T14:53:36Z,U.S.,Spending,Signaling Fed May Ease More
2011-09-09T14:57:52Z,Budget,Squeeze,Growth Slows
2011-09-09T15:04:26Z,Bank,Says in,Week
2011-09-09T15:04:26Z,Kenya Foreign-Currency Reserves Fell,Says in,Week
2011-09-09T15:06:38Z,El-Erian,Says,Obama ’s Speech Recognized Deep Challenges for First Time
2011-09-09T15:06:44Z,Horn,in,Kenya
2011-09-09T15:08:19Z,Redskins,With,Neck Injury
2011-09-09T15:23:36Z,8.1 %,in,January
2011-09-09T15:27:44Z,Baroin,Seek Broad Base for,EU Transactions Tax
2011-09-09T15:27:44Z,Schaeuble,Seek,Broad Base
2011-09-09T15:28:03Z,Nigeria Stocks,See,Longest Weekly Losing Streak
2011-09-09T15:30:49Z,Emerging-Market Basket,Mimics,Citigroup
2011-09-09T15:31:05Z,Former Taiwan Semiconductor Manager,Seeks Sentence Over,Tips
2011-09-09T15:31:52Z,Hungary Stocks,Plunge as,OTP Drops on Loan Plan
2011-09-09T15:34:09Z,Player,to,Mother
2011-09-09T15:41:40Z,Europe Company Swap Gap,Surges to,Record
2011-09-09T15:45:00Z,Fed ’s Williams,Says,Global Financial System
2011-09-09T15:48:37Z,Moscow Mayor,Living in,U.K.
2011-09-09T15:48:37Z,Russian Ambassador,Tells,BBC
2011-09-09T15:49:44Z,European Bank,Surge on,Stimulus Concerns
2011-09-09T15:50:08Z,First Day,for Decline,ABB Slip
2011-09-09T15:50:08Z,Four,in Decline,ABB Slip
2011-09-09T15:50:08Z,Stocks,Decline for,First Day
2011-09-09T15:50:08Z,Swiss Stocks,Decline in,Four
2011-09-09T15:50:08Z,Swiss Stocks Decline,in,Four
2011-09-09T15:50:44Z,Glencore Target Optimum Coal,Says,Unidentified Alternative Bidder Withdrew
2011-09-09T15:54:40Z,Zloty,Weakens to,Two-Year Low
2011-09-09T15:59:02Z,Evolution,in,Deal Valuing U.K. Stockbroker
2011-09-09T15:59:34Z,India,Reaches,234-7
2011-09-09T16:03:37Z,Erasing,Drop of,as Much as 1.7 %
2011-09-09T16:03:37Z,Gold Futures Rise,Erasing,Drop
2011-09-09T16:04:16Z,Interest-Rate Swap Spreads,Climb as,Europe Debt Crisis Deepens
2011-09-09T16:09:08Z,European Stocks,Fall on,Growth Concern
2011-09-09T16:09:08Z,Stocks,Fall on,Growth Concern
2011-09-09T16:14:02Z,Banks,in,Bond Market Return
2011-09-09T16:15:02Z,Ounce,in,London Exchange Trading
2011-09-09T16:30:48Z,SThree Declines,in,One Year on Earnings Concern
2011-09-09T16:32:57Z,Heightened Readiness,in,U.K.
2011-09-09T16:32:57Z,Lagarde,Urges,Heightened Readiness in U.K.
2011-09-09T16:56:42Z,Saudi Arabia Oil Port May,Have,Loaded 7.6 Million Barrels
2011-09-09T17:08:03Z,Geithner,Discusses Obama Plan with,Bloomberg TV
2011-09-09T17:16:28Z,Commodities,Slide Worldwide on,Led By Crude Oil
2011-09-09T17:16:28Z,Global Growth Concerns,Led By,Crude Oil
2011-09-09T17:18:51Z,Guinea,Adopts,New Mining Code
2011-09-09T17:29:02Z,Pinera,Sends Bill on,Small Loans
2011-09-09T17:37:24Z,Obama,’s Address,China Inflation
2011-09-09T17:41:11Z,NRC,Wants,Yucca Mountain License Work Finished
2011-09-09T17:41:11Z,Yucca Mountain License Work,Finished by,Sept. 30
2011-09-09T17:43:47Z,Germany,Propose,ECB Candidate
2011-09-09T17:48:39Z,Gulf Gasoline,Slips,Nate Storm Threat Diminished to Refiners
2011-09-09T17:48:39Z,Nate Storm Threat,Diminished to,Refiners
2011-09-09T17:59:59Z,It,Drifts,West-Southwest
2011-09-09T18:04:41Z,Copper,Tumbles,Most
2011-09-09T18:04:41Z,Obama,Fail to,Boost Confidence
2011-09-09T18:08:15Z,Feldstein,Says to,Boost Consumer Spending
2011-09-09T18:08:35Z,Mexican Policy Makers,Leave Rates Unchanged in,August
2011-09-09T18:08:35Z,Policy Makers,Leave,Rates Unchanged
2011-09-09T18:14:09Z,Greece,Dismisses,Default Rumors
2011-09-09T18:20:07Z,Cairo Demonstrators,Raze,Embassy Wall
2011-09-09T18:21:55Z,Turkey,Israel to,Cool It in Diplomatic Dispute
2011-09-09T18:21:55Z,U.S.,Urges,Israel to Cool It
2011-09-09T18:29:56Z,Storm Nate,Turns Away From,Gulf
2011-09-09T18:40:35Z,NBA,of,Phoenix Suns
2011-09-09T18:45:42Z,Defector ’s Relatives,Killed for,Help
2011-09-09T18:45:42Z,Syrian Defector ’s Relatives,Killed as,Activists Appeal to Russia
2011-09-09T18:46:57Z,Sacramento County ’s Finances,Cited ’s,Moody
2011-09-09T18:46:57Z,Sacramento County ’s Precarious Finances,Cited in,Ratings
2011-09-09T19:12:28Z,U.S. Gulf Crude Premiums,Weaken,WTI-Brent Spread Narrows
2011-09-09T19:16:10Z,Creditor,Vote on,Reorganization
2011-09-09T19:23:54Z,Enterprises Chief,Gets,Seven
2011-09-09T19:23:54Z,Ex-Industrial Enterprises Chief,Gets,Seven
2011-09-09T19:24:24Z,Blackstone Deal-Rig Antitrust Suit,Expanded by,Judge
2011-09-09T19:37:24Z,Oaktree,Sale of,Hotel
2011-09-09T20:00:49Z,Tesoro Refinery,Starts,Units
2011-09-09T20:03:30Z,U.S. Mint Gold-Coin Sales Rise,in,September
2011-09-09T20:04:46Z,Briton Andy Murray,Beats,American John Isner
2011-09-09T20:04:46Z,U.S.,Open,Semifinals
2011-09-09T20:04:49Z,New Board Member,Over,Links to Company
2011-09-09T20:06:37Z,Scotiabank,Buys,Almost 20 % of Bank
2011-09-09T20:10:01Z,Euro,Tumbles on,European Debt Crisis
2011-09-09T20:18:37Z,Sunoco Worth More,With,Refinery Exit
2011-09-09T20:19:34Z,McDonald ’s August Same-Store Sales Gain,Trailing,Analysts ’ Estimates
2011-09-09T20:21:21Z,OCP,Receives Approval to,Ship Crude
2011-09-09T20:22:25Z,Obama,Tells Virginia Voters for,Action
2011-09-09T20:27:18Z,U.S. Stocks,Tumble on,Speculation Greece May Default
2011-09-09T20:38:14Z,Ford,Sees,U.S. Auto Sales Falling
2011-09-09T20:38:14Z,U.S. Auto Sales,Falling Below,13 Million Forecast
2011-09-09T20:39:58Z,Apple,With,IPhone
2011-09-09T20:39:58Z,Sprint Said,With,Apple ’s IPhone
2011-09-09T20:43:16Z,President Obama ’s Jobs Speech,Attracts,31.4 Million U.S. Viewers
2011-09-09T20:43:45Z,J&J ’s Simponi,Receive,U.S. FDA Clearance
2011-09-09T20:47:15Z,AOL Said,With,Yahoo Advisers Amid Bartz Exit
2011-09-09T21:10:46Z,Growth,in,Peru Coca Output
2011-09-09T21:10:46Z,Humala ’s Drug Czar,Halt,Growth
2011-09-09T21:18:13Z,Crapo,Says,Obama Jobs Plan
2011-09-09T21:22:45Z,Biggest Rise,in,Three Weeks
2011-09-09T21:22:45Z,U.S. Corporate Credit Risk,Set For,Biggest Rise
2011-09-09T21:31:20Z,Mexico Peso Drops,in,Month on Growth Concerns
2011-09-09T21:39:42Z,Honda Recalls,Fix,Seat Belts
2011-09-09T21:45:18Z,Bone Drugs,Need,Label Changes on Use Duration
2011-09-09T21:47:24Z,Dow Chemical,Dismissal of,Greenpeace Lawsuit
2011-09-09T22:27:55Z,Peru President Humala ’s Approval Rating,Rises in,Poll
2011-09-09T22:36:38Z,Asian Currencies,Decline on,U.S. Economic Recovery
2011-09-09T22:36:38Z,Currencies,Decline on,U.S. Economic Recovery
2011-09-09T22:38:04Z,Geithner,Says,Europe
2011-09-09T22:47:04Z,Justice,FCC for,Briefing
2011-09-09T22:47:04Z,Lawmakers,Ask,FCC on AT&T
2011-09-09T22:47:04Z,Republican Lawmakers,Ask,FCC on AT&T
2011-09-09T23:00:01Z,European Stocks,Drop in,Three Amid Debt Concern
2011-09-09T23:00:01Z,Stocks,Drop in,Three Amid Debt Concern
2011-09-09T23:01:00Z,Live Music,in,Pubs
2011-09-09T23:01:19Z,Google,Prove in,Contract Lawsuit
2011-09-09T23:34:08Z,Asia Stocks,Slide Through,Week
2011-09-09T23:57:02Z,Fannie,Said Near,Settlement With SEC on Loan Disclosure
2011-09-09T23:57:02Z,Settlement,With,SEC
2011-09-10T04:00:01Z,Four Men ’s Seeds,Reach U.S. Open Semifinals for,First Time
2011-09-10T04:00:01Z,Men ’s Seeds,Reach U.S. Open Semifinals for,First Time
2011-09-10T04:00:01Z,Seeds,Reach U.S. Open Semifinals for,First Time
2011-09-10T04:00:01Z,Top Four Men ’s Seeds,Reach U.S. Open Semifinals for,First Time
2011-09-10T04:00:01Z,Top Men ’s Seeds,Reach,U.S. Open Semifinals
2011-09-10T04:00:01Z,Top Seeds,Reach U.S. Open Semifinals for,First Time
2011-09-10T04:00:02Z,Vancouver Spared,in,6.4 Earthquake
2011-09-10T04:01:00Z,Damon ’s Wife,Triggers,Pandemic
2011-09-10T04:01:00Z,Greece Concern Outweighs Obama,as,Growth Plan
2011-09-10T04:01:00Z,Ohio State,Fires,Gymnastics Assistant Coach Paul Hamm
2011-09-10T04:01:00Z,U.S. Stocks,Drop as,Greece Concern Outweighs Obama ’s Growth Plan
2011-09-10T04:01:01Z,Government,Sentencing,Request
2011-09-10T04:01:01Z,Severe Government,Sentencing,Request
2011-09-10T04:01:01Z,Talks,With,Automakers
2011-09-10T10:07:04Z,Papandreou,Defends,Austerity
2011-09-11T03:57:04Z,Egypt,Declares Emergency,Israeli Embassy Hit
2011-09-12T21:08:36Z,Canadian Stocks,Fall as,Metals Retreat
2011-09-12T21:08:36Z,Stocks,Fall as,Financial Shares Slump
2011-09-16T09:19:10Z,Copper Stockpiles,in,3 Weeks
