2011-05-18T00:07:34Z,Inpex Shares,Rises,Most in Month
2011-05-18T00:12:26Z,Japanese Power Plants,Damaged by,Earthquake
2011-05-18T00:12:26Z,Power Plants,Damaged by,Earthquake
2011-05-18T00:17:27Z,Banks,Asked,FSA
2011-05-18T00:30:04Z,Consumer Confidence,in,Australia Falls
2011-05-18T00:44:51Z,30 Hotels,in,China
2011-05-18T00:59:03Z,Chinese Companies,Abandoning,U.S. Listings
2011-05-18T00:59:03Z,Companies,Abandoning,U.S. Listings
2011-05-18T01:15:27Z,Vodafone CEO Signals Interest,in,European Acquisitions
2011-05-18T01:33:11Z,Whitney,Says,State Finances Undermine Recovery
2011-05-18T02:04:31Z,Brazil Will Fight,in,IMF
2011-05-18T02:04:31Z,Meritocracy,for Fight,Mantega
2011-05-18T02:16:29Z,Blacks ’ Carter,Stays With,New Zealand Rugby
2011-05-18T02:16:29Z,Carter,Stays With,New Zealand Rugby
2011-05-18T02:50:37Z,Aussie,Weakens Versus New Zealand After,Wages Rise Less Expected
2011-05-18T03:00:01Z,Anbima Investment Fund Conference,in,Sao Paulo
2011-05-18T03:01:00Z,Stores,in,Brazil
2011-05-18T03:12:00Z,Solar Unit,Over,Profit
2011-05-18T03:33:37Z,Asian Stocks,Spur,Demand
2011-05-18T03:33:37Z,Rising Asian Stocks,Spur,Demand
2011-05-18T03:33:37Z,Rising Stocks,Spur,Demand
2011-05-18T03:33:37Z,Stocks,Spur,Demand
2011-05-18T03:35:11Z,Australia ’s Power Spending,Faces,Carbon Plan Test
2011-05-18T03:35:53Z,Funds,Buy,41.3 Million Rupees of Indian Derivatives
2011-05-18T03:35:53Z,Global Funds,Buy,41.3 Million Rupees of Indian Derivatives
2011-05-18T03:54:25Z,24 Free,Throws,Scores 48 Points as Dallas Beat Thunder
2011-05-18T04:00:01Z,Dollar Drop,Boosts,Buying
2011-05-18T04:00:01Z,Tourists,Splurge at,Mall
2011-05-18T04:01:00Z,Broody Danes,Perk Up,Quirky Met Show
2011-05-18T04:01:00Z,Cleveland Cavaliers,First Pick in,NBA Draft
2011-05-18T04:01:00Z,Delta Air ’s New York LaGuardia Swap,Makes,Vulnerable
2011-05-18T04:01:00Z,Home,Runs as,Yankees End Six-Game Losing Streak
2011-05-18T04:01:00Z,Mengele,From,Lab
2011-05-18T04:01:00Z,NBA,Fight,Withering of City
2011-05-18T04:01:00Z,Old Dominion Women ’s Basketball,Coach,Wendy Larry Resigns
2011-05-18T04:01:00Z,Pennsylvania,Would,Fund Colleges
2011-05-18T04:01:00Z,Roswell Martians Might,Have Been,Kids From Mengele ’s Lab
2011-05-18T04:01:00Z,Two Home,Runs as,Yankees End Six-Game Losing Streak
2011-05-18T04:01:01Z,Insurers,Entice,Older Buyers
2011-05-18T04:01:01Z,Strauss-Kahn Accuser,in,Sex Attack
2011-05-18T04:04:12Z,N.Z. Consumer Confidence Rises First Time,in,Four Months
2011-05-18T04:26:16Z,GrainCorp,Climbs,Most
2011-05-18T04:34:12Z,2015,Through Pacific,HSBC Will Co-Sponsor Hong Kong Sevens Rugby
2011-05-18T04:59:22Z,Lincoln Center ’s Reynold Levy,Awarded,27 %
2011-05-18T05:00:19Z,Hong Kong Short Selling Turnover,Recorded,05/18/2011
2011-05-18T05:09:19Z,18 % Stake,in,Angola Diamond Mine
2011-05-18T05:18:40Z,Kenyan Regulator,Says,Interest Rates
2011-05-18T05:18:40Z,Regulator,Says,Interest Rates
2011-05-18T05:39:36Z,Unipec,Extend,Halt
2011-05-18T05:48:42Z,Australian Dollar,Erases Gains After,Moody ’s Downgrades Four Biggest Banks
2011-05-18T05:48:42Z,Dollar,Erases,Gains
2011-05-18T05:48:42Z,Moody,After,Downgrades Four Biggest Banks
2011-05-18T06:06:00Z,Tanzanian Tea Output,Set to,Miss Estimate
2011-05-18T06:06:00Z,Tea Output,Set as,Drought Cuts Leaf Yields
2011-05-18T06:09:28Z,Afferro,Says,Cameroon Tests Show Potential
2011-05-18T06:18:57Z,Airport Arrivals,Rise in,First Four Months of 2011
2011-05-18T06:18:57Z,Greek Airport Arrivals,Rise in,First Four Months of 2011
2011-05-18T06:18:57Z,Greek Airport Arrivals Rise,in,First Four Months of 2011
2011-05-18T06:26:18Z,Burundi ’s Government,Raises Gasoline Price by,4 %
2011-05-18T06:31:38Z,Erdogan,Tells,U.S
2011-05-18T06:32:22Z,Straubhaar,Sees,Sueddeutsche
2011-05-18T06:33:57Z,Iberdrola,Says,Falling
2011-05-18T06:33:57Z,Suzlon Energy Turbine Blades,Were,One-Time Accident
2011-05-18T06:43:05Z,Madagascar,’s Rajoelina,TPA
2011-05-18T06:43:56Z,Japan,Using,Smart Grid Technologies Says
2011-05-18T06:44:21Z,200-Meter Events,in,Tough Ask
2011-05-18T06:44:21Z,Ian Thorpe,Targets,200-Meter Events in Ask
2011-05-18T07:00:39Z,Hungarian Wages,Dropped in,March
2011-05-18T07:00:39Z,Wages,Dropped in,March
2011-05-18T07:10:01Z,Refined Products,Are,Smuggled Out Daily
2011-05-18T07:10:01Z,Saudi Refined Products,Are,Smuggled Out Daily
2011-05-18T07:15:12Z,Discount,Narrows,4 %
2011-05-18T07:15:12Z,U.K. May,Buy,Credits
2011-05-18T07:23:05Z,Vietnam,Offers,4 Million Barrels of Bach Ho Oil
2011-05-18T07:28:16Z,Oil,Rises From,Three-Month Low
2011-05-18T07:29:49Z,Auto Sales,Fell by,Third April
2011-05-18T07:29:49Z,Egyptian Auto Sales,Fell by,Third April
2011-05-18T07:44:37Z,Poland ’s Treasury,Reducing,Rabobank Unit ’s IPO
2011-05-18T07:45:37Z,Debt Risk,Rises in,Europe
2011-05-18T07:45:37Z,Sovereign Debt Risk,Rises in,Europe
2011-05-18T07:49:29Z,Gas Field Maintenance,Schedule for,2011
2011-05-18T07:49:29Z,North Sea Oil,Schedule for,2011
2011-05-18T07:53:02Z,China ’s Stocks,Rise to,One-Week High
2011-05-18T07:57:25Z,IMF Greece Mission Head Thomsen,Says,Nation Needs
2011-05-18T08:10:20Z,First Spot,in,FIFA Top 100 World National Soccer Team Standings
2011-05-18T08:10:20Z,Spain,in,First Spot
2011-05-18T08:29:25Z,Standard Chartered Kenya,Climbs Day After,Profit Increases
2011-05-18T08:30:02Z,Drugmaker Abdi Ibrahim,in,Talks on Minority Stake Sale
2011-05-18T08:37:57Z,Asian Currencies,Strengthen on,Growth Outlook
2011-05-18T08:37:57Z,Currencies,Strengthen on,Growth Outlook
2011-05-18T08:37:57Z,Malaysia,by,Ringgit
2011-05-18T08:39:25Z,Infosys,Erases,Loss
2011-05-18T08:46:41Z,Exports,Drive,First-Quarter Economic Growth
2011-05-18T08:46:41Z,Spanish Exports,Offsetting,Austerity
2011-05-18T08:48:10Z,Gold,Drive,Rebound
2011-05-18T08:48:10Z,JPMorgan,Says,Oil
2011-05-18T08:55:05Z,High Teens,’ Profitability,Evolution
2011-05-18T08:56:25Z,Cofco Signs Agreement,With,Canadian Wheat Board
2011-05-18T08:56:46Z,Cities,Defy,Curbs
2011-05-18T08:56:46Z,Smaller Cities,Defy,Curbs
2011-05-18T08:56:49Z,PBOC,as,Zhou Prioritizes Inflation Fight
2011-05-18T08:58:21Z,Coal Prices,Rise,1 %
2011-05-18T08:58:21Z,European Coal Prices,Rise in,London
2011-05-18T08:58:21Z,European Coal Prices Rise,in,London
2011-05-18T08:58:32Z,BOE Panelists,Voted,6-3
2011-05-18T09:13:51Z,Driving,Up Shares in,Hong Kong
2011-05-18T09:13:51Z,Li Names Rockowitz Chief Executive,Driving,Up Shares in Hong Kong
2011-05-18T09:13:51Z,Up Shares,in,Hong Kong
2011-05-18T09:19:06Z,Euro,Climbs Against,Swiss Franc
2011-05-18T09:19:06Z,Higher Stocks,on Dollar,Swiss Franc
2011-05-18T09:26:01Z,Cameroon ’s Cocoa Exports,Increased by,8.2 %
2011-05-18T09:30:12Z,10-Year Security Yield,Is,Little Changed
2011-05-18T09:33:57Z,Grain Imports,Surge,25 %
2011-05-18T09:33:57Z,Italian Grain Imports,Surge,25 %
2011-05-18T09:41:53Z,Europeans,Prepare for,First 2013 Sales
2011-05-18T09:47:42Z,Kenya Commercial,Cutting,Top Executive Jobs
2011-05-18T09:56:08Z,ANC May,Lose,Election in Cape Town
2011-05-18T09:56:08Z,Cape Town,Coalitions in,Three Cities
2011-05-18T09:56:08Z,Election,in,Cape Town
2011-05-18T09:56:08Z,Form Coalitions,in,Three Cities
2011-05-18T09:56:26Z,Poland ’s Treasury,Gets Million in,IPO of BGZ
2011-05-18T09:58:13Z,Strauss-Kahn Lawyers Caution Television Broadcasters,Using,Handcuff Film
2011-05-18T10:02:06Z,Rupiah Gains,Add to,Debt Holdings
2011-05-18T10:03:50Z,Bahrain Consumer Prices,Declined in,April
2011-05-18T10:07:19Z,India Coal Watch,Says,May
2011-05-18T10:07:19Z,Valley,Says,May
2011-05-18T10:14:10Z,Government,Spending on,Homes
2011-05-18T10:14:10Z,Inflation,Slowing,Government Boosts
2011-05-18T10:14:10Z,Saudi Arabia,Sees,Inflation Slowing
2011-05-18T10:21:48Z,Port,Says,9.8 %
2011-05-18T10:30:45Z,Dubai Developer Damac,Seizing,Land
2011-05-18T10:30:45Z,Egypt,Sentencing,Chairman
2011-05-18T10:31:11Z,Ministry Auction,Draws,Record Demand
2011-05-18T10:35:12Z,Rwanda Introduce Measures,Encourage,Trade
2011-05-18T10:40:33Z,Alrosa May,Add,Angola Mining Projects
2011-05-18T10:46:25Z,Finserv,Bank of,India
2011-05-18T11:01:27Z,Fed Funds Projected,Open at,0.10 ICAP Says
2011-05-18T11:04:01Z,Kenya ’ sShilling,Weakens to,17 Year
2011-05-18T11:05:53Z,Asian Stocks,Increase on,Takeover Speculation
2011-05-18T11:05:53Z,Stocks,Increase on,Takeover Speculation
2011-05-18T11:07:13Z,Indian Stocks,Drop on,Rising Costs
2011-05-18T11:07:13Z,Stocks,Drop on,Growth Concern
2011-05-18T11:19:05Z,Finance Ministry,Chooses Advisers for,State Asset Sales
2011-05-18T11:19:05Z,Greek Finance Ministry,Chooses,Advisers
2011-05-18T11:20:21Z,Hydropower Reserves,Gained,More Than Week
2011-05-18T11:20:21Z,Nordic Hydropower Reserves,Gained,More Than Average Week
2011-05-18T11:26:36Z,Signs,Meshing,Kiosks
2011-05-18T11:26:36Z,United Continental,Starts,Signs
2011-05-18T11:26:51Z,Foreign Investors,Sell,2.42 Billion Rupees of Stocks
2011-05-18T11:32:43Z,Miliband,Urges Cameron Over,Rape Comments
2011-05-18T11:41:44Z,Target First-Quarter Profit,Rises,2.7 %
2011-05-18T11:43:15Z,United Nations Suspends Work,in,Drought-Hit Ethiopia Region
2011-05-18T11:53:27Z,European Stocks,Pare,Earlier Advance
2011-05-18T11:53:27Z,Stocks,Pare,Earlier Advance
2011-05-18T12:00:00Z,Amazon.com,Through,Web Services
2011-05-18T12:00:52Z,Airbus,Accelerates Single-Aisle Production on,Demand
2011-05-18T12:03:45Z,Nujira,Raises,Funds
2011-05-18T12:14:28Z,Hainan Airlines,Buys,Caijing Reports
2011-05-18T12:18:26Z,Sara Lee,in,Talks Buy
2011-05-18T12:20:44Z,Morocco,Sets,Soft-Wheat Reference Price
2011-05-18T12:29:28Z,Bullard,Says,Fed Likely
2011-05-18T12:29:54Z,U.S. Treasury Department,Schedule for,May 18
2011-05-18T12:31:31Z,Indian Rupee,Strengthens on,Yield Advantage
2011-05-18T12:31:31Z,Rupee,Strengthens on,Yield Advantage
2011-05-18T12:41:00Z,Strauss-Kahn ’s Alleged Victim,Gets,Feminists ’ Support
2011-05-18T12:41:00Z,Strauss-Kahn ’s Invisible Alleged Victim,Gets,Feminists ’ Support
2011-05-18T12:41:00Z,Strauss-Kahn ’s Invisible Victim,Gets,Feminists ’ Support
2011-05-18T12:41:00Z,Strauss-Kahn ’s Victim,Gets,Feminists ’ Support
2011-05-18T12:50:42Z,Finance Minister,in,New Harper Cabinet
2011-05-18T12:59:55Z,Euro Falls Versus Dollar,in,3 Days
2011-05-18T12:59:57Z,New Jersey-Bound Tube,Is,Closed
2011-05-18T13:02:33Z,Enel,Use of,UN Offsets
2011-05-18T13:04:20Z,U.S. Nuclear Production,Rises for,Day on Florida Gains
2011-05-18T13:04:20Z,U.S. Production,Rises for,Second Day
2011-05-18T13:06:09Z,Carbon Trade,Sales From,$ 7 Billion Reserve
2011-05-18T13:06:09Z,European Union Delays,Vote on,Sales From Billion Reserve
2011-05-18T13:11:10Z,Tanzania Police,Send Team to,African Barrick Mine
2011-05-18T13:14:52Z,TV,on,Most-Watched Network
2011-05-18T13:14:52Z,Three Dramas,Comedies on,TV ’s Most-Watched Network
2011-05-18T13:20:27Z,Hungary Bank Group,Says,Most of Cabinet Mortgage Plan Acceptable
2011-05-18T13:21:50Z,Bullard,Says,Fed Tightening
2011-05-18T13:33:29Z,U.K.,Loosening,Copyright Laws
2011-05-18T13:43:43Z,Putin,Likely to,Return
2011-05-18T13:51:15Z,U.S.,Proposes,Airbus A300
2011-05-18T13:55:38Z,Beijing Water,by,Li
2011-05-18T13:55:38Z,Wealth,Taken Over by,Beijing Water ’s Li
2011-05-18T14:03:55Z,Allstate Will,Buy Esurance in,Billion Deal
2011-05-18T14:03:55Z,Wilson,Adds,Online Sales
2011-05-18T14:06:27Z,$ 1.9 Billion,in,T-Bills
2011-05-18T14:07:00Z,Profit,Beats,Estimates
2011-05-18T14:07:00Z,Talaat Moustafa,Surges in,Cairo
2011-05-18T14:13:27Z,Credit Suisse,Appoints,Kazmi Head of Middle East Mergers
2011-05-18T14:17:26Z,Farmers,Increased,Production of Meat
2011-05-18T14:17:26Z,Russian Farmers,Increased,Production
2011-05-18T14:17:55Z,Natixis,Raises,Copper Forecasts
2011-05-18T14:28:53Z,Auto Accident,Is,Cleared
2011-05-18T14:29:02Z,Schroeder,Backs,SPD ’s Steinbrueck
2011-05-18T14:33:16Z,Governor Christie,Faces,Potential $ 2.3 Billion Bill
2011-05-18T14:33:34Z,Philip Roth,Wins,Man Booker International Prize
2011-05-18T14:34:47Z,May 13,for Report,Text
2011-05-18T14:45:08Z,Seychelles Citizens,in,Presidential Election Tomorrow
2011-05-18T14:46:52Z,Greek Restructuring,Rejected With,EU Politicians
2011-05-18T14:46:52Z,Restructuring,Rejected in,Clash
2011-05-18T14:48:12Z,Ethanol Output,in,U.S. Increases
2011-05-18T14:48:15Z,Benchmark 10-Year,Note Yield in,New York
2011-05-18T14:50:51Z,25 Power Plants,in,Iraq
2011-05-18T14:53:18Z,Energy Costs,Curb,Consumer Demand
2011-05-18T14:53:48Z,Inflation,Spurs,Union Demands
2011-05-18T14:53:48Z,Polish Wage Growth,Jumps to,High
2011-05-18T14:53:48Z,Wage Growth,Jumps to,16-Month High
2011-05-18T14:56:02Z,Estonia ’s Euro Entry,Raised,Prices
2011-05-18T15:01:04Z,Pfizer Alzheimer,of,Drug Trigger Ban Request
2011-05-18T15:02:17Z,Libyan Oil Exports,Tumbled,79 %
2011-05-18T15:02:17Z,Oil Exports,Tumbled,79 %
2011-05-18T15:02:32Z,Chile Peso,Rises as,Copper Price Gain Bolsters Trade Prospects
2011-05-18T15:05:23Z,Medvedev Rebukes BP,Dealmakers on,Shareholder Rights
2011-05-18T15:15:04Z,Boost,Sette ’s,ICO
2011-05-18T15:15:04Z,Coffee Output May,Get,ICO ’s Sette
2011-05-18T15:16:36Z,Da Mata Plans Second Ethanol Plant,in,Brazil
2011-05-18T15:16:50Z,German Defense Minister,Warns Against,Cuts
2011-05-18T15:21:18Z,Dollar Gains Show U.S. Stocks,Poised to,Fall
2011-05-18T15:22:57Z,Lehman Suit,Belongs in,Michigan Agency
2011-05-18T15:24:10Z,Kiwi,Rises on,Producer Prices
2011-05-18T15:26:33Z,Island Renewable Energy,Build,Wind Park
2011-05-18T15:26:33Z,Wind Park,in,Bulgaria
2011-05-18T15:27:16Z,Severstal,Snaps,3 Days
2011-05-18T15:28:36Z,Goldman Sachs,Adds to,Russian Focus List
2011-05-18T15:28:36Z,Rusal,Jumps,Goldman Sachs Adds to Russian Focus List
2011-05-18T15:30:06Z,Hungarian Shares,Snap,Five Days
2011-05-18T15:30:06Z,Shares,Snap,Five Days of Losses
2011-05-18T15:33:45Z,Indian Oil,Buy Crude for,July
2011-05-18T15:33:45Z,Oil,Buy,Crude
2011-05-18T15:34:57Z,Nonprofits,Seek Curbs on,Corporate Tax Breaks
2011-05-18T15:37:23Z,Hershey CEO West,Take Helm at,KKR ’s Del Monte Foods
2011-05-18T15:37:23Z,KKR,at,Del Monte Foods
2011-05-18T15:40:00Z,CFE,Keeps,2011 Revenue Forecast
2011-05-18T15:40:00Z,Order Book,Beats,Estimates
2011-05-18T15:47:43Z,U.K. Natural Gas,Rises,North Sea Fuel Platforms Plan Halts
2011-05-18T15:49:18Z,Land Securities,Leads,Property Stocks Higher With Biggest Rise
2011-05-18T15:57:24Z,Day,in,March
2011-05-18T16:01:00Z,Faster Inflation,Pose,Policy Challenge
2011-05-18T16:02:12Z,Hydro,in,Chile
2011-05-18T16:02:12Z,Suez Targets Gas,Hydro in,Chile
2011-05-18T16:06:36Z,Enea,Are,Active
2011-05-18T16:15:17Z,Rose 4.7 %,in,March
2011-05-18T16:16:22Z,Cancer-Drug Spending,Climb,42 Percent
2011-05-18T16:17:55Z,Bilbao Refinery Crude Unit,Restart,Week
2011-05-18T16:17:55Z,Repsol,Says,Bilbao Refinery Crude Unit
2011-05-18T16:19:04Z,TMX Group ’s Share,Rises,0.5 Percent
2011-05-18T16:21:22Z,Saudi Arabia Gasoline,Decline,43 %
2011-05-18T16:25:25Z,ICAP,Says Profit Rose as,Political Turmoil Fueled Volatility
2011-05-18T16:26:39Z,June,in Rise,Ikar
2011-05-18T16:26:39Z,Russian Sugar Imports May Rise,in,June
2011-05-18T16:29:19Z,16 %,in,2012
2011-05-18T16:29:19Z,Colombia,Says,16 %
2011-05-18T16:33:04Z,Chile Economy,Grows Most as,Nation Rebuilds
2011-05-18T16:39:16Z,About Takeover Talks,With,KKR
2011-05-18T16:39:16Z,Versatel,Rises,Takeover Talks With KKR
2011-05-18T16:43:49Z,Fed ’s Bullard,Sees Europe Debt Crisis as,Top Risk to U.S. Economic Outlook
2011-05-18T16:56:16Z,EU,Prepares,First Phase-3 Sales
2011-05-18T17:00:00Z,Species,’ Rates,Study
2011-05-18T17:00:51Z,Madoff Trustee Picard,Settles,Litigation Against Greenwich Sentry Funds
2011-05-18T17:01:41Z,Home Purchases,in,U.S.
2011-05-18T17:01:52Z,South Africa,Demands From,Europe
2011-05-18T17:02:52Z,Google,Rejects,Skyhook ’s Allegations
2011-05-18T17:06:41Z,Wheat,Threatened Across,Europe
2011-05-18T17:08:42Z,Great Confidence,in,Bank of Canada
2011-05-18T17:11:01Z,Norfolk Southern Follows MIT,With,$ 400 Million of 100-Year Bonds
2011-05-18T17:25:09Z,U.S.,Freezes,Assets of Syrian President
2011-05-18T17:40:47Z,GT Solar,Nears,Three-Year High
2011-05-18T17:41:51Z,Barry Bonds,’s Lawyers,U.S. Seek
2011-05-18T17:41:51Z,Time,Work on,Possible Retrial
2011-05-18T17:43:41Z,Morgan Stanley ’s Pay Practices,Lose,Shareholder Support
2011-05-18T17:45:46Z,Soitec,of,Concentrated Solar Power
2011-05-18T17:46:32Z,Gulf Gasoline,Weakens as,Mississippi Level Holding
2011-05-18T17:47:04Z,UBS Canada,Fires,Harris
2011-05-18T17:49:40Z,Dan Zwirn Seeks Comeback,With,Alda
2011-05-18T18:01:41Z,U.S.,Sign,Gulf Council Deal
2011-05-18T18:06:36Z,Ruling ANC,Faces,Backlash Over Services
2011-05-18T18:06:51Z,Consul General,Visited,IMF Chief Strauss-Kahn
2011-05-18T18:06:51Z,French Consul General,Visited IMF Chief Strauss-Kahn at,Precinct
2011-05-18T18:28:38Z,$ 500 Million,in,First Bond Offering
2011-05-18T18:28:38Z,Disney,Raises,Million
2011-05-18T18:32:21Z,U.S.,Defends,Health-Care Coverage Mandate
2011-05-18T18:37:23Z,530 Pence,Midpoint of,Range
2011-05-18T18:47:48Z,NHL Exposure,With,Canadiens
2011-05-18T18:54:24Z,Assaults,in,Damascus
2011-05-18T18:54:24Z,Syria,Intensifies Crackdown on,Protesters
2011-05-18T19:01:38Z,Lehman,Bank of,America Settlement Wins Court Approval
2011-05-18T19:09:55Z,Mexico Congress,Stop,Gasoline Price Hikes
2011-05-18T19:12:40Z,Wet Weather,Boosts,Corn
2011-05-18T19:19:18Z,Media,Is,Said to Talk
2011-05-18T19:19:18Z,Millennial Media,Is,Said With Banks
2011-05-18T19:19:18Z,Said,With,Banks
2011-05-18T19:27:54Z,Goffer,Impress,Rajaratnam
2011-05-18T19:27:54Z,Prosecutor,Tells,Jury
2011-05-18T19:28:22Z,Twitter,Gives,Users More Privacy Controls
2011-05-18T19:28:29Z,Natural Gas Futures Advance,in,New York
2011-05-18T19:33:12Z,1.5 %,in,April
2011-05-18T19:36:27Z,Fed,Favors,Exit Strategy
2011-05-18T19:38:36Z,Cap Gemini Eyes Energy,Markets to,Ride Urbanization
2011-05-18T19:43:28Z,Levin,Requiring,U.S. Banks
2011-05-18T19:43:28Z,U.S. Banks,Share Customer Data With,IRS
2011-05-18T19:45:36Z,Report,Shows,Drop
2011-05-18T19:54:39Z,Wheat Futures,Soar as,U.S. Planting Delays Threaten Yields
2011-05-18T20:05:47Z,IRS,Lacks,Adequate Control
2011-05-18T20:06:07Z,U.S. Offshore Oil,Blocked in,Senate
2011-05-18T20:07:05Z,General Mills,Acquire,Yoplait
2011-05-18T20:07:28Z,South Africa ’s Opposition Ahead,in,Early Municipal
2011-05-18T20:13:43Z,U.S. Consumer Bureau,Releases Simpler Mortgage Shopping Forms for,Tests
2011-05-18T20:14:01Z,Bullard,Says,Hold on Rates Until Year With Softer Data
2011-05-18T20:14:01Z,Fed,Hold Until,Year With Softer Data
2011-05-18T20:14:01Z,Late Year,With,Softer Data
2011-05-18T20:16:10Z,Zambia Regulator,Approve,Barrick Deal
2011-05-18T20:19:24Z,Colombia ’s Aval,Rises to,Acquire Stock
2011-05-18T20:21:14Z,Box In ’ Geico,Progressive With,Esurance
2011-05-18T20:21:14Z,In,’ Geico,Progressive With Esurance
2011-05-18T20:21:14Z,Progressive,With,Esurance
2011-05-18T20:25:10Z,Buzz Saw ’ Success,Cuts PC Sales at,HP
2011-05-18T20:25:18Z,Deere,Raises,Forecast Less Estimated
2011-05-18T20:27:05Z,Sudan ’s Army,Strikes Darfur in,Week
2011-05-18T20:31:54Z,New Jerseyans,With,Salary of $ 1 Million-Plus
2011-05-18T20:33:13Z,South Africa ’s Ruling ANC,Retakes,Lead in Early Vote Results
2011-05-18T20:36:54Z,Conconcreto,Rises on,Purchase
2011-05-18T20:37:07Z,Mumbai Attack Plot Jury Chosen,in,Terror Trial of Chicago Businessman Rana
2011-05-18T20:39:16Z,Braga 1-0,in,All-Portuguese Europa League Soccer Final
2011-05-18T20:39:16Z,Porto,Defeats,Braga 1-0 in All-Portuguese Europa League Soccer Final
2011-05-18T20:44:16Z,U.S. Senator,’s Query,Google
2011-05-18T20:51:55Z,New Jersey Residents,Get,Him
2011-05-18T20:54:30Z,Harper,Keeps,Flaherty
2011-05-18T21:02:49Z,Dollar,Weakens,Versus Currencies of Commodity Exporters
2011-05-18T21:04:55Z,GE ’s Immelt,Sees,2011 Accelerating Into 2012
2011-05-18T21:08:27Z,Crude Advances,in,Inventories
2011-05-18T21:21:13Z,Canada ’s Dollar,Erases,Gains
2011-05-18T21:21:13Z,Losses,Gains for,Day
2011-05-18T21:22:56Z,SEC,Revamp Credit-Rating Practices Under,Dodd-Frank
2011-05-18T21:26:24Z,Dollar Thrifty,Adopts,Investor Rights Plan
2011-05-18T21:30:41Z,Vestas Wind Systems,Wins U.S. Order for,111 Turbines
2011-05-18T21:39:26Z,Emerging Stocks,Climb,Commodities
2011-05-18T21:39:26Z,Stocks,Climb Commodities on,Earnings Outlook
2011-05-18T21:45:01Z,Glaxo ’s Diabetes Drug Avandia,Pulled From,U.S. Pharmacies
2011-05-18T22:00:00Z,Exelixis Pill,Slows,Tumors
2011-05-18T22:00:00Z,Japan,of Watami,Nikkei
2011-05-18T22:00:00Z,Remission,in,Ovarian Cancer
2011-05-18T22:00:00Z,Synta ’s Cancer Drug May,Help,Patients
2011-05-18T22:00:07Z,Prostitutes,Attended,Rewards Party
2011-05-18T22:03:19Z,Republican Senators,Seek Answers on,IRS Gift Tax Enforcement
2011-05-18T22:03:19Z,Senators,Seek,Answers
2011-05-18T22:12:44Z,Commodities Advance,May Eat,Into Supplies
2011-05-18T22:12:44Z,Inventories,May Eat,Into Supplies
2011-05-18T22:12:44Z,Reduced Inventories,May Eat,Into Supplies
2011-05-18T22:25:45Z,Medicine Prices,in,Ecuador
2011-05-18T22:27:54Z,Experimental Pfizer Drug,Slows Kidney Cancer in,Large Trial
2011-05-18T22:27:54Z,Pfizer Drug,Slows,Kidney Cancer
2011-05-18T22:30:00Z,China ’s AIDS Fight,Misses,Drug Users
2011-05-18T22:35:35Z,Kentucky Derby Champion Animal Kingdom,Is Made,Preakness Stakes Favorite
2011-05-18T22:37:46Z,Facebook,Tell,Senate
2011-05-18T22:37:46Z,It,Has,Robust Privacy Protections
2011-05-18T22:38:51Z,Severe Liquidity Constraints,in,Coming Months
2011-05-18T22:47:27Z,Strauss-Kahn,Faces,Exit Call
2011-05-18T23:00:01Z,BP Spill Response,Slammed in,Cannes
2011-05-18T23:00:28Z,Kukral,to,Northwood
2011-05-18T23:01:00Z,Economic Concerns,Spending,Plans
2011-05-18T23:01:00Z,Ireland,Had,Troubled Past
2011-05-18T23:01:00Z,Longtop Short-Sellers Show Mistrust,Hurts,China IPO Market
2011-05-18T23:01:00Z,Short-Sellers Show Mistrust,Hurts,China IPO Market
2011-05-18T23:01:00Z,U.K.,Had,Troubled Past
2011-05-18T23:07:58Z,FT,Says to,Monitor Bank Bonuses
2011-05-18T23:11:17Z,Falcao Lifts Porto,Win Over,Portuguese Rival Braga
2011-05-18T23:12:24Z,Roche Drug Tandem,Extends,Life of Lung-Cancer Patients
2011-05-18T23:16:58Z,Johnson,Warn,Parents About Motrin Risks
2011-05-18T23:22:42Z,James Hardie Profit,Rises on,Dividends
2011-05-18T23:49:35Z,Worcester Warriors Seal English Premiership Rugby Return,Relegating,Leeds
2011-05-18T23:59:10Z,Legislation,Granting,Amnesty
2011-05-18T23:59:10Z,Nigerien Parliament,Adopts,Legislation
2011-05-19T00:53:55Z,Islam,Leaves,Highbridge
2011-05-19T02:06:37Z,Kodak,Climbs After,Favorable Patent Dispute Recommendations
2011-05-19T03:00:57Z,Manhattan Prosecutor,Quits,Strauss-Kahn Case Due to Conflict of Interest
2011-05-19T03:00:57Z,Strauss-Kahn Case,Due to,Conflict of Interest
2011-05-19T04:01:00Z,Death,Be Predicted With,Tests
2011-05-19T04:01:01Z,Unabomber Kaczynski ’s Anti-Tech Manifesto,Is for,Sale Online
2011-05-19T06:48:04Z,One-Week High,in,New York
2011-05-19T08:06:38Z,Kiwi,Rises on,Projected Budget
2011-05-19T08:11:25Z,South Africa ’s Ruling ANC,Leads in,Results From Municipal Election
2011-05-19T10:02:02Z,Baidu,Sued in,New York Court
2011-05-19T10:44:25Z,Asian Stocks,Fall as,Samsung Retreats
2011-05-19T10:44:25Z,Japan,’s Contracts,Samsung Retreats
2011-05-19T10:44:25Z,Stocks,Fall as,Samsung Retreats
2011-05-19T14:13:22Z,Goldman,Lowers Dollar Forecasts Versus Euro on,Weak U.S. Growth Prospects
2011-05-19T15:26:22Z,Citigroup,Meets,Estimates
2011-05-19T15:26:22Z,Pandit May,Get,$ 42 Million Retention Award
2011-05-19T15:44:18Z,N.Z. Dollar,Strengthens as,Budget Projects Return
2011-05-19T17:19:36Z,Biggest Merger Profit Seen,in,Demag
2011-05-19T19:58:46Z,Ex-Diamondback Capital Manager Guilty,in,Galleon-Linked Case
2011-05-19T20:24:49Z,Hershey Interim CEO May,Get Job,Outsiders Balk
2011-05-19T21:32:00Z,California,Reserves for,Tobacco Bonds
2011-05-20T20:58:37Z,LinkedIn,Retains Gains Second Day,Surging in Offering
2011-05-25T10:28:22Z,Diageo,Is,Said
