2011-08-18T00:00:00Z,Israel ’s Protests Show,Need to,Mix Growth
2011-08-18T00:00:49Z,Rick Perry Too European,Be,U.S. President
2011-08-18T00:04:44Z,Case,Is,Good
2011-08-18T00:04:44Z,Health-Care Case,Is Moment for,Judicial Restraint
2011-08-18T00:06:29Z,Messi Double Lifts Barcelona,Win Over,Madrid
2011-08-18T00:06:29Z,Messi Lifts Barcelona,Win Over,Madrid
2011-08-18T00:34:59Z,LG,Display Shares Decline After,Shinhan Cuts Price Estimate
2011-08-18T01:27:26Z,Data,Before Dollar,Yen Gain Versus Euro as Shares Slide
2011-08-18T01:27:26Z,Dollar,Euro as,Shares Slide
2011-08-18T02:00:44Z,China Shipping ’s Li,Sees,Tanker Rates
2011-08-18T02:15:03Z,Honam,Buys Naphtha for,September Delivery at Premium
2011-08-18T02:22:11Z,Morgan Stanley,Forecasts for,China Growth
2011-08-18T02:26:17Z,Ringgit,Weakens,Slowdown Signals End to Policy Tightening
2011-08-18T02:26:17Z,Slowdown Signals,End to,Policy Tightening
2011-08-18T02:39:04Z,AOL,Discounted,Gets
2011-08-18T02:39:04Z,Best Hope,in,Private Equity
2011-08-18T02:54:18Z,Horwill,Replaces Elsom as,Wallabies Captain for World Cup
2011-08-18T02:56:37Z,Tepco,Says,Fukushima Plants
2011-08-18T02:57:46Z,Data,Before Bets,Jobless Claims
2011-08-18T02:57:46Z,Inflation Drop,on Bets,Jobless Claims
2011-08-18T03:01:17Z,Cedar Holdings,Says Sold,7.9 % Stake
2011-08-18T03:04:28Z,Shikoku Electric,Halts,Sakaide No. 1 Thermal Unit
2011-08-18T03:36:40Z,Lenovo Chief Yuanqing,Buy,Company Stock
2011-08-18T03:44:37Z,Woodside,Remain,Shareholder Amid Takeover Talk
2011-08-18T03:55:40Z,Kenyan Port Traffic,Declined by,0.5 %
2011-08-18T03:55:40Z,Port Traffic,Declined in,First Half
2011-08-18T04:00:00Z,Stocks,May Continue Slump After,S&P 500 Drops
2011-08-18T04:00:15Z,Biggest Stock Traders,in,SEC
2011-08-18T04:00:15Z,Cloak,Comes Off,Stock Traders
2011-08-18T04:00:33Z,Consumer Prices,in,U.S.
2011-08-18T04:01:00Z,Call,in,Sick
2011-08-18T04:01:00Z,Chile May,Keep,Rate
2011-08-18T04:01:00Z,Fees,Hit,Students
2011-08-18T04:01:00Z,Five Runs,Hits in,Latest Rehabilitation Outing
2011-08-18T04:01:00Z,Four Hits,in,Latest Rehabilitation Outing
2011-08-18T04:01:00Z,Los Angeles Firefighter,in,City Council Contest
2011-08-18T04:01:00Z,Nation,Among,Top-Paid
2011-08-18T04:01:00Z,New IPO,Has,Jive Rivaling Salesforce.com
2011-08-18T04:01:00Z,Not-for-Profit College Board,Getting,Rich
2011-08-18T04:01:00Z,Reagan-Gorbachev Winery,Improves,Taste
2011-08-18T04:01:00Z,Strasburg,Gives,Four Hits in Rehabilitation Outing
2011-08-18T04:01:11Z,Business Taxes,May Follow,Treasury ’s Definition
2011-08-18T04:01:11Z,Higher Business Taxes,May Follow,Treasury ’s Definition
2011-08-18T04:45:45Z,Dagestan Police,Kill,Six Gunmen
2011-08-18T05:00:00Z,Gold Investment Demand,in,China
2011-08-18T05:00:20Z,Hong Kong Short Selling Turnover,Recorded,08/18/2011
2011-08-18T05:05:26Z,Bonded Copper Stockpiles Rebound,in,China
2011-08-18T05:15:16Z,Private Money,in,Infrastructure
2011-08-18T05:21:58Z,Exxaro,Says,Richards Bay Export Capacity Limited
2011-08-18T05:23:07Z,Country,in,Region
2011-08-18T05:23:07Z,Iran Plans Military Drill,With,Country in Region
2011-08-18T05:29:48Z,U.S.,Writes in,FT
2011-08-18T05:37:19Z,Barclays,Sees Competition From,China
2011-08-18T05:41:20Z,Kaizer Chiefs Make World Cup,’s Home,Business Day
2011-08-18T05:44:26Z,China ’s ETF Plan,Boosts Hong Kong Financials Amid,Drop
2011-08-18T05:52:32Z,China Stocks,Hit By,Economic Growth Concerns
2011-08-18T05:52:51Z,Franc,Weakens,Euro
2011-08-18T05:52:51Z,Swiss Franc,Weakens,Versus Dollar
2011-08-18T05:59:11Z,Unicaja Merger Talks,Become,Tense
2011-08-18T06:04:57Z,Holcim May,Be,Active
2011-08-18T06:05:50Z,Swire Pacific,Proposes,Dividend
2011-08-18T06:05:51Z,Chance,in,Tri-Nations
2011-08-18T06:05:51Z,Get,Chance to,Press World Cup Claims
2011-08-18T06:06:50Z,Marchionne Maserati,Made in,Michigan
2011-08-18T06:12:12Z,Costs,Continue Than,Inflation
2011-08-18T06:12:17Z,Japan Bonds Gain,Send on,Strong Yen
2011-08-18T06:23:53Z,10 Years,in,Scotland
2011-08-18T06:26:06Z,Lenovo Group Net Income,Rises on,Office Computer
2011-08-18T06:36:35Z,Taiwan ’s Cabinet,Proposes,2012 Budget Gap of NT$ 210 Billion
2011-08-18T07:01:57Z,Japanese Stocks,Drop on,Yen ’s Gain
2011-08-18T07:01:57Z,Stocks,Drop on,Lower Economic Forecasts
2011-08-18T07:01:57Z,Yen,on,Gain
2011-08-18T07:13:58Z,Bunds Rise,Pushing,Yield Down
2011-08-18T07:16:40Z,Morgan Stanley,Says,Growth Slows
2011-08-18T07:33:01Z,Increase,in,World Bank Loan
2011-08-18T07:33:01Z,Jordan May,Get,Increase
2011-08-18T07:46:33Z,Brent Crude ’s Premium,Widens,Third Day
2011-08-18T07:48:56Z,AngloGold Ashanti,Says,Worker Killed in Accident
2011-08-18T07:48:56Z,Worker Killed,in,Accident
2011-08-18T07:56:47Z,Coal Prices,Decline,0.3 %
2011-08-18T07:56:47Z,European Coal Prices,Decline,0.3 %
2011-08-18T07:57:07Z,Korean Won,Weakens as,Banks Lower Asia Economic Growth Forecasts
2011-08-18T08:16:48Z,Rubber,Recovers,Losses
2011-08-18T08:24:20Z,Boost Sorghum Output,to Plans,Guardian
2011-08-18T08:29:23Z,Police Arrest Seven,in,Madrid Clashes Ahead of Pope ’s Visit
2011-08-18T08:29:23Z,Pope,of,Visit
2011-08-18T08:41:42Z,Hong Kong Jobless Rate Falls,in,Four Months
2011-08-18T08:47:43Z,China Curbs Halt Gains,in,Beijing
2011-08-18T08:47:43Z,First Time,in,2011
2011-08-18T08:48:59Z,Hong Kong Stocks,Decline on,U.S. Stimulus Concern
2011-08-18T08:59:02Z,Discount Rate,is Raised,Fourth Session
2011-08-18T08:59:31Z,NIC Bank,Surges,34 %
2011-08-18T09:02:09Z,Rally,in,Two Months
2011-08-18T09:10:33Z,Morgan Stanley Names Reza,in,Asia
2011-08-18T09:15:44Z,Financial Shares May,Be,Active
2011-08-18T09:17:56Z,Morgan Stanley Cuts Global Growth Forecast,With,U.S. Close
2011-08-18T09:19:53Z,Youku Shares Gain,be in,Talks to Purchase Stake
2011-08-18T09:24:00Z,Kazakhstan ’s BTA Bank Loss,Narrows,41 %
2011-08-18T09:24:17Z,China Mobile Profit,Rises,7 %
2011-08-18T09:28:51Z,Ghana,Lost,2.7 Billion Cedis
2011-08-18T09:29:46Z,China Money Rate,Climbs,Most
2011-08-18T09:31:13Z,Polish Zloty Drops,Reverses,Gains
2011-08-18T09:31:13Z,Zloty Drops,Reverses,Gains
2011-08-18T09:36:03Z,Lufthansa,Sale of,Manager Magazin
2011-08-18T09:43:45Z,Appointments,in,Swiss Private Banking
2011-08-18T09:43:45Z,Credit Suisse,Makes,Appointments
2011-08-18T09:47:48Z,Hyundai Oilbank,Loses,Appeal
2011-08-18T10:01:13Z,Mauritius Rupee,Retreats as,EU Debt Concern Curbs Risk Appetite
2011-08-18T10:06:14Z,Hong Kong Exchanges,in,Talks for Venture With Shanghai
2011-08-18T10:06:14Z,Talks,in Exchanges,Shenzhen Bourses
2011-08-18T10:06:14Z,Venture,With,Shanghai
2011-08-18T10:14:34Z,Ukraine ’s Astarta,Gets Million Loan for,Expansion
2011-08-18T10:15:34Z,Committed Fraud,in,South Africa Mining License Application
2011-08-18T10:15:34Z,It,Fraud in,South Africa Mining License Application
2011-08-18T10:29:48Z,Uganda Shilling,Climbs for,Day
2011-08-18T10:35:12Z,$ 500 Million Investment,in,Tanzania Food Production
2011-08-18T10:38:10Z,Fed Funds Projected,Open,ICAP Says
2011-08-18T10:58:49Z,Foreign Funds,Sell,Net 4.08 Billion Rupees
2011-08-18T10:58:49Z,Funds,Sell,Net 4.08 Billion Rupees of Equities
2011-08-18T11:00:00Z,McClellan,Says,Avoid Stocks Until October
2011-08-18T11:07:24Z,Lipitor Generic Rights May,Be,Sold
2011-08-18T11:07:24Z,Ranbaxy ’s Approval,Come,Too Late
2011-08-18T11:08:53Z,Basescu,Sees,Revival of Romanian Mine Project
2011-08-18T11:15:34Z,Tanzania Shilling,Rises for,First Day
2011-08-18T11:23:35Z,SPI Solar,Wins Projects With,LDK
2011-08-18T11:24:12Z,Equity Market,Rebound in,Half
2011-08-18T11:24:12Z,Kenya ’s Biggest Investor,Expects,Equity Market
2011-08-18T11:24:12Z,Kenya ’s Investor,Expects,Equity Market
2011-08-18T11:34:13Z,Binh,Tells,Kinh Te Saigon
2011-08-18T11:37:25Z,EU CO2,Call Option at,17-Euro Strike Triples
2011-08-18T11:45:27Z,Crude Oil Falls,in,New York
2011-08-18T11:47:37Z,Sunborne,Gets,1.4 Billion-Rupee Loan
2011-08-18T11:49:03Z,Homebuilder Bond Slump Means,Buy on,Calderon Bet
2011-08-18T11:59:41Z,BofA,TCW in,Court News
2011-08-18T11:59:41Z,TCW,in,Court News
2011-08-18T12:01:48Z,China,Gives,$ 15.7 Million
2011-08-18T12:05:01Z,Stocks,Fall on,U.S. Growth Concern
2011-08-18T12:13:26Z,BOE,’S,Haldane
2011-08-18T12:13:57Z,AccessKenya,Agrees to,Fiber-Optic Deal
2011-08-18T12:13:57Z,Calls,With,Bharti Airtel Unit
2011-08-18T12:21:23Z,Crude,Rises on,Speculation of Demand in China
2011-08-18T12:21:23Z,Higher Demand,in,China
2011-08-18T12:21:23Z,Mideast Crude,Rises on,Speculation of Demand
2011-08-18T12:24:15Z,Mass Graves Discovered,in,Sudan ’s Southern Kordofan State
2011-08-18T12:24:15Z,Sudan,in,Southern Kordofan State
2011-08-18T12:25:57Z,Air Berlin CEO Hunold,Cutting,Routes
2011-08-18T12:26:02Z,Chelsea Goalkeeper Petr Cech,Is,Ruled
2011-08-18T12:30:06Z,Travel,in,June
2011-08-18T12:33:36Z,Dollar,Stays,Versus Most Peers
2011-08-18T12:33:36Z,Rise,in,Inflation
2011-08-18T12:34:30Z,Stay,Higher as,Jobless Claims Rise
2011-08-18T12:41:26Z,Greece Rise,in,First Half of Year
2011-08-18T12:41:26Z,Tourist Visits,Spending in,Greece Rise
2011-08-18T12:43:15Z,Jobless Claims,in,U.S. Top Forecast
2011-08-18T12:57:36Z,Funds,in,July
2011-08-18T13:00:00Z,New Zealand ’s Housing Recovery Will,Be,Slow
2011-08-18T13:00:16Z,Abu Kir,Climbs to,Highest
2011-08-18T13:07:12Z,Soy,Called on,Sagging Global Economy
2011-08-18T13:08:56Z,Xperia Owners,Paying for,Games
2011-08-18T13:23:57Z,Croatia,Option on,Price Caps
2011-08-18T13:25:37Z,Activision,Says Out of,Whack
2011-08-18T13:25:37Z,Social Game Company Valuations,Says Out of,Whack
2011-08-18T13:30:03Z,Dudley,Says,Fed Always Scrutinizing Foreign
2011-08-18T13:38:05Z,Investors,Pare,South Africa Price-Increase Bets
2011-08-18T13:41:38Z,Slovaks,Follow Demands as,Austria
2011-08-18T13:45:00Z,Consumer Confidence,in,Economy Lowest
2011-08-18T13:45:00Z,Recession,in,Bloomberg Index
2011-08-18T13:59:27Z,Wind,Beats,Gas
2011-08-18T14:09:28Z,Franc,Strengthens Against,Dollar
2011-08-18T14:12:32Z,10-Year Government Bund Yield Falls,Since at,Least 1989
2011-08-18T14:12:32Z,German 10-Year Government Bund Yield Falls,Since at,Least 1989
2011-08-18T14:12:32Z,German Government Bund Yield Falls,Since at,Least 1989
2011-08-18T14:12:32Z,Government Bund Yield Falls,Since at,Least 1989
2011-08-18T14:13:58Z,Supply Fuel,to Russia,Rebuild Power Grids
2011-08-18T14:35:55Z,U.S. Treasury Department,Schedule for,Thursday
2011-08-18T14:36:53Z,Philadelphia-Area Factory Index Falls,Lowest Since,March of 2009
2011-08-18T14:36:57Z,Wall Street Sweats Stress,in,Bikram Yoga
2011-08-18T14:38:02Z,U.S. Home Sales,Decline to,4.67 Million Rate
2011-08-18T14:39:47Z,Political Reform,Preparing for,Vote
2011-08-18T14:39:47Z,SADC,Says on,Political Reform
2011-08-18T14:41:16Z,Decline First Time,in,Nine Days
2011-08-18T14:41:16Z,Gains,Time in,Nine Days
2011-08-18T14:41:16Z,Hungary ’s Bonds,Erase,Gains
2011-08-18T14:41:45Z,Old 3-Year,Note at,Lowest Rate
2011-08-18T14:48:37Z,Davis Polk Firm,Hires,Former Federal Trade Commission Economist Shelanski
2011-08-18T14:52:07Z,Rousseff,Loses Brazil Minister as,Corruption Reports Topple Rossi
2011-08-18T14:59:16Z,Polyus Gold International Increases Stake,in,Russian Unit
2011-08-18T15:00:03Z,NFL,Allows,Pryor Into Special Draft
2011-08-18T15:00:55Z,Iraq,’,Soft Line on Syria Snubs Obama Policy in Nod to Iran
2011-08-18T15:00:55Z,Iraq ’s Soft Line,in,Nod to Iran
2011-08-18T15:01:00Z,Clean Energy Bill Cutting Japan Nuclear Needs,Paves,Way
2011-08-18T15:01:00Z,Clean Energy Bill Japan Nuclear Needs,Paves,Way for Kan Departure
2011-08-18T15:01:00Z,Energy Bill Cutting Japan Nuclear Needs,Paves,Way for Kan Departure
2011-08-18T15:01:00Z,Energy Bill Japan Nuclear Needs,Paves,Way
2011-08-18T15:01:55Z,Syria,Kills,25
2011-08-18T15:01:55Z,UN Officials,Consider,Legality of Crackdown
2011-08-18T15:04:22Z,Czech Shares Drop,in,Most Week on Global Slowdown
2011-08-18T15:05:45Z,Industry,Adding to,Growth Woes
2011-08-18T15:05:45Z,Polish Industry,Adding to,Growth Woes
2011-08-18T15:06:28Z,Fed ’s Dudley,Sees,Quite Low Recession Risk
2011-08-18T15:07:08Z,2-Year Yields,Turn,Negative 10-Year Yield
2011-08-18T15:07:08Z,Swiss 2-Year Yields,Turn Yield Down,Most
2011-08-18T15:07:08Z,Swiss Yields,Turn Yield Down,Most
2011-08-18T15:07:08Z,Yields,Turn,10-Year Yield
2011-08-18T15:10:16Z,Sovereign Credit Risk,Surges on,Economy
2011-08-18T15:18:12Z,ILFC,Sway Bond Market as,Standalone
2011-08-18T15:21:33Z,India ’s ONGC,Sell,Naphtha
2011-08-18T15:21:40Z,Schaeuble,Expand,EFSF
2011-08-18T15:22:45Z,Korea ’s Russian Gas Imports May Compete,With,LNG
2011-08-18T15:28:12Z,JA Solar,Leads,Renewable Energy Stocks Lower
2011-08-18T15:28:12Z,Renewable Energy Stocks,Lower on,Profit Miss
2011-08-18T15:28:54Z,Bidvest,Spurns,Plans Acquisitions Grow
2011-08-18T15:30:34Z,Oracle ’s Ellison,Says,America ’s Cup Rules Will Cut Costs
2011-08-18T15:30:49Z,Rand,Snaps,Bonds Soar
2011-08-18T15:30:49Z,Six-Day Rally Versus Dollar,Soar on,Global Growth Concern
2011-08-18T15:34:53Z,Micex,Has,Technical Halt
2011-08-18T15:38:18Z,Ruble,Depreciates,Most
2011-08-18T15:38:18Z,Russian Ruble,Depreciates,Most
2011-08-18T15:41:00Z,EBRD,Help,Russia Raise Capital
2011-08-18T15:43:29Z,Europe,in,Oil-Trading Hub
2011-08-18T15:43:29Z,Gasoil Stockpiles Rise,in,Europe ’s Oil-Trading Hub
2011-08-18T15:43:59Z,Cineworld,Says,First-Half Net Income Falls
2011-08-18T15:44:39Z,Hungarian Stocks,Decline on,Banks
2011-08-18T15:44:57Z,Turkish Shares Fall,in,6
2011-08-18T15:48:29Z,Spain,Can Survive,Euro Zone ’s Fiscal Crisis
2011-08-18T15:54:11Z,Economy,Is Slowing on,Signs
2011-08-18T15:54:11Z,Franc,Reversing,Decline
2011-08-18T15:54:11Z,Global Economy,Is Slowing on,Signs
2011-08-18T15:59:05Z,Moscow,of,Ex-CEO Claims
2011-08-18T16:00:01Z,Biden,Meets,China ’s Xi
2011-08-18T16:00:18Z,Dexia,Leads,Plunge
2011-08-18T16:00:18Z,Plunge,in,European Banking Shares
2011-08-18T16:00:29Z,Mortgage Rates,in,More Than 50 Years
2011-08-18T16:02:54Z,Exxaro Resources Profit,Climbs,33 %
2011-08-18T16:05:06Z,European Stocks,Sink,Most
2011-08-18T16:05:06Z,Stocks,Sink,Most Amid Concern
2011-08-18T16:09:23Z,BP,Investigate,Gulf Sheen
2011-08-18T16:10:49Z,African Stocks,Measure Declines to,One-Week Low
2011-08-18T16:10:49Z,South African Stocks,Measure Declines to,One-Week Low
2011-08-18T16:10:49Z,Stocks,Measure Declines to,One-Week Low
2011-08-18T16:12:25Z,Futures,in,Two Seconds
2011-08-18T16:12:25Z,Germany,on,Benchmark DAX Index Tumble 100 Points
2011-08-18T16:12:47Z,7-Week High Next Month,to Cedi,Standard
2011-08-18T16:12:47Z,Gain,to Cedi,Standard
2011-08-18T16:15:55Z,First,in,North America
2011-08-18T16:15:55Z,HGH,First in,North America
2011-08-18T16:16:53Z,Allies,Leave,Office Amid Deadly Crackdown
2011-08-18T16:16:53Z,Obama,Call On,Assad
2011-08-18T16:20:37Z,Anglo,Approve,$ 1.3 Billion Coal-Mine Expansion
2011-08-18T16:22:27Z,Poland ’s Benchmark Index,Tumbles,Most
2011-08-18T16:24:45Z,Sinosteel Price-Fixing Case,Revived by,U.S. Appeals Court
2011-08-18T16:26:12Z,Nigeria,Patrols for,Pirates
2011-08-18T16:27:57Z,Libya Rebels Battle,Push Off,Tripoli Road
2011-08-18T16:34:51Z,Chinese Squad,in,Beijing Exhibition
2011-08-18T16:34:51Z,Georgetown Basketball Team Brawls,With,Chinese Squad in Beijing Exhibition
2011-08-18T16:50:58Z,Brazil Central Bank,Assess,Impact of Global Growth Crisis
2011-08-18T16:50:58Z,Tombini,Says,Brazil Central Bank
2011-08-18T16:54:28Z,England,Makes,75-0 Against India
2011-08-18T16:55:12Z,0.5 %,Leading,Economic Indicators Index
2011-08-18T16:55:12Z,Economic Indicators Index,in,U.S.
2011-08-18T16:55:27Z,Icahn,Name,Tropicana
2011-08-18T16:57:30Z,Bank,Buys,Million
2011-08-18T17:25:29Z,Bloomberg Link,Convenes,Global Inflation Conference
2011-08-18T17:36:16Z,U.S.,Open,Tennis Wild-Card Spots
2011-08-18T17:41:56Z,London Police Arrest 13th Person,in,News Corp
2011-08-18T17:53:07Z,Connecticut State Workers Ratify Agreement Averting Job Cuts,Avoid,War
2011-08-18T17:53:29Z,Flour Mills,in,2012
2011-08-18T17:53:29Z,Nigeria,of,Sugar Refinery
2011-08-18T18:28:35Z,Nigerian Navy Arrests Vessel,in,Delta
2011-08-18T18:30:01Z,China,at,Behest
2011-08-18T18:30:01Z,Tibetan Exile Leader,Says,Nepal Curbs Refugees
2011-08-18T18:31:00Z,India ’s RBI Panel,Differed Over,Minutes Show
2011-08-18T18:31:46Z,Gold,Record as,Equities Tumble
2011-08-18T18:34:28Z,Japan-Style Slump,in,U.S.
2011-08-18T18:37:33Z,Fracking Rules,Considered for,Federal Lands
2011-08-18T18:37:33Z,Natural-Gas Fracking Rules,Considered by,U.S.
2011-08-18T18:37:33Z,Natural-Gas Rules,Considered for,Federal Lands
2011-08-18T18:37:33Z,Rules,Considered for,Federal Lands
2011-08-18T18:40:14Z,Oil Sheen,in,Gulf of Mexico Probed
2011-08-18T18:46:33Z,U.S.,Offers in,Aid for North Korea Flooding
2011-08-18T18:50:11Z,Gunmen,Kill,Seven
2011-08-18T18:53:10Z,Oklahoma ’s Fallin,Weighs,Possible Effects of U.S. Defense
2011-08-18T19:06:40Z,Record Third Straight,Win at,Chicago Marathon
2011-08-18T19:14:15Z,Exxon,Sues,U.S. Interior Department Over Canceled Gulf of Mexico
2011-08-18T19:21:53Z,Teva,Faces,Second Trial Over Hepatitis Cases Linked to Drug
2011-08-18T19:33:20Z,Jobs,in,Oregon
2011-08-18T19:33:20Z,White House Council,Sets,Meetings on Jobs
2011-08-18T19:36:05Z,U.S. Sales,Get,Canceled
2011-08-18T20:00:00Z,$ 2.15 Billion,in,Government Capital
2011-08-18T20:04:46Z,White House,Asks Agencies for,Budget Cuts
2011-08-18T20:04:50Z,Ethanol,Slumps on,Concern Economy
2011-08-18T20:09:55Z,Forest,Wins,Board Battle Against Icahn
2011-08-18T20:10:50Z,MetLife,Leads,Variable-Annuity Sales
2011-08-18T20:13:25Z,Ivory Coast Charges Former Ruler Gbagbo,With,Embezzlement
2011-08-18T20:13:26Z,Copper Declines,After Falls,U.S. Outlook
2011-08-18T20:13:26Z,Peru,’s Falls,U.S. Outlook
2011-08-18T20:15:58Z,Crude Oil Volatility,Rises as,Futures Fall on Growth Concerns
2011-08-18T20:15:58Z,Oil Volatility,Rises as,Futures Fall on Growth Concerns
2011-08-18T20:17:40Z,New York Spot Gasoline Falls,Switch to,Winter-Grade Fuel
2011-08-18T20:20:04Z,Auditors,Criticize,IRS Implementation
2011-08-18T20:22:14Z,Judge Sides,With,MBIA
2011-08-18T20:25:49Z,NetApp Shares Drop,Short of,Analysts ’ Estimates
2011-08-18T20:29:05Z,Citadel Follows Paulson,in,Pre-Rout Bet on Regions Financial
2011-08-18T20:29:07Z,Subdued Perry Courts Support,in,New Hampshire
2011-08-18T20:34:36Z,Hewlett-Packard Sales,Estimates on,Consumer Slump
2011-08-18T20:35:07Z,F1 Chief,Says,India Grand Prix on Track
2011-08-18T20:35:28Z,China ’s Chery Automobile,Sees Road to,Profit in Brazil
2011-08-18T20:35:28Z,Profit,in,Brazil
2011-08-18T20:44:09Z,Volatility,Gauges Surge Worldwide Amid,European Banking Concern
2011-08-18T20:47:30Z,U.S. Stocks,Tumble on,Economy
2011-08-18T20:50:26Z,Salesforce Sales Outlook,Beats,Estimates
2011-08-18T20:51:00Z,Canadian Stocks,Fall Amid,Concerns About Growth
2011-08-18T20:51:00Z,Stocks,Fall Amid,Concerns About Global Economic Growth
2011-08-18T20:58:41Z,Petrofac,Wins,Two Fields
2011-08-18T20:58:41Z,Two Fields,in,Pemex Auction of Mature Blocks
2011-08-18T21:04:20Z,Telecom New Zealand Full-Year Net,Slumps,Charges
2011-08-18T21:05:59Z,Tronox,Keeps,Bankruptcy Bankers
2011-08-18T21:08:06Z,California Gasoline,Extends Gain in,Cycle
2011-08-18T21:15:07Z,2009,Leads,European
2011-08-18T21:16:21Z,Treasury Yields,Tumble,Concern Worldwide Economic Growth Is Slowing
2011-08-18T21:21:58Z,Decline First Day,in,Four
2011-08-18T21:21:58Z,Four,in Day,Lender Concern
2011-08-18T21:23:28Z,U.S. Credit Risk Gauge,Rises,Economic Data Deteriorates
2011-08-18T21:26:10Z,Canadian Currency,Weakens,Commodities
2011-08-18T21:26:10Z,Currency,Weakens,Commodities
2011-08-18T21:26:10Z,Slowdown Concern,Saps,Equities
2011-08-18T21:45:47Z,Moody ’s Mortgage-Security Ratings,Are Said to,Face U.S. Investigation
2011-08-18T21:45:47Z,S&P,Said to,Face U.S. Investigation
2011-08-18T21:45:49Z,Justice,Is Only Now Probing,S&P 's Golden Goose
2011-08-18T21:59:27Z,Mexican Peso,Weakens as,Global Equities Decline
2011-08-18T21:59:27Z,Peso,Weakens as,Global Equities Decline
2011-08-18T22:00:00Z,France,Eases Ban on,Selling Before Index Futures Expiration
2011-08-18T22:01:00Z,Chinese Protest $ 5 Billion Losses,Tied to,U.S Reverse Mergers
2011-08-18T22:01:00Z,Chinese Protest $ Billion Losses,Tied to,U.S Reverse Mergers
2011-08-18T22:01:00Z,Chinese Protest Billion Losses,Tied to,U.S Reverse Mergers
2011-08-18T22:01:00Z,Protest $ 5 Billion Losses,Tied to,U.S Reverse Mergers
2011-08-18T22:01:00Z,Protest $ Billion Losses,Tied to,U.S Reverse Mergers
2011-08-18T22:01:00Z,Protest Billion Losses,Tied to,U.S Reverse Mergers
2011-08-18T22:04:51Z,Lazio Ease,in,Opening Games of Europa League Playoffs
2011-08-18T22:04:51Z,Tottenham,Ease to,Wins
2011-08-18T22:17:32Z,Hydro,in,Brazil Power Auction
2011-08-18T22:17:32Z,Natural Gas,Hydro in,Brazil Power Auction
2011-08-18T22:19:36Z,Terrorism Attacks,Increased,Worldwide
2011-08-18T22:30:31Z,Oil Price Drop,Caused by,Qatar Minister
2011-08-18T22:39:33Z,MPX,in,Talks
2011-08-18T22:55:18Z,New U.S. Ambassador,Sparks,Emotional Debate
2011-08-18T23:00:01Z,Chef Wolfgang Puck,Hangs With,Stars
2011-08-18T23:00:01Z,Stars,London Over,New York
2011-08-18T23:00:57Z,RIM Said,in,Talks to Start BlackBerry Music App With Labels
2011-08-18T23:00:57Z,Talks,With,Labels
2011-08-18T23:01:00Z,Record,From Advance,Survey
2011-08-18T23:05:10Z,Hewlett-Packard,Buy,Autonomy
2011-08-18T23:06:44Z,6 Firms,Seeking,$ 172 Million Recovery
2011-08-18T23:06:44Z,Madoff Trustee,Sues,6 Firms
2011-08-18T23:42:10Z,BHP Least Risky,in,Two Years
2011-08-19T00:39:43Z,Militants,Pay Price for,Southern Israel Attacks
2011-08-19T00:39:43Z,Netanyahu,Says,Militants
2011-08-19T04:00:01Z,Philadelphia Manufacturing Index Sinks,Opposes,Fed Measures
2011-08-19T04:01:00Z,Red Sox Third Baseman Kevin Youkilis,Goes With,Back
2011-08-19T04:42:11Z,Yen,Move,Mulled
2011-08-19T07:38:09Z,Brent Premium,Widens,Record
2011-08-19T07:38:09Z,Crude Oil,Heads for,Fourth Weekly Drop
2011-08-19T07:38:09Z,Oil,Heads for,Fourth Weekly Drop
2011-08-19T07:45:27Z,Singapore Curry Protest,Heats Up,Vote
2011-08-19T07:45:27Z,Vote,With,Facebook Campaign
2011-08-19T09:02:21Z,Junk Yields,Top,10 %
2011-08-19T09:05:42Z,Delays,in,Aid Distribution
2011-08-19T09:05:42Z,Japan Quake Victims,Suffering,Prolonged With Delays in Aid Distribution
2011-08-19T09:05:42Z,Suffering,Prolonged With,Delays
2011-08-19T10:51:15Z,Danish Mortgage Bonds,Defy,Moody
2011-08-19T10:51:15Z,Investors,Ignore,Ratings Downgrades
2011-08-19T10:51:15Z,Mortgage Bonds,Defy,Moody
2011-08-19T10:55:02Z,Maersk Drilling,Hold,Build Costs Soar
2011-08-19T12:27:25Z,AIG ’s Nan Shan Sale,Gives,CEO Benmosche Flexibility
2011-08-19T14:28:07Z,Yen,Rises Since,World War II on Refuge Demand
2011-08-19T16:31:52Z,Britons Facing Floodwaters May,Be,Left
2011-08-19T17:32:15Z,Australian Dollar Gains,in,Three Weeks
2011-08-19T20:21:00Z,Liberty Invests,in,Barnes
2011-08-22T02:00:35Z,U.S. Index Futures Fall,Drops on,Growth Concern
2011-08-22T14:52:21Z,Besiktas,Are,Active
