2012-01-27T00:00:00Z,Barclays,Leads,Banks
2012-01-27T00:00:00Z,Europe,Stocks,Gain Since September
2012-01-27T00:00:00Z,Krugman,Take on,$ 12 Trillion Question Rings True
2012-01-27T00:00:00Z,Newt Gingrich,Showed,Us
2012-01-27T00:00:00Z,Us,Wreck,Revolution
2012-01-27T00:00:00Z,Wade ’s Third-Term Vote Bid,Faces Court Test as,Protests Mount
2012-01-27T00:00:01Z,Muslims ’ Journey,in,London Show
2012-01-27T00:00:09Z,Airbus Chief Enders,Clinch,Job
2012-01-27T00:04:10Z,Is,Lesson of,RIM ’s BlackBerry
2012-01-27T00:04:10Z,RIM,of,BlackBerry
2012-01-27T00:05:49Z,It,Evade,Duties
2012-01-27T00:23:19Z,Bollard,Says,Comfortable
2012-01-27T00:26:59Z,Mumbai ’s Home Sales,Decline as,Record Prices Dent Demand
2012-01-27T00:31:49Z,Euro Declines,Halts,Four-Day Gain on Debt Crisis
2012-01-27T00:46:19Z,Bond Risk,in,Asia
2012-01-27T00:53:34Z,Tehran Held,in,U.S. Prison
2012-01-27T01:01:12Z,Economies,Need,Visible Hand
2012-01-27T01:08:12Z,Treasuries,Snap Two-Day Advance on,Speculation Growth
2012-01-27T01:18:41Z,Chinese Developer,Buy,16 NZ Farms
2012-01-27T01:18:41Z,Developer,Wins,Approval
2012-01-27T01:55:56Z,Japan,in,Yamanashi Prefecture
2012-01-27T01:55:56Z,Tepco,Starts Solar Plant in,Japan ’s Yamanashi Prefecture
2012-01-27T02:00:03Z,UBS Brazil Investment-Banking Chief Eduardo Centola,Leaves After,15 Months
2012-01-27T03:12:51Z,Bollard,Sees,Slower New Zealand Growth
2012-01-27T03:30:09Z,Funds,Buy,10.1 Billion Rupees of Indian Derivatives
2012-01-27T03:30:09Z,Global Funds,Buy,Net 10.1 Billion Rupees
2012-01-27T03:50:43Z,GE Capital,Makes Appointments to,Asia Structured-Finance Team
2012-01-27T04:00:00Z,Schaeuble,Says,Government Must Act
2012-01-27T04:03:22Z,Pakistan,at,Military Academy
2012-01-27T04:09:16Z,3 Reactors,With,6.4 % of Total Capacity Online
2012-01-27T04:09:16Z,Japan,Has,3 Reactors
2012-01-27T04:42:09Z,BP,Sign Supply Accords for,Australian Solar
2012-01-27T04:42:16Z,Zarubezhneft May Help,Develop,Alrosa Gas Assets
2012-01-27T05:00:00Z,1958 Low Boosting Cost,to Drop,Tyson
2012-01-27T05:00:01Z,Pals,Become,Foes
2012-01-27T05:00:01Z,PepsiCo May Boost Marketing Budget,Take On,Coca-Cola
2012-01-27T05:00:17Z,Hong Kong Short Selling Turnover,Recorded,01/27/201
2012-01-27T05:00:35Z,Romney Machine,Takes on,Gingrich Revolution
2012-01-27T05:01:00Z,Mahler Soars,Contains,World
2012-01-27T05:01:00Z,Medicare System Overpaid Insurers,in,2010
2012-01-27T05:01:09Z,U.S. Economy,Picked Up,Spending
2012-01-27T05:01:24Z,Agile Military,Reflects,Tighter Budget
2012-01-27T05:11:40Z,Lewis Group,Says,That
2012-01-27T06:00:00Z,Buy European Financial Stocks,Says,Systemic Risk Recedes
2012-01-27T06:00:00Z,European Financial Stocks,Says,Risk Recedes
2012-01-27T06:00:00Z,ING,Says,Risk Recedes
2012-01-27T06:23:55Z,Palm Oil Seen,Declining,5.2 %
2012-01-27T06:35:39Z,Papua New Guinea Outlook,Revised by,S&P
2012-01-27T06:37:09Z,Revival,Supports Growth as,Exports Slide
2012-01-27T06:39:56Z,FCC,in,Talks
2012-01-27T06:39:56Z,Talks,in FCC,El Confidencial
2012-01-27T06:50:34Z,Place ’s Ofer,Better Sees,2015
2012-01-27T06:51:49Z,Spain ’s Vueling Interested,in,Hungarian Malev
2012-01-27T06:53:26Z,Japan,Stocks,Fall
2012-01-27T06:53:26Z,Prime Minister,of,Call for Action
2012-01-27T06:53:26Z,Yen,Rises in,Face of Prime Minister ’s Call
2012-01-27T06:56:19Z,Rupee,Jumps to,High
2012-01-27T07:00:00Z,Costly London,Loses Allure for,Commercial Property Investors
2012-01-27T07:00:00Z,London,Loses Allure for,Commercial Property Investors
2012-01-27T07:16:29Z,Stay,in,Office
2012-01-27T07:16:29Z,Wulff Plans Foreign Visits,Plans to,Stay in Office
2012-01-27T07:22:16Z,Confidence,Katainen ’s,Finland
2012-01-27T07:22:16Z,Europe,Confidence Through,Growth
2012-01-27T07:28:22Z,Slovenia,Reduces Delo Reports to,Eleven
2012-01-27T07:48:54Z,Rubber Declines,Paring,Weekly Gain
2012-01-27T07:57:57Z,TMK,Sees,Pipe Demand
2012-01-27T08:01:50Z,Avatar Backer Ingenious,Expands in,Untapped U.K. Clean Energy
2012-01-27T08:08:40Z,Bosh May Invest EU60 Million,in,Romanian Factory
2012-01-27T08:09:53Z,5 Percent Drop,in,Gas Prices
2012-01-27T08:14:44Z,Debt Talks,Spur,Safety Demand
2012-01-27T08:14:44Z,Greek Debt Talks,Spur,Safety Demand
2012-01-27T08:39:21Z,China,’s South,Rain as Millions Return From New Year Holidays
2012-01-27T08:39:21Z,China ’s South,Rain as,Millions Return From New Year Holidays
2012-01-27T08:40:34Z,Retail Sales,Rise After,Riksbank Rate Cut
2012-01-27T08:40:34Z,Swedish Retail Sales,Rise After,Riksbank Rate Cut
2012-01-27T08:41:45Z,TMK Billionaire Pumpyansky,Says,Russia Needs Putin
2012-01-27T08:41:54Z,Eni,Sell,Eight-Year Euro-Denominated Bonds
2012-01-27T08:44:22Z,Peso,Has,Third Weekly Advance
2012-01-27T08:44:22Z,Philippine Peso,Has,Third Weekly Advance on Fund Inflows
2012-01-27T08:49:33Z,Asian Currencies,Strengthen in,Week
2012-01-27T08:49:33Z,Currencies,Strengthen on,U.S. Rate Outlook
2012-01-27T08:50:08Z,Yield,Stays at,1.87 Percent
2012-01-27T08:52:14Z,UniCredit Investors,Are Reaping,Europe ’s Best Return
2012-01-27T08:57:51Z,EBRD Interested,in,Ukraine Gas Pipeline Upgrade
2012-01-27T09:00:00Z,German State,Says,Inflation
2012-01-27T09:00:00Z,Inflation,Accelerated in,January
2012-01-27T09:00:00Z,State,Says,Inflation Accelerated
2012-01-27T09:01:26Z,England,Leads Pakistan by,70
2012-01-27T09:01:26Z,First Innings,in,Second Cricket Test
2012-01-27T09:06:02Z,Turkey 2011 Population,Grew,1 Million
2012-01-27T09:06:02Z,Turkey Population,Grew,1 Million
2012-01-27T09:06:19Z,Yen ’s Rise,Hits,Exporters
2012-01-27T09:17:01Z,Poland ’s Economy,Expands at,Fastest Pace
2012-01-27T09:21:56Z,Foreigners,Sell,Stocks
2012-01-27T09:21:56Z,Importers,Buy,Dollars
2012-01-27T09:21:56Z,Rupiah Declines,Sell,Stocks
2012-01-27T09:21:58Z,Iceland ’s Inflation,Accelerates at,Pace
2012-01-27T09:24:15Z,Summers,Says,U.S. Recovery
2012-01-27T09:30:25Z,Nigeria ’s Sanusi,Says,Petroleum Bill
2012-01-27T09:30:25Z,Petroleum Bill,Help,Boost Investment
2012-01-27T09:36:17Z,European Loans,Contracted Most on,Record
2012-01-27T09:36:17Z,Loans,Contracted on,Record
2012-01-27T09:37:46Z,Suspect,in,Bribery Case
2012-01-27T09:40:02Z,Almunia,Says,NYSE-Deutsche Boerse Deal May Aggravate Exchange Competition
2012-01-27T09:40:48Z,Pinchuk,’s Invest,Interfax
2012-01-27T09:40:48Z,Pinchuk ’s EastOne May Invest,in,Agriculture
2012-01-27T09:42:15Z,Order,to Fredriksen,TradeWinds
2012-01-27T09:44:26Z,Greece,on,Progress
2012-01-27T09:44:51Z,France ’s Baroin,Says,ECB Cash Provision
2012-01-27T09:50:10Z,Leaders,Must Do More on,Crisis
2012-01-27T09:55:19Z,Beat Bradesco,to Seeks,Estado
2012-01-27T09:55:19Z,Lending,on Seeks,Estado
2012-01-27T10:01:30Z,Iran,Has,Declared Everything
2012-01-27T10:07:58Z,Early Losses,Leaving,FTSE 100 Index Little Changed
2012-01-27T10:07:58Z,Losses,Leaving,FTSE 100 Index Little Changed
2012-01-27T10:07:58Z,Stocks,Recoup,Losses
2012-01-27T10:10:15Z,Businesses,Pay,Bills
2012-01-27T10:10:15Z,Kenya Shilling,Snaps,3-Day Rally
2012-01-27T10:15:39Z,Putin May Face Communist,in,March
2012-01-27T10:16:19Z,EU ’s De Gucht,Urges,Brazil
2012-01-27T10:17:23Z,Basci,Says,Turkey Needs Long-Term Finance
2012-01-27T10:17:23Z,Turkey Needs Long-Term Finance,in,Local Currency
2012-01-27T10:19:09Z,Nigeria May Tighten Policy,Says,Oil Price Raised
2012-01-27T10:19:09Z,Sanusi,Says,Oil Price Raised
2012-01-27T10:19:35Z,2-Year Notes,Extend,Bunds Drop
2012-01-27T10:19:35Z,Costs,Drop at,Bill Sale
2012-01-27T10:19:35Z,Italian 2-Year Notes,Extend Advance,Costs Drop at Bill Sale
2012-01-27T10:19:35Z,Italian Notes,Extend,Bunds Drop
2012-01-27T10:19:35Z,Notes,Extend Advance,Costs Drop at Bill Sale
2012-01-27T10:24:29Z,Zloty,Heads for,Third Week
2012-01-27T10:30:00Z,India ’s Crude Oil Production Drops,in,December
2012-01-27T10:30:00Z,Indian Refiners,Increase Oil Processing for,11th Month
2012-01-27T10:30:00Z,Refiners,Increase Oil Processing for,11th Month
2012-01-27T10:41:28Z,Monti,Takes in,Latest Policy
2012-01-27T10:43:00Z,Euro,Can Withstand,Greek Default
2012-01-27T10:44:09Z,Geithner,Says,2 %
2012-01-27T10:52:05Z,Gains,in,London
2012-01-27T11:01:50Z,EU ’s Rehn,Reaching,Deal
2012-01-27T11:04:12Z,Telekomunikacja,Move on,Warsaw Exchange
2012-01-27T11:07:18Z,Samsung,Loses,Second Patent Suit
2012-01-27T11:09:52Z,4 %,in,2012
2012-01-27T11:12:46Z,Bharat Heavy Profit,Rises,Power Orders Dwindle
2012-01-27T11:12:46Z,Power Orders,Dwindle in,India
2012-01-27T11:21:46Z,Heyneke Meyer,Replacing,de Villiers
2012-01-27T11:21:46Z,South Africa Rugby,Appoints Heyneke Meyer as,Coach
2012-01-27T11:26:20Z,Banesto,Cancels,Fourth Interim Dividend
2012-01-27T11:33:30Z,Brazilian Real,Strengthens,0.4 %
2012-01-27T11:33:30Z,Real,Strengthens,0.4 %
2012-01-27T11:34:33Z,Labor Professor,Gets,Death Threats
2012-01-27T11:40:52Z,Greece Expects Port Sale Recommendations,in,About Month
2012-01-27T11:46:39Z,Spanish Unemployment,Reaching in,15 Years Pressures Rajoy
2012-01-27T11:46:39Z,Unemployment,Reaching in,15 Years Pressures Rajoy
2012-01-27T11:47:01Z,Stanford,Global in,Court News
2012-01-27T11:47:28Z,Angels,’,Want Civilization Survive
2012-01-27T11:47:28Z,Soros,Says,He
2012-01-27T11:51:40Z,Geithner,Urges,Bigger Euro Firewall
2012-01-27T11:52:43Z,6 %,in,Next 18 Months
2012-01-27T11:53:06Z,Bulgarian Lawmakers,Joining,Euro Financial Pact
2012-01-27T11:53:06Z,Lawmakers,Joining,Euro Financial Pact
2012-01-27T12:01:59Z,EU,Has,Adequate Rules
2012-01-27T12:02:02Z,Cut,Should Spending on,Defense
2012-01-27T12:03:24Z,2.6 %,in,2011
2012-01-27T12:06:10Z,Greek Personal Income Tax Total,in,3rd-Qtr
2012-01-27T12:09:01Z,Djokovic,in,Semifinal of Australian Tennis
2012-01-27T12:10:37Z,Foreign Investors,Buy,11.7 Billion Rupees
2012-01-27T12:13:11Z,CaixaBank Chairman Faine,Sees,Wave of Mergers Among Lenders
2012-01-27T12:18:56Z,Rise,to Rate,Interfax Reports
2012-01-27T12:18:56Z,Ukraine,’s Rate,Interfax Reports
2012-01-27T12:20:29Z,Treasuries Decline,Snap Two-Day Gain Before,U.S. Report
2012-01-27T12:22:29Z,Elanders,Rises,Most in Five Months
2012-01-27T12:31:29Z,Fed Funds,Open Within,Target Range
2012-01-27T12:33:29Z,Kenny Defended,Sparks,Criticism
2012-01-27T12:35:51Z,Total,Sees,Brent Support
2012-01-27T12:37:06Z,Djokovic,Wins,Fourth Set to Even Australian Tennis Semifinal With Murray
2012-01-27T12:47:26Z,92,to Fall,Renaissance
2012-01-27T12:47:49Z,Efforts,in,Europe
2012-01-27T12:49:41Z,Workers,Seek,Perks
2012-01-27T12:53:51Z,Lingui Plantations,Get Buyout Offers From,Parent
2012-01-27T12:54:50Z,World Bank,Lends,$ 80 Million
2012-01-27T12:57:49Z,Anglo CEOs,See China Resilience in,Face
2012-01-27T12:57:49Z,Rio,See China Resilience in,Face of Euro Contraction
2012-01-27T13:11:03Z,Eastman,Buys Solutia,Expand in Polymers
2012-01-27T13:20:04Z,Schneider-Ammann,Says,Important
2012-01-27T13:26:47Z,London 2012 Basketball Arena May,Be Sold for,2016 Games
2012-01-27T13:26:47Z,London Basketball Arena May,Be Sold to,Rio
2012-01-27T13:32:19Z,Sands,Says,ICB Proposals Favor Creation of Risky Smaller Banks
2012-01-27T13:32:32Z,U.S. Stock Futures Decline,Trails,Estimate
2012-01-27T13:32:59Z,Euro,Pares,Gain Against Dollar
2012-01-27T13:32:59Z,U.S. 4th Quarter GDP,Trails,Forecast
2012-01-27T13:32:59Z,U.S. Quarter GDP,Trails,Forecast
2012-01-27T13:33:13Z,Greek Police Arrest Priest,in,Own Church
2012-01-27T13:33:45Z,Greenlight,Fined Over,Punch Tavern Trades
2012-01-27T13:56:52Z,Milner,Tells,CNBC
2012-01-27T13:58:45Z,Carnival,Sued in,U.S.
2012-01-27T14:00:35Z,Crude Oil,Erases Gains,U.S. Economy Grows
2012-01-27T14:00:35Z,Oil,Erases,Earlier Gains
2012-01-27T14:00:35Z,U.S. Economy,Grows,Less Than Forecast
2012-01-27T14:12:17Z,Pakistan,Leads England by,55 Runs
2012-01-27T14:12:17Z,Second Cricket Test,in,Abu Dhabi
2012-01-27T14:12:51Z,Congo Business Group,Wants,1-Year Delay
2012-01-27T14:18:31Z,4th Quarter U.S. GDP,Trails,Forecast
2012-01-27T14:18:31Z,Euro,Erases,Gains
2012-01-27T14:18:31Z,Quarter U.S. GDP,Trails,Forecast
2012-01-27T14:23:54Z,Higher Temperatures,in,U.S. East May Cut Energy Use
2012-01-27T14:26:07Z,Air France-KLM,Probed by,EU Over Alliance
2012-01-27T14:28:58Z,Europe,in,Insurance Rules
2012-01-27T14:28:58Z,Iran Oil Export Curbs,Extend to,95 % of Tankers
2012-01-27T14:28:58Z,Tankers,in,Europe ’s Insurance Rules
2012-01-27T14:45:32Z,Carnival,Reaches,Consumer Settlement
2012-01-27T14:45:32Z,Cruise Ship Wreck,Sparks,Lawsuits
2012-01-27T14:47:54Z,Kazakh Wealth Fund,Sees Injections Into BTA as,Inevitable
2012-01-27T14:47:54Z,Wealth Fund,Sees,Injections Into BTA
2012-01-27T14:52:47Z,EBRD,Lends,EU95 Million
2012-01-27T15:00:01Z,Hana Financial,Buy,Lone Star Stake
2012-01-27T15:01:46Z,AAA Auto,Rises on,CEO Share Purchases
2012-01-27T15:11:04Z,VEB,Says,Eurobond Issuers Face Serious Losses on Coupon Tax
2012-01-27T15:11:55Z,Krueger,Says,Faster GDP Growth Needed
2012-01-27T15:12:39Z,RBS U.S. Division Head Ellen Alemany May,Receive,Million
2012-01-27T15:14:07Z,FBI Searchers New York Global,Adviser to,Chinese Companies
2012-01-27T15:15:34Z,Firm,of,Debt Last Year
2012-01-27T15:15:45Z,Bank,Attract,Bids
2012-01-27T15:15:53Z,Poland,Deserves,Deutsche Bank ’s Kalicki
2012-01-27T15:18:19Z,NextEra,Sees,Opportunities
2012-01-27T15:18:30Z,He,Was,Refused Bonus
2012-01-27T15:29:24Z,Kenya Airways,Says,Drop by
2012-01-27T15:29:38Z,Old 3-Year,5-Year at,Lowest
2012-01-27T15:31:18Z,Peugeot CEO,Says,French Auto Pact
2012-01-27T15:33:22Z,Optimum Coal,Closes Unchanged,Falling
2012-01-27T15:38:33Z,Total Petroleum Ghana Profit Rose,in,2011
2012-01-27T15:38:50Z,Obama,Link Aid for,Colleges to Affordability
2012-01-27T15:42:39Z,Russia,Maintains,Opposition
2012-01-27T15:45:49Z,Canada Canola,Rose in,Week Ending Jan. 25
2012-01-27T15:45:49Z,Soybean Processing Rose,in,Week Ending Jan. 25
2012-01-27T15:46:45Z,March Deadline,in,Final Effort
2012-01-27T15:50:01Z,Vonn,Wins,Switzerland Super-Combined
2012-01-27T15:55:13Z,Ruble,Snaps,9-Day
2012-01-27T15:55:13Z,Winning,Streak After,Bank Rossii Currency Sale
2012-01-27T15:57:03Z,Harvard ’s Feldstein,Sees Slow Growth,Doubting Fed Easing
2012-01-27T16:00:23Z,Adecco Chief,Sees,Job Crisis
2012-01-27T16:00:23Z,Slow,’,Recovery
2012-01-27T16:00:27Z,Third Day,Rise on,Greek Deal Prospects
2012-01-27T16:02:04Z,Adecco ’s Chief De Maeseneire,Says Europe in,Recession
2012-01-27T16:02:11Z,Mosaic CEO,Says,Availability of Labor Real Challenge
2012-01-27T16:05:04Z,Brazil Government,Had,2 Billion Reais Surplus
2012-01-27T16:05:30Z,Zambian Government,Investigate,Privatization
2012-01-27T16:05:30Z,Zanaco,Says,Zambian Government
2012-01-27T16:07:37Z,Orco,Surges,Most
2012-01-27T16:07:47Z,Stanbic,Leads,Nigerian Banks Higher on Valuation Bets
2012-01-27T16:16:16Z,$ 54.1 Million,Most Since,Russia Ban
2012-01-27T16:16:16Z,Georgian Wine Exports,Reach,Million
2012-01-27T16:16:16Z,Million,Most Since,Russia Ban
2012-01-27T16:16:16Z,Wine Exports,Reach,$ 54.1 Million
2012-01-27T16:18:55Z,Buildings,Occupy,London Squat
2012-01-27T16:18:55Z,Empty Buildings,Occupy,London Squat at UBS
2012-01-27T16:24:15Z,Madoff Trustee ’s $ 386 Million,in,Claims
2012-01-27T16:26:06Z,Citgo,Adding,Louisiana Rail Terminal
2012-01-27T16:27:31Z,SocGen,Abandons,Bearish Call
2012-01-27T16:32:51Z,BNP Paribas ’s Offer,Faces,Opposition
2012-01-27T16:37:30Z,Renewable Subsidies,Curb,$ 31 Billion
2012-01-27T16:37:30Z,Spain,Halts,Renewable Subsidies
2012-01-27T16:37:48Z,Fayyad,Says,Palestinians Marginalized by Arab Spring
2012-01-27T16:40:39Z,Standard Chartered ’s Bindra,Sees,Hong Kong Hyperinflation Risk
2012-01-27T16:42:51Z,Transocean,Rises After,U.S. Court Indemnity Ruling
2012-01-27T16:43:46Z,January-November Current-Account Gap,Widens,34 %
2012-01-27T16:43:46Z,Serbian January-November Current-Account Gap,Widens,34 %
2012-01-27T16:45:02Z,Hungarian Refiner Mol,Has,Third Week
2012-01-27T16:45:02Z,Refiner Mol,Has,Third Week of Gains
2012-01-27T16:47:24Z,Monti,Says,Italian Cabinet Approved Measures
2012-01-27T16:54:56Z,Djokovic,Beats,Murray
2012-01-27T16:54:56Z,Face Nadal,in,Australian Open Final
2012-01-27T17:00:52Z,U.S. GDP,Misses,Estimates
2012-01-27T17:01:34Z,Decline,Gains for,FTSE 100
2012-01-27T17:03:02Z,ECB Nowotny,Sees Bank Demand for,Next Tender
2012-01-27T17:16:12Z,Ethiopia Rebels,Say,Government Blocks Release
2012-01-27T17:19:26Z,Year,in,Three Decades
2012-01-27T17:27:35Z,Sany Will,Buy,Cement-Pump Maker Putzmeister
2012-01-27T17:28:09Z,Argentina ’s Frances,Leads,Banks Lower
2012-01-27T17:28:26Z,Oil Markets Seen Withstanding Iran Attack Shock,in,Global Investor Survey
2012-01-27T17:30:01Z,Carstens,Says,Inflation Performance
2012-01-27T17:38:59Z,Nigeria LNG,in,Talks for $ 1 Billion Loan for Shipping Unit
2012-01-27T17:40:28Z,Crops,Seek,Cooler Climes
2012-01-27T17:43:14Z,EPA,Rejects,Palm-Oil Biodiesel
2012-01-27T17:48:17Z,Big Bang,’,Idol For Second Week With Young Viewers
2012-01-27T17:48:17Z,Second Week,With,Young Viewers
2012-01-27T17:52:00Z,Bond,Yields,Fall
2012-01-27T17:53:06Z,He ’ll Campaign,in,Competitive Races
2012-01-27T17:54:47Z,Christie,Pushes,Income-Tax Cut
2012-01-27T17:54:47Z,Democrats,Take Aim at,Property Levies
2012-01-27T17:56:19Z,Fed ’s Dudley,Sees,Impediments
2012-01-27T17:57:00Z,Toronto-Dominion Bank,Says,U.S. Executive Owens
2012-01-27T17:57:00Z,U.S. Executive Owens,Leaving,Firm
2012-01-27T18:01:18Z,Russia,Weighs TransContainer Stake Sale to,Partner
2012-01-27T18:05:17Z,Credibolsa,Counting on,Bond Sale Zeal
2012-01-27T18:05:52Z,Government Cuts,Kept,U.S. Union Rate
2012-01-27T18:07:25Z,Edwardian Group,Buys Hotel Site on,London ’s Leicester Square
2012-01-27T18:07:25Z,London,on,Leicester Square
2012-01-27T18:10:30Z,Cairo,in Embassy,Mena
2012-01-27T18:10:30Z,Syrian Embassy,in,Cairo
2012-01-27T18:22:34Z,Citigroup Exits Proprietary Trading,Says,Most
2012-01-27T18:22:34Z,Unit,of,Workers
2012-01-27T18:37:21Z,Argentina,Raises,Capital Requirements
2012-01-27T18:38:50Z,Seattle Genetics,Rises on,Positive Trial Data
2012-01-27T18:46:26Z,Ener1,Wins,Approval
2012-01-27T18:59:53Z,Harvard University,Joins Groupon Investor NEA to,Finance Student Startups
2012-01-27T19:03:02Z,Hewlett-Packard ’s Rubinstein,Leaves as,Palm Deal Commitment Ends
2012-01-27T19:06:48Z,Spanair,Considering Its Future as,Qatar Airways Scraps Bid
2012-01-27T19:12:13Z,Russia,With,Country Exceptions
2012-01-27T19:13:41Z,Former Groupon Sales Reps,Countersue Over,Tactics
2012-01-27T19:26:32Z,Growth Report,Puts,Onus
2012-01-27T19:26:32Z,Weak Growth Report,Puts,Onus
2012-01-27T19:28:55Z,Colombia,by,Interest-Rate Increases
2012-01-27T19:28:55Z,Most Profitable Carry Trade,Spurred by,Colombia Interest-Rate Increases
2012-01-27T19:28:55Z,Profitable Carry Trade,Spurred by,Colombia Interest-Rate Increases
2012-01-27T19:30:15Z,Fighting U.S.,Says,Gundlach
2012-01-27T19:34:50Z,AMR ’s Hiring,in,Face of Unions
2012-01-27T19:38:11Z,GDP Growth,Trails,Forecasts
2012-01-27T19:38:11Z,Obama,Pushes,Payroll Tax Cut
2012-01-27T19:45:29Z,Brazil Juice Exporters,Raise,U.S. Fungicide Limit
2012-01-27T20:04:41Z,Biden,Winning,House
2012-01-27T20:04:41Z,Obama,Pushes,Buffett Rule
2012-01-27T20:09:21Z,Beat Michigan,to,Deadline for Treaty
2012-01-27T20:09:21Z,Bing Races,With,Detroit ’s Unions
2012-01-27T20:09:21Z,Detroit,With,Unions
2012-01-27T20:11:20Z,Solar Outlook,Boosts,N.Y. Index
2012-01-27T20:26:10Z,U.S. Stocks,Erase,Losses on Foreclosure Aid
2012-01-27T20:29:15Z,Futures,Settle,Little
2012-01-27T20:29:15Z,Oil Options Volatility,Slips,Futures Settle
2012-01-27T20:32:58Z,Europe Crisis,Is Stifling,Remittances
2012-01-27T21:08:13Z,Roche,Begins,Billion Takeover Offer
2012-01-27T21:08:41Z,Greece,Nears,Debt Agreement
2012-01-27T21:11:36Z,13 %,in,Lima
2012-01-27T21:11:36Z,Buenaventura,Extends Weekly Gain to,13 %
2012-01-27T21:15:26Z,Altria,Promotes,Barrington
2012-01-27T21:17:17Z,BioMarin CEO,Seeking,Deals
2012-01-27T21:17:27Z,Judge Rules,in,Gulf Case
2012-01-27T21:19:43Z,Pfizer,Wins,U.S. FDA Approval for Advanced Kidney-Cancer Treatment Inlyta
2012-01-27T21:21:26Z,Omnicare,Extends,Million Takeover Offer
2012-01-27T21:24:20Z,Republic Airways,Sees,Separate Frontier
2012-01-27T21:25:23Z,Asian Currencies,Climb for,Fourth Week
2012-01-27T21:25:23Z,Currencies,Climb for,Fourth Week on Fed ’s Interest Rate Outlook
2012-01-27T21:25:23Z,Fed,on,Interest Rate Outlook
2012-01-27T21:29:52Z,Merrill,Wins,Judge ’s Tentative Go-Ahead
2012-01-27T21:32:09Z,RIM Shareholder Fairfax Doubles Stake,in,BlackBerry Maker
2012-01-27T21:33:31Z,Texas School Fund,Curb,Fees
2012-01-27T21:40:22Z,U.S. Economy,Grows Less,2.8 %
2012-01-27T21:45:08Z,Retreat,Trails,Euro Advance
2012-01-27T21:45:08Z,U.S. Stocks,Trails Euro Advance as,Treasuries
2012-01-27T21:49:13Z,Canadian Stocks,Rise as,Mining Stocks
2012-01-27T21:49:13Z,Stocks,Rise for,Sixth Week
2012-01-27T21:57:11Z,U.S. Stocks,Fall,Economy Grows Less
2012-01-27T22:05:03Z,West Coast Gasoline Premium,Narrows,New York Futures Soar
2012-01-27T22:06:17Z,Chinese Internet Companies,Jump,Offering
2012-01-27T22:06:17Z,Internet Companies,Jump on,WSJ Report
2012-01-27T22:06:29Z,Ex-Executive,Tells,Jurors
2012-01-27T22:12:29Z,House Republicans,Seek,Documents
2012-01-27T22:16:26Z,Biggest Profit Drop,in,Two Years
2012-01-27T22:19:47Z,Omnicare,Faces,FTC Suit
2012-01-27T22:26:33Z,Amylin,Wins,FDA Approval
2012-01-27T22:27:25Z,Obama,Turning Point in,Relations With American Indians
2012-01-27T22:27:25Z,Relations,With,American Indians
2012-01-27T22:34:22Z,Goldman,Sued by,Stichting Pensioenfonds in New York
2012-01-27T22:34:22Z,Stichting Pensioenfonds,in,New York
2012-01-27T22:35:39Z,Default Swaps,in,U.S. Fall for Third Week
2012-01-27T22:39:17Z,Holder,Announces,Working Unit on Mortgage-Backed Bonds
2012-01-27T22:39:17Z,Jefferies,Was,Net Five EU Nations at Fiscal-Year End
2012-01-27T22:46:47Z,Omnicare,Sued to,Block $ 440.8 Million Takeover of PharMerica
2012-01-27T22:49:24Z,Lawmakers Press FTC,Violated,Privacy Accord
2012-01-27T22:51:43Z,Swiss Bank Wegelin,Agrees Amid,U.S. Tax Crackdown
2012-01-27T22:58:14Z,Gasoline,Surges on,Refinery Shutdowns
2012-01-27T23:01:00Z,Spain,Are Among,Five Euro-Zone Nations Downgraded
2012-01-27T23:22:05Z,Wachovia $ 75 Million Class-Action Settlement,Approved by,Judge
2012-01-27T23:22:05Z,Wachovia Million Class-Action Settlement,Approved by,Judge
2012-01-27T23:26:01Z,SEC Commissioners,Seek Larger Role in,Choosing Next Watchdog
2012-01-27T23:34:26Z,Ex-Penn State,Amend Bail Terms to,Visit His Family
2012-01-27T23:55:06Z,Flaws,in,Printing New U.S.
2012-01-28T00:00:01Z,Post First Weekly Drop,in,Six
2012-01-28T00:04:01Z,James Murdoch,Loosens,London Ties Ahead
2012-01-28T00:04:01Z,Move,Delayed by,Probe
2012-01-28T01:18:07Z,Twitter,Gives,Itself Added Flexibility
2012-01-28T05:00:01Z,NFL,to,Tampa Bay Buccaneers
2012-01-28T05:00:01Z,Schiano,Move to,NFL ’s Tampa Bay Buccaneers
2012-01-28T05:00:03Z,Cut Bonuses,in,Investment Bank
2012-01-28T05:00:29Z,Canadian Currency,Strengthens for,Third Week
2012-01-28T05:00:29Z,Commodities,Climb on,Fed
2012-01-28T05:00:29Z,Currency,Strengthens,Commodities Climb on Fed
2012-01-28T05:01:00Z,Bald Cynthia Nixon,Fights,Cancer
2012-01-28T05:01:00Z,Britain,Recall,Spanish Inquisition
2012-01-28T05:01:00Z,Cynthia Nixon,Fights,Cancer
2012-01-28T05:01:00Z,Dustin Hoffman Bets Ponies,Score in,Luck
2012-01-28T05:01:00Z,Fed,as,Pledge Offsets GDP Report
2012-01-28T05:01:00Z,Obama Administration,Expands,Aid
2012-01-28T05:01:00Z,Rembrandt,Dazzle at,Morgan Dutch
2012-01-28T05:01:00Z,Settles Score,in,Luck
2012-01-28T05:01:01Z,Woods,Back at,Abu Dhabi Golf
2012-01-28T05:01:14Z,Cantor Outlooks,Lowered to,Negative
2012-01-28T05:49:30Z,Possible Tipper X,of Identity,P&G
2012-01-28T09:42:01Z,Europe,Bolster Defenses to,Lock
2012-01-28T09:42:01Z,Lock,in,Crisis Respite
2012-01-28T20:21:10Z,Romney,Joins Gingrich in,Escalating Attacks
2012-01-29T07:56:53Z,Bankers,Expect Debt-Swap Deal,Week
2012-03-01T08:14:01Z,Cost,Increase,20 %
2012-03-01T08:14:01Z,Posco,Says,Cost
