2012-07-25T00:16:35Z,Crop Prices,Extend Declines,Soybeans Tumble for Third Day
2012-07-25T00:16:35Z,Soybeans,Tumble for,Day
2012-07-25T00:45:15Z,Korean Won Falls,Drop on,Europe Woes
2012-07-25T00:47:13Z,Google,Says,Almost Half of Motorola Purchase Price for Patents
2012-07-25T00:54:03Z,Japan,Posts,Trade
2012-07-25T01:21:07Z,Geithner,Says,Europe
2012-07-25T01:45:04Z,Concern Europe,on,Crisis
2012-07-25T01:45:04Z,Concern Europe ’s Crisis,on Falls,Exports
2012-07-25T02:11:15Z,Tofu Makers,in,Indonesia May Halt Output
2012-07-25T02:57:19Z,Australia Core Prices,Quickened,Quarter
2012-07-25T03:00:01Z,Claro Brazil Sales Ban,Said,Lifted in Less Than 15 Days
2012-07-25T04:00:00Z,Scrutiny,Chart of,Day
2012-07-25T04:00:00Z,Sell-in-May Stock Strategy,Survives,Scrutiny
2012-07-25T04:00:01Z,3 Million Unfilled Positions,in,Skill Crisis
2012-07-25T04:00:01Z,Companies,Say,3 Million Positions in Skill Crisis
2012-07-25T04:00:01Z,Foursquare,Adding Promotions in,Hunt
2012-07-25T04:00:01Z,Obama,Leads Romney by,Six Points
2012-07-25T04:01:00Z,Auditor,Says,Unspent
2012-07-25T04:01:00Z,Cities,Tear Up,Contracts
2012-07-25T04:01:00Z,Columbia Students,Dissect,Robots
2012-07-25T04:01:00Z,Debt,Eat Fares as,Health Costs Rise
2012-07-25T04:01:00Z,Housing,Says,90 Percent
2012-07-25T04:01:00Z,Obama Skipping AIDS Conference,Draws,Activists ’ Ire
2012-07-25T04:01:00Z,Reynards,Brings,Mezzo Hotel Dining
2012-07-25T04:01:00Z,Robots,in,Campus Cliffhanger
2012-07-25T04:01:00Z,SEC Said,Make,Companies Report Business
2012-07-25T04:01:00Z,Securities Lawsuits,Decreased in,First Half 2012
2012-07-25T04:01:00Z,Weaver,Brings Big-Screen Stardom to,TV
2012-07-25T04:01:14Z,Sales,Probably Rose to,Two-Year High
2012-07-25T04:45:26Z,Hong Kong Short Selling Turnover,Recorded,07/25/201
2012-07-25T05:00:00Z,Ecopetrol Second-Quarter Profit Declines,Missing,Forecasts
2012-07-25T05:00:01Z,Pena Nieto Anti-Corruption Focus,Slows,Economy Overhaul
2012-07-25T05:04:38Z,Kuwaiti Royal,Makes Donation to,Aid Debtors
2012-07-25T05:04:38Z,Senior Kuwaiti Royal,Makes,Donation
2012-07-25T05:05:35Z,Mumbai Home Sales,Climb on,Suburban Demand
2012-07-25T05:27:59Z,France ’s DCNS Plans Joint Venture,in,Torpedoes
2012-07-25T05:35:07Z,Singapore,Says,Growth
2012-07-25T05:39:41Z,Trigger Joe Allen,to,Release Clause
2012-07-25T06:00:00Z,Raiffeisen,UniCredit on,Power Plant Loan
2012-07-25T06:01:00Z,Europe High-Grade Companies,in,Financing Challenge
2012-07-25T06:13:27Z,Alex Rodriguez Fractures,Hand,4-2
2012-07-25T06:22:00Z,Cut Wages,to Cyprus,Phileleftheros
2012-07-25T06:24:53Z,Greece Plans EU5 Billion,in,2013-2014 Pension Cuts
2012-07-25T06:27:19Z,Blacks Center Smith,Ruled Out for,Six Weeks
2012-07-25T06:30:32Z,Wacker,Cuts,2012 Sales
2012-07-25T06:39:23Z,U.K.,Gives Billion Rail Deal,Three-Year Wait
2012-07-25T06:41:47Z,OZ Minerals,Meets,Copper Estimate
2012-07-25T06:43:15Z,Japan,Stocks,Fall Amid European Debt Crisis Concerns
2012-07-25T06:43:37Z,First Time,in,Euro Era
2012-07-25T06:43:37Z,Spanish Two-Year Yield,Reaches,7 %
2012-07-25T06:43:37Z,Spanish Yield,Reaches,7 %
2012-07-25T06:43:37Z,Two-Year Yield,Reaches,7 %
2012-07-25T06:43:37Z,Yield,Reaches,7 %
2012-07-25T06:49:16Z,South Korea,Seeking,CO2 Cuts
2012-07-25T06:49:30Z,Ukraine,to,Nibulon
2012-07-25T07:04:32Z,Italy,Below,Ignoring Deficit
2012-07-25T07:10:07Z,Nowotny,Argument for,ESM Banking License
2012-07-25T07:28:42Z,Increase,in,Robot Demand
2012-07-25T07:36:44Z,2009 Low,to Fall,IMF Comments
2012-07-25T07:36:44Z,China ’s Stocks,Fall to,2009 Low
2012-07-25T07:39:30Z,Stress-Test Shortcomings,Give,EU ’s Barnier
2012-07-25T07:43:04Z,Heathrow CEO,Says,Strike Threatens Olympic Travel on Busiest Day
2012-07-25T07:43:27Z,Debt Risk,Jumps to,Record
2012-07-25T07:43:27Z,Spanish Debt Risk,Jumps to,Credit-Default Swaps Show
2012-07-25T07:47:54Z,Overnight Rate Swaps Decline,in,Euro Money Markets
2012-07-25T07:51:25Z,Li Ka-shing Doubles U.K. Gas Networks,in,$ 1 Billion Deal
2012-07-25T07:53:24Z,ARM,Shrugs as,Second-Quarter Sales Beat Estimates
2012-07-25T08:04:37Z,China May Boost Tax,Says on,Homes
2012-07-25T08:04:37Z,Securities,Says on,Existing Homes
2012-07-25T08:07:48Z,UMC Net Income,Beats,Forecasts Second-Half Slowdown
2012-07-25T08:22:37Z,U.K. Stocks,Erase,Losses
2012-07-25T08:30:00Z,Italy Consumer Confidence,Unexpectedly Rebounded,Month
2012-07-25T08:30:40Z,Europe,as,Debt Crisis Dented Events Unit
2012-07-25T08:37:57Z,Sanofi Vaccine,Thwarts,Three of Four Strains
2012-07-25T08:41:06Z,Pound,Weakens,U.K. Economy Shrinks
2012-07-25T08:41:06Z,U.K. Economy,Shrinks in,Second Quarter
2012-07-25T08:41:51Z,Record Low,Drops as,Growth
2012-07-25T08:47:20Z,British Land,Buys,Mayfair Offices Valued
2012-07-25T08:47:20Z,Land,Buys,Mayfair Offices
2012-07-25T08:51:12Z,Solarworld,Rises,China Trade Complaint Nears
2012-07-25T08:52:23Z,Besiktas,in,Talks With Banks
2012-07-25T08:52:23Z,Talks,With,Banks
2012-07-25T08:56:33Z,Shemen Oil,Surges After,Accord
2012-07-25T08:57:11Z,BAT First-Half Profit Growth,Checked by,Sterling Strength
2012-07-25T08:57:11Z,Sterling,by,Strength
2012-07-25T09:02:28Z,Ruble,Heads for,Two-Week Low
2012-07-25T09:02:28Z,Russia,Eases,Currency Defense
2012-07-25T09:05:45Z,German Business Confidence,Fell Than,More Forecast
2012-07-25T09:17:17Z,PBOC,Fixing on,Europe Debt
2012-07-25T09:17:17Z,Yuan,Touches,Low
2012-07-25T09:25:32Z,ECB ’s Nowotny,Sees,Arguments
2012-07-25T09:30:58Z,Erste ’s BCR,Lends,$ 21 Million
2012-07-25T09:33:25Z,Apple Suppliers,Drop in,Asia Trading
2012-07-25T09:40:31Z,Germany Lowers Gold Holdings,in,Eight Months
2012-07-25T09:45:00Z,BayernLB,Approval for,German Bailouts
2012-07-25T09:45:00Z,Ryanair ’s Deals,With,Finnish Airport
2012-07-25T09:45:16Z,It,Sees,Margin Increase
2012-07-25T09:52:06Z,LG Electronics Profit,Misses,Estimates
2012-07-25T09:57:15Z,Russian Regions,Said by,Interfax
2012-07-25T10:02:53Z,Hong Kong,Allows,Non-Residents
2012-07-25T10:03:17Z,Iran,Offer Buy-Back Contracts on,Gas Fields
2012-07-25T10:18:30Z,Soros-Backed Group,End,Crisis
2012-07-25T10:20:10Z,AfDB,Says,Grow in 2013
2012-07-25T10:20:10Z,Zambia Economy,Grow in,2013
2012-07-25T10:32:18Z,Billionaire Lebedev,Says,Russia Deprived Aeroflot of Billion
2012-07-25T10:41:49Z,MTU Aero,Raises,Forecasts
2012-07-25T10:46:19Z,Sri Lanka Water-Supply System,Being,Built
2012-07-25T10:50:22Z,Ireland ’s NAMA,Turns,Profitable
2012-07-25T10:52:04Z,Slovakia,Eliminate,Premier Fico
2012-07-25T10:52:28Z,Iraq Cabinet,Approves,$ 500 Million
2012-07-25T11:01:00Z,Lundbeck,Gets EU Antitrust Complaint on,Citalopram Deals
2012-07-25T11:02:20Z,EU,Approves Spain Bank Support Plan as,Step
2012-07-25T11:19:42Z,Daimler,Sticks to,2012 Forecast
2012-07-25T11:27:21Z,Fed Funds Projected,Open at,0.14 ICAP Says
2012-07-25T11:33:14Z,Labour,Sees,Failure
2012-07-25T11:33:14Z,Osborne,Says,His Policies Show Progress
2012-07-25T11:47:17Z,South Africa ’s Competition Tribunal,Approves,4 Mergers
2012-07-25T11:56:39Z,Bank-Rate Rigging,Faces,EU Rules
2012-07-25T11:59:13Z,Highest Income Tax,in,Iceland
2012-07-25T11:59:35Z,Corn,Rises in,Chicago
2012-07-25T12:00:16Z,Asian Stocks,Retreat for,Day
2012-07-25T12:00:16Z,Fourth Day,for Retreat,China
2012-07-25T12:00:16Z,Stocks,Retreat for,Fourth Day
2012-07-25T12:00:32Z,Argentine Regulator,Adjusts,July Subsidy
2012-07-25T12:00:32Z,Regulator,Adjusts,July Subsidy
2012-07-25T12:06:41Z,Ghana ’s First-Quarter Gold Production,Rises on,High Prices
2012-07-25T12:07:13Z,Milano,Says to,Cost
2012-07-25T12:07:59Z,Bahrain ’s Eskan Bank,Secures,Million Loan
2012-07-25T12:09:01Z,Payday Lenders,Seek,U.S. Oversight
2012-07-25T12:09:15Z,EU Much Worried About Democracy,in,Romania
2012-07-25T12:13:46Z,Pirates,Get,Pitcher Wandy Rodriguez
2012-07-25T12:21:06Z,May,Get,Antitrust Complaint
2012-07-25T12:24:40Z,Maynilad Water Utility Nearing Deal,With,Marubeni
2012-07-25T12:31:15Z,Million Deal,With,Phillies
2012-07-25T12:36:06Z,Barclays,’s Resigns,Fourth to Quit Since Libor Fine
2012-07-25T12:36:06Z,Barclays ’s Carnwath Resigns,Fourth Since,Libor Fine
2012-07-25T12:36:09Z,Indian Stocks,Drop to,1-Month Low
2012-07-25T12:36:09Z,Stocks,Drop as,Europe Fuels Profit
2012-07-25T12:36:54Z,Southern Second-Quarter Profit,Rises as,Economy Rebounds
2012-07-25T12:41:22Z,Natixis,Joins AEW to,Start Fund for European Real Estate Loans
2012-07-25T12:43:05Z,Egypt,Prioritize,Safety of Gas Pipeline Feeding Jordan
2012-07-25T12:44:01Z,Foreign Funds,Sell,Indian Stocks for First Time
2012-07-25T12:51:55Z,Key Rate,Left Unchanged for,Seventh Month
2012-07-25T12:55:42Z,Indian Troops,Quell Assam Ethnic Violence as,37 Killed
2012-07-25T12:55:42Z,Troops,Quell,Assam Ethnic Violence
2012-07-25T12:56:58Z,Oil Rebounds,in,New York
2012-07-25T13:00:01Z,Belgian Business Confidence,Unexpectedly Rises on,Demand Outlook
2012-07-25T13:00:01Z,Business Confidence,Unexpectedly Rises on,Demand Outlook
2012-07-25T13:04:58Z,China Overseas Sales,Rebound in,JPMorgan Banker ’s Outlook
2012-07-25T13:04:58Z,JPMorgan Banker,in,Outlook
2012-07-25T13:07:57Z,Face Face Delay,in,4G Rollout
2012-07-25T13:21:21Z,President,After,Death
2012-07-25T13:23:13Z,Ally,Confesses,Kickbacks
2012-07-25T13:23:13Z,Ex-Haider Ally,Confesses,Kickbacks Linked to Hypo Sale
2012-07-25T13:23:13Z,Kickbacks,Linked to,Hypo Sale
2012-07-25T13:23:37Z,Citadel Falls,in,Week
2012-07-25T13:24:06Z,Delta Holding,in,First-Half Revenue
2012-07-25T13:24:22Z,Spain,Wins,Support
2012-07-25T13:28:27Z,Olympic Boost,Dismissed Before,Games Start
2012-07-25T13:32:22Z,Midwest Rains,Help,Crops
2012-07-25T13:34:27Z,Portuguese President,Urges,Response
2012-07-25T13:37:12Z,Trinidad,’s Rate,Express Reports
2012-07-25T13:39:25Z,Tarsus,Pushes Exhibitions Abroad on,Its View
2012-07-25T13:50:16Z,IMF,Says,Metals May Decline
2012-07-25T13:51:18Z,Severstal,With,Pipes for Siberian Gas Projects
2012-07-25T13:52:50Z,Egypt May,Keep,Interest Rate Unchanged
2012-07-25T13:56:02Z,Itau Profit,Hit by,Wage War
2012-07-25T14:00:00Z,Chrysler Brands Lead Industry Gains,in,J.D. Power Appeal Study
2012-07-25T14:00:01Z,Australia ’s Liberals,Would Expand,Farms
2012-07-25T14:14:51Z,Billionaires,May Win as,Democrats Split Over Estate Tax
2012-07-25T14:20:03Z,Dean ’s Organic Milk Claims,Draw,Criticism From Cited Scientist
2012-07-25T14:21:52Z,IMF Accord,Gives,Nation Access
2012-07-25T14:27:17Z,Food Inflation May Rise,in,2013
2012-07-25T14:32:38Z,July 20,for Report,Text
2012-07-25T14:38:02Z,Europe,Heads to,Vacation
2012-07-25T14:38:02Z,Markets,Wrong,Europe Heads to Vacation
2012-07-25T14:38:02Z,Schaeuble,Declares,Markets
2012-07-25T14:38:21Z,Kenyan Shilling,Snaps Three-Day Loss as,Bank Curbs Money Supply
2012-07-25T14:38:21Z,Shilling,Snaps,Three-Day Loss
2012-07-25T14:54:18Z,Defector Tlas,Urges Unity in,Aleppo
2012-07-25T14:54:18Z,Syrian Defector Tlas,Urges Unity in,Aleppo
2012-07-25T14:54:18Z,Top Defector Tlas,Urges Unity Amid,Battles
2012-07-25T14:54:18Z,Top Syrian Defector Tlas,Urges Unity in,Aleppo
2012-07-25T14:57:46Z,Phillies ’ Hamels,Gets,$ 144 Million
2012-07-25T14:57:46Z,Ramirez,Joins,Dodgers
2012-07-25T15:00:00Z,Government Plan Pledges Cooperation,With,BOJ
2012-07-25T15:01:02Z,Lira,Strengthens First Time in,Five Days on Tighter Funding
2012-07-25T15:03:37Z,Ghana Oil,Sees,20 % Profit Growth
2012-07-25T15:07:05Z,FMC Technologies,Rises on,Equipment Profit Margin
2012-07-25T15:10:37Z,ArcelorMittal S.Africa,Sees Third-Quarter Loss on,Price Drop
2012-07-25T15:11:27Z,1.6 Billion Euro Tempa Rossa Project,in,Italy
2012-07-25T15:13:35Z,Dexia Sale,Approved by,EU Regulators
2012-07-25T15:14:25Z,Euro Exit Risk,Set Up,Contingency Plans
2012-07-25T15:19:31Z,China,Faces Rise as,Government Spurs Growth
2012-07-25T15:19:31Z,Rise,in,Illegal Land Use
2012-07-25T15:20:27Z,Lizal,Tells,Reuters
2012-07-25T15:21:16Z,Kenya Airways Passenger Numbers,Drop,1.1 %
2012-07-25T15:21:36Z,Bavaria,With,Outlook Lowered by Moody ’s
2012-07-25T15:42:17Z,Chile,Detains,Four Central Bank Officials
2012-07-25T15:46:16Z,Dinar,Weakens on,Policy Concern
2012-07-25T15:51:37Z,Shipping Corp.,Says,Venture With Iran Owner
2012-07-25T15:51:37Z,Venture,With,Iran Owner
2012-07-25T15:54:36Z,Profit,Withstands,Crisis
2012-07-25T15:59:03Z,Tullow Ghana Fields,Have,Share of Oil Than Estimated
2012-07-25T15:59:18Z,European Stocks,Drop,U.K. GDP Shrinks
2012-07-25T15:59:18Z,Stocks,Drop,U.K. GDP Shrinks
2012-07-25T16:00:00Z,French Jobless Claims Rise,in,June
2012-07-25T16:01:00Z,China Car Sales,Prove,Impossible to Know
2012-07-25T16:01:00Z,China ’s CIC,Has Performance on,Growth
2012-07-25T16:02:14Z,Carmaker Rally,Offsets,Confidence
2012-07-25T16:04:10Z,Mexico Peso,Rises on,Speculation Europe Rescue May
2012-07-25T16:09:35Z,MTS,Retreats,Russia Says
2012-07-25T16:13:46Z,Elizabeth Warren,Says,Capital One Case
2012-07-25T16:15:53Z,Greek Jump Athlete,Expelled Over,Twitter Post
2012-07-25T16:15:53Z,Greek Triple Jump Athlete,Expelled Over,Twitter Post
2012-07-25T16:15:53Z,Jump Athlete,Expelled Over,Twitter Post
2012-07-25T16:15:53Z,Triple Jump Athlete,Expelled Over,Twitter Post
2012-07-25T16:30:38Z,Verbund,Sees,Full-Year Ebit Decline
2012-07-25T16:36:05Z,Drax,Plunges After,U.K. Cuts Biomass Power Support
2012-07-25T16:39:19Z,Lawmakers,Ease,U.S. Troops ’ Transition
2012-07-25T16:46:38Z,Gas Supply Gain,Was,Half
2012-07-25T16:55:47Z,Viacom,Extends,Contracts of Jon Stewart
2012-07-25T16:59:17Z,Putin ’s Greatest Foe,Could,Could Economy
2012-07-25T16:59:58Z,Turkcell Second-Quarter Profit,Beats,Analysts ’ Estimates
2012-07-25T17:00:00Z,Sugar Output,Rises,July 1-15
2012-07-25T17:01:11Z,Juniper,on,Licensing Deal
2012-07-25T17:01:11Z,Radware,Tumbles on,Juniper ’s Licensing Deal
2012-07-25T17:03:21Z,Suncor Profit,Beats Estimates,Production Costs Fall
2012-07-25T17:04:04Z,Shell Signs Deals,With,Cnooc
2012-07-25T17:07:14Z,Britain,Wins,Opening Match of Women ’s Olympic Soccer Tournament
2012-07-25T17:07:14Z,Women,of,Olympic Soccer Tournament
2012-07-25T17:16:24Z,Economy,About,Deep Troubles
2012-07-25T17:17:40Z,$ 27.5 Million,in,Mexican Money-Laundering Probe
2012-07-25T17:17:40Z,HSBC,Fined,$ 27.5 Million in Mexican Money-Laundering Probe
2012-07-25T17:22:39Z,Cnooc,Make,Canada Nexen Application
2012-07-25T17:22:39Z,Paradis,Says,Cnooc
2012-07-25T17:26:52Z,Sales,May Exceed,Forecast
2012-07-25T17:42:34Z,Defense,in,Congress
2012-07-25T17:42:34Z,Peregrine,Has,U.S. Futures Regulators on Defense
2012-07-25T18:04:11Z,Disaster Aid,Extended to,76 U.S. Counties
2012-07-25T18:09:09Z,U.K. ’s Hague,Welcomes,Appointment of Egyptian Prime Minister
2012-07-25T18:15:59Z,IBM,Selling,Billion 10-Year Bond
2012-07-25T18:21:48Z,NBC,Says,London Olympics Ad Sales
2012-07-25T18:38:02Z,$ 700 Million,in,Mubarak Funds
2012-07-25T18:44:47Z,Obama,Considers,Veto
2012-07-25T18:44:47Z,Offshore Oil Expansion,Passes,U.S. House
2012-07-25T18:48:32Z,Imports,Increase to,Six-Month High
2012-07-25T18:48:32Z,New York Gasoline,Weakens,Imports Increase to Six-Month High
2012-07-25T18:54:53Z,Mexico Mining Investment,Jumped,69 %
2012-07-25T19:05:07Z,Chilean Peso Ends,Losing,Streak
2012-07-25T19:05:07Z,Peso Ends,Losing Streak as,Nowotny Remark Buoys Markets
2012-07-25T19:06:28Z,Newsweek Owner,Says,Magazine Will
2012-07-25T19:08:42Z,Geithner,Can Turn,His Bad Week
2012-07-25T19:09:13Z,Nationals ’ Strasburg,Sends Mets in,Last 13 Games
2012-07-25T19:10:17Z,U.S. Senate May,Pass,Obama ’s Tax-Cut Extension Proposal
2012-07-25T19:25:50Z,$ 50 Million Verdict,in,Genzyme Case
2012-07-25T19:25:50Z,Shelbyzyme,Wins,$ 50 Million Verdict in Genzyme Case
2012-07-25T19:39:32Z,Gaps,Widen Without,Higher Fares
2012-07-25T19:39:32Z,MTA,Says,Widen
2012-07-25T19:53:51Z,Equities Rally,Rises Against,Dollar
2012-07-25T19:53:51Z,Oil,Rises as,Euro Rises Against Dollar
2012-07-25T20:13:20Z,Caterpillar,Raises,Forecast
2012-07-25T20:14:20Z,U.S. Stocks,Erase,Gains
2012-07-25T20:14:33Z,Slump,in,Asia
2012-07-25T20:15:22Z,Lilly Profit,Beats Analyst Estimates as,Cymbalta Sales Rise
2012-07-25T20:16:47Z,Women,Live Retirement at,Rates Than Men
2012-07-25T20:17:48Z,Arizona Doctors,Seek Abortions to,Block Law Banning
2012-07-25T20:20:24Z,Coca-Cola Femsa,Misses Estimates as,Peso Dips
2012-07-25T20:27:58Z,Delta,Joins US Airways Beating Estimates on,Fares
2012-07-25T20:28:21Z,Symantec Ousts CEO Enrique Salem,in,Favor of Chairman
2012-07-25T20:31:59Z,Senate,Rejects,Plan
2012-07-25T20:33:14Z,Severe Storms,Possible in,Northeast Tomorrow
2012-07-25T20:35:43Z,Loblaw,Takes,Retail Fight
2012-07-25T20:39:02Z,Motorola Solutions,Buys,Shares
2012-07-25T20:39:02Z,Profit,Rises,15 %
2012-07-25T20:39:02Z,T. Rowe Second-Quarter Net,Rises on,Client Deposits
2012-07-25T20:44:41Z,Profit,Tops,Estimates
2012-07-25T20:47:12Z,WellPoint,Reduces,Forecast
2012-07-25T20:48:04Z,Nintendo Posts First Loss,in,Three Quarters on Yen Gains
2012-07-25T20:48:17Z,$ 750 Million,in,Two Years
2012-07-25T20:51:57Z,Ron Paul,Gets,His Fed Audit
2012-07-25T20:52:11Z,Fed Audit Bill,Opposed by,Bernanke Approved by U.S. House
2012-07-25T20:52:24Z,Homex,Tumbles as,Home-Sale Volumes Decline
2012-07-25T20:55:49Z,Brown,Says,$ 14 Billion Plan Will Boost California Water
2012-07-25T20:58:40Z,Military,Faces,Epidemic
2012-07-25T21:05:03Z,N.Z. Central Bank,Holds Benchmark Rate at,Record-Low
2012-07-25T21:06:59Z,Louisiana Oils,Strengthen,Brent-WTI Margin Widens
2012-07-25T21:06:59Z,Sweet Louisiana Oils,Strengthen,Brent-WTI Margin Widens
2012-07-25T21:08:44Z,Corning Second-Quarter Profit,Slips,39 %
2012-07-25T21:09:23Z,Canadian Dollar,Rises Month on,Stimulus Speculation
2012-07-25T21:09:23Z,Dollar,Rises,Month
2012-07-25T21:10:43Z,Company,'s Outlook,Audio
2012-07-25T21:10:43Z,Southern 's Fanning,Discusses,Company 's Outlook
2012-07-25T21:11:02Z,Foods Profit,Tops Estimates,Store Sales Climb
2012-07-25T21:11:02Z,Whole Foods Profit,Tops,Estimates
2012-07-25T21:12:06Z,AOL,Rises on,Quarterly Profit
2012-07-25T21:15:21Z,Aussie,Rise on,Risk Appetite Amid Rescue-Fund Bets
2012-07-25T21:29:11Z,Apple,as,Plunge Offsets Banks
2012-07-25T21:29:11Z,S&P,Erases,Advance
2012-07-25T21:29:11Z,S&P 500,Erases,Advance
2012-07-25T21:29:51Z,Corn,Open,Lower as Rain Aids Crops
2012-07-25T21:58:21Z,General Dynamics Cuts Forecast,Citing,Weakening Orders
2012-07-25T22:00:14Z,U.S.,Finds,China ’s Human Rights Situation
2012-07-25T22:01:00Z,SNB,Keeping,Eye
2012-07-25T22:10:38Z,Guggenheim Partners,Raises,$ 1 Billion
2012-07-25T22:10:50Z,IBM,Gets,Coupon
2012-07-25T22:21:15Z,N.Z.,Holds Rate on,Tame Inflation
2012-07-25T22:22:29Z,Caterpillar Echoing Wall Street,Rebuts,Gross ’s Pessimism
2012-07-25T22:22:29Z,Caterpillar Wall Street,Rebuts,Gross ’s Pessimism
2012-07-25T22:24:12Z,Facebook,Is Said,Work for Mid-2013
2012-07-25T22:26:29Z,Money,Corrupts Even More,Politics
2012-07-25T22:30:00Z,Bernanke,Should Use,His Words
2012-07-25T22:30:06Z,You,Will,Will Embarrassed
2012-07-25T22:31:00Z,Greece,From,Fate
2012-07-25T22:31:00Z,President,Save,U.S.
2012-07-25T22:40:57Z,CFTC,Proposes Swaps Clearing Determinations Under,Dodd-Frank
2012-07-25T22:46:57Z,Ancestry.com,Jumps,as Much as 20 %
2012-07-25T22:59:22Z,JPMorgan,Goldman for,IPO
2012-07-25T22:59:22Z,Metro-Goldwyn-Mayer,Hires,JPMorgan
2012-07-25T22:59:50Z,$ 160.4 Million,in,Mortgage Securities
2012-07-25T22:59:50Z,DZ Bank,Sues UBS Over,$ 160.4 Million in Mortgage Securities
2012-07-25T23:00:03Z,Phelps,Says to,Fall at Games Without High-Tech Suits
2012-07-25T23:01:01Z,Los Angeles Fuel,Rises on,Tesoro Refinery Work
2012-07-25T23:05:23Z,SolarCity,Get,$ 300 Million Credit Suisse Funding
2012-07-25T23:19:37Z,East End,Has,Thousands in Illegal Squalor Near Olympics
2012-07-25T23:19:37Z,Thousands,in,Illegal Squalor
2012-07-25T23:24:47Z,Ex-Diamondback Manager,Aided,FBI Insider Probe
2012-07-25T23:32:05Z,Congress,Clears Bill Requiring Report on,2013 U.S. Spending Cuts
2012-07-25T23:32:47Z,Genome,Sued by,Shareholder
2012-07-25T23:32:47Z,Human Genome,Sued by,Shareholder
2012-07-25T23:40:35Z,Mitsubishi Electric,Wins,Reversal
2012-07-26T00:49:36Z,BC,Get,United Tech Division
2012-07-26T01:58:24Z,Sands China Earnings,Decline,40 %
2012-07-26T04:01:01Z,Broadband Research ’s Kinnucan Pleads Guilty,in,Tip Case
2012-07-26T04:12:11Z,RBNZ,Holds Rate Amid,ESM Bank-License Bets
2012-07-26T04:18:23Z,Pioneer,Weighs Myanmar Plant as,Kyat Cuts Costs
2012-07-26T06:27:32Z,Thai Exports,Unexpectedly Fall on,Weak Global Demand
2012-07-26T06:33:53Z,Tesla-Second-Quarter Loss,Widens,Ahead
2012-07-26T06:42:22Z,Thailand Signals,Room,Ease
2012-07-26T07:11:26Z,Terumo Plans Merger,With,Olympus
2012-07-26T07:23:40Z,BNP,Joins,Credit Agricole
2012-07-26T07:23:40Z,Credit Agricole,Seek,Escape
2012-07-26T07:36:39Z,Greece,Leaves,Euro
2012-07-26T08:06:14Z,Billionaire,Sees Jail Risk as,Putin Smothers Dissent
2012-07-26T08:06:14Z,Russian Billionaire,Sees,Jail Risk
2012-07-26T08:46:01Z,Korean Mystery Woman,Is,Leader Kim Jong Un ’s Wife
2012-07-26T08:46:01Z,Mystery Woman,Is,Leader Kim Jong Un ’s Wife
2012-07-26T08:46:01Z,North Korean Mystery Woman,Is,Leader Kim Jong Un ’s Wife
2012-07-26T09:04:54Z,Italian Zero-Coupon,Note,Auction
2012-07-26T09:04:54Z,Zero-Coupon,Note,Auction
2012-07-26T10:53:40Z,Iranian Smugglers,Feel,Sanctions Bite
2012-07-26T10:53:40Z,Smugglers,Feel,Pressure
2012-07-26T11:18:03Z,Osborne Economy Plan,Attacked as,Critics Question Competence
2012-07-26T11:20:45Z,Cuts,in,Dividend
2012-07-26T11:20:45Z,Telefonica Falls,Pay Amid,Crisis
2012-07-26T11:43:43Z,Hong Kong ’s Largest Bullion Vault Signals,Rising,Asia Wealth
2012-07-26T12:16:48Z,Central Banks,Search Toolbox for,Ideas
2012-07-26T12:34:03Z,North Korea,in,Flag Row
2012-07-26T12:34:03Z,U.S.,Wins in,Women ’s Olympic Soccer
2012-07-26T12:34:03Z,Women,in,Olympic Soccer
2012-07-26T13:32:54Z,Visa,Beats Estimates,Global Credit-Card Spending Rises
2012-07-26T14:45:44Z,Billionaires ’ Superyachts Dock,in,Thames
2012-07-26T14:54:27Z,BlackRock,Weighing,Libor Action
2012-07-26T14:54:27Z,Fidelity,Joins,BlackRock
2012-07-26T15:41:19Z,Rato,Is,Grilled
2012-07-26T18:57:53Z,Vale,Counting as,Profit Sinks
2012-07-26T20:14:02Z,Mr. Titanic Mistry,Sinking,Palm-Oil Prices
2012-07-26T20:21:03Z,Global Sales,Lead Over,VW
2012-07-26T20:21:03Z,Sales,Lead Over,VW
2012-07-26T20:21:03Z,Toyota,Extends,Global Sales Lead
2012-07-26T21:07:40Z,Zynga,Misses,Sales
2012-07-27T09:33:46Z,Olympic Mania,Chariots of,Fire
2012-08-14T23:46:26Z,Senate Vote,Continues,Tax Stalemate
2012-08-14T23:46:31Z,Deaths,Fell in,States
2012-08-14T23:52:08Z,Google,Could,EU ’s Almunia
2012-08-14T23:57:12Z,Obama,Responds to,Romney Attacks in Northwest Fundraising Swing
2012-08-14T23:57:12Z,Romney Attacks,in,Northwest Fundraising Swing
2012-08-14T23:57:50Z,Pennsylvania Voter Law,Is,Harassment
2012-08-14T23:58:35Z,TV Ad Makers Earn,Super-PAC Millions for,Less Work
