2012-05-30T00:05:43Z,Belmont Interim CFO,Replace,Hammer
2012-05-30T00:05:43Z,Belmont Named Interim CFO,Replace,Hammer
2012-05-30T00:05:43Z,Orbitz,Says,Belmont Named Interim CFO
2012-05-30T00:06:18Z,Its Devices Comply,With,U.S. ITC
2012-05-30T00:47:31Z,Japan ’s Currency Chief,Sees Threat From,Rapid Gains
2012-05-30T00:47:31Z,Rapid Gains,in,Yen
2012-05-30T00:54:43Z,Chile ’s SQM,Had Profit Increase,Iodine Sales Surge
2012-05-30T01:11:17Z,Vietnam,’s Gasoil,July Delivery
2012-05-30T01:11:17Z,Vietnam ’s PV Oil Seeks Gasoil,Gasoline for,June
2012-05-30T01:33:44Z,Second Day,in,New York
2012-05-30T01:43:01Z,Bond Risk Increases,in,Asia
2012-05-30T02:30:50Z,Australia Retail Sales,Drop,Boosting Rate Cut Bets
2012-05-30T02:31:03Z,ADRs,Climb From,Seven-Month Low
2012-05-30T03:00:00Z,S. Korean Livestock Production Costs,Climb on,Higher Feed Prices
2012-05-30T03:39:39Z,Australia Renewable Energy Fund,Set,Biofuels
2012-05-30T03:39:39Z,Biofuels,Invest in,Solar
2012-05-30T03:46:20Z,Suu Kyi,Arrives in,First Trip
2012-05-30T04:00:00Z,Dollar ’s Gold Backing Drops,With,Metal ’s Price
2012-05-30T04:00:00Z,Metal,With,Price
2012-05-30T04:00:01Z,Allstate,Leads Insurers to,Best Start
2012-05-30T04:00:01Z,Obama ’s Aide,Seeking,Oil
2012-05-30T04:00:18Z,Visa,Beats JPMorgan on,Cash
2012-05-30T04:01:00Z,Bond Sales,Expand,Economy Grows
2012-05-30T04:01:00Z,James Patterson,Taps,$ 84 Million Thriller War Chest
2012-05-30T04:01:00Z,Local Bond Sales,Expand,Economy Grows
2012-05-30T04:01:00Z,NHL Labor Standoff,Looms as,Devils Face Kings
2012-05-30T04:01:00Z,Pushkin,to,$ 34 Stroganoff
2012-05-30T04:01:01Z,Taleb,Says,Euro Breakup
2012-05-30T04:01:24Z,Terrell Owens,Missing,Children ’s Hospital Visit
2012-05-30T04:12:09Z,China ’s State Grid,Buys,Brazil Power Lines
2012-05-30T04:26:58Z,Railways,Boosts Vedomosti Reports in,TGK-14
2012-05-30T04:26:58Z,Russian Railways,Boosts Vedomosti Reports in,TGK-14
2012-05-30T04:44:57Z,Dubai Inflation,in,Second Half of 2012
2012-05-30T04:45:27Z,Hong Kong Short Selling Turnover,Recorded,05/30/201
2012-05-30T04:50:42Z,Spurs,Take,2-0 Lead
2012-05-30T05:11:40Z,City Lodge,Expand in,East Africa
2012-05-30T05:16:28Z,General Electric Will Open More Innovation Centers,in,China
2012-05-30T05:20:27Z,Aluminum Buyers,in,Japan
2012-05-30T05:36:14Z,Qatar Detains Mall Owner,Managers After,Fire
2012-05-30T05:52:22Z,BASF May,Take,Partner
2012-05-30T06:23:46Z,Billionaire Kantor,Boosts Acron Stake in,Reorganization
2012-05-30T06:23:53Z,Deutsche Bank ’s Boersig Will Retain Privileges,Die,Welt Reports
2012-05-30T06:24:08Z,Barwa Sells Two Hotels,Club to,Katara Hospitality
2012-05-30T07:00:00Z,Spain ’s Inflation,Slowed in,May
2012-05-30T07:03:05Z,Erdogan,Says,All See
2012-05-30T07:03:05Z,Turkey Plans Giant Istanbul Mosque,Says,All See
2012-05-30T07:21:01Z,Tax More Energy,to Slovaks,Sme
2012-05-30T07:22:48Z,Stimulus,Hopes,Ease
2012-05-30T07:24:50Z,Alcatel-Lucent,Says,Europe Risks
2012-05-30T07:29:38Z,Doc Watson,Dies at,89
2012-05-30T07:30:06Z,Sberbank Net,Reaches,92 Billion Rubles
2012-05-30T07:32:58Z,Hulk,Complete,90 Percent
2012-05-30T07:36:22Z,World Bank,Says,Year
2012-05-30T07:38:18Z,Iran,Sign,$ 2 Billion Venezuela Oil Deal
2012-05-30T07:42:12Z,South Africa ’s Credit Growth,Slows,Spending Eases
2012-05-30T07:52:54Z,Galp,Evidence in,Onshore Sergipe Well
2012-05-30T07:52:54Z,Petrobras Discover Evidence,in,Onshore Sergipe Well
2012-05-30T07:55:59Z,Egypt Oil Ministry,Gets,$ 100 Million
2012-05-30T08:02:24Z,Allot,Surges Toward,Record
2012-05-30T08:05:42Z,Euro-Area Loan Growth Slowed,in,April
2012-05-30T08:06:05Z,3.9 %,in,First Quarter
2012-05-30T08:13:58Z,Oman,Starts,Million Salalah Cargo Terminal Expansion
2012-05-30T08:20:19Z,15 % Drop,in,Grain Harvest
2012-05-30T08:37:24Z,Valovis Bank Rescued,Much to,Bear
2012-05-30T08:41:53Z,Wed,to Characters,Milliyet
2012-05-30T08:43:51Z,Global Investment First-Quarter Loss,Narrows on,Asset Sales
2012-05-30T08:45:16Z,Hong Kong Stocks,Fall Out,Stimulus
2012-05-30T08:45:27Z,Nation,’s Buyer,Chronicle
2012-05-30T08:46:44Z,Taiwan Dollar Falls,Rise on,Europe Concern
2012-05-30T08:52:50Z,Catcracker,Hydrotreater at,Omsk Refinery
2012-05-30T08:52:50Z,Gazprom Neft,Starts,Hydrotreater
2012-05-30T08:52:55Z,Chemical Plant,in,Zaluzi
2012-05-30T08:52:55Z,Unipetrol Reports Fire,in,Chemical Plant
2012-05-30T09:11:29Z,Erste,Leads Czech Shares Lower as,China Damps Stimulus Optimism
2012-05-30T09:17:55Z,Mahindra Profit,Rises,One-Time Gain
2012-05-30T09:22:59Z,Czech Central Bank Switched Euro Reserves,in,2011
2012-05-30T09:25:39Z,Bank,Says,Fiscal Targets
2012-05-30T09:25:39Z,Spain,of,Ordonez
2012-05-30T09:28:33Z,Oil Tankers,Said by,Platou
2012-05-30T09:43:22Z,Beryl,Regains,Strength
2012-05-30T09:45:00Z,EU,Investigates Italy Government Support to,Bus Operator Simet
2012-05-30T09:49:36Z,Central Bank,Offers,Foreign-Currency Deposits
2012-05-30T10:00:00Z,Foreclosures Increases,in,U.S.
2012-05-30T10:00:00Z,Homebuyer Interest,in,Foreclosures Increases
2012-05-30T10:03:39Z,Military Intervention,in,Syria
2012-05-30T10:10:21Z,France,Pay at,State-Owned Companies
2012-05-30T10:18:35Z,Kenya March Trade Deficit,Widens,22 Percent
2012-05-30T10:21:20Z,ECB ’s Liikanen,Says,Prices
2012-05-30T10:21:20Z,Prices,Best Help to,Job Creation
2012-05-30T10:21:20Z,Stable Prices,Best Help to,Job Creation
2012-05-30T10:28:55Z,MF Global U.K. Repo Dispute,With,U.S. May Delay Creditor Payouts
2012-05-30T10:38:11Z,Asian Stocks,Drop on,Europe Crisis Concern
2012-05-30T10:38:11Z,Stocks,Drop on,Europe Crisis Concern
2012-05-30T10:44:20Z,Romania,’s CEO,Names Mateescu Interim
2012-05-30T10:47:48Z,BOE Policy Maker,Replace,Posen
2012-05-30T10:54:59Z,Billionaire Lee,Fights,Back Relatives Over Samsung Shares
2012-05-30T11:09:53Z,Taiwan Premier,Accepts,Finance Minister ’s Resignation
2012-05-30T11:10:32Z,SMS Loans,Set for,September
2012-05-30T11:14:18Z,South Africa,’s Comfortable,CEO
2012-05-30T11:22:48Z,Treasuries Yield,Approaches Record on,Debt Crisis Concern
2012-05-30T11:27:53Z,Airlines,Cancels,68 Flights
2012-05-30T11:27:53Z,Turkish Airlines,Cancels,68 Flights
2012-05-30T11:34:44Z,Lender CAM,Wins EU Approval for,Rescue Aid Ahead of Sale
2012-05-30T11:34:44Z,Spanish Lender CAM,Wins,EU Approval
2012-05-30T11:40:28Z,Fazer Group Russian Subsidiary ’s General Director,Leaves,Company
2012-05-30T11:44:06Z,Fed,Within,Target Range
2012-05-30T11:46:26Z,Conergy,Builds,1.5-Megawatt Solar-Power Plant
2012-05-30T11:48:52Z,Italy Auction,Misses Target,Yields Climb on Contagion
2012-05-30T11:48:52Z,Yields,Climb on,Contagion
2012-05-30T12:04:14Z,Crisis,Even Hurts,Demand
2012-05-30T12:04:14Z,Gazprom,Keeps,EU Gas Export Plan
2012-05-30T12:07:19Z,Vodafone Turkey Unit Reports First Annual Profit,in,Four Years
2012-05-30T12:12:16Z,AirAsia,in,Talks for as Many as 100 A320s on Regional
2012-05-30T12:16:24Z,Pissarides,Says,Euro Exit
2012-05-30T12:21:36Z,U.K. Doctors,Vote for,Strike
2012-05-30T12:22:03Z,Manchester United ’s Scholes Signs One-Year Extension,With,Club
2012-05-30T12:30:04Z,Kenyan Shilling,Weakens for,Day
2012-05-30T12:30:04Z,Shilling,Weakens for,Second Day
2012-05-30T12:37:18Z,Decent Cocoa Mid-Crops,in,Ghana
2012-05-30T12:37:18Z,Ecobank,Sees,Cocoa Mid-Crops
2012-05-30T12:39:45Z,National Systemic Banks,in,Basel Plan
2012-05-30T12:45:33Z,East Coast May Cool Into Mid-June,Keeping,Power Use Down
2012-05-30T12:47:31Z,Publisher Longhorn Kenya,Listing,Debut
2012-05-30T12:49:47Z,Thigh Injury,Scan,Training
2012-05-30T12:49:47Z,Will,Scan,Training
2012-05-30T13:13:48Z,ANZ,Says,Remain in Short Term
2012-05-30T13:13:48Z,Cotton Price,Remain in,Short Term
2012-05-30T13:17:21Z,Mark Zuckerberg ’s Alter Ego,Makes Trouble in,Russia
2012-05-30T13:17:46Z,Peyton Manning,Tops,Tebow
2012-05-30T13:17:46Z,Tebow,in,Jersey Sales
2012-05-30T13:21:10Z,Income,Plunges,21 Percent
2012-05-30T13:21:10Z,Net Income,Plunges,21 Percent
2012-05-30T13:29:01Z,Veolia,Loses Bid to,Block RWE Sale of Berlin Water Stake
2012-05-30T13:35:25Z,Billionaire 's Ethiopia Gold Mine,Has,Ready
2012-05-30T13:35:25Z,Saudi Billionaire 's Ethiopia Gold Mine,Has,Ready
2012-05-30T13:36:44Z,PGE,Says,Belchatow Carbon Capture Project Needs State Support
2012-05-30T13:42:14Z,$ 12.4 Billion,in,Funds
2012-05-30T13:43:03Z,Facebook,Gets Second FTC Information Request on,Instagram
2012-05-30T13:44:39Z,CVC Said,Meeting for,City Telecom Loan
2012-05-30T13:56:47Z,Repo Rates Show European Bank,Stresses,Levels Soar
2012-05-30T14:07:25Z,10-Year Yield,Extends,Drop
2012-05-30T14:07:25Z,Finnish 10-Year Yield,Extends,Drop
2012-05-30T14:07:25Z,Finnish Yield,Extends Drop to,Record Low
2012-05-30T14:07:25Z,Yield,Extends,Drop
2012-05-30T14:08:39Z,Anand,Beats,Gelfand
2012-05-30T14:08:39Z,Gelfand,Keep,World Chess Federation Championship
2012-05-30T14:20:01Z,Indian Panel,Recommends,Approval of Coal Blocks
2012-05-30T14:20:01Z,Panel,Recommends,Approval of Coal Blocks
2012-05-30T14:21:59Z,Russia ’s Stavropol Region,Completes Planting for,2012
2012-05-30T14:22:27Z,Judge Aereo,Violates,Copyrights
2012-05-30T14:30:12Z,Manhattanhenge,Proves,Sun Orbits New York
2012-05-30T14:30:59Z,Batista,Joins,Lippi
2012-05-30T14:30:59Z,Foreign Soccer Coaches,in,Chinese League
2012-05-30T14:31:27Z,BofA Chief,Sees,Europe Crisis ’s Impact
2012-05-30T14:40:21Z,Foreign Investors,Buy,1.87 Billion Rupees of Stocks
2012-05-30T14:43:10Z,Central Government Budget Gaps,Narrows to,1.5 %
2012-05-30T14:43:10Z,Lithuanian Central Government Budget Gaps,Narrows to,1.5 % of GDP
2012-05-30T14:43:34Z,Credit Suisse,Sees,Corn Poised
2012-05-30T14:45:21Z,Serbia,Faces,Threat
2012-05-30T14:47:36Z,Spain Concern,Damps,Risk Appetite
2012-05-30T14:53:31Z,WikiLeaks ’ Assange,Loses,U.K. Top Court Extradition Case
2012-05-30T14:55:06Z,Bank,on,Higher Foreign-Exchange Reserve Ratio
2012-05-30T14:55:22Z,Obama Adviser,Rejects Claims as,Lie
2012-05-30T14:57:05Z,Federal Grid,Decline on,Rosneftegaz New Share Report
2012-05-30T15:00:00Z,SolarBridge,Gets Million in,Funding
2012-05-30T15:12:13Z,Bank Recap,Secures,Fund Chief
2012-05-30T15:12:13Z,Greek Bank Recap,Secures,Normal Operation
2012-05-30T15:16:24Z,Erste Group Bank,Are,Active
2012-05-30T15:18:57Z,Petrominerales May,Buy,Up to 10 %
2012-05-30T15:20:32Z,Airlines,Move in,Istanbul
2012-05-30T15:20:32Z,Turkish Airlines,Move in,Istanbul
2012-05-30T15:21:35Z,Besiktas,Plunges,Lowest in Two Years
2012-05-30T15:22:24Z,First City Nigeria,Has Longest Losing Streak in,Eight Months
2012-05-30T15:23:58Z,OTP Bank,Move in,Budapest
2012-05-30T15:26:20Z,Cancellations,Enter,Day
2012-05-30T15:27:07Z,Entrepreneur,Buys,Belarus Arms Exporter
2012-05-30T15:27:07Z,Russian Entrepreneur,Buys,Interfax
2012-05-30T15:28:10Z,Chilean Peso,Hits,Lowest
2012-05-30T15:28:10Z,Peso,Hits Lowest as,Copper Drops
2012-05-30T15:42:10Z,Severn Trent,Proposes,Special Dividend
2012-05-30T15:48:14Z,Cove Energy,Rises to,Record
2012-05-30T15:48:14Z,Mozambique,Allows,PTT Bid
2012-05-30T15:54:29Z,White House,Unveils,Initiative
2012-05-30T16:00:00Z,Claims Rise,Challenging,Hollande
2012-05-30T16:00:00Z,Fed,Adopts,Rule Listing Criteria
2012-05-30T16:00:00Z,French Claims Rise,Challenging,Hollande
2012-05-30T16:00:00Z,French Jobless Claims Rise,Challenging,Hollande
2012-05-30T16:00:00Z,Jobless Claims Rise,Challenging,Hollande
2012-05-30T16:03:05Z,European Stocks,Drop on,Concern Debt Crisis
2012-05-30T16:03:05Z,Stocks,Drop on,Concern Debt Crisis
2012-05-30T16:06:31Z,Defense Minister,Wants on,Drone Development
2012-05-30T16:06:31Z,French Defense Minister,Wants to,Start Over
2012-05-30T16:09:57Z,Italy,Slump as,Crisis Punctures Demand
2012-05-30T16:30:54Z,Romney Seals Republican Nomination,With,Victory in Texas
2012-05-30T16:30:54Z,Victory,in,Texas
2012-05-30T16:31:06Z,BP,Sell,Forties
2012-05-30T16:39:00Z,Private-Sector Deposits,in,Spanish Banks Decreased
2012-05-30T16:40:05Z,ICCO,Reduces,Global Cocoa Shortage Forecast
2012-05-30T16:41:58Z,Solar,Growing in,2012
2012-05-30T16:41:58Z,Yingli,Sees,China Demand Solar Growing in 2012
2012-05-30T16:45:46Z,Parliament Bans Airline,Strikes,Anatolia News Reports
2012-05-30T16:45:46Z,Turkish Parliament Bans Airline,Strikes,Anatolia News Reports
2012-05-30T16:49:24Z,French Scholar Richard Descoings,Died of,Causes
2012-05-30T16:49:24Z,Scholar Richard Descoings,Died of,Natural Causes
2012-05-30T16:52:28Z,Pfizer Cleared,in,Prempro Breast Cancer Case
2012-05-30T17:05:08Z,Judge Aereo,Violates,Copyrights
2012-05-30T17:05:10Z,GM,Discusses,Opel Future
2012-05-30T17:14:00Z,Euro Breakup,Drag as,Threat
2012-05-30T17:23:14Z,Hong Kong Workers May,Need,Retire Later on Population
2012-05-30T17:30:00Z,Fed ’s Dudley,Sees Economy Continuing,Grow
2012-05-30T17:54:20Z,Cupboard,Is,Bare
2012-05-30T17:58:53Z,12 %,in,May
2012-05-30T17:58:53Z,Argentines ’ Confidence,in,Government Rose
2012-05-30T18:00:00Z,Bristol-Myers Tests Sprycel,in,Lung Cancer
2012-05-30T18:00:00Z,Lung Cancer,in,New Study
2012-05-30T18:13:29Z,55.5 Cents,in,Swaps
2012-05-30T18:13:29Z,Houghton Mifflin Debt,Valued Auction at,55.5 Cents
2012-05-30T18:14:15Z,Big Rig,Getting,Almost 10 Miles
2012-05-30T18:14:15Z,Daimler,Shows,Rig
2012-05-30T18:14:15Z,Rig,Getting,Almost 10 Miles
2012-05-30T18:17:42Z,Vulcan Materials Founding Family,Sues Over,Sale Halt
2012-05-30T18:36:00Z,Decline,in,Oil
2012-05-30T18:36:00Z,European Debt Concern,Decline in,Oil
2012-05-30T18:47:05Z,Venus Williams Follows Serena,With,Early French Open Loss
2012-05-30T18:49:25Z,Navistar Falls,Predicts,Forecast Cut
2012-05-30T19:01:53Z,CTC Media,’s Rises,TNS Global
2012-05-30T19:03:14Z,Tyson Foods,Sued by,Neste
2012-05-30T19:11:52Z,Bakken Oil,Weakens Prior to,Tesoro ’s North Dakota Refinery Work
2012-05-30T19:11:52Z,Tesoro,to,North Dakota Refinery Work
2012-05-30T19:15:39Z,Texas Voters,Set,Dewhurst
2012-05-30T19:16:10Z,Driver,Restructures,Final Year
2012-05-30T19:17:16Z,52 %,in,Recall Race Poll
2012-05-30T19:18:05Z,Russia May Add Websites,Media to,Strategic Asset List
2012-05-30T19:38:24Z,Sunrun May,Raise,$ 100 Million
2012-05-30T19:58:06Z,New York Transit Agency,Settles,Religious Headwear Case
2012-05-30T20:05:27Z,Shell Will,Buy Hess Stake in,Field Off Scottish Coast
2012-05-30T20:08:45Z,Most Dollars,in,Year
2012-05-30T20:09:18Z,Monsanto Profit Forecast,Tops Estimates,Seed Sales Climb
2012-05-30T20:09:26Z,Gain Parity,With,Nasdaq Rivals
2012-05-30T20:15:14Z,War Funds Face Automatic Cuts,in,January
2012-05-30T20:15:31Z,Eastplats,Stops,Funding for South African Platinum Project
2012-05-30T20:19:04Z,Teavana,Tumbles Since,Most Market Debut on Teaopia Impact
2012-05-30T20:19:37Z,U.S.,Proposes,Wind-Tower Tariffs
2012-05-30T20:21:42Z,Booz Allen,Rises on,Plan
2012-05-30T20:22:26Z,Verizon Doubles FiOS Broadband Speeds,in,Race
2012-05-30T20:23:14Z,Treasury 10-Year Yield,Reaches Record Low as,Stocks Slump
2012-05-30T20:27:25Z,Exxon Shareholders,Separating,CEO Roles
2012-05-30T20:28:25Z,Hewlett-Packard,Promotes Veghte to,COO
2012-05-30T20:28:27Z,GM,Make,Manchester United Announcement
2012-05-30T20:29:49Z,Toyota Judge,Says,He
2012-05-30T20:39:33Z,Facebook,Following,Tumble
2012-05-30T20:49:12Z,U.S. Stocks,Fall as,Home Data Disappoint
2012-05-30T20:53:33Z,Oil,Tumbles on,Eu
2012-05-30T21:04:04Z,Credit Suisse Names Cogan,Heads of,Americas Utilities
2012-05-30T21:07:44Z,Treasury Yields,Tumble as,Europe Fuels Bids
2012-05-30T21:10:44Z,Gulf Gasoline,Strengthens as,Borger Refinery Plans Maintenance
2012-05-30T21:12:42Z,First-Quarter Earnings,Exceed,Estimates
2012-05-30T21:15:47Z,Crude Options Volatility,Jumps,Futures Drop
2012-05-30T21:15:47Z,Futures,Drop on,Stockpile Glut
2012-05-30T21:15:47Z,Options Volatility,Jumps,Futures Drop on Stockpile Glut
2012-05-30T21:18:09Z,KKR,Wins,Million From Oregon Pension
2012-05-30T21:21:57Z,Vega-Chi,Cutting Out,Dealers
2012-05-30T21:30:00Z,U.K.,for,Small Companies
2012-05-30T21:36:08Z,Soy,Open on,Dry Weather
2012-05-30T21:38:20Z,Fantasy Land,’ Debt,U.S. Duty
2012-05-30T21:43:45Z,Credit-Default Swaps,in,U.S.
2012-05-30T21:50:09Z,Drop,in,Retail Stock Ahead of Sales
2012-05-30T21:50:09Z,Report,Drop in,Retail Stock Ahead of Sales
2012-05-30T21:50:09Z,Sears,Leads,Report
2012-05-30T21:56:08Z,Energy,Says,Coal Gas Reserves Four Times Larger
2012-05-30T21:56:08Z,Solid Energy,Says,Coal Gas Reserves Four Times Larger
2012-05-30T21:57:30Z,N.J. Two-Year Colleges,Paid for,Presidents ’ Cars
2012-05-30T22:00:00Z,Axa,Could Resist Euro Break-Up Without,Added Capital
2012-05-30T22:00:01Z,Venus Williams,Retains Olympic Chance After,Open Loss
2012-05-30T22:00:05Z,Moody,’s Bank,Eight Other Danish Lenders
2012-05-30T22:01:00Z,First-Quarter GDP Growth,Probably Slowed on,Crisis
2012-05-30T22:01:00Z,Polish First-Quarter GDP Growth,Probably Slowed on,Crisis
2012-05-30T22:04:41Z,Toll,Buys,Half of California Subdivision
2012-05-30T22:10:58Z,Liu,Says,HP Overbilled NYC
2012-05-30T22:29:38Z,Iraq,Starts,First Auction
2012-05-30T22:34:58Z,U.S. Aviation Official ’s Plane Severed,in,Mid-Air Collision
2012-05-30T22:44:27Z,Drop First Day,in,Five
2012-05-30T22:44:27Z,Five,in Day,China
2012-05-30T22:46:20Z,West Coast Gasoline,Weakens on,Growth of California Stockpiles
2012-05-30T22:48:34Z,BTG,Adding on,Retail
2012-05-30T23:00:00Z,AIG,Could Happen Again,Dodd-Frank Fix
2012-05-30T23:00:00Z,Banking Rescue,Should Become,Example
2012-05-30T23:00:00Z,Miller ’s Achilles,Wins,Orange Fiction Prize
2012-05-30T23:00:00Z,Spanish Banking Rescue,Should Become,Example for Europe
2012-05-30T23:00:01Z,Mercedes Car Stolen,in,War Belongs
2012-05-30T23:00:01Z,War Belongs,in Stolen,Court
2012-05-30T23:00:15Z,San Jose,Shows,Way
2012-05-30T23:01:00Z,Hunt ’s Career,Defending,Relations
2012-05-30T23:01:00Z,Korea,Leads,Rankings of Universities
2012-05-30T23:01:00Z,Lamborghini Daydream,Conjures,Goulash
2012-05-30T23:01:00Z,London ’s French Bankers Face Socialist Victory,in,Lawmaker Vote
2012-05-30T23:01:00Z,Premier League Soccer Teams,Boosted by,Foreign Broadcast Sales
2012-05-30T23:01:00Z,Relations,With,Murdoch Lobbyist
2012-05-30T23:01:00Z,U.K. Consumer Confidence Increases,in,Four Months
2012-05-30T23:01:27Z,Stress Tests,Cause Run on,Banks
2012-05-30T23:01:30Z,Competition,Will Lessen,U.S. Inequality
2012-05-30T23:01:30Z,Restored Competition,Will Lessen,U.S. Inequality
2012-05-30T23:09:15Z,May Converge,Writes in,FT
2012-05-30T23:13:09Z,Southern Copper,Lays,Plans
2012-05-30T23:14:48Z,Ex-UBS Client Roessel Pleads Guilty,in,Offshore Tax Case
2012-05-30T23:25:35Z,Pakistan,Says,Doctor
2012-05-30T23:50:30Z,House,Clears,FEMA Flood Insurance Measure
2012-05-31T02:01:31Z,Clubs,Discuss,Reparation
2012-05-31T02:01:31Z,Rodgers,Accepts,Liverpool Job Offer
2012-05-31T02:04:44Z,Panetta,Heads to,Allies
2012-05-31T02:44:44Z,Japan ’s Industrial Production,Rises,Less Anticipated
2012-05-31T03:05:09Z,Hong Kong Gold Trading,in,Yuan
2012-05-31T04:01:00Z,Nasdaq Safeguards,in,Facebook Seen
2012-05-31T04:01:01Z,Chesapeake Energy Investors,Must Wait on,Bid
2012-05-31T04:26:33Z,Oil,Enters Bear Market on,Europe Debt Crisis
2012-05-31T05:23:13Z,India Refiner Bonds,Set for,First 2012 Drop
2012-05-31T06:04:25Z,India Policy Freeze,Saps Funds,Greek Fallout Risk Rises
2012-05-31T06:05:23Z,Ex-Cameron Aide Coulson,Charged With,Police Say
2012-05-31T06:09:03Z,Europe,on,Credit Crisis
2012-05-31T06:09:03Z,Yen,Rises Against,Major Peers on Europe ’s Credit Crisis
2012-05-31T06:09:51Z,Australia Housing,Escapes,Peril
2012-05-31T08:25:11Z,Duties,High as,26 %
2012-05-31T08:25:11Z,U.S.,Sets,Duties as High as 26 %
2012-05-31T08:35:18Z,EU,Weighs,Direct Aid
2012-05-31T09:28:26Z,Palm-Oil Shipments,Climbing on,Ramadan
2012-05-31T11:01:33Z,Lufthansa Vies,With,Air France
2012-05-31T12:32:34Z,Foxtons Sale Fuels Hunt,Move,Into London Luxury Workspace
2012-05-31T14:02:06Z,Condoleezza Rice,Endorses,Romney
2012-05-31T14:02:06Z,Romney,Citing,His Leadership
2012-05-31T17:27:04Z,JPMorgan CIO Swaps Pricing,Said,Differ
2012-05-31T21:08:57Z,Canadian Dollar,Loses,Most
2012-05-31T21:08:57Z,Dollar,Loses,Most in Month
2012-06-01T09:03:37Z,BT Pension Fund,Buys,Macquarie Stake
2012-07-30T08:12:41Z,GDP Growth,Unexpectedly Accelerates on,Spending
2012-07-30T08:12:41Z,Swedish GDP Growth,Accelerates on,Spending
