2012-08-01T00:01:00Z,Ghana ’s Mahama,Nominates,Central Bank Governor
2012-08-01T00:01:00Z,Ivory Coast ’s Coastal Cocoa Farmers,Say,Drought Threatens Crop
2012-08-01T00:32:53Z,TMX Investors,Sell,91 % of Shares
2012-08-01T00:41:23Z,Phelps Becomes,Most Decorated Olympian With,Career Medal
2012-08-01T00:43:52Z,$ 460 Million Wind Farm,in,Australia
2012-08-01T01:21:18Z,BHP,Reviewing,Costs
2012-08-01T01:23:22Z,Second Men,in,Basketball Game at Olympics
2012-08-01T01:23:22Z,U.S.,Routs Tunisia in,Second Men ’s Basketball Game
2012-08-01T01:35:17Z,Brazil,From,Bahia Decline
2012-08-01T01:35:17Z,Brazil ’s Bahia Decline,From Arrivals,Hartmann Reports
2012-08-01T02:02:23Z,Africa ’s First Olympic Fencing Medal,Comes From,Student
2012-08-01T02:41:18Z,Australia House Prices,Unexpectedly Rise After,RBA Rate Cuts
2012-08-01T03:27:48Z,Funds,Buy,5.77 Billion Rupees of Derivatives
2012-08-01T03:27:48Z,Global Funds,Buy,Net 5.77 Billion Rupees
2012-08-01T03:43:59Z,Sales Disappointment,Sinks,Yandex
2012-08-01T04:00:00Z,Companies,Take,Short View
2012-08-01T04:00:00Z,Edison,Sees,Nuclear Probes
2012-08-01T04:00:00Z,Home-Price Gains,Make,Mortgage Rates Bargain
2012-08-01T04:00:00Z,Mortgage Rates,Chart of,Day
2012-08-01T04:00:02Z,Fertittas Made Billionaires,With,Chokeholds
2012-08-01T04:00:30Z,Bullets-by-Mail,Used by,Colorado Shooting Suspect
2012-08-01T04:00:30Z,NRA,Enabled,Bullets-by-Mail Used by Colorado Shooting Suspect
2012-08-01T04:00:58Z,Valero,Fixes Balance Sheet by,Dumping Beer
2012-08-01T04:01:00Z,Chip,Takes,Crown
2012-08-01T04:01:00Z,Eloqua,Offers Discount to,Software-as-Service Peers
2012-08-01T04:01:00Z,Geithner,Vows for,Writedowns
2012-08-01T04:01:00Z,Hot Chip,Takes,Synth Crown
2012-08-01T04:01:00Z,Marilyn Monroe ’s Death,Remains,Mysterious
2012-08-01T04:01:00Z,Mental Health Crisis,Exposed With,Camp Liberty Killings
2012-08-01T04:01:00Z,Military Mental Health Crisis,Exposed With,Camp Liberty Killings
2012-08-01T04:01:00Z,Ross-TJX Beat U.S. Stores,With,Stuff for Season
2012-08-01T04:01:00Z,Startups Woo Wall Street Banks,in,Tech Arms Race
2012-08-01T04:01:00Z,Superman,’s Hometown,Catwoman
2012-08-01T04:01:00Z,Tea Partier,Closer to,Senate
2012-08-01T04:02:45Z,Asia Bond Risk,Rises as,Sales Pause
2012-08-01T04:27:36Z,Russia ’s Milner,Sets Up,$ 3 Million Physics Prize
2012-08-01T04:30:44Z,Sands China,Says,Macau Government Probes Data Transfer
2012-08-01T04:33:52Z,Geithner,Urges,Europe
2012-08-01T04:33:52Z,U.S. Congress,Spur,Growth
2012-08-01T04:44:37Z,Foley,Joins,Force Super Rugby Team
2012-08-01T04:45:25Z,Hong Kong Short Selling Turnover,Recorded,08/01/201
2012-08-01T04:54:48Z,Corn,Extends,Gain
2012-08-01T05:00:00Z,Peru ’s July Consumer Prices,Rise,0.09 %
2012-08-01T05:00:01Z,Chicago Rebound,Wins,Wilpons 3-Year Reprieve
2012-08-01T05:28:19Z,Critic,Dies at,86
2012-08-01T05:28:19Z,Gore Vidal,Dies at,86
2012-08-01T05:28:19Z,Novelist,Dies at,86
2012-08-01T05:35:33Z,Shikoku Electric,Leads,Utilities Down
2012-08-01T05:55:26Z,Oman,in,Al Izz Islamic Bank
2012-08-01T05:57:45Z,Netanyahu,Still Debating,Iran Attack
2012-08-01T06:12:55Z,TonenGeneral,Boosts,Residue Cracking Capacity
2012-08-01T06:25:18Z,Cosatu,Fails to,Business Day
2012-08-01T07:14:32Z,Egypt,’s Pardones,al-Masry al-Youm
2012-08-01T07:16:15Z,Caspian Pipeline July Crude Exports,Fall Earlier From,Year
2012-08-01T07:19:33Z,Central-Budget Deficit,Widen With,Revenue Short
2012-08-01T07:19:33Z,Slovak Central-Budget Deficit,Widen With,Revenue Short
2012-08-01T07:26:10Z,Henkel Profit,Beats,Estimates
2012-08-01T07:28:24Z,Olympus,Refers to,U.S.
2012-08-01T07:32:56Z,2013 Budget Talks,in,September
2012-08-01T07:34:13Z,Allot ’s Discount,Widens on,Transaction Delays
2012-08-01T07:35:49Z,Tepco,Widens,Net Loss Forecast
2012-08-01T07:40:14Z,PBG CEO,Sees,Polish State Fund ’s Decision
2012-08-01T07:50:04Z,Record Low,in,European Money Market
2012-08-01T07:51:16Z,New French Taxes,May Dent,Earnings
2012-08-01T07:53:53Z,Equilor,Wins Approval to,Start Hungary Fund Management Unit
2012-08-01T07:57:05Z,Indonesia ’s July Inflation,Accelerates on,Food Prices
2012-08-01T07:58:09Z,Mitsui Fudosan Profit,Rises on,Leasing Income
2012-08-01T07:59:09Z,Egypt ’s Presidency,Sues,Foreign Agency
2012-08-01T08:00:00Z,German VDMA Machinery Orders,Declined at,Pace
2012-08-01T08:00:00Z,VDMA Machinery Orders,Declined in,June
2012-08-01T08:12:41Z,Komercni Banka Net,Rises on,Gain
2012-08-01T08:12:41Z,Komercni Banka Quarterly Net,Rises From,Stake Sale
2012-08-01T08:15:36Z,Gasoline Demand Decline,in,June
2012-08-01T08:15:36Z,Spain,’s Diesel,Gasoline Demand Decline in June From Year Ago
2012-08-01T08:15:36Z,Spain ’s Diesel,Decline From,Year Ago
2012-08-01T08:20:42Z,Taylor Wimpey,Boosts Profit in,Shift to Higher-Margin Sales
2012-08-01T08:23:58Z,China Data,on Decline,ECB Meetings
2012-08-01T08:33:47Z,Baht Little,Changed Near,Four-Week High
2012-08-01T08:42:13Z,Dollar,Yen to,Trade Little
2012-08-01T08:42:13Z,Euro,Erases,Advance
2012-08-01T08:53:13Z,U.K. Factory Output,Shrinks,Most in More Than Three Years
2012-08-01T08:54:05Z,Insurer Bosses,Say,Regulators ’ Too-Big-to-Fail Proposals Flawed
2012-08-01T09:20:22Z,Morgan Stanley Forecasts,Expand,QE
2012-08-01T09:21:53Z,Russia ’s Rosneft,Conducts,Refinery Review
2012-08-01T09:32:47Z,Statoil,Talks About,LNG Plant
2012-08-01T09:37:05Z,Evaporates,in,Stress Sign
2012-08-01T09:37:05Z,U.S. Bond-Swap,Divide,Evaporates in Stress Sign
2012-08-01T09:42:35Z,Majority Stake,in,Adria Airways
2012-08-01T09:59:31Z,Denmark,Has,Lessons
2012-08-01T09:59:31Z,Official Rates,Go,Negative
2012-08-01T10:25:40Z,U.K. Manufacturing Slump,Deepens as,Export Orders Fall
2012-08-01T10:26:45Z,Head,in,Five Days on China
2012-08-01T10:27:15Z,Greece,Supports,Building
2012-08-01T10:39:16Z,Archbishopric,in,Hellenic Bank
2012-08-01T10:41:24Z,U.S. Manufacturing,Stagnated,Spending Cooled
2012-08-01T10:45:10Z,Bahrain Police,Seek,Three New Suspects
2012-08-01T10:46:39Z,German Winter-Barley,Seen Higher by,DBV
2012-08-01T10:46:39Z,Rapeseed Yields,Seen by,DBV
2012-08-01T10:46:39Z,Winter-Barley,Seen by,DBV
2012-08-01T10:52:15Z,Anti-Putin Punk Group,Call at,Trial
2012-08-01T11:00:23Z,Reasons Winners,Keep Aside from,Skill
2012-08-01T11:00:23Z,Ten Reasons Winners,Keep,Winning
2012-08-01T11:01:27Z,Foreign Investors,Buy,9.28 Billion Rupees of Stocks
2012-08-01T11:05:06Z,Bankruptcy,in,California
2012-08-01T11:05:25Z,EDF,Halts,Blayais-2 Plant
2012-08-01T11:10:05Z,U.K.,Tackle,Non-Bank Financial Firm Failures
2012-08-01T11:15:04Z,Outcry,Year After,Crash
2012-08-01T11:15:11Z,Repsol,Receives,Approval
2012-08-01T11:37:46Z,Germany,Wins,Olympic Men ’s Eight Rowing Race
2012-08-01T11:37:46Z,Olympic Men,’s Race,Canada Second
2012-08-01T11:39:43Z,Fed,Before,Policy Decisions
2012-08-01T11:40:43Z,British Olympic Women ’s Pair,Wins,Country ’s Gold Medal
2012-08-01T11:42:41Z,Bonds,Gain as,Yields at Seven-Week High
2012-08-01T11:42:41Z,Indian Bonds,Gain as,Yields at Seven-Week High
2012-08-01T11:49:00Z,Israel CPI Bonds Drop,Reduces,Inflation Bets
2012-08-01T11:51:13Z,Kuwait Finance House Unit,Acquires,67 %
2012-08-01T11:52:41Z,Macau Gambling Revenue,Rises,1.5 %
2012-08-01T11:56:46Z,NFU,Says,Feed Costs
2012-08-01T12:00:54Z,Czech State Budget Deficit,Narrows,Revenue Rises
2012-08-01T12:06:07Z,Wind Lobby,Raises,Turbine Forecast
2012-08-01T12:12:41Z,Suntory,in,S$ 364.8 Million Offer
2012-08-01T12:13:43Z,Rate Cut Calls,Fade on,Accelerating Growth
2012-08-01T12:13:43Z,Sweden Krona,Jumps,Rate Cut Calls Fade on Accelerating Growth
2012-08-01T12:14:13Z,Poland,Pays Record-Low Yield at,Five-Year Debt Auction
2012-08-01T12:20:53Z,French Rapeseed Crop,Is,Seen
2012-08-01T12:20:53Z,Rapeseed Crop,Is,Seen
2012-08-01T12:23:04Z,Gold Futures,Erase,Gains on Comex
2012-08-01T12:36:03Z,Avon,in,Talks
2012-08-01T12:49:03Z,Hotel Demand,in,U.S. Cities
2012-08-01T12:49:03Z,Hyatt Profit,Climbs,5.4 %
2012-08-01T12:49:07Z,Marine Insurance Antitrust Probe,Dropped by,EU Regulators
2012-08-01T12:55:58Z,U.S. Midwest May Remain Hot,Dry Through,Mid-August
2012-08-01T12:59:04Z,Markit Final Index,in,July
2012-08-01T13:00:00Z,Roku Signs Haier,Mitsubishi for,Web-Enabled TVs
2012-08-01T13:01:02Z,Denmark,at,Largest Wind Farm
2012-08-01T13:01:02Z,Dong,Completes Foundations at,Denmark ’s Wind Farm
2012-08-01T13:02:15Z,Kristin Armstrong,Wins,Olympic Cycling Time-Trial Gold
2012-08-01T13:11:24Z,Penn State,Running Silas Redd After,Sanctions
2012-08-01T13:12:30Z,Masco,Reaches,Settlement
2012-08-01T13:13:52Z,Ye,Predicts,Younger Champions
2012-08-01T13:13:52Z,Ye 16,Predicts,Younger Champions
2012-08-01T13:25:42Z,Central European Media Net,Rises on,Derivatives Reevaluation
2012-08-01T13:25:42Z,European Media Net,Rises on,Derivatives Reevaluation
2012-08-01T13:25:42Z,Media Net,Rises on,Derivatives Reevaluation
2012-08-01T13:26:02Z,Dewey U.K. May,Be,Liquidated
2012-08-01T13:29:56Z,Monti,Says,Help
2012-08-01T13:34:58Z,Andalusia,Challenges,Spain Debt Caps Meant
2012-08-01T13:42:58Z,Opposition Lawmaker May,Be,Charged
2012-08-01T13:42:58Z,Russian Opposition Lawmaker May,Be,Charged
2012-08-01T13:47:24Z,Kristin Armstrong,Says,Retiring
2012-08-01T13:52:12Z,Analysts,Raise,Questions
2012-08-01T14:00:00Z,Construction Spending,Climbs to,Almost Three-Year High
2012-08-01T14:00:01Z,Australia Resources Boom,Pushes Office Vacancies to,3-Year Low
2012-08-01T14:01:14Z,Suez Environnement,Sees,Trend
2012-08-01T14:03:03Z,Punkers ’ Show Trial,Becomes for,Soul
2012-08-01T14:04:35Z,LabCorp,Climbs on,Report Company May
2012-08-01T14:04:35Z,LabCorp Climbs,Be,Buyout Target
2012-08-01T14:08:17Z,Nice,Tumbles Since,Most 2008 on Reduced Forecast
2012-08-01T14:12:11Z,Business,on Report,Text
2012-08-01T14:23:12Z,Turkey Yields,Drop to,18-Month Low
2012-08-01T14:28:38Z,Republicans,Seek,Rewrite
2012-08-01T14:28:57Z,Iran,Denies,Nuclear Plants Hit
2012-08-01T14:28:57Z,Nuclear Plants,Hit by,Virus
2012-08-01T14:28:57Z,Plants,Hit by,Virus
2012-08-01T14:33:43Z,Romanian Transelectrica,Wins,EU42 Million Credit
2012-08-01T14:33:43Z,Transelectrica,Wins,EU42 Million Credit
2012-08-01T14:35:16Z,July 27,for Report,Text
2012-08-01T14:39:05Z,Keeps,Working in,Brazil
2012-08-01T14:39:05Z,Transocean,Considers,Halt Order
2012-08-01T14:50:24Z,Syrian Crisis Costs Lebanon $ 150 Million,in,Exports
2012-08-01T15:00:42Z,MF Global Trustee,Sees,Return Of 90 % More
2012-08-01T15:00:42Z,MF Trustee,Sees,Return Of 90 % More
2012-08-01T15:07:54Z,London,’s Resumed,Station Reopened
2012-08-01T15:14:45Z,Credit Suisse Names DeNunzio M&A Chairman,Succeeding,Koch
2012-08-01T15:16:52Z,Fourth Day,for Declines,ECB Policy Meetings
2012-08-01T15:17:58Z,Gasoline,Rises,U.S. Fuel Inventories Decline
2012-08-01T15:19:00Z,Ecobank Ghana,Climbs to,3-Month High
2012-08-01T15:25:35Z,Ivory Coast,Sets Up,40 Billion-Franc Cocoa Stabilization Fund
2012-08-01T15:28:58Z,Britain ’s Bradley Wiggins,Wins,Olympic Cycling Time-Trial
2012-08-01T15:29:41Z,Colombian Peso,Strengthens on,Oil Gain
2012-08-01T15:29:41Z,Peso,Strengthens on,Oil Gain
2012-08-01T15:33:34Z,Nigeria Eurobond Yields,Reach,3-Month Low
2012-08-01T15:34:54Z,SocGen Profit,Misses Estimates With,42 % Slide on Writedowns
2012-08-01T15:36:29Z,Intercontinental Exchange Profit,Rises on,Energy Trading
2012-08-01T15:36:41Z,India ’s Cash-Starved Utilities,Helped,Regulator
2012-08-01T15:43:30Z,U.S. ’s Kristen Armstrong,Wins Cycling Gold at,38
2012-08-01T15:47:52Z,Standard Chartered Posts 11 % Rise,in,First-Half Profit
2012-08-01T15:52:13Z,Romney Tax Plan,Favors,Rich
2012-08-01T15:56:02Z,Galp Energia,Rises on,Mozambique Natural-Gas
2012-08-01T15:57:54Z,U.K.,Stocks,Rise
2012-08-01T16:03:47Z,Saudi Airlines Cargo,Handling,26 %
2012-08-01T16:06:37Z,Lawmakers,Mull,Limits on Central Bank
2012-08-01T16:06:37Z,Serb Lawmakers,Mull,Limits
2012-08-01T16:07:59Z,New York ’s C Train,Ranked Subway Line for,Year
2012-08-01T16:10:31Z,British Insurers,Pay Out,200 Million Pounds
2012-08-01T16:10:31Z,Insurers,Pay Out,200 Million Pounds
2012-08-01T16:13:24Z,Oil,Rises on,Stimulus Hope
2012-08-01T16:15:04Z,Greentech,Win,Shareholder Support
2012-08-01T16:15:27Z,Floating-Rate Notes,in,Year
2012-08-01T16:19:17Z,AuthenTec,Sued Over,Apple Takeover
2012-08-01T16:20:43Z,ED&F Man,Reduces,2012-13 Sugar Surplus
2012-08-01T16:26:55Z,New Nickel,Deliveries From,April 2013
2012-08-01T16:33:09Z,Socar,Offers,Azeri Light
2012-08-01T16:34:32Z,Government Hackery,Undermines,Hackery
2012-08-01T16:37:07Z,He,Sprints to,Challenge Usain Bolt
2012-08-01T16:37:07Z,Tyson Gay,Seeks Redemption,He Sprints
2012-08-01T16:55:35Z,North Korea Floods,Kill,31 More
2012-08-01T16:55:35Z,Storms Destroy Mines,Kill,31 More
2012-08-01T16:58:38Z,Olympic Badminton Players,Banned Over,Deliberate Poor Play
2012-08-01T16:59:11Z,Antofagasta Output,Rises,9.1 %
2012-08-01T16:59:11Z,Antofagasta Quarterly Output,Rises on,Esperanza Ramp-Up
2012-08-01T17:05:16Z,Hurt,in,Attack
2012-08-01T17:05:16Z,Wisconsin,Running Back Hurt by,Five Men
2012-08-01T17:25:08Z,Italy,of,Camorra
2012-08-01T17:25:08Z,U.S. Treasury,Targets Leaders for,Sanctions
2012-08-01T17:29:02Z,Drought-Disaster Declaration,Widened to,Cover Half U.S. Counties
2012-08-01T17:40:31Z,New York Property Tax Changes,Recommended by,Grand Jury
2012-08-01T17:42:52Z,China North East Petroleum,Must,Face Shareholder Lawsuit
2012-08-01T17:45:11Z,Treasuries,Snap Gain Before,Fed Announcement
2012-08-01T17:52:03Z,CEO,Cites,Mortgage-Spinoff Obstacles
2012-08-01T17:58:59Z,Italy May,Have,Lost Third of Corn Crop
2012-08-01T18:21:38Z,Greek Coalition Leaders,in,Budget Cuts
2012-08-01T18:24:12Z,Massachusetts,Sets Billion for,Transportation
2012-08-01T18:33:58Z,Republicans Nominate Pure Cruz,in,Texas
2012-08-01T19:00:02Z,IMF,Warns Government Debt Holdings Risk Bank Stability in,Japan
2012-08-01T19:04:59Z,Bonds.com Said,in,Talks With Western Asset
2012-08-01T19:04:59Z,Talks,With,Western Asset
2012-08-01T19:04:59Z,Western Asset,Janus for,Trades
2012-08-01T19:09:36Z,Argent,Raises,Million in Canada ’s IPO
2012-08-01T19:09:36Z,C$ 212.3 Million,in,Canada ’s Biggest IPO
2012-08-01T19:09:36Z,Canada,in,Biggest IPO
2012-08-01T19:21:00Z,Fed,Sets,Stage Again
2012-08-01T19:22:27Z,Gold,Is Advancing,More Easing
2012-08-01T19:22:27Z,Seen,Is Advancing,More Easing
2012-08-01T19:26:48Z,Cotton Drop,in,New York
2012-08-01T19:26:48Z,Juice,Drop in,New York
2012-08-01T19:27:51Z,Sister Serena Cruises,in,Olympic Singles
2012-08-01T19:27:51Z,Venus Williams,Loses,Sister Serena Cruises in Olympic Singles
2012-08-01T19:28:01Z,$ 3.81 Billion,in,Deposits
2012-08-01T19:28:58Z,Oil Options Volatility,Rises on,Inventory Drop
2012-08-01T19:35:02Z,Fiat Suspends New Investments,in,Italy
2012-08-01T19:35:23Z,Credit Swaps,in,U.S. Fall as Fed Signals Stimulus Tool Readiness
2012-08-01T19:35:25Z,IMF Chief Lagarde,Praises,Greece
2012-08-01T19:36:43Z,JMB Energie,Buy,Majority Stake
2012-08-01T19:54:56Z,Former L-3 Translator,Gets,9 Years
2012-08-01T20:00:01Z,Emirates,Says,Qantas Codeshare Deal
2012-08-01T20:01:00Z,Jobs ’s Yacht Maker,Does,Cool Headphones
2012-08-01T20:01:44Z,North Carolina Utility Board,Hires,Valukas
2012-08-01T20:04:49Z,Earnings Miss,Delay of,Total Venture
2012-08-01T20:06:07Z,Oil,Rises After,U.S. Supplies Tumble
2012-08-01T20:16:13Z,DuPont Knew,Is,Told
2012-08-01T20:17:03Z,Huntsman CEO,Says,Textiles
2012-08-01T20:17:04Z,Climate Change,is,Real
2012-08-01T20:17:53Z,Icahn,Gets Proxy Adviser Support in,Forest Labs Board Battle
2012-08-01T20:18:58Z,Lenovo,Forges,Ties
2012-08-01T20:20:43Z,Dollar Thrifty,Urges,End Pursuit
2012-08-01T20:22:49Z,Phillips 66 Profit,Rises,Billion Share Buyback Planned
2012-08-01T20:22:49Z,Phillips Profit,Rises,Billion Share Buyback Planned
2012-08-01T20:27:46Z,Defense Armageddon Prediction Clashes,With,Profits
2012-08-01T20:28:27Z,Comcast,Cutting,Its Video Losses
2012-08-01T20:31:56Z,Pioneer,Rises on,Valuations
2012-08-01T20:33:55Z,Facebook Plunge,Continues,Growth Concerns Persist
2012-08-01T20:42:42Z,U.S. Manufacturing,Shrinks for,Second Month
2012-08-01T20:44:46Z,Amazon,Splits With,Peers
2012-08-01T20:59:44Z,C$ 14.50 Offer,From,U.S. Retailer Lowe
2012-08-01T20:59:44Z,Offer,From,U.S. Retailer Lowe
2012-08-01T20:59:44Z,Rona,Rejects,Offer
2012-08-01T21:00:00Z,AstraZeneca Combination,Improves Breast Cancer Survival in,Study
2012-08-01T21:00:01Z,Romania May,Hold,Key Interest Rate
2012-08-01T21:00:01Z,Third,Meeting on,Turmoil
2012-08-01T21:00:54Z,InterDigital,Wins U.S. Appeal in,Patent Fight
2012-08-01T21:00:54Z,Patent Fight,With,Nokia
2012-08-01T21:01:00Z,Samaras,Secures,Budget Plan
2012-08-01T21:01:04Z,Ex-U.S. Senator Mitchell,Is Named,Penn State Integrity Monitor
2012-08-01T21:01:04Z,Senator Mitchell,Is Named,Penn State Integrity Monitor
2012-08-01T21:04:51Z,Canada Finance Firms,in,Charge of Exchange
2012-08-01T21:04:51Z,TMX Deal,Puts,Canada Finance Firms
2012-08-01T21:08:20Z,Fed,Holds,Pat
2012-08-01T21:09:41Z,Gasoline Rise,Drop,Oil
2012-08-01T21:09:58Z,Chavez Campaign Spending Boom Seen,Spurring,31 % Devaluation
2012-08-01T21:13:38Z,Talisman Energy,Rises on,Montney LNG Development Options
2012-08-01T21:14:17Z,UBS Whistle-Blower Birkenfeld,Released From,U.S. Prison
2012-08-01T21:14:44Z,Canadian Dollar,Weakens,Fed Refrains From Further Stimulus
2012-08-01T21:14:44Z,Dollar,Weakens,Fed Refrains From Further Stimulus
2012-08-01T21:14:44Z,Fed,Refrains From,Stimulus
2012-08-01T21:15:02Z,Obama Courts Ohio Voters,With,Middle-Class Tax
2012-08-01T21:22:25Z,Dollar,Climbs Against,Yen
2012-08-01T21:25:25Z,Fonterra,Says,Whole Milk Powder Prices Rise in Auction
2012-08-01T21:25:25Z,Whole Milk Powder Prices Rise,in,Auction
2012-08-01T21:38:07Z,Quarterly Revenue,Misses,Estimates
2012-08-01T21:38:07Z,Revenue,Misses,Estimates
2012-08-01T21:38:18Z,Money Funds Seen Failing,in,Crisis
2012-08-01T21:39:00Z,House,Rejects,Obama ’s Proposed Tax Boost
2012-08-01T21:39:48Z,U.S. Women,Get,Gyurta Breaks World Record
2012-08-01T21:40:09Z,BlackRock,Expands Top Management to,Boost Active Returns
2012-08-01T21:47:05Z,Fed Signals,Spur Economy Amid,Growth
2012-08-01T21:50:39Z,Soy,Open,Higher as Hot
2012-08-01T21:59:49Z,First All-Market Gain,in,Two Years Led by Drought
2012-08-01T21:59:49Z,Two Years,in Gain,Draghi
2012-08-01T22:00:00Z,Canada,Looks to,Europe
2012-08-01T22:00:00Z,G8 ’s Best Economy,Buys,Bargains
2012-08-01T22:00:00Z,G8 ’s Economy,Buys,Bargains
2012-08-01T22:00:33Z,Rescue Fund,in,Poke
2012-08-01T22:01:00Z,Canada,Looks to,Europe
2012-08-01T22:05:04Z,Bain Capital,Agrees to,Purchase Stake
2012-08-01T22:14:28Z,Comcast,Sues FCC Over,Tennis Channel Distribution Ruling
2012-08-01T22:14:30Z,William J. Bott III,Specialist at,NYSE
2012-08-01T22:22:52Z,Chrysler U.S. Sales,Rise,13 %
2012-08-01T22:24:02Z,Kodak,Wins,Victory Against Apple
2012-08-01T22:24:27Z,Concerns,in,New York
2012-08-01T22:24:27Z,Suntech May Tap Funds,in,China
2012-08-01T22:30:36Z,Fed,Took Money Out of,Monetary Policy
2012-08-01T22:42:39Z,China Slowdown Forcing,Discounting at,Gome
2012-08-01T22:45:36Z,Raytheon Claims Ex-Workers,Stole,Secrets
2012-08-01T22:46:22Z,First Solar Profit,Jumps,81 %
2012-08-01T22:46:22Z,Solar Profit,Jumps,81 %
2012-08-01T22:47:26Z,Delays,in,Argentine Oil Shipments
2012-08-01T22:47:26Z,Sailors ’ Union Protest,Causes,Delays in Oil Shipments
2012-08-01T22:47:32Z,Olympians ’ Climbing Trail,in,Colorado
2012-08-01T23:00:00Z,MetLife Profit,Beats Estimates as,Japan Fuels Expansion
2012-08-01T23:01:00Z,U.K.,Outlines,Plans
2012-08-01T23:01:55Z,Wiggins,Gets Soccer-Style Support on,Way
2012-08-01T23:01:59Z,Brent Oil,Beats,WTI
2012-08-01T23:01:59Z,London,Overtakes,New York
2012-08-01T23:02:34Z,First Solar Profit,Jumps,81 %
2012-08-01T23:02:34Z,Solar Profit,Jumps,81 %
2012-08-01T23:07:55Z,Transocean,Beats,Analyst Expectations
2012-08-01T23:09:59Z,Chavez,Says,Venezuela Respects Syria ’s Sovereignty
2012-08-01T23:30:10Z,Japan Stock Futures Rise,Fall on,Fed
2012-08-01T23:46:29Z,Macro Hedge Funds,Lose,Touch
2012-08-02T00:00:01Z,104 Deliveries,in,U.S.
2012-08-02T00:11:47Z,Ethan Beard,Leaving for,Startups
2012-08-02T00:40:44Z,U.S. Women Relay Swimmers,Win Gold on,Day of Olympic Records
2012-08-02T01:13:44Z,Man,Arrested After,Cyclist Killed Bus London Olympics
2012-08-02T04:01:01Z,Abortions,Blocked for,Now
2012-08-02T04:01:01Z,Arizona Law,Criminalizing,Abortions Blocked for Now
2012-08-02T04:01:01Z,Madoff Trustee,Sues,New York
2012-08-02T04:01:01Z,New York,Stop,Merkin Settlement
2012-08-02T04:10:57Z,Honda,Leads U.S. Car-Sales Gains Amid,Rebound at Toyota
2012-08-02T05:04:03Z,N.J.,Shrugs Off,Swan Barb
2012-08-02T06:17:37Z,Korea,Raises Gold Reserves Third Time Since,June Year
2012-08-02T06:56:18Z,Murdoch ’s A$ 2 Billion Pay-TV Bid,Cleared by,Regulator
2012-08-02T06:56:18Z,Murdoch ’s A$ Billion Pay-TV Bid,Cleared by,Regulator
2012-08-02T06:56:18Z,Murdoch ’s Billion Pay-TV Bid,Cleared by,Regulator
2012-08-02T07:11:17Z,Biggest Gain,in,Two Weeks
2012-08-02T07:11:17Z,Oil,Fluctuates After,Gain
2012-08-02T08:12:05Z,Badminton Players,Lose in,Challenge to Olympic Spirit
2012-08-02T08:12:05Z,Ousted Badminton Players,Lose in,Challenge to Olympic Spirit
2012-08-02T09:02:58Z,to Ignatiev ’s Target,Near Inflation,Food
2012-08-02T11:04:48Z,Dollar,Yen as,ECB Meet
2012-08-02T12:09:07Z,BOE,Holds,QE
2012-08-02T12:09:07Z,King,Assesses,Expanded Toolkit
2012-08-02T13:50:32Z,Green Mountain Gains,Rises,30 %
2012-08-02T13:59:16Z,Monsanto,Awarded Billion by,Jury
2012-08-02T14:04:41Z,HP,Wins,Ruling Against Oracle
2012-08-02T14:56:35Z,Eloqua,Rises After,Pricing IPO at Top of Range
2012-08-02T15:22:00Z,Draghi Pledge May Boost Investment,in,Europe
2012-08-02T15:42:06Z,Gas Liquids,Brings,Shale Pain
2012-08-02T16:04:10Z,Iran,Loses,$ 133 Million Day
2012-08-02T16:44:51Z,Drought,Is Added to,Fedorov ’s Tasks
2012-08-02T16:44:51Z,Fedorov,to,Tasks
2012-08-02T16:44:51Z,Russia,Joins,WTO
2012-08-02T20:15:26Z,Yelp,Sales,Top Estimates as New Markets Push User Growth
2012-08-02T20:25:17Z,U.S. Regulators,Reject,Drug
2012-08-02T20:35:40Z,Fitch,Cutting,Forecast
2012-08-02T20:38:05Z,CEO Tye Burt,Replaces With,Rollinson
2012-08-02T20:38:05Z,Kinross Gold,Fires,Replaces With Rollinson
2012-08-02T21:47:29Z,Missile Defense Staff,Stop,Surfing Porn Sites
2012-08-06T20:57:56Z,Chairman,Vanishes From,Double-Defaulting Kazakh Bank
2012-08-14T22:51:05Z,India Blackout,Underscores,Regulators
