2012-11-20T00:00:01Z,Kylie,With,Strings
2012-11-20T00:00:01Z,Led Zeppelin Reunion,Kylie With,Strings
2012-11-20T00:00:01Z,Ramsay Seeks U.K. Rights,Name,Spotted Pig
2012-11-20T00:01:00Z,Frontline Seen,Rising on,Record Chinese Oil Cargoes
2012-11-20T00:01:00Z,Italian Soccer Match Drowned,in,Auto Ads
2012-11-20T00:10:00Z,Egypt,Israel Against,Common Threat
2012-11-20T00:20:21Z,Fed ’s OIG,Reviewing Supervision After,Loss
2012-11-20T01:00:00Z,$ 10 Billion,Out Doling,Buybacks
2012-11-20T01:13:43Z,Broncos,Running,Back Willis McGahee Suffers Torn Knee Ligament
2012-11-20T01:42:40Z,May,Be,Appropriate
2012-11-20T01:42:40Z,RBA,Considered,More Easing
2012-11-20T02:36:23Z,Australian Jockey Oliver,Gets,Ban
2012-11-20T02:36:23Z,Jockey Oliver,Gets Ban on,Rival
2012-11-20T02:36:23Z,Top Australian Jockey Oliver,Gets,10-Month Ban
2012-11-20T02:36:23Z,Top Jockey Oliver,Gets Ban for,Bet
2012-11-20T03:13:30Z,Xstrata Australia Coal Project,Returns as,Prices Fall
2012-11-20T03:13:30Z,Xstrata Reviewing Australia Coal Project,Returns as,Prices Fall
2012-11-20T03:23:45Z,Analysts,See Stimulus in,December
2012-11-20T03:23:45Z,BOJ,Refrains,Loosening
2012-11-20T03:33:26Z,VTB,Breaking as,RTS Futures Rise
2012-11-20T03:34:21Z,Rise,to Investment,Securities
2012-11-20T04:26:19Z,China Foreign Investment Falls,in,12 Months
2012-11-20T04:43:05Z,Cut Japan,Surcharge in,2013
2012-11-20T04:43:05Z,Korea Copper Surcharge,in,2013
2012-11-20T04:45:16Z,Hong Kong Short Selling Turnover,Recorded,11/20/2012
2012-11-20T04:55:15Z,Bank,for,Computer System
2012-11-20T04:55:15Z,Fujitsu,Hitachi for,Bank ’s Computer System
2012-11-20T04:55:15Z,Mizuho,Selects,Hitachi for Bank ’s Computer System
2012-11-20T05:00:33Z,Home,Starts in,U.S.
2012-11-20T05:01:00Z,Fans,Cry,Swindle
2012-11-20T05:01:00Z,Mozart,Pushes,Maria Schneider Into Jazz Composing
2012-11-20T05:01:00Z,Nasty Mozart,Pushes,Maria Schneider Into Jazz Composing
2012-11-20T05:01:53Z,Fraud Trial,Shows,Medicaid Abuse
2012-11-20T05:05:19Z,India 10-Year Bond Yield,Rises as,Cash Declines
2012-11-20T05:25:13Z,First Labor Talks,in,Week
2012-11-20T05:25:13Z,NHL,Asks After,First Labor Talks
2012-11-20T06:05:44Z,Billionaire Brothers Debt Recast,Boosts,Essar Bond
2012-11-20T06:32:26Z,Chelsea,for,Sturridge
2012-11-20T06:52:58Z,49ers Defeat Bears 32-7,in,NFL Showdown of Backup Quarterbacks
2012-11-20T07:00:00Z,Exports Fall,Snapping,Two Months of Increases
2012-11-20T07:00:00Z,Swiss Exports Fall,Snapping,Two Months of Increases
2012-11-20T07:07:39Z,Workers,Accept,Buyout
2012-11-20T07:12:23Z,10-Year Bonds,Open Lower After,Moody ’s Cuts Credit Rating
2012-11-20T07:12:23Z,Bonds,Open After,Moody ’s Cuts Credit Rating
2012-11-20T07:12:23Z,French 10-Year Bonds,Open After,Moody ’s Cuts Credit Rating
2012-11-20T07:12:23Z,French Bonds,Open After,Moody ’s Cuts Credit Rating
2012-11-20T07:12:23Z,Moody,After,Cuts Credit Rating
2012-11-20T07:21:49Z,Adris Eyes Insurers,in,Croatia
2012-11-20T07:52:37Z,Japan Exchange,Clears,Hurdle
2012-11-20T08:00:00Z,Hungary September Wages Rise,in,Five Months
2012-11-20T08:00:45Z,Schiff Bidding Seen,Making,Most Expensive Deal Pricier
2012-11-20T08:14:06Z,VTB,Turns Alchemist as,Bond Ties Return
2012-11-20T08:15:51Z,Foreign Funds,Sell,Stocks
2012-11-20T08:15:51Z,Rupiah,Weakens for,Day
2012-11-20T08:23:00Z,Belgian Government,Reaches Accord on,2013 Budget
2012-11-20T08:23:00Z,Government,Reaches,Accord
2012-11-20T08:25:15Z,Vitol May,Consider Gas Investments in,Latvia
2012-11-20T08:44:23Z,X5,Misses,Third Quarter Earnings Estimates
2012-11-20T08:45:28Z,Hong Kong Stocks,Reversing,Gains
2012-11-20T08:45:56Z,Banks ’ Dollar Funding Costs,Hold Near,Two-Month High
2012-11-20T08:45:56Z,Two-Month High,in,Europe
2012-11-20T09:20:56Z,China Politburo Member,Takes,Bo Xilai Chongqing Job
2012-11-20T09:20:56Z,Youngest China Politburo Member,Takes,Bo Xilai Chongqing Job
2012-11-20T09:22:39Z,Polish Rate Cut,Is,Possible
2012-11-20T09:39:58Z,Mondelez,See Sideways,Cocoa Trading
2012-11-20T09:45:21Z,Exxon,Said to,Face Delay on Kashagan Output Boost
2012-11-20T10:03:37Z,Vestas Boat,Sets Speed Record for,Fastest Wind-Powered Craft
2012-11-20T10:10:52Z,Orient Green,Says,Grid Congestion
2012-11-20T10:28:58Z,German Pig Prices,Seen as,Spain Drops Week
2012-11-20T10:28:58Z,Pig Prices,Seen as,Spain Drops Week
2012-11-20T10:30:02Z,Record Levels,in,Atmosphere
2012-11-20T10:31:29Z,U.S. Treasuries Decline,With,10-Year Yields Rising to 1.63 %
2012-11-20T10:35:33Z,Egypt Police Clashes,in,Cairo
2012-11-20T10:38:18Z,Canada,on,Green Energy Program
2012-11-20T10:38:18Z,Canada ’s Green Energy Program,on EU,Japan
2012-11-20T10:38:18Z,WTO,Backs,EU on Canada ’s Green Energy Program
2012-11-20T10:42:58Z,Germany,Earns,3 Billion Euros
2012-11-20T10:49:36Z,Enel Signed Agreement,Buy,Chile Wind Project
2012-11-20T10:49:36Z,Vestas,Says,Enel Signed Agreement
2012-11-20T11:00:00Z,Chrysler ’s Dart,Misses,Consumer Reports Recommendation
2012-11-20T11:04:57Z,Shirakawa,Pushes With,Criticism
2012-11-20T11:11:50Z,No. 2 Rank,in,India
2012-11-20T11:31:24Z,Scene,in,London
2012-11-20T11:31:24Z,Theo Fennell,Brown at,Walpole
2012-11-20T11:33:35Z,EU Budget Cuts,Hurting,New Members
2012-11-20T11:45:16Z,Mol,Heads for,Two-Month Low
2012-11-20T11:59:08Z,Yen,Erases Gain to,Trade Little
2012-11-20T12:00:40Z,Rafael Nadal,Resumes Practice,5-Month Injury Break
2012-11-20T12:04:06Z,Turkey Central Bank,Narrows Rates Corridor for,3rd Month
2012-11-20T12:07:49Z,Fiat,Tumbles on,Cash Concerns
2012-11-20T12:12:14Z,Downgrade,Widens,Gulf With Germany
2012-11-20T12:12:14Z,French Downgrade,Widens,Gulf With Germany
2012-11-20T12:29:26Z,Cut,in,Pensions Tax Breaks
2012-11-20T13:00:00Z,AIDS,Recedes as,Home-Grown Funding Exceeds International Aid
2012-11-20T13:03:28Z,Ruble,Strengthens Day Before,Tax Payments
2012-11-20T13:09:33Z,Pork,Rises as,Beef Declines
2012-11-20T13:09:33Z,Poultry Production,Rises as,Beef Declines
2012-11-20T13:09:33Z,Russian Pork,Rises as,Beef Declines
2012-11-20T13:11:16Z,Croatia Ex-PM Sanader Guilty,in,Mol
2012-11-20T13:11:17Z,Fed,Within,Target Range
2012-11-20T13:14:42Z,Commodity Weather,Revises,December Temperature Outlook
2012-11-20T13:24:41Z,Juncker,Sees,Chances of Deal
2012-11-20T13:26:36Z,U.K.,Recognizes,Opposition Coalition
2012-11-20T13:40:31Z,Carbon Projects,Cancel,Emission Credits
2012-11-20T13:42:50Z,Poland ’s Electricity Consumption,Extends,Decline
2012-11-20T13:51:33Z,Mursi,Says Truce Bid to,Mena Reports
2012-11-20T13:51:33Z,Show Results,in,Hours
2012-11-20T14:02:16Z,Allianz,Sees,Volatile Equities
2012-11-20T14:11:29Z,Dollar-Funding Stress Level,Eases,Money-Market Indicators Show
2012-11-20T14:11:29Z,Stress Level,Eases,Money-Market Indicators Show
2012-11-20T14:12:52Z,Retail Sales Growth,Unexpectedly Slows on,Incomes
2012-11-20T14:12:52Z,Russian Retail Sales Growth,Unexpectedly Slows on,Incomes
2012-11-20T14:27:02Z,John Gibbons,Returns as,Manager of Restocked Toronto Blue Jays
2012-11-20T14:30:00Z,Lower Oilseed Meal Supply,Cuts,Livestock Feed Profit
2012-11-20T14:30:00Z,Oilseed Meal Supply,Severely Cuts,Livestock Feed Profit
2012-11-20T14:30:35Z,Xstrata Holders,Reject,Glencore Option Linked to Bonuses
2012-11-20T14:33:55Z,South African Wheat Futures Retreat,in,Three Weeks
2012-11-20T14:34:21Z,Wales,Makes,Five Changes for Rugby Match Against New Zealand
2012-11-20T14:44:06Z,Central Bank,Leaves,Rates Unchanged
2012-11-20T14:53:34Z,Carbon,Permits at,6.47 Euros
2012-11-20T14:58:52Z,England ’s Finn,Is,Sky Reports
2012-11-20T15:08:06Z,Payrolls,Climb in,35 U.S. States
2012-11-20T15:10:58Z,Belgium Reins,Raises,Taxes in Budget Deal
2012-11-20T15:10:58Z,Taxes,in,Budget Deal
2012-11-20T15:13:15Z,Basic Nations,Seek to,Limit UN Carbon Offset Use
2012-11-20T15:13:15Z,Nations,Seek for,Non-Members
2012-11-20T15:15:02Z,Canadian September Sales,Decline Goods on,Cars
2012-11-20T15:15:02Z,Canadian September Wholesale Sales,Decline Goods on,Cars
2012-11-20T15:15:02Z,September Sales,Decline Goods on,Cars
2012-11-20T15:15:02Z,September Wholesale Sales,Decline,Goods
2012-11-20T15:18:08Z,India Watershed Project,Gets,Millions More in World Bank Funding
2012-11-20T15:18:08Z,Millions,More in,World Bank Funding
2012-11-20T15:20:16Z,Rostelecom Shares Drop,Is,Investigated
2012-11-20T15:21:53Z,Fico,Finish,Slovak Unit Sale Talks
2012-11-20T15:24:37Z,Breivik Fan,Plotting,Bomb Attack
2012-11-20T15:30:15Z,Rand Retreats First Day,in,Three
2012-11-20T15:34:56Z,New York Madam Anna Gristina,Sentenced,Six Months ’ Jail
2012-11-20T15:40:32Z,Nordic Power,Slips,2 %
2012-11-20T15:40:32Z,Power,Slips,2 %
2012-11-20T15:40:32Z,Rain Forecast Indicates,Growing,Glut
2012-11-20T15:57:34Z,India,on,Currency Swap Proposal
2012-11-20T15:59:46Z,Fed ’s Lacker,Linking,Policy
2012-11-20T16:02:46Z,Flour Mills Nigeria,Receives,SEC Approval for Bagco Merger
2012-11-20T16:04:35Z,Warren Rudman,Dies at,82
2012-11-20T16:07:33Z,Atlantic Equities,Closes,U.S. Unit
2012-11-20T16:16:14Z,Egypt ’s Nomani,Keeps Ukraine on,List of Approved Wheat Sources
2012-11-20T16:21:18Z,Nigerian Bank Governor Sanusi,Says,Inflation
2012-11-20T16:22:59Z,Egypt,Reaches,IMF Loan Agreement
2012-11-20T16:33:06Z,Credit Glut,in,Latin America
2012-11-20T16:33:06Z,Daycoval,Sees,Credit Glut in Latin America
2012-11-20T16:34:06Z,Beat SEC,Joins,StormHarbour
2012-11-20T16:40:23Z,$ 1 Billion Solar-Power Deal,With,Morocco
2012-11-20T16:43:20Z,Moody,After,France Downgrade
2012-11-20T16:48:47Z,Congo Rebels,Seize,Eastern City
2012-11-20T16:50:37Z,First Lady,Offers,Hug
2012-11-20T16:50:58Z,Cuomo,Says,N.Y. Will
2012-11-20T16:51:49Z,Grain Imports,Drop as,Wheat Purchases Decline
2012-11-20T16:51:49Z,Italian Grain Imports,Drop as,Wheat Purchases Decline
2012-11-20T16:54:24Z,Ex-UBS Trader Adoboli,Gets,7 Years
2012-11-20T16:55:30Z,Talks,in,Spring
2012-11-20T17:01:27Z,U.K. Stocks,Climb as,Euro-Area Ministers Meet
2012-11-20T17:15:26Z,Hezbollah Victims May Bring Claims,in,N.Y.
2012-11-20T17:18:56Z,Ukraine,Extends,Ban
2012-11-20T17:20:08Z,Slovenia,for,Adria
2012-11-20T17:20:08Z,Slovenia ’s Adria,Probed by,EU
2012-11-20T17:22:07Z,Hochtief,Gets Leader as,ACS Solidifies Power
2012-11-20T17:34:20Z,IMF,Says,Euro-Area Reforms Needed
2012-11-20T17:36:16Z,Republican West,Concedes in,Florida U.S. House Race
2012-11-20T17:49:39Z,Xstrata Holders,Vote for,Glencore Offer
2012-11-20T17:50:01Z,Gain,to Debt,Barclays
2012-11-20T17:50:01Z,Yield,Search,Persists
2012-11-20T17:56:29Z,EU Carbon,Rises in,Six Days
2012-11-20T17:59:45Z,Defense Cuts,Says in,Likely Budget Deal
2012-11-20T17:59:45Z,EADS Chief,Says in,Likely Budget Deal
2012-11-20T18:00:00Z,Dracula ’s Lanterns Join Romanee-Conti,in,Hong Kong Sales
2012-11-20T18:04:37Z,Brooks,Charged in,News Corp
2012-11-20T18:04:37Z,Coulson Charged,in,News Corp
2012-11-20T18:12:32Z,Jets,Can Point,Testaverde Says
2012-11-20T18:17:40Z,S&P,Extends,Loss
2012-11-20T18:17:40Z,S&P 500,Extends,Loss
2012-11-20T18:28:36Z,6.3 % Stake,in,Teen Retailer Abercrombie
2012-11-20T18:28:36Z,Citadel,Acquires,Stake in Teen Retailer Abercrombie
2012-11-20T18:31:01Z,Entrepreneurs,Curb Expansion Plans,Loans Plunge
2012-11-20T18:53:25Z,Wiesel Optimistic Clinton Will,Help,Broker Mideast Cease-Fire
2012-11-20T18:59:06Z,China Rules,Setting Up,U.S. Conflict
2012-11-20T19:00:00Z,Fed Regional Bank Directors,Spending,Gains
2012-11-20T19:01:10Z,Kot Addu Power May,Get Million Pakistan Dues in,Few Months
2012-11-20T19:10:52Z,US Airways Attendants,Approve,Strike
2012-11-20T19:35:26Z,Harper,Says,Canadians Want Careful Examination of Bids
2012-11-20T19:44:08Z,California,Fires,Football
2012-11-20T19:44:08Z,Football,Coach,Jeff Tedford
2012-11-20T19:52:13Z,Obama,Pushes Health Law With,Forward Rules for Insurers
2012-11-20T19:53:25Z,Steelers Re-Sign Receiver Plaxico Burress,Add,Quarterback Hoyer
2012-11-20T20:00:01Z,Russian Rail,in,Locomotives
2012-11-20T20:13:54Z,Phillips,Extends,Borger Refinery Work
2012-11-20T20:13:54Z,Phillips 66,Extends,Borger Refinery Work
2012-11-20T20:26:20Z,Argentine Unions Block Roads,in,First Fernandez-Era Strike
2012-11-20T20:43:52Z,Venezuela Currency Market Sold Fewest Bonds,in,Two Years
2012-11-20T20:46:46Z,Peru Bond Yields,Drop as,U.S. Outlook Buoys Risk
2012-11-20T21:00:00Z,Korean Department Store Sales,Weaken,Economy Slows
2012-11-20T21:00:00Z,South Korean Department Store Sales,Weaken,Economy Slows
2012-11-20T21:02:38Z,Nestle Purchase,in,Mexico
2012-11-20T21:07:25Z,HeartWare,Wins,U.S. Approval of Heart Pump
2012-11-20T21:08:35Z,Trina,Fall on,Irrational Panel Prices
2012-11-20T21:10:29Z,Housing,Starts in,U.S. Increase
2012-11-20T21:11:10Z,China Grabs Share,With,Cheap Loans
2012-11-20T21:11:37Z,Analyst,Says,BlackBerry May Avoid Scenario
2012-11-20T21:12:18Z,Rifle-Toting Terrorists,Pose Threat to,Power Grid
2012-11-20T21:12:18Z,Terrorists,Pose,Great Threat
2012-11-20T21:12:26Z,Interbolsa,Hits,Hottest Market
2012-11-20T21:12:29Z,BlackBerry,Being,Dropped by U.S. Agency Over Reliability
2012-11-20T21:15:53Z,NBC,Wins,November Sweeps
2012-11-20T21:16:42Z,Apotex Seeks,Ruling on,Generic Blood-Pressure Drug
2012-11-20T21:16:45Z,Goldman,Boosts,Rating
2012-11-20T21:16:53Z,Quebec,Raises,Cuts
2012-11-20T21:17:57Z,Stocks,End,Changed
2012-11-20T21:18:58Z,For-Profits,Losing to,Better-Rated
2012-11-20T21:23:53Z,Klarman,Stung in,Hewlett-Packard Value Hunt
2012-11-20T21:24:02Z,Bayer Abandoning Schiff,Thwarts,Bets
2012-11-20T21:25:03Z,Banks,Hiring for,Home Loans
2012-11-20T21:25:50Z,Intel CEO,Search,Mobile-Chip Veteran
2012-11-20T21:27:54Z,Energy Recovery,Says,Water Demand
2012-11-20T21:28:59Z,Bayer,Walks From,Schiff
2012-11-20T21:29:17Z,Oil,Tumbles as,Gaza Cease-Fire Expected
2012-11-20T21:38:35Z,Ethanol,Strengthens Against,Gasoline
2012-11-20T21:46:19Z,Tolkien Estate,Sues,Warner Over Lord of Rings Games
2012-11-20T21:53:18Z,S&P,Erases Loss as,Housing Report Tempers HP
2012-11-20T21:53:18Z,S&P 500,Erases Loss as,Housing Report Tempers HP
2012-11-20T21:53:23Z,Calvin Klein,Settle,Lawsuit Over Yoga Pants
2012-11-20T21:53:23Z,Lululemon,Settle,Lawsuit Over Yoga Pants
2012-11-20T22:03:35Z,HP,Plunges on,Billion Charge
2012-11-20T22:14:36Z,Canadian Dollar Falls Versus,Currencies as,Crude Oil Drops
2012-11-20T22:14:36Z,Dollar Falls Versus,Most Currencies as,Crude Oil Drops
2012-11-20T22:31:21Z,Crude Oil Options Fall,With,Futures
2012-11-20T22:40:36Z,Boeing,Nears Engineer Strike Vote as,Union Balks
2012-11-20T22:57:04Z,Ex-Fannie Mae Official,Is,Dismissed
2012-11-20T22:59:31Z,Los Angeles,Set With,Highest Sales Levy
2012-11-20T23:00:00Z,Heineken,Sees,Boost
2012-11-20T23:01:00Z,Poland,Is,Biggest Net Recipient
2012-11-20T23:01:01Z,Chrysler,Dodges Tech Troubles,Letting
2012-11-20T23:01:54Z,Adoboli Trading Loss,Hastened,UBS Investment-Bank Retreat
2012-11-20T23:04:19Z,Trina Solar Shifts Strategy,in,Fight Against Low Prices
2012-11-20T23:06:00Z,U.S.,Deal on,Colorado River
2012-11-20T23:13:26Z,ETF,Slips as,French Cut Tempers Technology Rally
2012-11-20T23:13:26Z,Emerging ETF,Slips as,French Cut Tempers Technology Rally
2012-11-20T23:19:00Z,Ex-SAC Manager Martoma Charged,in,Record Insider Scheme
2012-11-20T23:26:35Z,Clinton Shuttles,in,Mideast
2012-11-20T23:30:06Z,Obama,for,America
2012-11-20T23:46:54Z,Ex-DocX President Pleads Guilty,in,Florida
2012-11-20T23:51:24Z,New York Apartment Dwellers,Sue Over,Damage
2012-11-21T00:01:00Z,CRH,Wields,Billion
2012-11-21T00:15:39Z,Chelsea,Faces,Champions League Elimination
2012-11-21T02:00:01Z,Chile,at,Celfin
2012-11-21T05:00:02Z,Al-Qaeda Cancer Spreads,With,U.S. Chasing
2012-11-21T05:01:01Z,Credit Suisse,Sued Over,Losses on Mortgage Bonds
2012-11-21T05:01:01Z,Ex-SAC Manager,Was,Pupil of Doctor Accused
2012-11-21T05:01:54Z,Ravens Safety Reed,Has,One-Game Suspension Cut
2012-11-21T05:35:54Z,Consumer Shares,Lure Funds on,Growth
2012-11-21T05:35:54Z,Philippine Consumer Shares,Lure Funds on,Growth
2012-11-21T06:38:39Z,Japan ’s Exports,Reach,Three-Year Low
2012-11-21T08:10:57Z,BNP,Joins,Credit Agricole
2012-11-21T09:46:00Z,900 Homes,Offices in,London
2012-11-21T09:46:00Z,CapCo,Receives,Approval
2012-11-21T09:46:00Z,Offices,in,London
2012-11-21T11:44:16Z,Pakistan,Stocks,Best as Violence Ignored
2012-11-21T12:46:07Z,Archbishop,Says,Church Lost Credibility
2012-11-21T13:33:09Z,Croatia,Gets,Boost
2012-11-21T14:40:01Z,HP ’s Accounting Claims,Are Seen as,Cover
2012-11-21T15:33:07Z,Billionaire Ofer,With,Potash Sale
2012-11-21T18:54:00Z,Chevron Spill Records,Add,Risk for Oil Investors
2012-11-21T20:33:08Z,Sandy,of,Damage
2012-12-03T19:23:28Z,Germany 's Clean Energy,Transforms,Industrial City of Hamburg
2012-12-03T19:23:28Z,Germany 's Energy,Transforms,Industrial City
