2012-08-13T00:12:16Z,Retail Trust,in,Talks With AMP on Shopping Mall Swap
2012-08-13T00:12:16Z,Talks,With,AMP on Shopping Mall Swap
2012-08-13T01:07:34Z,British Medals,Help,Ease Olympic Security Concerns
2012-08-13T01:44:55Z,Islamists,Had Links With,With Elements
2012-08-13T02:40:59Z,Wasabi,Finalizes,Purchase of Turkey Geothermal Power Project
2012-08-13T03:00:01Z,YPF Profit,Rises After,Govt Nationalization
2012-08-13T03:00:01Z,YPF Quarterly Profit,Rises After,Argentine Govt Nationalization
2012-08-13T03:19:46Z,Cooking-Oil Imports,Set,Drop
2012-08-13T03:39:51Z,N.Y. Regulator Scrutiny,Extends to,Carnivals
2012-08-13T03:44:50Z,Noda May,Skip,S. Korea Summit
2012-08-13T03:46:14Z,Japan Utilities ’ July Fuel Oil Use,Rises on,Nuclear Shutdown
2012-08-14T04:00:01Z,Bulgari,Accuses,Kenneth Jay Lane of Copying Jewelry Designs
2012-08-14T04:00:01Z,Fisker,Looks,Into California Fire Involving Plug-In Karma
2012-08-14T04:00:01Z,Whitman,Denies,Trading
2012-08-14T04:00:02Z,Industry,Criticizes,Obama Plan
2012-08-14T04:01:00Z,Johnny Pesky,Linked to,Fenway Park Foul Pole
2012-08-14T04:01:00Z,NBC,Says,Olympics Drew 219.4 Million Viewers
2012-08-14T04:01:00Z,Olympics Drew 219.4 Million Viewers,Topping,2008 Games
2012-08-14T04:01:01Z,JPMorgan,Sued by,Community College
2012-08-14T04:01:01Z,Ryan,Faces Hecklers at,Iowa Fair on First Campaign Trip
2012-08-14T04:01:01Z,Samsung,Making,Its Case
2012-08-14T05:52:56Z,Elpida Bondholders,Tell,Court Micron Buyout Bid Too Cheap
2012-08-14T06:04:15Z,Citigroup,Sees M&A Gaining,Seek
2012-08-14T08:51:16Z,Mayor,Succeed,Cameron
2012-08-14T09:07:54Z,Japan ’s Executives,Swelter in,Solidarity
2012-08-14T09:47:28Z,SingTel First-Quarter,Misses,Estimates
2012-08-14T09:50:29Z,Focus Media,Gets Offer in,Biggest China Leveraged Buyout
2012-08-14T09:56:20Z,India Inflation,Cools,Growth Falters
2012-08-14T10:20:35Z,Iran,Oppose,Syria ’s Islamic Group Suspension
2012-08-14T11:28:47Z,Currency Flows,Reversing China,Trade Slows
2012-08-14T15:13:33Z,Hungary,Joins,Crisis
2012-08-14T16:07:19Z,Peregrine CEO Russell Wasendorf,Indicted on,31 Counts
2012-08-14T23:05:29Z,Blind Mice,Given,Sight After Device Cracks Retinal Code
2012-08-14T23:05:29Z,Given,Sight After,Device Cracks Retinal Code
2012-08-14T23:05:29Z,Mice,Given,Sight
2012-08-15T14:32:07Z,IKEA Fortune,Put in,Spotlight
2012-08-15T14:32:07Z,Secret IKEA Fortune,Put With,Rights Sale
2012-08-15T15:14:02Z,He,Helped,Rig Bids
2012-08-15T15:14:02Z,Marketer,Ex-Bank of,America
2012-09-25T18:26:01Z,BBA,Give Up,Libor Oversight on Rigging Scandal
