2012-12-25T02:05:33Z,Sole Western Gold Miner Seeks Clarity,in,Vietnam
2012-12-25T02:24:33Z,China ’s Stocks Rise,Led by,Property Developers
2012-12-25T02:47:25Z,China ’s Iron Ore Inventories,Drop to,Two-Year Low
2012-12-25T03:06:59Z,China Money Rate Drops,Adds,Capital
2012-12-25T03:06:59Z,PBOC,Adds,Capital
2012-12-25T03:14:39Z,BYD,Build,Solar Farm
2012-12-25T03:38:15Z,China ’s Shanghai Composite,Rises,2 %
2012-12-25T05:00:09Z,Southern Methodist Routs Fresno State 43-10,in,Hawaii Bowl
2012-12-25T05:00:34Z,49ers,’ Ligaments,ESPN
2012-12-25T05:10:19Z,Chavez,Gives,Venezuela Economic Orders
2012-12-25T06:01:14Z,Japan ’s Democrats,Pick Kaieda After,Election Rout
2012-12-25T06:15:50Z,Japan ’s Topix Index,Rises to,Nine-Month High
2012-12-25T06:27:51Z,Russia,Sees,Winter Grain Loss of as Much as 30 %
2012-12-25T06:27:51Z,Winter Grain Loss,in,Volga Region
2012-12-25T06:58:07Z,Japan,as,Abe Pressures BOJ
2012-12-25T07:22:36Z,China ’s Southern Provinces Face Rain,Snow as,Temperatures Rise
2012-12-25T07:23:23Z,Thai Former Trader,Gets,4-Year Jail Term
2012-12-25T07:28:37Z,Rubber,Climbs on,China Recovery
2012-12-25T07:38:37Z,China ’s Stocks,Jump to,Five-Month High
2012-12-25T08:00:27Z,Five Tribesmen,Blocking,Oil Pipeline Repair
2012-12-25T08:00:27Z,Yemen Army,Kills,Five Tribesmen
2012-12-25T08:26:08Z,Thai Baht,Touches,Two-Week Low
2012-12-25T08:29:47Z,Toyota,Starts Crown Sales After,Slump
2012-12-25T08:44:33Z,Kazakh Court,Bans,Novosti
2012-12-25T09:03:22Z,Nomura,Extends,Longest Winning Streak
2012-12-25T09:17:12Z,China Shares,Erase,2012 Drop
2012-12-25T09:46:45Z,1 %,in,2012
2012-12-25T09:46:45Z,Advance Below,to GDP,Yanukovych
2012-12-25T09:46:45Z,Ukraine,’s GDP,Yanukovych
2012-12-25T10:12:11Z,Algeria,Sees Oil Output By,APS
2012-12-25T10:20:38Z,Tasnee,Rises,Most
2012-12-25T10:23:13Z,Growth,Spurs,Sabic Credit Risk Drop
2012-12-25T10:23:13Z,Higher Growth,Spurs,Sabic Credit Risk Drop
2012-12-25T10:23:13Z,Higher Saudi Growth,Spurs,Sabic Credit Risk Drop
2012-12-25T10:23:13Z,Saudi Growth,Spurs,Sabic Credit Risk Drop
2012-12-25T11:04:01Z,He,Spends,Christmas
2012-12-25T11:04:01Z,Mandela,Looking,Better
2012-12-25T11:48:03Z,Netanyahu Lead,Narrows as,Jewish Home Party Gains
2012-12-25T13:08:25Z,$ 1.3 Billion,in,Top Mideast IPO
2012-12-25T13:08:25Z,Asiacell,Seeks,Billion in Top Mideast IPO
2012-12-25T13:42:42Z,Lukoil,Wins,$ 1.7 Billion Siberian Oil Auction
2012-12-25T13:43:12Z,Iran,in,Strait of Hormuz
2012-12-25T14:12:10Z,Kuwait,Offers to,Host Donor Conference
2012-12-25T14:12:10Z,Syria Death Toll,Rises,Kuwait Offers to Host Donor Conference
2012-12-25T14:30:00Z,Iran Vegetable-Oil Buying,Rising on,Crush Drop
2012-12-25T15:05:50Z,Rise First Time,in,Three Days
2012-12-25T15:44:14Z,China Stocks,Erase,Year ’s Losses
2012-12-25T15:44:14Z,Yen Drop,Drives,Japan Shares
2012-12-25T15:49:57Z,Emerging Stocks,Increase,Second Day
2012-12-25T15:49:57Z,Stocks,Increase,Second Day
2012-12-25T18:10:37Z,Israel Moves,With,Ahead Plan Build in Jerusalem Gilo Area
2012-12-25T20:43:12Z,Netflix,Restores,Online Video Service
2012-12-25T21:00:00Z,Korea Consumer Confidence,Fails Amid,Export Risks
2012-12-25T22:36:36Z,Israel Hedge Funds Defy Iran Threat,Multiplying in,Tech Center
2012-12-25T23:30:01Z,Poor,Do Have,Values
2012-12-25T23:30:01Z,Unions,Promote,Wage Inequality
2012-12-25T23:30:01Z,Unmarried Poor,Do Have,Bad Values
2012-12-26T01:43:19Z,China ’s Soybean Imports,Seen,Rising
2012-12-26T02:44:01Z,Sumitomo Mitsui,Weighs,Record Dollar Bond Sales
2012-12-26T05:30:15Z,India,Joins,Indonesia Facing Policy Dilemma
2012-12-26T06:34:33Z,Kobe Bryant,Behind,34 Points
2012-12-26T07:27:24Z,Police,Ease,Curbs
2012-12-26T08:02:04Z,Japan,as,Prime Minister
2012-12-26T08:02:04Z,Shinzo Abe,Approved as,Japan ’s Prime Minister
2012-12-26T08:29:59Z,VW Races,With,GM
2012-12-26T19:16:02Z,Congress,Nears,U.S. Budget Deadline
2012-12-26T21:19:38Z,U.S. Holiday Sales Rise,Hurts,Confidence
2012-12-26T21:19:38Z,Washington,Hurts,Confidence
