2012-03-23T00:00:00Z,Britons,Lured at,Reckitt Benckiser Suds School
2012-03-23T00:00:01Z,Cannibal Crooner Broods,in,Sweeney
2012-03-23T00:00:01Z,Dubai Art Fair Stars Husain,Heads,Gothic Tower
2012-03-23T00:01:00Z,Hidden Fund Fees Mean U.K. Investors,Pay,Double US Rates
2012-03-23T00:43:57Z,Crude Oil,Rises in,New York Trading
2012-03-23T00:43:57Z,Oil,Rises in,New York Trading
2012-03-23T01:05:48Z,BofA,Allows Homeowners to,Rent
2012-03-23T01:24:44Z,Syracuse,Defeats,Wisconsin 64-63
2012-03-23T01:24:44Z,Wisconsin 64-63,in,NCAA Basketball Tournament
2012-03-23T01:42:04Z,Ringgit,Set for,Third Weekly Drop
2012-03-23T01:48:10Z,Soldier,Involved in,Drunken Brawl
2012-03-23T01:54:55Z,Louisville Defeats No. 1 Seed Michigan State,in,NCAA Tournament
2012-03-23T02:00:00Z,Death,Delivers,Meal
2012-03-23T02:07:38Z,Central Bank,Holds,Rates
2012-03-23T02:46:00Z,China Money Rate,Set as,Banks Boost Capital
2012-03-23T02:49:56Z,Sony,Says,Japan LCD TV Market May Fall
2012-03-23T02:58:17Z,Idemitsu,Consider,Building Geothermal Plant
2012-03-23T02:58:17Z,Inpex,Consider Building Geothermal Plant in,Fukushima
2012-03-23T03:00:01Z,Chevron ’s Brazil License Risks,Being,Revoked
2012-03-23T03:03:24Z,Ashkenazy Acquisition,Buys,Upscale Mall Bravern
2012-03-23T03:56:54Z,Maersk,Halts North Europe-Asia Bookings,Terminals Almost Full
2012-03-23T04:00:00Z,World,Repudiated by,Successors
2012-03-23T04:00:58Z,Billionaire,Gores,Angles
2012-03-23T04:01:00Z,Bales,Had,Troubled Broker Career
2012-03-23T04:01:00Z,Televisa ’s Azcarraga,Urges,Slim
2012-03-23T04:01:01Z,Union Contracts,in,Bankruptcy Court
2012-03-23T04:01:09Z,U.S. Sales,Climbed to,One-Year High
2012-03-23T04:01:27Z,Banks,Tighten,Condo Lending Amid Bubble Fears
2012-03-23T04:01:34Z,Celtics Boost Knicks,Winning,Streak
2012-03-23T04:03:05Z,Fed ’s Bullard,Says,Monetary Policy May
2012-03-23T04:08:12Z,Bernanke,Sees Need for,Household Spending to Fuel Growth
2012-03-23T04:20:32Z,Bonds,Fall as,Central Bank Signals Inflation Risk
2012-03-23T04:20:32Z,Philippine Bonds,Fall as,Central Bank Signals Inflation Risk
2012-03-23T04:38:44Z,Muslim Religious Leader Killed,in,South Russian Blast
2012-03-23T04:45:20Z,Hong Kong Short Selling Turnover,Recorded,03/23/201
2012-03-23T05:06:12Z,Davies,Sees,English Soccer Success With New Center
2012-03-23T05:06:12Z,English Soccer Success,With,New Center
2012-03-23T05:30:23Z,Ohio State,Reach,NCAA Round of 8
2012-03-23T05:32:21Z,Westfield Retail,Buoy,Returns
2012-03-23T05:38:31Z,Barclays,Sees,Rates
2012-03-23T05:49:51Z,40-Megawatt Solar Project,in,Japan
2012-03-23T05:49:51Z,Eurus Energy,Considering,Solar Project
2012-03-23T06:12:36Z,Kono,by,Nomination
2012-03-23T06:12:36Z,Stimulus Row,Fueled by,Kono Nomination
2012-03-23T06:37:30Z,East African Community Considers Trade Agreement,With,Turkey
2012-03-23T06:51:16Z,Malian Touaregs ’ Return,With,Arms
2012-03-23T06:51:16Z,Touaregs ’ Return,Prompts,Coup
2012-03-23T06:51:41Z,China National Nuclear,in,Talks With Areva on Uranium Stakes
2012-03-23T06:51:41Z,Talks,With,Areva on Uranium Stakes
2012-03-23T07:11:49Z,Hollande,Leads Sarkozy With,BVA Poll
2012-03-23T07:17:13Z,Decline,Shrinking,European Manufacturing
2012-03-23T07:28:37Z,Cosmo,Prepares to,Start Chiba Crude Distillation Unit
2012-03-23T07:37:02Z,Mali Coup Leaders Order Soldiers,Impose,Curfew
2012-03-23T07:39:58Z,China ’s Stocks,Drop on,Concerns
2012-03-23T07:43:57Z,Copper Rebounds,in,London
2012-03-23T07:58:19Z,Mondi Cuts CEO Hathorn,Pay,4.1 %
2012-03-23T08:00:00Z,Spain Producer-Price Inflation,Slows For,Fifth Month
2012-03-23T08:02:40Z,Canada,Speed,Energy Reviews
2012-03-23T08:02:40Z,Harper,Says,Canada
2012-03-23T08:06:28Z,Resort,to Banif,Negocios
2012-03-23T08:06:28Z,State Aid,to Banif,Negocios
2012-03-23T08:10:08Z,Baywa,Considers,Grain Trade Acquisitions
2012-03-23T08:13:24Z,Credit Suisse Cuts CEO Dougan,Pay,55 %
2012-03-23T08:17:57Z,Hengdeli,Sees,Longines Outpacing Luxury Watches in China
2012-03-23T08:17:57Z,Longines Outpacing Luxury Watches,in,China
2012-03-23T08:19:52Z,Vietnam ’s Bonds Rise,Told to,Cut Borrowing Costs
2012-03-23T08:28:45Z,Bank Bond Risk Falls,in,Europe
2012-03-23T08:45:00Z,Hong Kong Stocks Post Biggest Weekly Drop,in,4 Months on China
2012-03-23T08:54:39Z,Treasuries,Snap,Advance Before New Home Sales Report
2012-03-23T09:00:12Z,Rose 2.2 %,in,February
2012-03-23T09:13:23Z,Forint,Strengthens Against,Euro
2012-03-23T09:13:23Z,Hungarian Forint,Strengthens Against,Euro
2012-03-23T09:35:52Z,Pension Deficit,Setting Up,Dividend Increase
2012-03-23T09:35:56Z,Brazil 's Coffee Exports Seen,Reaching,2.1 Million Bags
2012-03-23T09:38:13Z,EU,Permits Three-Month Insurance Exemptions for,Tankers to Iran
2012-03-23T09:49:19Z,Allianz CEO,Expects,2012
2012-03-23T09:49:52Z,OTP Bank Rises,Driven by,Supportive Investor Sentiment
2012-03-23T09:50:02Z,Egypt,With,Fuel for Power Plant Today
2012-03-23T09:54:42Z,REC Advances,Reduce,Production
2012-03-23T09:55:56Z,R&D,Retain,Edge
2012-03-23T10:02:01Z,Fed ’s Bullard,Sees Price Threat From,G-7 Delaying Tighter Policy
2012-03-23T10:03:33Z,Foes,Try,Guerrilla Tactics
2012-03-23T10:03:33Z,Syria ’s Assad,Retains,Power
2012-03-23T10:15:52Z,Lanxess CEO,Buys,Stock Amid 11-Month Price High
2012-03-23T10:47:47Z,Komercni Banka Declines,Leads,Czech Shares Lower
2012-03-23T10:57:00Z,$ 1.5 Billion Loan,in,Syndication
2012-03-23T11:00:10Z,Standard Chartered ’s Michael Rees,Paid as,Million
2012-03-23T11:01:21Z,Ireland,From,NAMA
2012-03-23T11:01:21Z,Morgan Stanley,Buys,U.K. Real Estate Loans
2012-03-23T11:10:49Z,EU,Sees Window for,Aviation CO2 Curbs Deal
2012-03-23T11:23:22Z,French Sentiment,Rises as,Sarkozy Lifts Growth Forecast
2012-03-23T11:23:22Z,Sentiment,Rises as,Sarkozy Lifts Growth Forecast
2012-03-23T11:26:19Z,CVC ’s Briggs,Says,Lack of Mezzanine
2012-03-23T11:40:24Z,Fed Funds,Open Within,Target Range
2012-03-23T11:53:20Z,Senegal ’s Wade Faces Former Ally Sall,in,Presidential Runoff
2012-03-23T12:16:31Z,Cameron Plans Minimum Alcohol Price,in,Bid
2012-03-23T12:34:43Z,Morgan Stanley Ship,Hauls,Frozen Gas
2012-03-23T12:35:25Z,KB Home Reports,Loss on,Higher Sales
2012-03-23T12:37:02Z,Madoff,Stanley in,Court News
2012-03-23T12:37:02Z,Morgan Stanley,in,Court News
2012-03-23T12:40:14Z,Bankruptcies,Hit,People
2012-03-23T12:40:14Z,People,Challenging,Health Insurance Rule
2012-03-23T12:40:23Z,Brazilian Corruption Story,Stirs,Outrage
2012-03-23T12:40:23Z,Corruption Story,Finally Stirs,Outrage
2012-03-23T12:40:38Z,Kosovo May,Get Minister S in,Half of 2012
2012-03-23T12:48:37Z,Bond Sales,Revisit,’09 Highs
2012-03-23T12:48:37Z,Plunging Yields,Entice,Borrowers
2012-03-23T12:48:37Z,Yields,Entice,Borrowers
2012-03-23T12:49:11Z,Hypermarcas Signs Agreement,With,Ache
2012-03-23T12:56:28Z,ETF,Puts at,20-Month
2012-03-23T13:00:01Z,Australia ’s Labor Party,Faces Queensland Defeat in,Gillard Blow
2012-03-23T13:07:55Z,Russia,Raises Oil Duty After,Urals Gains
2012-03-23T13:09:26Z,West Ham,Use Olympic Facility as,Soccer Stadium
2012-03-23T13:14:10Z,Brasil Foods Slumps,Misses,Estimates
2012-03-23T13:22:32Z,China-Bound Crude Shipments Seen,Rising,Week
2012-03-23T13:23:54Z,SAP,Raises,Salaries of co-CEOs
2012-03-23T13:33:19Z,Brazil Current Account Deficit,Narrows in,Feb
2012-03-23T13:34:34Z,U.K. Banks,Must Test Retail Structured Products for,Fairness
2012-03-23T13:43:11Z,Mine Gold,Silver in,Country
2012-03-23T13:43:11Z,Silver,in,Country
2012-03-23T13:49:14Z,Soy,Open on,Crop
2012-03-23T13:50:22Z,Rand,Heads for,Worst Week
2012-03-23T13:51:08Z,Spain,Urges,Mergers
2012-03-23T14:00:01Z,Syria,Defense at,Seoul Summit
2012-03-23T14:03:50Z,U.S. Stocks,Fall as,Sales of New Homes
2012-03-23T14:07:00Z,Belka,Says,Zloty Gains on Confidence in Emerging Markets
2012-03-23T14:07:00Z,Confidence,in,Emerging Markets
2012-03-23T14:09:25Z,Kit Digital,Tumbles,Most in Three Years
2012-03-23T14:11:45Z,U.S.,Wants Iran Oil Buyers to,Pledge Cuts
2012-03-23T14:13:40Z,Mexico Peso,Heads,Europe Growth Concern Mounts
2012-03-23T14:14:49Z,Ericsson,Sets Sales-Growth Target Over,Three Years
2012-03-23T14:15:22Z,OGX,in,Espirito Santo
2012-03-23T14:34:59Z,FDA,Must Withdraw,Livestock Drugs
2012-03-23T14:34:59Z,Livestock Drugs,in,Superbug Ruling
2012-03-23T14:35:07Z,EU,Expands,Sanctions Against Belarusian Government
2012-03-23T14:46:49Z,U.K. Supreme Court,Refuses Government Appeal on,Solar Cuts
2012-03-23T14:55:33Z,U.S. Stocks,Reverse,Drop
2012-03-23T14:57:15Z,Canada Canola Processing Drops,in,Week
2012-03-23T14:59:29Z,Bonds,Lift Yields to,Two-Month High
2012-03-23T14:59:29Z,Hungarian Bonds,Fall,Day
2012-03-23T15:02:16Z,World Coffee Demand,Silva ’s,ICO
2012-03-23T15:03:02Z,Cemex SAB,Are,Active
2012-03-23T15:21:03Z,Hunger Games,Set,Presale Record
2012-03-23T15:21:35Z,Aluworks Ghana,Are,Active
2012-03-23T15:26:47Z,Rusal,in,Zalk Aluminum Plant Dispute
2012-03-23T15:30:13Z,BOE,Seeks,Financial-Stability Tools Amid Fragile Outlook
2012-03-23T15:31:54Z,Canadian Dollar,Erases,Decline
2012-03-23T15:31:54Z,Dollar,Erases,Decline
2012-03-23T15:31:54Z,Equities,Extend,Increase
2012-03-23T15:49:22Z,EU,From,Shift
2012-03-23T15:49:22Z,Energy Brokers,Get,Shelter From EU ’s Shift
2012-03-23T15:54:28Z,Scene,in,D.C.
2012-03-23T16:01:30Z,$ 100 Million,in,New Funds
2012-03-23T16:01:49Z,Kit Digital,Move in,Prague
2012-03-23T16:02:19Z,Arcep,Sees,Mobile-Phone Competition
2012-03-23T16:03:41Z,U.S.,Pursues,Hate Crimes
2012-03-23T16:08:37Z,Trading,in,Its Stock
2012-03-23T16:14:42Z,Climate,Is,Warming
2012-03-23T16:18:52Z,Genzyme Patent,Ruled,Valid
2012-03-23T16:19:23Z,Wind-Farm Builders,Protect,Eagles
2012-03-23T16:21:46Z,Anadolu Hayat,Rises on,Turkey Pension Incentives Report
2012-03-23T16:35:35Z,Cencosud,Climbs as,Earnings Top Estimates
2012-03-23T16:39:09Z,Ex-NBA Player Tate George Indicted,in,$ 2 Million Ponzi Scam
2012-03-23T16:40:35Z,Depfa,Trial in,Italy
2012-03-23T16:40:35Z,Pisa Swaps Feud Needs Trial,in,Italy
2012-03-23T16:43:36Z,June,Bank of,America
2012-03-23T16:50:10Z,CMBS Head Mazzei,Leaves,Bank for Ladder Capital
2012-03-23T16:52:28Z,Nymex May Extend Heating Oil Contract,Reduce,Sulfur Limit
2012-03-23T16:58:21Z,Cable,Reiterates,U.K.-U.S. Talks
2012-03-23T16:59:01Z,Shares,in,First Half
2012-03-23T17:00:46Z,Investor ’s Criticism,Role in,Company
2012-03-23T17:00:46Z,Investor ’s Criticism Role,in,Company
2012-03-23T17:02:29Z,Shell,Sued in,U.K.
2012-03-23T17:07:31Z,Facebook,Discourages Businesses,Asking for User Passwords
2012-03-23T17:14:16Z,Shares,Drop as,Actelion Slide
2012-03-23T17:14:16Z,Swiss Shares,Drop as,Swatch
2012-03-23T17:15:19Z,U.K. Stocks,Climb as,BT Jumps
2012-03-23T17:23:54Z,Argentina,in,Mendoza Province
2012-03-23T17:23:54Z,Two Oil Licenses,in,Argentina ’s Mendoza Province
2012-03-23T17:23:54Z,YPF,Loses,Two Oil Licenses in Argentina ’s Mendoza Province
2012-03-23T17:35:49Z,Treasury 30-Year Bond Yields,Drop Below,Moving Average
2012-03-23T17:40:38Z,Gunvor,Sell,Urals Oil
2012-03-23T17:45:12Z,JPMorgan,Sued by,Trader
2012-03-23T17:47:13Z,CFTC Deputy Economist Moser,Leaving for,American University
2012-03-23T17:48:24Z,IRS Refunds,Year to,Date Statistics
2012-03-23T17:49:39Z,Maersk May Invest,in,$ 83 Million Suez Container Terminal Channel
2012-03-23T17:52:56Z,Yankees ’ Chamberlain,Dislocates Ankle With,Son
2012-03-23T17:56:13Z,Investors,Dump,Citigroup Survey
2012-03-23T18:07:59Z,Copper Bear Streak,Extends,Manufacturing Shrinks
2012-03-23T18:11:13Z,Oil,Spilled Off,Scotland
2012-03-23T18:12:19Z,Shot,in,London Attack
2012-03-23T18:15:49Z,Manulife Financial,Lowers,Compensation
2012-03-23T18:19:03Z,Red Sox Relief Pitcher Bobby Jenks,Is,Arrested
2012-03-23T18:31:30Z,UBS Revamps Leadership,in,Americas Wealth-Management Unit
2012-03-23T18:38:19Z,Energy Costs,May Curb Production at,Mines
2012-03-23T18:38:19Z,Higher Energy Costs,May Curb Production at,Mines
2012-03-23T18:56:50Z,$ 3 Billion,in,Energy Efficiency
2012-03-23T18:56:50Z,Brazil,Invest Billion,May
2012-03-23T19:00:03Z,U.S. Feedlots,Bought,2.8 % More Cattle on Expectation for Profit
2012-03-23T19:09:39Z,Home Drive Obama Administration,at,Egypt Aid Decision
2012-03-23T19:14:16Z,Ghana,Supporting Third-Worst Currency With,Treasury Rates
2012-03-23T19:15:56Z,Fed ’s Lockhart,Says,U.S. Economy
2012-03-23T19:18:25Z,Thailand,’s Production,USDA Unit
2012-03-23T19:19:38Z,Crude Oil Options Volatility,Rises as,Underlying Futures Surge
2012-03-23T19:19:38Z,Oil Options Volatility,Rises as,Underlying Futures Surge
2012-03-23T19:20:01Z,Group,After,Unsuccessful Bid for Dodgers
2012-03-23T19:32:10Z,Oil,Rises,$ 3
2012-03-23T19:33:53Z,Bats Global IPO,Turns Ugly After,Apple Halt
2012-03-23T19:33:53Z,Bats IPO,Turns Ugly After,Apple Halt
2012-03-23T19:40:48Z,Foreign-Law Bonds,in,Debt Swap
2012-03-23T19:40:48Z,Greece,Extends,Deadline for Foreign-Law Bonds
2012-03-23T19:50:52Z,Marion Barber,Retires After,Seven NFL Seasons
2012-03-23T19:54:41Z,BNY Mellon Foreign-Currency Fraud Case,Set in,Virginia
2012-03-23T19:57:34Z,Deloitte,Sued Over,WG Trading Fraud
2012-03-23T19:57:34Z,Touche,Sued Over,WG Trading Fraud
2012-03-23T20:04:30Z,Gulf Coast Gasoline,Weakens,Day
2012-03-23T20:06:23Z,Highest-Rated Junk Loans,Set to,Beat Bonds
2012-03-23T20:06:23Z,Junk Loans,Set to,Beat Bonds
2012-03-23T20:14:40Z,Corn,Climb as,Smaller Argentina Crops Boost U.S. Sales
2012-03-23T20:17:27Z,New Houses,in,U.S. Fall
2012-03-23T20:25:48Z,VIX,Note,Whipsaws Investors
2012-03-23T20:43:33Z,8.5 %,in,Net Orders
2012-03-23T20:48:43Z,Colombia,Gauge,Effect of Nine Increases
2012-03-23T20:51:03Z,Oil Rally,Helps,Stocks Drop
2012-03-23T20:52:08Z,Texas,Tops,Finds From Brazil
2012-03-23T21:03:34Z,U.S. Stocks,Rise as,Oil Rally Offsets Drop
2012-03-23T21:03:34Z,U.S. Stocks Rise,in,Home Sales
2012-03-23T21:08:10Z,Ethanol,Losing,Streak
2012-03-23T21:10:01Z,Fed,’s Lockhart,Bullard Oppose Additional Purchases of Assets
2012-03-23T21:10:01Z,Fed ’s Lockhart,Purchases of,Assets
2012-03-23T21:10:44Z,NRC,Poised for,Two Reactors
2012-03-23T21:34:57Z,Emerging-Market Stocks,Climb as,Suppliers
2012-03-23T21:54:34Z,Peru ’s Central Bank,Raises,2012 Growth Projection
2012-03-23T22:07:54Z,Hewlett-Packard,Approves,Increase
2012-03-23T22:22:37Z,Santander Mexico,Focused Small-Business Lending on,Mortgages
2012-03-23T22:48:14Z,Brazil Real,Rises,Most in Three Weeks
2012-03-23T22:48:27Z,World ’s Richest,Lose,Billion
2012-03-23T23:07:46Z,MF ’s Corzine Ordered Funds,Moved to,JP Morgan
2012-03-24T00:00:00Z,European Stocks,Post,Biggest Weekly Loss
2012-03-24T00:00:00Z,Stocks,Post,Weekly Loss
2012-03-24T01:08:01Z,Dartmouth President Kim,Nominated for,World Bank
2012-03-24T04:00:01Z,U.S. Stocks,Fall in,in S&P 500
2012-03-24T04:00:01Z,U.S. Stocks Fall,in,2012
2012-03-24T04:00:03Z,Citigroup,Sets,Million Charge
2012-03-24T04:00:17Z,Romney,Takes Aim at,Obama Health-Care Law
2012-03-24T04:00:56Z,Tiger Woods,Tied for,Lead
2012-03-24T04:01:00Z,Bats,Is,Gift to Critics
2012-03-24T04:01:00Z,New York Gallery Skarstedt,Joins U.K. Influx,Demand Grows
2012-03-24T04:01:01Z,17 Murder Counts,in,Afghan Civilian Killings
2012-03-24T04:01:01Z,Bales,Charged With,17 Murder Counts
2012-03-24T04:01:01Z,He,Fooled,His Own Employees
2012-03-24T04:01:01Z,Son,Indicted by,U.S. Prosecutors Manhattan
2012-03-24T04:01:01Z,U.S. Prosecutors,in,Manhattan
2012-03-24T04:01:04Z,Packers,Get,Saturday
2012-03-26T17:09:00Z,Endemol Debt,Taken On,Converted Into Shares by Apollo
