2012-08-23T00:00:00Z,Car Crash Tragedy,in,France
2012-08-23T01:36:35Z,Bond Risk,Rises in,Credit-Default Swaps Show
2012-08-23T02:22:25Z,SEC ’s Schapiro,Cancels Money Fund Vote Amid,Opposition
2012-08-23T02:46:16Z,Treasuries,Snap Rally Before,New Home Sales
2012-08-23T02:53:38Z,China Case,Builds,Manufacturing Weakens
2012-08-23T03:00:00Z,Rwandan Development Fund,NIC of,Kenya Earnings
2012-08-23T03:00:34Z,LG Display,Starts,Touch Screens Output
2012-08-23T03:40:00Z,Chamberlain Farms,in,Owensville
2012-08-23T03:42:12Z,F&P Appliances Forecasts Earnings,Rebound,Sales
2012-08-23T03:52:38Z,Wallabies,Recall Cooper as,Blacks Change One
2012-08-23T04:00:38Z,Chile Wine,Boosts Toro,Europe Shrinks
2012-08-23T04:00:58Z,Chiquita,Slips on,Salad Bet
2012-08-23T04:01:00Z,Devil,in,NYC Madhouse
2012-08-23T04:01:00Z,Gene Detectives,Find,New Tool
2012-08-23T04:01:00Z,Hollywood Seediness,Fades as,Developers Remake Media Hub
2012-08-23T04:01:00Z,Most,Delivers,Market Return
2012-08-23T04:01:00Z,Sky Garden,Dress Up,Energy-Stingy PNC Tower
2012-08-23T04:01:00Z,Target Cheaper,in,Two Years
2012-08-23T04:01:01Z,Purchases,in,U.S.
2012-08-23T04:15:51Z,Azarenka,Is,Top Women ’s Seed at U.S. Open Tennis Championship
2012-08-23T04:17:23Z,Coutts Sells Emerging-Market Bonds,Shares After,Rallies
2012-08-23T04:43:07Z,Jonathan Kollek,Leaves,TNK-BP
2012-08-23T04:45:31Z,Hong Kong Short Selling Turnover,Recorded,08/23/2012
2012-08-23T05:24:43Z,China,Starts,Reform Boosting Guangdong Party Boss Wang ’s Profile
2012-08-23T06:15:15Z,Singapore Inflation,Slows as,Scope for Monetary Easing
2012-08-23T06:16:10Z,Assets,Held by,Foreigners
2012-08-23T06:16:10Z,Turkish Assets,Held by,Foreigners
2012-08-23T06:28:11Z,Iran,Sees,Non-Aligned Summit Isolation
2012-08-23T06:28:33Z,Central Bank,Says From,Jan. 1
2012-08-23T06:28:33Z,Zambia,Says From,Jan. 1
2012-08-23T06:35:58Z,Trinity,Accelerate on,China Economic Policies
2012-08-23T06:41:26Z,Petropavlovsk,Says,90 %
2012-08-23T06:53:17Z,Distressed Fund,Led by,Alp Ercil Said
2012-08-23T06:53:17Z,Fund,Led by,Alp Ercil Said
2012-08-23T07:04:17Z,Outages,Propel,Sun Power
2012-08-23T07:08:22Z,Civilians Facing,Increased,Danger
2012-08-23T07:08:22Z,Syrian Civilians Facing,Increased,Danger
2012-08-23T07:13:13Z,Korean Won,Rises as,Fed Minutes Show Stimulus Support
2012-08-23T07:34:12Z,Vietnam Stocks,Fall,Most in Asia
2012-08-23T07:39:32Z,Kosa,Tells,Valasz
2012-08-23T07:39:52Z,Yield,is,1.43 %
2012-08-23T07:51:30Z,Atomic Reactors,Operating at,Today
2012-08-23T07:51:30Z,Finnish Atomic Reactors,Operating at,62 % Today
2012-08-23T07:51:30Z,Finnish Reactors,Operating at,62 % Today
2012-08-23T07:51:30Z,Reactors,Operating at,Today
2012-08-23T07:56:07Z,China,Stocks Rise After,Manufacturing Data
2012-08-23T07:56:09Z,Taiwan Government,Lowers,Outlook
2012-08-23T08:00:00Z,Singapore Residual-Oil Stockpiles Fall,in,Seven Months
2012-08-23T08:14:25Z,Treasuries,Erase,Drop
2012-08-23T08:14:28Z,Fed ’s Evans,Urges,Accommodation From U.S.
2012-08-23T08:15:24Z,Henderson Land Profit,Climbs on,Energy Units
2012-08-23T08:22:00Z,Aureus Seeks Debt Finance,Consider for,Liberia Gold
2012-08-23T08:27:09Z,Turkey Yields,Drop to,Two-Week Low
2012-08-23T08:40:13Z,Stay,Higher After,Mortgage Approvals
2012-08-23T08:42:34Z,10-Year Yield Spread,Rises Above,500 Basis Points
2012-08-23T08:42:34Z,Spanish-German 10-Year Yield Spread,Rises Above,500 Basis Points
2012-08-23T08:42:34Z,Spanish-German Yield Spread,Rises Above,500 Basis Points
2012-08-23T08:42:34Z,Yield Spread,Rises Above,500 Basis Points
2012-08-23T08:42:40Z,German Growth,Driven by,Exports
2012-08-23T08:42:40Z,German Quarterly Growth,Driven by,Exports
2012-08-23T08:42:40Z,Growth,Driven by,Exports
2012-08-23T08:42:40Z,Quarterly Growth,Driven by,Exports
2012-08-23T08:49:08Z,Taiwan Dollar,Rises to,1-Week High on U.S. Stimulus Speculation
2012-08-23T08:54:30Z,U.S.,Will Revive,Growth
2012-08-23T08:59:15Z,May,Avoid,Breaching Debt Covenants
2012-08-23T09:02:36Z,Premier Oil,Expands From,Falkland
2012-08-23T09:09:01Z,Romney-Ryan Health Plan,Is,Spurned
2012-08-23T09:10:48Z,Brazil,at,Ports
2012-08-23T09:10:48Z,Sugar Waiting,Declined,6 %
2012-08-23T09:16:25Z,Storm Isaac,Weakens on,Path Toward Haiti
2012-08-23T09:16:25Z,Tropical Storm Isaac,Weakens on,Path
2012-08-23T09:23:02Z,Rupiah Forwards,Climb,Most in Seven Weeks
2012-08-23T09:29:33Z,Rouen Grain Shipments,Drop on,Lower Barley Sales
2012-08-23T09:35:08Z,Wharf,Has,Higher Profit
2012-08-23T09:45:30Z,Kenyan Shilling,Weakens in,Most More Than Week
2012-08-23T09:45:30Z,Shilling,Weakens in,Most More Than Week Against Dollar
2012-08-23T09:51:22Z,Schoeller-Bleckmann,Receives,Third-Quarter Bookings
2012-08-23T09:52:03Z,Housing Collapse,Erased in,Bonds of Homebuilders
2012-08-23T10:00:00Z,Obama,for,Re-Election in New Ad
2012-08-23T10:00:00Z,Obama ’s Re-Election,in,New Ad
2012-08-23T10:04:00Z,Euro-Area Services,Contracted in,August
2012-08-23T10:04:00Z,Manufacturing Contracted,in,August
2012-08-23T10:37:46Z,Goldman Sachs ’ ReNew Wind,in,India
2012-08-23T10:40:22Z,China Unicom Profit,Beats,Estimate
2012-08-23T10:54:26Z,Hutchison,Offers Remedies in,Review of Orange Austria Deal
2012-08-23T10:58:07Z,India 's Sensex Ends Little,Changed,Singh Ally Opposes
2012-08-23T11:00:23Z,Fed Funds Projected,Open at,0.14 ICAP Says
2012-08-23T11:17:21Z,Treasuries,Snap Rally Before,New Home Sales
2012-08-23T11:22:08Z,TSE,Wins Bid as,Japan Plots Market Renaissance
2012-08-23T11:22:48Z,Vietnam Demands Taiwan,Cancel,Spratly Island Live Fire Drill
2012-08-23T11:56:05Z,Foreign Investors,Buy,Net 1.24 Billion Rupees of Indian Stocks
2012-08-23T12:00:00Z,1st-Half Foreign Direct Investment,Grows,Billion
2012-08-23T12:00:00Z,Russian 1st-Half Foreign Direct Investment,Grows,Billion
2012-08-23T12:07:23Z,Dulas,Expand,Wind-Power Business
2012-08-23T12:08:54Z,U.K. Wheat Survey,Finds Signs in,Field Samples
2012-08-23T12:17:14Z,Brazil,Considers,Auction of Airwaves
2012-08-23T12:23:59Z,Brent Oil,Highest in,Week
2012-08-23T12:26:18Z,Diageo Profit,Rises as,Markets Bolster Revenue
2012-08-23T12:27:02Z,Fed ’s Bullard,Says,FOMC Minutes
2012-08-23T12:33:47Z,Claims,Climb for,Second Week
2012-08-23T12:33:47Z,Jobless Claims,in,U.S.
2012-08-23T12:35:35Z,Tekfen Falls,Misses,Estimates
2012-08-23T12:43:06Z,Soybeans,Drop,Corn
2012-08-23T12:48:06Z,Drought,in,Lower 48 States Expands
2012-08-23T12:48:06Z,U.S. Monitor,Says in,Week
2012-08-23T12:48:17Z,Obama,Leads Romney in,Poll
2012-08-23T12:50:09Z,Little,Changed After,U.S. Jobless Claims
2012-08-23T12:58:50Z,Markit Index,in,U.S. Rose
2012-08-23T13:00:00Z,U.S. Exporters,Sell,Destinations
2012-08-23T13:07:12Z,Redenomination Risk,in,Euro Exit Scenario
2012-08-23T13:13:30Z,Juncker,Urges,Asset Sales
2012-08-23T13:13:30Z,May,Sell,Islands
2012-08-23T13:25:17Z,Total ’s Credit Rating Outlook,Lowered by,by Moody
2012-08-23T13:27:15Z,Bond Yields,Decline After,Fed Minutes
2012-08-23T13:27:15Z,Corporate Bond Yields,Decline After,Fed Minutes
2012-08-23T13:27:15Z,Global Bond Yields,Decline to,Record
2012-08-23T13:27:15Z,Global Corporate Bond Yields,Decline to,Record
2012-08-23T13:28:11Z,Investors,Seek,Safety
2012-08-23T13:45:00Z,Consumer Comfort,in,U.S. Slumps
2012-08-23T13:58:06Z,Shekel,Rises on,Stimulus Bets
2012-08-23T14:25:08Z,3.6 %,in,July
2012-08-23T14:30:55Z,Danish Fund,as,Investment Income Falls
2012-08-23T14:36:50Z,Bullard,Opposes Fed Bond Buying,U.S. Economy Improves
2012-08-23T14:41:04Z,AZ Electronic,Considers Acquisitions After,Carlyle Exit
2012-08-23T14:53:19Z,Stimulus Bets,Outweigh,Romania Political Turmoil
2012-08-23T14:55:31Z,NWR,Rises,Net Falls Analysts Expect
2012-08-23T14:56:05Z,B Grade,in,Global Finance Central Bank Study
2012-08-23T15:29:50Z,SEC ’s Schapiro,Turns to,Dodd-Frank Panel
2012-08-23T15:30:51Z,Ruble,Strengthens to,Two-Week High
2012-08-23T15:41:58Z,Opap,Says,Second-Quarter Profit Rose
2012-08-23T15:43:40Z,Borders,Rises on,Falkland Gas Condensate Estimate
2012-08-23T15:43:40Z,Southern,Rises on,Falkland Gas Condensate Estimate
2012-08-23T15:58:49Z,Sberbank Will Invest 100 Million Euros,in,Serbia
2012-08-23T16:00:22Z,European Stocks,Fall on,Schaeuble Comments
2012-08-23T16:00:22Z,Stocks,Fall on,Schaeuble Comments
2012-08-23T16:01:40Z,Obama,Is,Re-elected
2012-08-23T16:01:40Z,Texas Official,Sees Unrest,Re-elected
2012-08-23T16:07:56Z,Genel,Expands Into North Africa After,Kurdistan Acquisitions
2012-08-23T16:09:07Z,Investors,Weigh,Stimulus
2012-08-23T16:15:46Z,Rise,in,Over Two Decades
2012-08-23T16:24:08Z,Made Fall Guy,in,Soccer Scandal
2012-08-23T16:25:00Z,Hering,Leads,Bovespa ’s Fall
2012-08-23T16:30:17Z,Fed May,Spur,Growth
2012-08-23T16:30:17Z,Oil,Climbs,Fed May Move
2012-08-23T16:30:19Z,Citigroup,Urges,SEC
2012-08-23T16:40:36Z,Credit Suisse,Sued by,Sealink Over Mortgage Securities
2012-08-23T16:46:36Z,Gold Fields,Starts,Strategic Review
2012-08-23T16:58:46Z,Mugabe ’s Constitutional Changes,Rejected by,MDC Party
2012-08-23T17:00:00Z,Brazil Sugar Output,Rises,Aug. 1-15
2012-08-23T17:06:59Z,Canada,in,Interest
2012-08-23T17:06:59Z,Harper,Says,Cnooc-Nexen
2012-08-23T17:49:23Z,Levitt,Says,SEC Money-Fund Punt
2012-08-23T18:00:00Z,Bond Dealers,Saw,Odds of Fed Bond Buying
2012-08-23T18:00:00Z,Moody ’s Rental-Home Bond Grades May,Be,Restrained
2012-08-23T18:12:22Z,New York MTA ’s Payroll Tax,Rejected to,Agency
2012-08-23T18:18:43Z,Woods,Shoots,Four Behind Leader Harrington at Barclays
2012-08-23T18:18:56Z,Falling,Hit,JinkoSolar Earnings
2012-08-23T18:18:56Z,JinkoSolar Earnings,Falling,Panel Prices
2012-08-23T18:19:07Z,Freddie,Must Obey,Mortgage Law
2012-08-23T18:22:13Z,French Confidence,in,Hollande ’s Management Declines
2012-08-23T18:22:13Z,Hollande,in,Management Declines
2012-08-23T18:30:49Z,Postal Service,Revolutionized,Retailing
2012-08-23T18:31:15Z,RBI,Says,Weak India Growth Outlook Imperils Budget Deficit Goal
2012-08-23T18:33:15Z,Rousseff $ 66 Billion Stimulus Plan,Sparks Rally in,OHL
2012-08-23T18:33:15Z,Rousseff $ Billion Stimulus Plan,Sparks,Rally
2012-08-23T18:33:15Z,Rousseff Billion Stimulus Plan,Sparks,Rally
2012-08-23T18:38:30Z,Isaac,Watched by,Republicans
2012-08-23T18:38:30Z,Traders,Republicans on,Move to Florida
2012-08-23T18:40:17Z,BP,Seek Brazil Field Sale on,Deep Water
2012-08-23T18:46:10Z,Dutch Minister,Tells,FTD
2012-08-23T18:48:08Z,FAA Falling,Behind in,Battle
2012-08-23T19:02:41Z,CTC Media ’s TV Weekly Audience Gains,in,Russia
2012-08-23T19:06:17Z,$ 44 Million PDVSA 2035 Bonds,in,Sitme
2012-08-23T19:12:26Z,Chile Peso,Rises,Copper Climbs on Stimulus Speculation
2012-08-23T19:12:26Z,Copper,Climbs on,Global Stimulus Speculation
2012-08-23T19:21:11Z,Five-Year TIPS Sale,Draws,Record Low Yield
2012-08-23T19:21:11Z,TIPS Sale,Draws,Record Low Yield Amid Fed Speculation
2012-08-23T19:44:09Z,States,Say in,Production
2012-08-23T19:46:49Z,Peru,in,Presidential Family
2012-08-23T19:46:49Z,Probe Fuels,More Bickering in,Peru ’s Presidential Family
2012-08-23T19:46:49Z,Probe Fuels More Bickering,in,Peru ’s Presidential Family
2012-08-23T19:51:49Z,Argentina Industrial Output,Fell,2.1 %
2012-08-23T20:00:53Z,Apple Patent Battles,Create,Lawyer Boon
2012-08-23T20:06:01Z,Visteon,Rises in,Halla Deal
2012-08-23T20:13:16Z,Oil Falls,Tough on,Bailout
2012-08-23T20:20:28Z,Start BlackBerry 10 Talks,With,Rogers
2012-08-23T20:20:56Z,AIG,From,2008 Rescue
2012-08-23T20:21:23Z,Ethanol,Stays Even in,Gasoline
2012-08-23T20:22:07Z,Brocade Seen,Delivering,Deal Gain
2012-08-23T20:24:40Z,$ 478 Million Award,in,Easy Money ’ Scam Case
2012-08-23T20:24:40Z,FTC,Wins,$ 478 Million Award
2012-08-23T20:27:35Z,U.S. Homeowners,With,Negative Equity Drop
2012-08-23T20:29:41Z,Verizon-Cable Deal ’s Terms,Questioned,FCC Approves
2012-08-23T20:29:58Z,Wal-Mart,Sued by,Michigan Mother
2012-08-23T20:36:26Z,Baidu,Plunges,Most in 11 Months
2012-08-23T20:42:42Z,SEC,Up,Mess
2012-08-23T20:43:26Z,Dish Network,Sued by,FTC
2012-08-23T20:44:52Z,Pfizer Asks End,Linked to,Lung Ailment
2012-08-23T20:54:56Z,Europe,Rise on,Stimulus Bets
2012-08-23T20:54:56Z,U.S. Stocks,Fall on,Bonds Rise
2012-08-23T21:00:00Z,Ryan ’s Bipartisanship Record,Shows,Civility Than Compromise
2012-08-23T21:00:36Z,Murder Case,Illuminates,China ’s Communist Problem
2012-08-23T21:00:54Z,Obama,Would,Fail
2012-08-23T21:00:54Z,Romney Fiscal Visions,Would,Fail
2012-08-23T21:01:05Z,Brazil ’s Richest Woman,Unmasked With,Billion Fortune
2012-08-23T21:09:39Z,Claims,Spur,Stimulus Bets
2012-08-23T21:09:39Z,Jobless Claims,Spur,Stimulus Bets
2012-08-23T21:09:39Z,Rising Claims,Spur,Stimulus Bets
2012-08-23T21:09:39Z,Rising Jobless Claims,Spur,Stimulus Bets
2012-08-23T21:11:41Z,Treasury 10-Year Notes,in,Longest Rally
2012-08-23T21:14:38Z,MGA Entertainment Withdraws Motion,in,Lady Gaga Dolls Suit
2012-08-23T21:16:38Z,Outflows,in,Crisis
2012-08-23T21:16:38Z,SEC Money-Fund Talks,End,Outflows
2012-08-23T21:16:49Z,Drought,Slams,Horse Owners
2012-08-23T21:18:21Z,Lowe ’s Rona Bid,Fight Over,Quebec Jobs
2012-08-23T21:27:27Z,Billionaire Koch,Builds,His Own Frontier Town
2012-08-23T21:28:39Z,Facebook Doubles Speed,With,Update
2012-08-23T21:40:54Z,Brazil,Raises Credit to,Corn Farmers
2012-08-23T21:54:08Z,Company Credit Swaps Increase,in,U.S
2012-08-23T21:57:07Z,Hispaniola,Strengthen Near,Florida
2012-08-23T21:57:07Z,Isaac,Heads to,May Strengthen Near Florida
2012-08-23T22:00:17Z,BlackRock Predicts Mexico Pension Assets,in,Five Years
2012-08-23T22:01:00Z,Dutch Elections Risk,Muddying,Merkel ’s Crisis-Fighting Efforts
2012-08-23T22:01:00Z,Elections Risk,Muddying,Merkel ’s Crisis-Fighting Efforts
2012-08-23T22:01:00Z,German Insurers,Buy,Junk Corporate Loans
2012-08-23T22:01:00Z,Insurers,Buy,Junk Corporate Loans
2012-08-23T22:28:35Z,Investor Ackman,Pushes,Sale
2012-08-23T22:30:00Z,Green-on-Blue Attacks Show,Need for,Afghan Army
2012-08-23T22:30:58Z,Wall Street,Gets,Its Way
2012-08-23T22:32:26Z,Gold,Rises to,Four-Month High
2012-08-23T22:33:57Z,India ’s Internet,Turns,Local Clashes
2012-08-23T22:45:42Z,Romney ’s Energy Plan,Ignores,Solar ’s Success
2012-08-23T22:48:32Z,Jakks Pacific,Gets,Takeover Interest
2012-08-23T22:50:00Z,Obama,Is,Lucky
2012-08-23T23:00:00Z,L. Brian Holland,Ace Behind,Ads
2012-08-23T23:00:01Z,Nicolas Sarkozy,Cast in,Novel
2012-08-23T23:01:00Z,Banks,Shut as,Sovereign Returns
2012-08-23T23:01:00Z,Euro Fringe Town,Gets,Border Gain
2012-08-23T23:01:00Z,Irish Banks,Shut as,Sovereign Returns
2012-08-23T23:01:00Z,Murdoch Daughter,Says,Enemy
2012-08-23T23:01:00Z,Shoppers,Spend,Pounds
2012-08-23T23:33:01Z,Pfizer,Settles,Impax Patent Suit
2012-08-23T23:53:14Z,Colombia Treasury,Will Buy,Dollars Next Week
2012-08-24T01:57:30Z,Documents,in,Bribery Probe
2012-08-24T01:57:30Z,RBA,Release,Documents
2012-08-24T02:12:29Z,Bank,Slows,Economy Wanes
2012-08-24T02:26:03Z,Gold Bulls Strongest,in,Nine Months
2012-08-24T04:01:00Z,Akin ’s Run,Reflects,Missouri ’s Flight
2012-08-24T04:01:00Z,Hollywood Banker ’s Lawyer,Denies,Police Bath Salts Report
2012-08-24T04:01:01Z,Federer,Starts,U.S. Open
2012-08-24T04:01:01Z,Williams,Gets,Vandeweghe
2012-08-24T04:21:16Z,Yankees,Put,Pitcher Nova
2012-08-24T06:09:31Z,Yen,Set for,Gain
2012-08-24T07:08:53Z,Software Mogul,Challenges S. Korean Politics,Vote Looms
2012-08-24T07:50:40Z,Russia ’s Chubais Eyes U.S. Tech Firms,With,Putin Blessing
2012-08-24T08:35:31Z,Path,in,Hollande Talks
2012-08-24T12:11:30Z,Geithner,Bernanke as,Schapiro Defeated
2012-08-24T12:11:30Z,Money Funds,Test,Bernanke
2012-08-24T12:19:38Z,Mega Bets,in,7
2012-08-24T12:32:50Z,Heavy Shipping,Poised for,Takeovers
2012-08-24T12:32:50Z,Shipping,Poised for,Takeovers
2012-08-24T13:30:28Z,Egypt ’s Mursi Bars Detaining Journalists,Awaiting,Trial
2012-08-24T13:42:09Z,Pennsylvania Supreme Court,Takes,Appeal
2012-08-24T14:01:14Z,Facebook Director ’s Quick $ 1 Billion Share Sale,Lacks,Precedent
2012-08-24T14:01:14Z,Facebook Director ’s Quick $ Billion Share Sale,Lacks,Precedent
2012-08-24T14:01:14Z,Facebook Director ’s Quick Billion Share Sale,Lacks,Precedent
2012-08-24T16:09:53Z,21 Years,in,Norway Jail
2012-08-24T16:09:53Z,Killer Breivik,Faces,21 Years in Norway Jail
2012-08-24T20:15:45Z,Autodesk,Tumbles on,Sales
2012-08-24T20:16:13Z,WellPoint Holders,Tout,Potential Replacements
2012-08-24T20:17:43Z,Salesforce Profit Forecast,Misses,Estimate
2012-08-24T22:02:48Z,Storm Watches,Posted as,Isaac Nears Haiti
2012-08-24T23:31:23Z,Missouri Congressman Akin,Vows in,Senate Race
2012-08-25T04:01:00Z,Mozart Impersonator,Shakes Up,Hot Salzburg
