2012-07-27T00:00:00Z,Obama,Care to,Blunt Attacks
2012-07-27T00:07:59Z,BOJ,Should Buy Euro Bonds to,Stem Yen ’s Gain
2012-07-27T00:07:59Z,Stem Yen,to,Gain
2012-07-27T00:32:30Z,Change Direction,Writes in,FT
2012-07-27T00:32:30Z,It,’s Time for,Osborne
2012-07-27T01:30:50Z,Mikuni,Fading,Account Surplus
2012-07-27T02:06:09Z,Thai Baht,Rises on,Speculation
2012-07-27T02:13:15Z,China Job Market,Shows Stress on,Slowdown
2012-07-27T02:57:48Z,Exhumed,in,Italy
2012-07-27T03:17:14Z,World,as,Biggest Mobile Phone Seller
2012-07-27T03:30:48Z,Funds,Sell,Net 51.3 Million Rupees of Derivatives
2012-07-27T03:30:48Z,Global Funds,Sell,51.3 Million Rupees of Derivatives
2012-07-27T03:37:21Z,Yanzhou Coal Expects Price Gain,in,September
2012-07-27T03:43:25Z,China Industrial Companies ’ Profits,Drop for,Month
2012-07-27T04:00:00Z,S&P 500 Pension Cuts,May Ease,Competition Risk
2012-07-27T04:00:00Z,S&P Pension Cuts,May Ease,Competition Risk
2012-07-27T04:00:01Z,Economy,Probably Expanded in,Year
2012-07-27T04:00:01Z,Health Insurers ’ Anti-Fraud Bid,Ease,Profit-Limit Rule
2012-07-27T04:00:01Z,Health Insurers ’ Bid,Ease,Profit-Limit Rule
2012-07-27T04:00:07Z,$ 640 Million,Raised for,Fund
2012-07-27T04:00:07Z,$ Million,Raised for,Fund
2012-07-27T04:00:07Z,Million,Raised for,Fund
2012-07-27T04:00:07Z,WL Ross,Misses Target,Million Raised
2012-07-27T04:01:00Z,Chile,for,Richest Family
2012-07-27T04:01:00Z,Harvard Radicals Play Spy Games,in,Sharp Andersen Tale
2012-07-27T04:01:00Z,IMF Latin America Head,Quits,Work
2012-07-27T04:01:01Z,Marchionne,Squeezes Mileage With,Nine Speeds
2012-07-27T04:01:12Z,Darrelle Revis,Shows Up on,Time
2012-07-27T04:45:26Z,Hong Kong Short Selling Turnover,Recorded,07/27/201
2012-07-27T04:53:35Z,Basketball Player,Choked by,Knight
2012-07-27T05:00:00Z,Former Nomura Trader Plans Hedge Fund,With,Backing
2012-07-27T05:31:33Z,HRL,to,Proposed Gas Plant
2012-07-27T05:41:06Z,Mol ’s Zsoldos,Tells,Portfolio
2012-07-27T05:43:17Z,Franchise Record 11,in,Debut Win
2012-07-27T05:43:17Z,Mets Pitcher Harvey,Strikes Out,Franchise Record 11
2012-07-27T05:57:36Z,36.6 May,Sell,Veropharm Stake
2012-07-27T05:57:36Z,May,Sell,Veropharm Stake
2012-07-27T06:23:34Z,Liverpool,for,Carroll
2012-07-27T06:23:34Z,West Ham,Makes,$ 28 Million Bid
2012-07-27T06:27:07Z,Barclays,Makes,450 Million-Pound Hedging Provision
2012-07-27T06:28:54Z,Draghi,on,Pledge
2012-07-27T06:28:54Z,Japan,Stocks,Advance on Draghi ’s Pledge
2012-07-27T06:31:57Z,Philippines,Approves Tariffs on,Alternative Energy Sources
2012-07-27T06:35:30Z,Kia Profit,Misses,Analysts ’ Estimates
2012-07-27T07:14:04Z,LG,Display,Shares Gain
2012-07-27T07:25:44Z,Gree,Leads,Drop
2012-07-27T07:34:02Z,Chinese Stocks,Fall as,Profit Drop Overshadows ECB Pledge
2012-07-27T07:34:02Z,Most Chinese Stocks,Fall as,Profit Drop Overshadows ECB Pledge
2012-07-27T07:38:16Z,Hyundai Heavy,Leads,Won Bond Sales
2012-07-27T07:38:16Z,Yields,Hit,Record Low
2012-07-27T07:39:10Z,European Banks ’ Dollar Funding Costs Decline,in,Year
2012-07-27T07:49:14Z,Retail Sales,Declined Amid,Euro Crisis
2012-07-27T07:49:14Z,Swedish Retail Sales,Unexpectedly Declined Amid,Euro Crisis
2012-07-27T07:49:41Z,U.K. Stocks,Pare,Gains
2012-07-27T07:58:34Z,May,Be Sailing to,U.K.
2012-07-27T08:00:00Z,Italy Business Confidence Declines,in,July
2012-07-27T08:10:39Z,PV Oil Said,Rang,Dong Crude Supply
2012-07-27T08:22:10Z,Peso,Pares,Weekly Loss
2012-07-27T08:22:10Z,Philippine Peso,Pares,Weekly Loss
2012-07-27T08:31:58Z,Green Pool,Raises,Cuts Sugar
2012-07-27T08:34:50Z,Europe,Move Toward,Integration
2012-07-27T08:34:50Z,Intesa CEO,Urges,Europe
2012-07-27T08:37:20Z,214 Solar Power Projects,Totaling,541 Megawatts
2012-07-27T08:37:20Z,France,Approves,214 Solar Power Projects
2012-07-27T08:39:19Z,Lira,Weakens,First Day
2012-07-27T08:40:19Z,Vontobel,Climbs After,Client Inflows
2012-07-27T08:49:13Z,Saudi Security Forces Arrest Protesters,in,Eastern Region
2012-07-27T08:53:27Z,Euro,Weakens,Versus Dollar
2012-07-27T08:55:02Z,Oil,Heads for,First Decline
2012-07-27T09:11:24Z,Weekly Loss,in,N.Y.
2012-07-27T09:15:00Z,Treasury Yield,Is,Six Basis Points
2012-07-27T09:18:05Z,Rupiah,Leads Weekly Losses in,Currencies
2012-07-27T09:25:33Z,Iceland Inflation,Slows as,Interest Rates Rise
2012-07-27T09:33:07Z,ICICI Bank Profit,Exceeds,Estimates on Wider Lending Margin
2012-07-27T09:35:52Z,Dong Volatility,Ease,Vietnam Bonds Gain in Week
2012-07-27T09:35:52Z,Vietnam Bonds Gain,in,Week
2012-07-27T09:45:05Z,Singapore Director,Wins Appeal Against,Conviction
2012-07-27T09:45:55Z,Brazil ’s Robusta Coffee Premium Seen,Higher on,Domestic Prices
2012-07-27T09:50:22Z,Profit,Beats,Estimates
2012-07-27T10:00:00Z,German States,Say,Inflation Little Changed
2012-07-27T10:00:00Z,Inflation,Changed in,July
2012-07-27T10:00:00Z,Six German States,Say,Inflation
2012-07-27T10:00:30Z,You,Will Measure,Your Company 's Life
2012-07-27T10:10:16Z,Danone Profit,Beats,Estimates on Baby Food Sales
2012-07-27T10:13:06Z,Russia ’s Sown Crops,Affected by,Interfax
2012-07-27T10:15:15Z,South Korea,Gets,First 2 World Records
2012-07-27T10:17:09Z,Singapore Law Professor,in,Sex-for-Grades Corruption Case
2012-07-27T10:33:06Z,UPS ’s EU Deadline,Extended,Days
2012-07-27T10:39:21Z,Telefonica Debt May,Get Downgraded After,Payout
2012-07-27T10:40:17Z,Estonia,Units to,Alexela
2012-07-27T10:40:17Z,Veolia,Sell,Lithuania Waste Units
2012-07-27T10:43:03Z,Ready,in,September
2012-07-27T10:47:09Z,Asian Stocks,Head in,8 Months on Draghi
2012-07-27T10:47:09Z,Stocks,Head for,Biggest Gain
2012-07-27T11:12:29Z,Euro Advances,Strengthening,0.1 %
2012-07-27T11:14:58Z,Paring Gain,in,Week
2012-07-27T11:15:40Z,Foreign Investors,Sell,9.3 Billion Rupees of Indian Stocks
2012-07-27T11:27:52Z,Bankia,’s Expected,Latorre
2012-07-27T11:27:52Z,Bankia ’s First EU Bailout Funds Expected,in,Days
2012-07-27T11:30:00Z,Natixis,Sees Copper Prices,Year
2012-07-27T11:35:59Z,Spain Jobless,Reaches,Post-Franco Record
2012-07-27T11:40:51Z,Treasuries Fall Day,Will Spur,Growth
2012-07-27T11:40:51Z,Treasuries Fall Third Day,Will Spur,Growth
2012-07-27T11:41:03Z,CGGVeritas,Returns to,Profit
2012-07-27T11:47:02Z,East Coast Storms Ground Planes,Power to,Thousands
2012-07-27T11:58:21Z,Dry Weather,in,Brazil
2012-07-27T12:00:00Z,German Inflation,Held,Steady
2012-07-27T12:00:00Z,Inflation,Held,Steady
2012-07-27T12:10:39Z,$ 300 Million Venture,With,Stone Point Capital
2012-07-27T12:19:58Z,Rostelecom,Remaining,Sky Link Stake
2012-07-27T12:30:01Z,Was,Weaker,Estimated
2012-07-27T12:30:44Z,Olympics Leader Rogge,Sees,Cavendish Gold Medal Boosting Games
2012-07-27T12:35:36Z,Chiefs,Reach,Super Rugby Final
2012-07-27T12:35:53Z,India Rupee,Rises to,1-Week High on Europe Stimulus Speculation
2012-07-27T12:36:49Z,Bond Trading,Fell to,40 Billion Euros
2012-07-27T12:36:49Z,Spanish Bond Trading,Fell,10 %
2012-07-27T12:43:03Z,Krone,Weakens on,Support for Euro
2012-07-27T12:44:27Z,BG Lose Santos Block License,in,Brazil
2012-07-27T12:44:27Z,Petrobras,License in,Brazil
2012-07-27T12:47:51Z,Trader,Cancels,September Reload
2012-07-27T12:57:58Z,Oil,Pares,Weekly Drop
2012-07-27T13:08:10Z,Zambia ’s Central Bank,Keeps,Its Benchmark Rate Unchanged
2012-07-27T13:10:42Z,Treasury,Sees,$ 248.5 Million Proceeds
2012-07-27T13:11:31Z,Vekselberg,Wins,London Fake-Art Claim
2012-07-27T13:14:04Z,BG,Block in,Brazil Santos Basin
2012-07-27T13:14:04Z,Petrobras Return Oil Block,in,Brazil Santos Basin
2012-07-27T13:20:38Z,Said,Hold,Steady Over Past Week
2012-07-27T13:29:33Z,Europe Bond Buying,in,Prospect
2012-07-27T13:29:33Z,Stolen,Be Copy,May
2012-07-27T13:36:01Z,African Cables,Reaches Highest in,Five Weeks
2012-07-27T13:36:01Z,Cables,Reaches in,Five Weeks
2012-07-27T13:36:01Z,East African Cables,Reaches Highest in,Five Weeks
2012-07-27T14:00:21Z,Egan-Jones,Says,Germany Risks Credit Rating
2012-07-27T14:05:39Z,Corporate Bond Sales Fall,in,U.S.
2012-07-27T14:06:03Z,Kurdish Groups,in,Northern Syria
2012-07-27T14:33:04Z,French Soft-Wheat Conditions,Improve,Harvest Progresses
2012-07-27T14:33:04Z,Soft-Wheat Conditions,Improve,Harvest Progresses
2012-07-27T14:38:23Z,Honeywell,Add,Engine Thrust
2012-07-27T14:38:23Z,New York-to-Rio Private Jets,Spur,Honeywell
2012-07-27T14:39:22Z,TNK-BP,Backs,Brazil Deal
2012-07-27T14:40:36Z,Suzlon,Repay,$ 360 Million U.S. Dollar Debt
2012-07-27T14:45:00Z,Absa,Identifies Suspended Executive as,Head
2012-07-27T15:08:00Z,Wal-Mart,Turns Shop In,50 Years
2012-07-27T15:11:53Z,Rand Gains,Set in,Four
2012-07-27T15:12:33Z,Ruble,Strengthens Bond Yields Fall for,Second Day
2012-07-27T15:18:05Z,Public Sector,is Doing,Fine
2012-07-27T15:20:00Z,Chilean Peso,Heads,Locals Add
2012-07-27T15:20:00Z,Locals,Add to,Bets
2012-07-27T15:20:00Z,Peso,Heads,Locals Add
2012-07-27T15:20:33Z,Berlin,for,Potsdamer Platz Complex
2012-07-27T15:20:33Z,SEB,Finds New Tenant for,Berlin ’s Potsdamer Platz Complex
2012-07-27T15:21:19Z,Germany ’s Largest Utilities,Downgraded by,S&P
2012-07-27T15:24:23Z,Browns Owner Lerner,in,Talks Sell to Haslam
2012-07-27T15:24:23Z,Stake,in,NFL Team
2012-07-27T15:30:00Z,Spain Slump Estimate,Doubled,Budget Squeeze Praised
2012-07-27T15:48:21Z,Colombia Peso,Heads for,Weekly Drop
2012-07-27T15:54:30Z,Lockheed Martin Gains U.K. Nuclear Submarine Work,With,Babcock
2012-07-27T16:00:01Z,EPFR,Emerging,$ 101 Million of Outflows
2012-07-27T16:02:56Z,BP,Pay,Bln
2012-07-27T16:06:00Z,BofA,Cools to,Stocks
2012-07-27T16:08:04Z,Probed,in,U.K.
2012-07-27T16:09:00Z,Italy Regulator,Extends Short-Selling Ban on,Financial Stocks
2012-07-27T16:15:09Z,Banks,Lacking,Sustainable Values
2012-07-27T16:16:49Z,Mauritania,Catch,Surplus
2012-07-27T16:17:04Z,Grow,Commodities at,Close
2012-07-27T16:17:04Z,Stimulus,Hopes,Grow
2012-07-27T16:18:59Z,Russia Seeks Naval Bases,in,Cold War Allies Cuba
2012-07-27T16:20:08Z,Cnooc,Hired,U.S. Lobbyists
2012-07-27T16:20:32Z,It,Succeed in,Recap Plan
2012-07-27T16:29:14Z,Financial Times ’ Digital Subscribers,Surpass,Its Print Readers
2012-07-27T16:38:46Z,Europe,Set,May
2012-07-27T16:38:46Z,Hollande,Set,May
2012-07-27T16:39:13Z,Capacity,in,2Q
2012-07-27T16:45:52Z,Pound,Weakens,Versus Euro
2012-07-27T16:46:03Z,89 %,With,Even A350 Costs
2012-07-27T16:55:11Z,Iceland 's Kaupthing,Rescind,$ 1.5 Billion Actions
2012-07-27T16:56:53Z,Rabobank,Sees Pork Output Drop on,Feed Costs
2012-07-27T17:08:46Z,U.S. States,Reach Million Accord on,Prices
2012-07-27T17:21:10Z,$ 650 Million,in,Water Projects
2012-07-27T17:38:15Z,ECB,as,Draghi Said Hold
2012-07-27T17:44:16Z,Deutsche Bank Head Debt Trader Cornut,Leaves for,Hedge Fund
2012-07-27T17:48:05Z,ABC ’s Lee,Says,Modern Family Expected to Return on Time
2012-07-27T17:48:05Z,Modern Family,Expected to,Return
2012-07-27T17:54:00Z,Incident,With,Anton Ferdinand
2012-07-27T17:55:01Z,Second-Quarter Profit,Beats,Estimates
2012-07-27T18:01:26Z,FEC Orders Names,Be,Disclosed
2012-07-27T18:27:17Z,Gold,Climbs on,Stimulus Speculation
2012-07-27T18:48:19Z,Jefferson County Bondholders,Prepare for,New Court Fight
2012-07-27T19:02:20Z,Justice Department ’s MF Global Scandal,Dates to,1932
2012-07-27T19:02:20Z,Justice Department ’s MF Scandal,Dates to,1932
2012-07-27T19:03:29Z,Peru Bond Yields Fall,Buoy,Demand
2012-07-27T19:03:44Z,Megaupload Prosecutors,Keep Company as,Defendant
2012-07-27T19:12:41Z,Morgan Stanley,Follows Goldman With,Fixed-Income Call
2012-07-27T19:14:36Z,Amazon ’s Bezos,Joins,Asness in Gay-Marriage Donation
2012-07-27T19:14:36Z,Asness,in,Gay-Marriage Donation
2012-07-27T19:14:36Z,Singer,Asness in,Gay-Marriage Donation
2012-07-27T19:16:55Z,Woman Charged,in,Guggenheim
2012-07-27T19:20:06Z,President ’s Botched Ouster,in,Class
2012-07-27T19:30:18Z,Oil,Rises on,Stimulus Speculation
2012-07-27T19:31:01Z,Mitt Romney,Does Have,Secret Plan
2012-07-27T19:35:02Z,Game Makers,See,Jackpot
2012-07-27T19:35:02Z,States,Make,Online Gambling Legal
2012-07-27T19:39:12Z,ABP Suit,Says,Ace Securities Can Proceed
2012-07-27T19:39:12Z,Judge,Says,Ace Securities Can Proceed
2012-07-27T19:43:35Z,Colgate-Palmolive,Retire,Commercial Paper
2012-07-27T20:04:56Z,Barrick Gold,Chases,Returns
2012-07-27T20:05:25Z,IPhone-Toting Visitors,Clog,U.K.
2012-07-27T20:05:25Z,Visitors,Clog,U.K.
2012-07-27T20:08:50Z,Petronas,Boosts,Price for Progress Energy
2012-07-27T20:13:18Z,Louisiana Oil,Strengthens on,Wider Brent-WTI Discount
2012-07-27T20:13:18Z,Sweet Louisiana Oil,Strengthens on,Brent-WTI Discount
2012-07-27T20:15:20Z,DTE Energy,Rises on,Hot Weather
2012-07-27T20:15:36Z,Brazil Said,Share,Infrastructure
2012-07-27T20:16:39Z,Qualcomm Chief Jacobs,Steps,Down
2012-07-27T20:22:16Z,TransForce,Jumps on,Profit
2012-07-27T20:23:46Z,ICA ’s Second-Quarter Profit,Rises,Roads
2012-07-27T20:23:55Z,Halliburton,Opens,Internal Probe on Iraq
2012-07-27T20:25:56Z,Cigarette Makers,Lose,Bid
2012-07-27T20:26:24Z,D.R. Horton Earnings,Climb on,Tax Benefit
2012-07-27T20:29:27Z,LyondellBasell,Rises on,Possible Dividend
2012-07-27T20:31:36Z,Duke Energy Directors,Resign,Call
2012-07-27T20:31:36Z,Two Duke Energy Directors,Call for,New CEO
2012-07-27T20:35:31Z,Wells Fargo,Used,BofA
2012-07-27T20:43:05Z,Canada Natural Gas,Climbs on,Below-Normal U.S. Inventory Gain
2012-07-27T20:48:32Z,Ethanol Slides,Will,Cut Output
2012-07-27T20:52:25Z,$ 1.2 Billion,in,Olympics Revenue
2012-07-27T20:56:07Z,Pelosi,Says,Republicans Use Israel
2012-07-27T20:57:00Z,Traders Dealt Nexen Stock,in,HK
2012-07-27T21:00:00Z,Chevron,Beats,Expectations
2012-07-27T21:00:00Z,Refining Profits,Climb,80 %
2012-07-27T21:07:28Z,Canadian Dollar,Reaches,High
2012-07-27T21:07:28Z,Dollar,Reaches,High
2012-07-27T21:12:31Z,Facebook Falls,Quell,Growth Concern
2012-07-27T21:15:48Z,Elong,Jumps as,Stimulus Spurs Growth Outlook
2012-07-27T21:17:36Z,U.S.,Sets Duties on,Vietnamese Wind Towers
2012-07-27T21:33:58Z,Credit Swaps,in,U.S. Decline
2012-07-27T21:34:59Z,Insurer ’s Profit,Beats,Estimates
2012-07-27T21:39:36Z,San Francisco Gasoline,Jumps After,Valero Shuts Unit
2012-07-27T22:00:01Z,Roesler,Says,German Companies
2012-07-27T22:00:36Z,Weill Comments,Revive Washington Debate on,Too-Big-to-Fail
2012-07-27T22:01:00Z,Offer Sale,Most of,Parlophone
2012-07-27T22:05:08Z,Draghi,in,Germany
2012-07-27T22:10:55Z,Colombia Surprises Analysts,With,First Rate Cut
2012-07-27T23:00:00Z,JPMorgan,Promotes Zames to,Co-COO
2012-07-27T23:44:04Z,Assets,in,Insider Probe of CNOOC ’s Nexen
2012-07-27T23:44:04Z,CNOOC,of,Nexen
2012-07-27T23:44:04Z,SEC,Freezes,Assets in Insider Probe of CNOOC ’s Nexen
2012-07-28T01:31:57Z,U.S. Data,Boosts,Export Outlook
2012-07-28T03:07:31Z,$ 42.5 Million Party,With Open,History
2012-07-28T03:07:31Z,London Olympics Open,With,$ 42.5 Million Party of Music
2012-07-28T04:00:01Z,S&P,Has,Longest Weekly Rally
2012-07-28T04:00:01Z,S&P 500,Has Longest Weekly Rally Since,March
2012-07-28T04:00:03Z,Gore,on,Internet
2012-07-28T04:00:03Z,Romney ’s Gaffe,Joins,Quayle ’s Potatoe
2012-07-28T04:01:00Z,Bride,’s Porno,Hooker Past
2012-07-28T04:01:00Z,Facebook Stock Plunge,Slashes,$ 34 Billion
2012-07-28T04:01:00Z,Rehab Clinic,in,New York
2012-07-28T04:01:00Z,Wild Birds,Find,Rescue
2012-07-28T04:06:01Z,Apple,Take,Smartphone War
2012-07-28T04:06:01Z,Samsung,Take Smartphone War to,First U.S. Jury
2012-07-28T13:24:23Z,Syria Pounds Rebels,in,Aleppo
2012-07-28T13:34:38Z,Talks,With,Weidmann
2012-07-29T23:00:00Z,John Eckstein,Dies at,74
2012-08-14T23:26:51Z,Consumers,Restrain,Spending
2012-08-14T23:26:51Z,Growth,in,U.S.
2012-08-14T23:30:42Z,Obama,Holds,Slim Re-Election Edge
2012-08-14T23:34:34Z,Romneys,Have,Tax Deduction
