2012-12-16T04:06:16Z,Cathay,Meeting Invite From,H.K. Labor Deptarment
2012-12-16T05:00:01Z,Boehner,Offers,Obama Tax Rate Boost
2012-12-16T05:01:22Z,Home Sales,Spending,Rose
2012-12-16T05:01:22Z,Rose,in,U.S.
2012-12-16T05:01:22Z,Spending,Probably Rose in,U.S.
2012-12-16T05:01:38Z,Barlow,on,Shot
2012-12-16T05:01:38Z,Butler Upsets No. 1 Indiana 88-86,in,Overtime on Barlow ’s Shot
2012-12-16T05:06:47Z,Williams ’ Three Touchdowns,Help,Utah State Beat Toledo 41-15
2012-12-16T05:06:47Z,Williams ’ Touchdowns,Help,Utah State Beat Toledo 41-15
2012-12-16T07:34:45Z,South Korea Opposition Candidate Lee,Leaves,Race
2012-12-16T11:56:11Z,UKIP,Surges,Ahead of Governing Liberal Democrats
2012-12-16T13:00:01Z,Aussie Apes Franc,With,16-Year Low Volatility
2012-12-16T14:03:21Z,U.K. Boxer Amir Khan Ends Losing Run,With,Win
2012-12-16T14:17:04Z,Ligety,Wins,Men ’s Race
2012-12-16T14:35:14Z,Teva CEO Outlook,Leaves,Investors Wanting More
2012-12-16T14:48:06Z,Obama,'s Got,Bloomberg
2012-12-16T15:13:13Z,Zuma,Pushes,South Africa Growth Plan
2012-12-16T15:26:01Z,Tottenham,Climb to,Fourth in Premier League
2012-12-16T15:54:18Z,Deleted E-Mails,in,Tax Probe
2012-12-16T17:02:25Z,Vance,Says,Misinformation on Crime
2012-12-16T17:27:18Z,Schwartzel,Wins,Alfred Dunhill Golf
2012-12-16T18:00:00Z,Heart Cells Gain Pacing Power,in,Gene Test of Guinea Pigs
2012-12-16T18:33:23Z,Rugby,in,Heineken Cup
2012-12-16T18:33:23Z,Saracens Beat Munster 19-13,in,Rugby ’s Heineken Cup
2012-12-16T20:51:30Z,Falcons Beat Giants 34-0,in,NFL
2012-12-16T22:00:00Z,Start Homegrown 4G,in,Hong Kong
2012-12-16T22:33:34Z,New Zealand Consumers,Confident in,Five Quarters on Economy
2012-12-16T22:46:22Z,Naoki Inose,Wins Tokyo Governor Race as,Deputy
2012-12-16T23:00:01Z,French Care,Means,Unwanted Generic Medicine
2012-12-16T23:01:01Z,Herpes-Afflicted Oyster Industry,in,France
2012-12-16T23:01:01Z,Oyster Industry,Gets,Glimmer
2012-12-16T23:01:12Z,Toyota,Seize Auto Sales Crown as,GM Vies
2012-12-16T23:18:53Z,Juventus,Extends,Lead
2012-12-16T23:30:56Z,Future,Is,Bright
2012-12-16T23:31:28Z,Smart Money,Is on,Geithner
2012-12-16T23:35:59Z,Obama,Meets With,Families as Town Grieves
2012-12-17T00:01:00Z,Tour de France Champion Wiggins Caps 2012,With,BBC Sports Award
2012-12-17T02:04:34Z,Two-Party Japan Democracy Undone,in,39 Months
2012-12-17T03:22:00Z,Connecticut Massacre Investigators,Speaking to,Child Survivors
2012-12-17T05:01:03Z,Mets ’ Dickey,Would Join,Jays
2012-12-17T05:46:27Z,Billionaire Ruias,Stall Refinery Plan for,Debt
2012-12-17T07:07:03Z,Fortescue,Starts,Talks
2012-12-17T07:43:30Z,China,Signals,Tolerance of Growth
2012-12-17T08:01:43Z,Remaining Stake,in,Trade Me
2012-12-17T08:33:10Z,Japan ’s LDP Reclaims Power,With,Abe Stimulus
2012-12-17T09:37:02Z,Singapore Establishment,Challenged on,Olam
2012-12-17T12:43:52Z,Slowdown,Boosts,Vipshop
2012-12-17T14:13:58Z,Bonds,Shun,56 % of Country Ratings
2012-12-17T15:33:50Z,Russia Missing Opportunity,in,Micex Revamp
2012-12-17T15:41:56Z,Mandela ’s ANC,Gripped by,Power
2012-12-17T15:52:33Z,Havel,of,Jailers Mount Czech Comeback
2012-12-17T16:56:06Z,Hedge Funds,Reduce,Bets
2012-12-17T22:23:59Z,Connecticut ’s 30-Bullet Magazine Ban,Failed After,Pressure
