2012-03-17T00:01:00Z,Barriers,Blocking,New Gas Plants
2012-03-17T01:42:59Z,Lehigh,Sends,2nd-Seeded Duke
2012-03-17T01:42:59Z,Stunning Loss,in,NCAA Tournament
2012-03-17T04:00:01Z,UnitedHealth,Wins,$ 21 Billion U.S. Military Health Contract
2012-03-17T04:00:10Z,Canadian Dollar,Rises Since,2005
2012-03-17T04:00:10Z,Dollar,Rises in,Longest Weekly Rally
2012-03-17T04:00:11Z,Yen Posts Longest Losing Streak,in,3 Years on Growth
2012-03-17T04:00:17Z,Treasuries Post Biggest Weekly Decline,in,Eight Months on Growth
2012-03-17T04:01:22Z,Penn State,Should Rename,Stadium for Paterno
2012-03-17T04:30:00Z,Cancer Surgery,in,Cuba
2012-03-17T07:00:01Z,Gilts Post Biggest Drop,in,Three Years
2012-03-17T07:08:27Z,Amnesty International,Release,Detained Teacher
2012-03-17T08:29:30Z,FT,Living,Standards of U.K. Youths Stagnate
2012-03-17T08:30:01Z,Number,Adds,Levy
2012-03-17T09:01:58Z,Sarkozy,Tied in,First Round
2012-03-17T09:53:23Z,Scrap,to Chancellor,FT
2012-03-17T10:25:05Z,Jaeger CEO Earl,Steps,Down
2012-03-17T10:56:33Z,London,by,City Police
2012-03-17T10:56:33Z,U.K. Parliament Break-in,Investigated by,London City Police
2012-03-17T11:15:41Z,U.K. Chancellor,Nominates Chakrabarti for,Times
2012-03-17T11:16:38Z,Game Group Rescue Talks,With,Banks
2012-03-17T11:44:18Z,Growth,Are,EU Priorities
2012-03-17T12:06:52Z,Ex-Libyan Intelligence Chief,Arrested in,Mauritania
2012-03-17T12:26:56Z,Sudan Arrests Teachers Demanding Better,Pay,Curriculum Change
2012-03-17T12:29:30Z,StanChart Banker,for,Fiance
2012-03-17T12:42:36Z,Limited Rebound,in,Global Drug Market
2012-03-17T12:42:36Z,Roche,Limited Rebound in,Le Temps
2012-03-17T12:52:35Z,Monti,Says,Italy Must Complete High-Speed Train Project
2012-03-17T13:30:30Z,Hamilton,Starts on,Pole
2012-03-17T14:03:05Z,Gains,in,Evasion
2012-03-17T14:32:58Z,Hirscher,Wins,Giant Slalom Title
2012-03-17T14:35:23Z,It,Made,Attacks Inside Eritrea
2012-03-17T15:46:54Z,Monte Paschi Share Offer Deadline,Set,Sole Reports
2012-03-17T16:33:08Z,Wales,Wins,Six Nations
2012-03-17T17:06:50Z,Swansea,Beats,Fulham 3-0
2012-03-17T17:15:11Z,Buyer,Lacks,Funds
2012-03-17T17:43:35Z,Brazil ’s Navy,Finds Oil Stain by,Chevron Offshore Field
2012-03-17T17:44:02Z,Tirrenia Workers,Called Over,Sale
2012-03-17T18:19:17Z,John Demjanjuk,Dies at,91
2012-03-17T18:30:16Z,Greece,Has,Firepower
2012-03-17T18:30:16Z,Provopoulos,Tells,Vima
2012-03-17T18:37:23Z,Tottenham,Stopped After,Player
2012-03-17T19:24:49Z,SkyWest Flight,Makes,Emergency Landing
2012-03-17T19:29:58Z,Bolton,After,Muamba
2012-03-17T19:29:58Z,F.A. Cup Match Halted,Collapses on,Field
2012-03-17T19:32:08Z,Everton,Tie in,F.A. Cup Soccer Quarterfinals
2012-03-17T19:32:08Z,Sunderland Tie 1-1,in,F.A. Cup Soccer Quarterfinals
2012-03-17T20:00:23Z,U.S. Citizen,Handed to,UN Mission
2012-03-17T20:00:23Z,Unidentified U.S. Citizen,Handed Over to,UN Mission
2012-03-17T20:18:20Z,Willkie Farr,Says,12 Lawyers
2012-03-17T20:43:32Z,Argentina,Nationalize,El Dia Reports
2012-03-17T23:35:13Z,Assistant Coaches Todd,Walker to,Woodson ’s Staff
2012-03-17T23:35:13Z,Knicks,Add,Walker
2012-03-17T23:35:13Z,Woodson,to,Staff
2012-03-18T01:29:10Z,Foxconn ’s Woo,Says,Truth Prevails
2012-03-18T04:00:01Z,Afghan Suspect ’s Life,Marked by,Honors
2012-03-18T04:00:01Z,Isner,Reaches,His First ATP Masters Event Against No. 3 Federer
2012-03-18T04:00:01Z,Will,Keep Austerity With,Unemployment
2012-03-18T06:51:43Z,15th Seeds,in,NCAA Games
2012-03-18T06:51:43Z,Norfolk State,Win as,15th Seeds
2012-03-18T23:01:00Z,Merkel Free,Choose,President
2012-03-19T00:00:01Z,Wales Seals Rugby Grand Slam,With,Character
2012-03-19T04:00:18Z,Fed,Corrects,Loss Estimates
2012-03-19T04:00:18Z,Goldman ’s Board,Must,Act
