2012-01-15T02:12:57Z,San Francisco,Beats,New Orleans 36-32
2012-01-15T03:00:00Z,Banks,Increased,86 %
2012-01-15T03:00:00Z,Central Banks,Increased,Korean Bond Holdings
2012-01-15T03:00:00Z,Overseas Banks,Increased,86 %
2012-01-15T03:00:00Z,Overseas Central Banks,Increased,Korean Bond Holdings
2012-01-15T04:30:34Z,Denver 45-10,in,AFC Divisional Contest
2012-01-15T04:30:34Z,New England,Defeats,Denver 45-10 in AFC Divisional Contest
2012-01-15T05:00:01Z,Durant,Has,28 Points
2012-01-15T05:00:01Z,Rangers Shut,Retain,League-Leading Record
2012-01-15T05:01:11Z,Consumer Prices,in,U.S. Probably Little Changed on Store Holiday Discounts
2012-01-15T05:31:40Z,Army,Calls for,Harmony
2012-01-15T05:31:40Z,Pakistan ’s Gilani,Meeting With,Leaders
2012-01-15T06:11:41Z,Saudi Religious Police Head,Supports,Jobs
2012-01-15T06:58:56Z,Bank Muscat Full-Year Net Income,Rises,16 %
2012-01-15T07:17:33Z,Tebow,Stopped by,Brady
2012-01-15T07:32:20Z,Agitating Air India Pilots,Call off,Press Trust Reports
2012-01-15T08:07:09Z,$ 4 Billion Sukuk May,Be,Priced
2012-01-15T08:07:09Z,$ Billion Sukuk May,Be,Priced
2012-01-15T08:07:09Z,Billion Sukuk May,Be,Priced
2012-01-15T08:48:24Z,SNB Board Member Raggenbass May,Seek,New Term
2012-01-15T08:49:02Z,Swiss Finance Department,’s SNB,NZZ Reports
2012-01-15T09:05:55Z,$ 2.8 Billion,in,2011 Taxes
2012-01-15T09:06:50Z,EON,in,Talks With Turkey ’s Dogus on Power Investment
2012-01-15T09:06:50Z,Talks,With,Turkey ’s Dogus on Power Investment
2012-01-15T09:06:50Z,Turkey,With,Dogus on Power Investment
2012-01-15T09:11:44Z,Lily Safra,Donates,Gerhard Richter Painting
2012-01-15T09:25:58Z,China,Lin ’s,World Bank
2012-01-15T09:31:42Z,BofA,in,Talks
2012-01-15T09:42:06Z,China,Increase,Support for Agriculture Industry
2012-01-15T09:42:06Z,Wen,Says,China
2012-01-15T09:47:57Z,Peacocks,May Sell,Times Reports
2012-01-15T09:51:16Z,U.K. Treasury Concerned,With,U.S. Volcker Rule
2012-01-15T10:00:56Z,Russia,Says,Obama ’s Defense Plan May Violate International Law
2012-01-15T10:28:31Z,South Africa,Boosts,SAPA Reports
2012-01-15T10:54:21Z,Warba Bank,in,First Quarter
2012-01-15T10:57:11Z,Kazakhs,Vote for,New Parliament
2012-01-15T11:37:06Z,Industries Qatar Fuel Additives Unit,Appoints,General Manager
2012-01-15T11:41:03Z,Portsmouth Soccer Club May,Be Bought by,Times Reports
2012-01-15T11:54:41Z,Ezz,Heads Since,June 2009
2012-01-15T12:12:11Z,Business Post,Says With,Troika
2012-01-15T12:17:38Z,Etihad,Carried Record Number in,2011
2012-01-15T12:27:21Z,Generali,RSA Among,Pool of Capsized Costa Concordia Insurers
2012-01-15T12:40:34Z,QPR,is Close to,Signing Brazilian Striker Henrique
2012-01-15T12:41:34Z,Creighton,Says,Ireland
2012-01-15T12:42:01Z,Saudi Police Hurt,in,Shooting Incident
2012-01-15T12:42:01Z,Shooting Incident,in,Oil-Rich Province
2012-01-15T13:02:01Z,Cairn,in,Talks With Rockhopper on Falkland Oil
2012-01-15T13:02:01Z,Talks,With,Rockhopper on Falkland Oil
2012-01-15T13:04:35Z,Asset Sales,on EU,IMF
2012-01-15T13:04:35Z,EU,With Deadlocks,Independent
2012-01-15T13:04:35Z,Ireland Deadlocks,With,EU on Asset Sales
2012-01-15T13:09:09Z,Australia Routs India,in,3 Days
2012-01-15T13:16:01Z,$ 5 Billion,in,Southern Europe
2012-01-15T13:35:33Z,Takkt,Had,Better Quarter Than Forecast
2012-01-15T13:51:01Z,Linde ’s CEO Reitzle,Tells,Der Spiegel
2012-01-15T13:51:27Z,Ezz Steel,Are,Active
2012-01-15T13:51:27Z,Juhayna Food,Are,Active
2012-01-15T14:18:39Z,$ 50.7 Million,in,Loan Notes
2012-01-15T14:18:39Z,Mainstream Renewable Power,Raises,Million in Loan Notes
2012-01-15T14:23:51Z,GM,’s Targets,Automotive News Europe
2012-01-15T14:38:06Z,June 2004,Since Decline,Europe
2012-01-15T14:38:06Z,Lowest,to Decline,Europe
2012-01-15T14:44:39Z,South Africa ’s Grace,Wins,Golf ’s Joburg Open for First European Tour Title
2012-01-15T14:57:43Z,Schmidt,Tells,Automotive News
2012-01-15T15:08:08Z,Kostelic,Wins,Slalom
2012-01-15T15:08:08Z,Vonn Tops World Cup Super-G,in,Cortina D’Ampezzo
2012-01-15T15:14:34Z,Generali,Receives,Bids
2012-01-15T15:14:34Z,Migdal,Rises,Most in Two Years
2012-01-15T15:26:35Z,Hughes,in,First Match in Charge
2012-01-15T15:26:35Z,Hughes ’s First Match,in,Charge
2012-01-15T15:26:35Z,QPR,Loses,1-0
2012-01-15T15:28:49Z,We,Do,Telegraph Reports
2012-01-15T16:00:00Z,N.Y. Index,in,Best Rally
2012-01-15T16:00:00Z,Sina Jumps,in,Year
2012-01-15T16:27:47Z,79 %,to Fell,FAZ Reports
2012-01-15T16:27:47Z,Germany,’s Fell,FAZ Reports
2012-01-15T17:06:18Z,Sudan Opens,Bidding for,Six New Oil Blocks
2012-01-15T17:31:53Z,Leinster,Beats,Glasgow 23-16
2012-01-15T17:41:21Z,Brazil,in,Weeks
2012-01-15T18:39:17Z,Kazakhs,Vote for,New Parliament
2012-01-15T19:12:48Z,Defoe,Walk,Show
2012-01-15T19:12:48Z,Prada,Puts Hollywood on,Runway
2012-01-15T20:09:34Z,Best Select Plan $ 2 Billion Solar Project,in,Oman
2012-01-15T20:09:34Z,Terra Nex,Project in,Oman
2012-01-15T20:49:55Z,U.S. Coordinating Iran Policy,With,Israel
2012-01-15T21:10:24Z,Schaeuble,Rejects ECB as,Lender of Last Resort
2012-01-15T21:10:55Z,Baltimore,Defeats,Houston
2012-01-15T23:00:01Z,ECB,Over,Policy
2012-01-15T23:00:01Z,Nowotny,Says,S&P Favors Fed ’s Bond Buying
2012-01-15T23:01:00Z,Belgium,Turning,Point
2012-01-15T23:01:00Z,Di Rupo,Reduce,Its Budget Deficit
2012-01-15T23:01:00Z,Sarkozy,Says,Europe Needs
2012-01-15T23:11:27Z,Barca,Beats,Betis 4-2
2012-01-15T23:25:10Z,Japan Stock Futures,Drop on,Euro Downgrades
2012-01-15T23:25:13Z,It,Expands,Into Original
2012-01-15T23:41:01Z,Carnival Cruise Death Toll,Rises to,Five
2012-01-15T23:41:01Z,Rescuers,Seek,17 Missing
2012-01-16T00:00:01Z,Arsenal,Loses,3-2
2012-01-16T00:00:01Z,QPR,Starts,Hughes ’s Tenure
2012-01-16T01:40:16Z,Thai Group,Starts,Campaign
2012-01-16T04:44:32Z,Rupee,in,12 on Inflow
2012-01-16T04:53:48Z,Upgrades,Beating,Downgrades
2012-01-16T05:00:07Z,Contraband Opens,Is,Second
2012-01-16T05:00:07Z,Weekend,as,Top Film
2012-01-16T05:02:02Z,Saints Tops Patriots ’ Rout,in,TV Audience
2012-01-16T05:19:20Z,Backing Ties,With,China
2012-01-16T05:47:09Z,Aussie,Decline on,Europe
2012-01-16T05:47:09Z,China Growth Report,Before Aussie,New Zealand Dollars Decline on Europe
2012-01-16T07:05:28Z,Assad Seeks,End,Protests
2012-01-16T08:00:53Z,Euro Falls,Reduces,Eight Others ’ Ratings
2012-01-16T08:10:45Z,Oil,Climbs From,Low as Iran Warns of Hormuz Supply Disruption
2012-01-16T08:27:59Z,Roesler,Tells,Handelsblatt
2012-01-16T08:39:59Z,Nazarbayev Party,Keeps,Kazakh Dominance
2012-01-16T10:17:55Z,Bordeaux,Goes,Unsold
2012-01-16T10:24:49Z,China Mouse-Click War,Begins as,New Year Travel Overwhelms Rail Website
2012-01-16T10:39:07Z,Rajoy ’s Radio Silence,Is Set,Broken as Sarkozy Visits Madrid
2012-01-16T10:39:07Z,Rajoy ’s Spanish Radio Silence,Is Set,Broken as Sarkozy Visits Madrid
2012-01-16T14:57:11Z,Election,With,French Loss of AAA Rating
2012-01-16T16:35:18Z,RSA,Insurers Up,Million
2012-01-16T17:15:24Z,Telenor CEO Baksaas,Fights,Facebook
2012-01-16T17:15:24Z,Wallet Share,With,Digital Push
2012-01-16T17:18:05Z,Cartier,Turns to,Discreet Watches
2012-01-17T00:00:34Z,American Red Cross,Cited by,FDA
2012-01-17T00:50:30Z,Cruise Ship,Sinking in,Peak Booking Season May Worsen Losses
