2012-09-01T00:00:52Z,Second Month,for Fall,Won
2012-09-01T01:29:46Z,Costs,Benefits of,More Easing
2012-09-01T02:15:02Z,California Lawmakers,Approve,Private-Pension Management
2012-09-01T04:00:01Z,Noh,Has,1-Stroke Lead
2012-09-01T04:00:01Z,PGA,at,Deutsche Bank
2012-09-01T04:00:27Z,Bernanke,Keeps,Bond-Buying
2012-09-01T04:00:44Z,Roddick,Prolongs,Career
2012-09-01T04:01:00Z,California Lawmakers,Send Public-Pension Cutback to,Brown
2012-09-01T04:01:33Z,New York Giants Cut Ware,Jones as,NFL Teams Trim Rosters
2012-09-01T04:57:31Z,Qaddafi,of,Son
2012-09-01T04:57:31Z,Trial,in,Libya
2012-09-01T05:26:27Z,Rookie Gonzalez,Strikes as,Orioles Beat Yankees 6-1
2012-09-01T07:10:29Z,Bechtel Interested,in,Bid
2012-09-01T07:47:52Z,Million,Gets,Your Name on Cancer Drug
2012-09-01T10:54:12Z,Thousands Rally,in,Hong Kong
2012-09-01T11:09:03Z,Least,at Irish,Times
2012-09-01T11:29:04Z,Economy Minister,Says to,Continue Energy Ties
2012-09-01T11:29:04Z,Iranian Economy Minister,Says to,Continue Energy Ties
2012-09-01T12:53:41Z,India ’s JSW Steel,Absorb,Ispat Unit
2012-09-01T13:08:26Z,Romania,Sets Date for,Dec. 9
2012-09-01T13:16:43Z,Saudi Arabia ’s Stocks,Decline on,Growth Concern
2012-09-01T14:08:13Z,Spain Ca Finance Itself,in,Call
2012-09-01T14:12:18Z,Fulham 3-0,in,Premier League
2012-09-01T14:37:20Z,Premier League Clubs,Spend More in,Transfer Window
2012-09-01T16:00:01Z,China Manufacturing,Contracts as,Orders
2012-09-01T16:05:48Z,Angola ’s Ruling MPLA,Has,74 % of Vote Count
2012-09-01T16:40:55Z,Notre Dame Routs Navy 50-10,in,College Football Game
2012-09-01T17:00:00Z,Credit Des Alpes,Acquires,Interest
2012-09-01T17:00:00Z,Interest,in,Parinvest Group
2012-09-01T17:14:26Z,Five Suspected Islamists,in,Attack
2012-09-01T17:14:26Z,Military,Kills,Five Suspected Islamists
2012-09-01T17:14:26Z,Nigerian Military,Kills,Five Islamists in Attack
2012-09-01T18:15:34Z,Bernanke,Defends,Bond Purchases
2012-09-01T18:31:05Z,India Tax Panel,Sees,Rule Delay
2012-09-01T18:50:08Z,Stay Unbeaten,in,Premier League
2012-09-01T18:50:08Z,West Brom,Beats Everton to,Stay Unbeaten in Premier League
2012-09-01T19:29:59Z,Carroll,With,Leg Injury
2012-09-01T20:24:38Z,Yankees Beat Orioles 4-3,Rallying From,Three-Run Deficit
2012-09-01T20:44:09Z,Batista,in,Talks
2012-09-01T23:00:01Z,Pistorius,Smyth at,Paralympic Games
2012-09-02T04:00:00Z,Hal David,Dies at,91
2012-09-02T04:00:01Z,Jobs,With,Romney in Swing States
2012-09-02T04:00:01Z,Karl Rove,Apologizes to,Akin
2012-09-02T04:00:01Z,Romney,in,Swing States
2012-09-02T04:00:03Z,Penn State,Loses in,Football Return
2012-09-02T04:01:00Z,Talks,With,Referees Fail
2012-09-02T05:12:14Z,Federer,Advance to,U.S. Open 4th Round
2012-09-02T08:21:03Z,Fighting,Rages,Rebels Seek
2012-09-02T08:21:03Z,Rebels,Weaken,Air Power
2012-09-02T08:21:03Z,Syrian Fighting,Rages,Rebels Seek
2012-09-02T13:34:27Z,He Ran Marathon,in,Under 3 Hours
2012-09-03T08:29:39Z,China,as,Leaders Jockey
