2012-07-13T01:05:29Z,Activists,Say,About 200 Killed
2012-07-13T01:05:29Z,Syrian Activists,Say,About 200 Killed in Hama Massacre
2012-07-13T01:24:37Z,CEOs,Make,Cote Writes
2012-07-13T01:24:37Z,U.S. Debt Election Issue,Writes in,FT
2012-07-13T01:46:43Z,Hastings,Accepts,Billion Cash Bid From Pipeline Partners
2012-07-13T02:47:45Z,New York,Expensive,Rents Jump
2012-07-13T03:38:09Z,Funds,Buy,9.98 Billion Rupees of Indian Derivatives
2012-07-13T03:38:09Z,Global Funds,Buy,Net 9.98 Billion Rupees of Derivatives
2012-07-13T04:00:01Z,Democrats,Still Waiting for,Convention
2012-07-13T04:00:30Z,Americans,Living,Larger
2012-07-13T04:01:00Z,Aetna,Urges,Moms
2012-07-13T04:01:00Z,Critical Comments,in,SI Interview
2012-07-13T04:01:00Z,Iraq Rebuilding Risked Billions,in,Funds
2012-07-13T04:01:00Z,Morgan Stanley,Taps,Visconsi
2012-07-13T04:01:00Z,Reggie Jackson,Apologizes for,Comments
2012-07-13T04:01:00Z,Regulators,Must Widen,Libor Probe
2012-07-13T04:01:00Z,San Bernardino,Goes,Bust
2012-07-13T04:01:01Z,Rich,Passing Up Million Opportunity to,Gift Tax-Free
2012-07-13T04:01:16Z,Romney,Gets,Cheney ’s Help Fundraising
2012-07-13T04:01:20Z,San Bernardino City Government,Being Probed by,Sheriff
2012-07-13T04:02:02Z,Calgary,Escapes,Economic Doldrums
2012-07-13T04:02:14Z,Clinton,Announces,$ 50 Million
2012-07-13T04:15:51Z,Dominican Republic 113-59,in,Olympic Exhibition Game
2012-07-13T04:15:51Z,USA,Defeats,Dominican Republic 113-59
2012-07-13T04:32:31Z,China ’s Growth,Slows to,Three-Year Low
2012-07-13T04:33:56Z,China Economic Data,Questioned,Electricity Use Slows
2012-07-13T04:45:11Z,Hong Kong Short Selling Turnover,Recorded,07/13/201
2012-07-13T05:00:00Z,Lansdowne,Sees,Bank Stocks
2012-07-13T05:00:01Z,Mexicans,Reap,Gifts
2012-07-13T05:00:01Z,Vote-Buying Efforts,Remain,Time-Honored
2012-07-13T05:01:00Z,Chile,Trend Against,Monetary Easing
2012-07-13T05:04:20Z,Australia Bowler Brett Lee,Quits,International Cricket
2012-07-13T05:04:20Z,Australia Fast Bowler Brett Lee,Quits,International Cricket
2012-07-13T05:10:50Z,Fuel Oil,in,Asia
2012-07-13T05:10:50Z,Gasoil,Oil in,Asia
2012-07-13T05:30:49Z,12 %,in,Year
2012-07-13T05:33:40Z,Northern Ireland Police,Say,Shots Fired at Them
2012-07-13T05:33:40Z,Shots,Fired at,Them
2012-07-13T05:33:40Z,Them,in,Belfast Riot
2012-07-13T05:42:34Z,Romania ’s OMV Petrom,Appoints,Secosan
2012-07-13T05:43:43Z,Japan,Set With,Sovereign Insurance
2012-07-13T06:04:17Z,Russian Stocks,Snap,Two Days
2012-07-13T06:04:17Z,Stocks,Snap,Two Days of Declines
2012-07-13T06:32:39Z,Singapore GDP,Shrinks as,Europe Crimps Exports
2012-07-13T06:48:11Z,Liverpool,Agrees,$ 18.5 Million Fee
2012-07-13T06:48:11Z,Roma,for,Borini
2012-07-13T06:50:23Z,Hyundai Motor,Rises,Union Says
2012-07-13T07:00:00Z,Russia Plans Sale,in,Pilot Power Privatization
2012-07-13T07:00:00Z,Spanish Underlying Prices Unchanged,in,June
2012-07-13T07:20:14Z,Kalousek Favors Lower Tax,Dnes on,Pricier Cigarettes
2012-07-13T07:20:14Z,MF,Dnes on,Pricier Cigarettes
2012-07-13T07:24:58Z,China June Home Sales,Rise,41 %
2012-07-13T07:28:08Z,Galp,Raised Output in,Quarter
2012-07-13T07:35:18Z,South Africa Corn,Prices for,July 13
2012-07-13T07:52:21Z,Banks ’ Dollar Funding Costs,Decline to,Low
2012-07-13T07:52:21Z,European Banks ’ Dollar Funding Costs,Decline to,Low
2012-07-13T08:08:05Z,China,’s Stocks,Losses After GDP Data
2012-07-13T08:08:05Z,China ’s Stocks,Swing Between,Gains
2012-07-13T08:20:27Z,Thai Baht Falls,Rise on,Global Growth Concern
2012-07-13T08:26:24Z,Taiwan Dollar,Has,Weekly Drop on Growth Concern
2012-07-13T08:36:13Z,Peso,Has Weekly Decline as,Central Bank Curbs Gains
2012-07-13T08:36:13Z,Philippine Peso,Has,Weekly Decline
2012-07-13T08:43:34Z,EMS-Chemie,Raises,2012 Forecasts
2012-07-13T08:53:44Z,X5 Retail,Headed in,Five Months
2012-07-13T08:56:54Z,Decline Versus Dollar,Is,Changed
2012-07-13T09:19:30Z,Rise,to Production,Fedorov
2012-07-13T09:23:34Z,Ringgit,Headed for,Second Weekly Loss
2012-07-13T09:25:56Z,Magyar Telekom,Heads for,Week of Declines
2012-07-13T09:31:13Z,Azoty Tarnow,Are,Active
2012-07-13T09:38:21Z,Dutch Two-Year,Note Yield Falls for,First Time
2012-07-13T09:38:21Z,Two-Year,Note,Yield Falls
2012-07-13T09:38:33Z,Erste ’s Main Owner May,Sell,150 Million Euros
2012-07-13T09:44:47Z,Hays,Boosts,Latin Recruitment
2012-07-13T09:45:00Z,EU,Sends Antitrust Complaints to,Four North Sea Shrimp Traders
2012-07-13T09:47:41Z,China,Testing,World ’s Largest Hydro Turbine
2012-07-13T09:49:19Z,OTP Bank,Are Active in,Budapest Trading
2012-07-13T10:02:43Z,Companies,Repay,Debt
2012-07-13T10:02:43Z,Danish Companies,Repay,Debt
2012-07-13T10:02:43Z,Delay,Investing,Crisis Persists
2012-07-13T10:15:07Z,Indian Rupee,Climbs,Trade Deficit Narrows
2012-07-13T10:15:07Z,Rupee,Climbs,Trade Deficit Narrows to 15-Month Low
2012-07-13T10:15:07Z,Trade Deficit,Narrows to,15-Month Low
2012-07-13T10:15:12Z,India,’s Decline,Monsoon
2012-07-13T10:15:18Z,South Africa,in,Mpumalanga Privince
2012-07-13T10:15:18Z,Train,Hits,Truck in South Africa ’s Mpumalanga Privince
2012-07-13T10:15:18Z,Truck,in,South Africa ’s Mpumalanga Privince
2012-07-13T10:34:41Z,China ’s Daily Steel Output Rebounds,in,June
2012-07-13T10:35:39Z,Regulator,on,Instruction
2012-07-13T10:45:02Z,Foreign Investors,Buy,Net 3.14 Billion Rupees of Indian Stocks
2012-07-13T10:52:09Z,Bank Suggests Workers,Hid,Loss
2012-07-13T10:52:09Z,JPMorgan,Restates,Results
2012-07-13T11:00:56Z,Fed Funds Projected,Open at,0.15 ICAP Says
2012-07-13T11:01:17Z,Aksa,Builds,$ 319 Million Coal-Fired Plant With Bank Loans
2012-07-13T11:17:16Z,Naira Gains,Paring 1st Weekly Fall in,Four
2012-07-13T11:32:16Z,Indian Oil,Buy,EA Crudes From Shell
2012-07-13T11:32:16Z,Nigerian Qua Iboe,Crudes From,Shell
2012-07-13T11:32:16Z,Oil,Buy,Nigerian Qua Iboe
2012-07-13T11:35:25Z,Volkswagen First-Half Sales Growth,Accelerates on,China
2012-07-13T11:44:08Z,JPMorgan ’s $ 4.4 Billion CIO Loss,Drives,Profit
2012-07-13T11:44:08Z,JPMorgan ’s $ Billion CIO Loss,Drives,Profit Down 9 %
2012-07-13T11:44:08Z,JPMorgan ’s Billion CIO Loss,Drives,Profit
2012-07-13T11:45:49Z,Latvia ’s 3-Month Rigibor,Hits,Record Low
2012-07-13T11:45:49Z,Latvia ’s Rigibor,Hits,Record Low
2012-07-13T11:55:17Z,Obama,Says Appropriate,Focus on Romney at Bain
2012-07-13T12:05:52Z,Kenya Shilling,Weakens,Third Day
2012-07-13T12:05:52Z,Oil Importers,Buy,Dollars
2012-07-13T12:08:04Z,Aerospace,Broadens Repair Work With,$ 80 Million AirAsia Order
2012-07-13T12:08:04Z,ST Aerospace,Broadens Repair Work With,Million AirAsia Order
2012-07-13T12:10:59Z,Munich Re,Buys Wind Parks in,$ 3 Billion Renewables Plan
2012-07-13T12:18:16Z,Czech Lawmakers,Approve,Tax Increases
2012-07-13T12:18:16Z,Lawmakers,Approve,Tax Increases Needed
2012-07-13T12:23:30Z,Low Temperatures,in,Brazil Coffee-Growing Areas
2012-07-13T12:30:00Z,U.S. Money Funds Cut U.K. Holdings,in,Shift From Europe
2012-07-13T12:30:49Z,OTP Bank Climbs,in,Seven
2012-07-13T12:39:38Z,Buffett,Says After,Loss
2012-07-13T12:45:43Z,Wholesale Prices,in,Four Months
2012-07-13T12:53:41Z,Vietnam Coffee Premium Seen,Rising as,Season-End Approaches
2012-07-13T13:00:36Z,Ex-Hong Kong No.,Charged With,Graft
2012-07-13T13:00:36Z,Ex-Hong Kong No. 2,Charged With,Graft
2012-07-13T13:02:02Z,Budget Revenue,Tops,Government Target
2012-07-13T13:02:02Z,Lithuanian Budget Revenue,Tops,Government Target
2012-07-13T13:05:35Z,Serbian Six-Month Car Sales,Fall to,Lowest
2012-07-13T13:05:35Z,Serbian Six-Month Car Sales Fall,in,Decade
2012-07-13T13:05:35Z,Six-Month Car Sales,Fall,29.7 %
2012-07-13T13:15:24Z,Italy Home Sales,Fall as,as 12 %
2012-07-13T13:17:16Z,DocuSign,Raises,$ 47.5 Million
2012-07-13T13:21:27Z,Romney,in,Pew Poll
2012-07-13T13:24:29Z,David Beckham,Rejects,Idea of Lighting Flame
2012-07-13T13:26:13Z,Scottish Soccer,in,League
2012-07-13T13:38:09Z,Russia ’s Rosneft,Starts,Unit
2012-07-13T13:43:17Z,Geithner Sent BOE ’s King Libor,Revamp,Recommendations
2012-07-13T13:44:56Z,Corn,Climbs,Fourth Week
2012-07-13T13:44:56Z,Drought,Worsens,Yield Losses
2012-07-13T13:53:39Z,Aim,in,Mortgages
2012-07-13T13:53:39Z,Buffett,Says,Wells Fargo
2012-07-13T14:18:14Z,Georgia,in,Talks With Investors
2012-07-13T14:18:14Z,Talks,With,Investors
2012-07-13T14:31:52Z,Serbian Delta,Renew,Hotel
2012-07-13T14:43:06Z,Billionaire Rausing Heir,Arrested on,Suspicion of Wife ’s Death
2012-07-13T14:43:06Z,Wife,of,Death
2012-07-13T14:50:35Z,JPMorgan ’s Drew,Forfeits,2 Years ’ Pay
2012-07-13T14:51:59Z,Sphere,Gets,License
2012-07-13T15:09:13Z,Cheech Marin,Maysles at,Hamptons Art Fair
2012-07-13T15:09:45Z,Pound,Rises Since,2008 Versus Euro on U.K. Outlook
2012-07-13T15:13:54Z,Dollar,Fall on,Brent Gain
2012-07-13T15:13:54Z,Ruble,Strengthens Against,Dollar
2012-07-13T15:16:36Z,Exxaro,Snaps,5-Day Slump
2012-07-13T15:18:45Z,JPMorgan Cuts Investment Bank,Pay Pool by,22 %
2012-07-13T15:21:11Z,Brazil ’s Braskem,Is,Petrochemical Profit Disappointment
2012-07-13T15:25:40Z,Rangers Soccer Club,Dropped to,Scotland ’s Fourth Level
2012-07-13T15:25:40Z,Scotland,to,Fourth Level
2012-07-13T15:29:41Z,Clinton,Urges,Myanmar
2012-07-13T15:30:53Z,Reported Syrian Massacre,in,Tremseh
2012-07-13T15:35:44Z,10.4 %,in,First Half
2012-07-13T15:36:37Z,Him,Play,Football
2012-07-13T15:37:41Z,Anthony Davis,Joins,Olympic Team
2012-07-13T15:37:41Z,Griffin Needs,Knee,Surgery
2012-07-13T15:38:23Z,Ex-Barclays CEO Diamond,Advised on,Libor
2012-07-13T15:40:55Z,Black ’s Apollo Increases Insurance Bet,With,$ 415 Million Deal
2012-07-13T15:46:14Z,German Yields,Drop,Bonds Retreat
2012-07-13T15:46:14Z,Yields,Drop to,Records
2012-07-13T15:50:39Z,Mitt,Done Before,It
2012-07-13T15:55:17Z,Millar Wins First Tour Stage,in,Nine Years
2012-07-13T16:03:34Z,Nigeria ’s Oil Bill,Reduces,Taxes
2012-07-13T16:03:34Z,Nigeria ’s Revised Oil Bill,Reduces,Taxes for Exploration
2012-07-13T16:04:30Z,Andritz,Rises,UBS Says
2012-07-13T16:04:44Z,Galp,Rises on,Second-Quarter Oil Output Increase
2012-07-13T16:13:03Z,Danger,Delay of,Lawsuit
2012-07-13T16:13:03Z,Ex-Snoras Bank Owner,Says,Life
2012-07-13T16:13:03Z,Life,in,Danger
2012-07-13T16:16:21Z,Mining Companies,Rebound on,China Data
2012-07-13T16:18:26Z,Haven Appeal,Sends Bond Sales Above,$ 2 Trillion
2012-07-13T16:27:34Z,Dutch Flower Exports,Climb,6 %
2012-07-13T16:27:34Z,Flower Exports,Climb,6 %
2012-07-13T16:29:09Z,New York Yankees Sign First-Round Draft,Pick,Pitcher Ty Hensley
2012-07-13T16:38:20Z,Spain,Uses State Lottery to,Fund Regions
2012-07-13T16:54:40Z,Dimon,Sees Progress as,Buffett Warns of Fatal Flaw
2012-07-13T16:54:40Z,Progress,in,Europe
2012-07-13T16:56:19Z,Behr,Raided by,EU Antitrust Regulators
2012-07-13T17:04:49Z,Shareholders,Approve,New Capital Injection
2012-07-13T17:18:22Z,Femsa,Are,Active
2012-07-13T17:25:14Z,Wells Fargo,Buy,Back Bad Home Loans
2012-07-13T17:30:17Z,Obama,Can Eat,Steak
2012-07-13T17:46:50Z,Copper,Rises,Most in Two Weeks on China Stimulus Speculation
2012-07-13T17:47:34Z,It,Low-Balled,Libor
2012-07-13T17:49:34Z,Heating Oil,Rises on,Speculation of Further Stimulus
2012-07-13T17:50:45Z,Bondholders,See Eminent Domain as,State Attack
2012-07-13T17:58:34Z,Swing Voters,in,Virginia Foray
2012-07-13T18:05:20Z,Dimon,Saw,Billion Potential Loss
2012-07-13T18:05:20Z,He,Made,Teapot Remark
2012-07-13T18:06:24Z,Farallon ’s Steyer,Says,Obama Supports Financial Industry
2012-07-13T18:35:24Z,DirecTV,Coping With,Nickelodeon Loss
2012-07-13T18:49:02Z,Companies,Avoid,Repatriation Tax
2012-07-13T18:54:48Z,Chinese Fans,Showing,Appetite for Hunger Games ’
2012-07-13T18:54:48Z,Fans,Showing,Appetite
2012-07-13T18:54:48Z,Showing,Appetite for,for Hunger Games
2012-07-13T19:04:38Z,US Airways,Gets,Voice
2012-07-13T19:07:24Z,It,Hurts in,Their Bank Accounts
2012-07-13T19:14:12Z,Louisiana Oil Premium,Widens Since,April
2012-07-13T19:14:12Z,Sweet Louisiana Oil Premium,Widens to,Largest Margin
2012-07-13T19:30:36Z,Oil,Rises,Rising Equities
2012-07-13T19:37:10Z,Chilean Peso Posts,in,Month
2012-07-13T20:00:15Z,Two Rwandan Rebels,in,Congo Face Arrest Warrants
2012-07-13T20:04:47Z,Grains,Extend,Rallies
2012-07-13T20:04:47Z,Soybeans,Extend,Rallies
2012-07-13T20:05:41Z,Profit,Tops,Estimates on Coatings Gain
2012-07-13T20:07:04Z,ReneSola,Climbs After,Raising 2012 Solar Shipment Forecast
2012-07-13T20:08:15Z,AerCap,in,Play With Airlines Leasing
2012-07-13T20:09:35Z,Norfolk Southern,Sues,Buccini/Pollin
2012-07-13T20:10:04Z,Mortgage Database MERS,Reaches,Settlement
2012-07-13T20:15:31Z,Ocean Power Falls,Trimming,Lockheed Deal Gains
2012-07-13T20:15:56Z,Printer,on,Sales Forecast
2012-07-13T20:18:05Z,Face July 17 Hearing,in,Senate
2012-07-13T20:21:05Z,Accreditor,Monitoring,Ashford
2012-07-13T20:26:21Z,Advanced Talks,With,Highstar on Waste Unit
2012-07-13T20:26:21Z,Veolia Said,in,Advanced Talks With Highstar on Waste Unit
2012-07-13T20:30:25Z,Medicaid Expansion,Divides Governors at,Virginia
2012-07-13T20:33:18Z,Hovnanian Swaps Drop,Climb With,Blackstone
2012-07-13T20:34:17Z,JPMorgan Chase,Is Out of,Controls
2012-07-13T20:40:04Z,S&P,Erases,Weekly Loss
2012-07-13T20:40:04Z,S&P 500,Erases,Weekly Loss
2012-07-13T20:42:36Z,Ethanol,Rises to,Highest
2012-07-13T20:42:58Z,Consumer Sentiment,in,U.S. Drops
2012-07-13T20:43:12Z,Wells Fargo ’s Second-Quarter Profit,Climbs on,Mortgages
2012-07-13T20:53:40Z,Northeast Utilities,Rises to,Safety
2012-07-13T20:57:18Z,Peregrine Bankruptcy Judge,Lets,Firm Run
2012-07-13T21:00:00Z,$ 45 Million Technology Park,With,China ’s Help
2012-07-13T21:00:00Z,China,With,Help
2012-07-13T21:03:15Z,Canada,Stocks,Gain
2012-07-13T21:03:15Z,Gold,Rise on,China Speculation
2012-07-13T21:12:46Z,Canada Dollar,Rises Against,Greenback
2012-07-13T21:19:18Z,Vivendi,Search Off for,Activision Suitors
2012-07-13T21:24:44Z,Brazil Stock Movers,Were,Active
2012-07-13T21:29:10Z,E-Mails Sought,in,Energy Probe Involve Lawyers
2012-07-13T21:29:10Z,JPMorgan,Says,E-Mails Sought
2012-07-13T21:45:27Z,Copper,Rises,Most
2012-07-13T21:51:15Z,Obama,Says,Focus Appropriate
2012-07-13T21:51:15Z,Romney,on,Bain Experience
2012-07-13T21:55:52Z,Syria ’s Bloody Massacre,Raises,Calls
2012-07-13T21:57:54Z,Macy ’s Wins Bid,in,Martha Stewart Lawsuit
2012-07-13T22:00:00Z,Hyundai U.S. Chief Siganls Investment,in,Capacity
2012-07-13T22:03:30Z,Comment,Speed,Reviews
2012-07-13T22:03:30Z,USDA,Seeks Comment in,Bid
2012-07-13T22:08:14Z,Data,Confirm,China ’s Slowdown
2012-07-13T22:16:23Z,Mexican Peso,Strengthens as,Stimulus Speculation Increases
2012-07-13T22:16:23Z,Peso,Strengthens as,Stimulus Speculation Increases
2012-07-13T22:16:30Z,Judges,in,Texas Voter ID Case Question State Data
2012-07-13T22:31:04Z,Peregrine Chief Wasendorf,Charged With,False Statements
2012-07-13T23:00:01Z,European Stocks,Rise for,Sixth Straight Week
2012-07-13T23:00:01Z,Stocks,Rise for,Sixth Straight Week
2012-07-13T23:00:07Z,JPMorgan ’s Botched Trades May,Generate,$ 7.5 Billion Loss
2012-07-13T23:01:00Z,Qatari,Push for,Higher Glencore Bid
2012-07-13T23:04:01Z,911 Call,Shows,Driver Followed Commerce Chief
2012-07-13T23:04:01Z,Call,Shows,Driver Followed Commerce Chief
2012-07-14T00:09:34Z,Boeing,Fined,$ 13.6 Million
2012-07-14T00:46:24Z,Richard Zanuck,Dies at,77
2012-07-14T04:00:00Z,Gain,Loss on,JPMorgan Rally
2012-07-14T04:00:01Z,Pro-Obama Super-Pac,Raised,Million
2012-07-14T04:00:15Z,Cycling Manager Bruyneel,Goes Over,Ban
2012-07-14T04:01:00Z,Artist,Creates,Noise
2012-07-14T04:01:00Z,Kusama,’s Dots,Drums
2012-07-14T04:01:00Z,MobiTV,Citing,Unfavorable Conditions
2012-07-14T04:01:00Z,New York,at,Whitney
2012-07-14T04:01:00Z,Penis,Gave,Mayan Vision Serpent
2012-07-14T04:01:01Z,MasterCard,Settle,Merchants ’ Swipe-Fee Lawsuit
2012-07-14T04:01:01Z,Newspapers Chain,for,Exit Plan
2012-07-14T04:01:01Z,North Carolina Seeks Additional Data,in,Duke Energy Probe
2012-07-14T04:01:01Z,RIM,Must Pay,$ 147 Million Over Mformation Patent
2012-07-14T04:01:07Z,Romney,Defend,Record
2012-07-14T04:01:40Z,Buffett,Buying,Facebook
2012-07-14T04:01:40Z,Facebook,Was,Terrible Idea
2012-07-15T16:00:05Z,Stimulus Bets,Spur,ADR Rebound
2012-07-16T01:05:22Z,JPMorgan May Distance Trades,With,Intent Claim
