2012-06-06T00:10:42Z,Geithner,Hosts U.S. Bailout Reunion With,Predecessor Paulson
2012-06-06T00:58:14Z,Romney,Wins,New Jersey Republican Presidential
2012-06-06T01:02:04Z,Rise,to Demand,Chevron ’s Kirkland
2012-06-06T01:02:04Z,World Energy Demand,Kirkland ’s,Chevron
2012-06-06T01:35:02Z,Margarita,in,Pouch Weather Bud 's Margarita
2012-06-06T01:35:02Z,Pouch Weather Bud,in,Margarita
2012-06-06T02:56:06Z,Walker,Retains,His Office
2012-06-06T03:17:00Z,Romney,Wins,California Republican Presidential Primary
2012-06-06T04:00:01Z,Latin American Pacific Bloc,Rejects,Brazil-Led Protectionism
2012-06-06T04:00:02Z,Keystone Supporters,See,Weak Jobs Data Boosting Project
2012-06-06T04:00:07Z,Taking,Alternative Investing to,New Risks
2012-06-06T04:00:07Z,Texas Teachers,Taking,Alternative Investing to New Risks
2012-06-06T04:01:00Z,Corot,’s Trees,Erotic Sculpture
2012-06-06T04:01:00Z,Frazier,’s Gym,Ellis Hospital Make 2012 Endangered Sites
2012-06-06T04:01:00Z,Payne,Wins N.J. Race for,Congress Seat Held by His Dad
2012-06-06T04:01:44Z,Hall,Kicked in,Needs Stitches
2012-06-06T04:01:46Z,Issa,Urges,Halt
2012-06-06T04:13:57Z,Rupee,Strengthens on,Europe
2012-06-06T04:27:50Z,Longer Bond Durations,in,Japan
2012-06-06T04:27:50Z,SocGen 's Shimamoto,Urges,Longer Bond Durations in Japan
2012-06-06T04:45:25Z,Hong Kong Short Selling Turnover,Recorded,06/06/201
2012-06-06T04:48:38Z,May,Hold,London Share
2012-06-06T04:50:04Z,Pascrell,Wins,U.S. House Primary
2012-06-06T05:05:06Z,Stockton,Put,City Into Bankruptcy
2012-06-06T05:11:29Z,Qatar Workers Evacuated,in,Pearl Development Fire
2012-06-06T05:25:54Z,Abraaj Expects,in,3 Months
2012-06-06T05:30:55Z,China National Nuclear IPO,Wins,Environment Ministry Approval
2012-06-06T05:46:08Z,BRIGHT,LED,ELEC
2012-06-06T05:52:13Z,Industrial Fund,Approves Loans for,17 Projects
2012-06-06T05:52:13Z,Saudi Industrial Fund,Approves Loans for,17 Projects
2012-06-06T06:12:43Z,National Insurance,Says,Profit Rose Sixfold
2012-06-06T06:33:21Z,Corporate Bond Risk Falls,in,Europe
2012-06-06T06:34:21Z,KING SLIDE,WORKS,Table
2012-06-06T06:41:07Z,Kenyan Shilling,Strengthens for,Third Trading Day
2012-06-06T06:41:07Z,Shilling,Strengthens for,Third Trading Day
2012-06-06T07:00:00Z,Economy,Shrinks,0.1 %
2012-06-06T07:00:00Z,Romanian Economy,Shrinks,0.1 %
2012-06-06T07:03:06Z,Czech April Output,Beats,Forecasts
2012-06-06T07:09:17Z,Azerbaijan,Still Backs,Tanap
2012-06-06T07:09:58Z,Gulf Arab Companies,See,Rise in M&A Activity
2012-06-06T07:09:58Z,Rise,in,M&A Activity
2012-06-06T07:16:32Z,Turkey,to Supply,Socar
2012-06-06T07:35:01Z,8 Hurt,in,Bulgarian Ammunition Depot Blast
2012-06-06T07:36:42Z,China ’s Stocks,Drop on,Growth
2012-06-06T07:42:39Z,Dubai ’s Noor Islamic Bank Seeks Business,in,Singapore
2012-06-06T07:44:13Z,Erste Group Falls First Day,in,Three
2012-06-06T07:44:13Z,Moody,on,Credit Downgrade
2012-06-06T07:44:15Z,Second Day,in,Money Markets
2012-06-06T07:48:38Z,Iran Nuclear Talks,Make,Little Progress
2012-06-06T07:48:38Z,Little Progress,Head to,Moscow
2012-06-06T07:55:32Z,HOLY STONE,ENTER,May Sales Fall 0.74 %
2012-06-06T07:55:32Z,STONE,ENTER,May Sales Fall 0.74 %
2012-06-06T08:31:04Z,Portuguese Want Country,of Majority,Diario
2012-06-06T08:33:50Z,E-Star,Heads on,Polish Loan
2012-06-06T09:02:57Z,MICROELEC,TECH,36.78 %
2012-06-06T09:33:55Z,Russia May,Sell Million to,Support Ruble
2012-06-06T09:34:52Z,LAYERS,SCIE,May Sales Rise
2012-06-06T09:35:18Z,Moody,Sees,Execution Risks
2012-06-06T09:48:47Z,RasGas,Says,U.S.
2012-06-06T09:59:46Z,Brazil Sugar Premium,Rises,Sellers Deliver to Far East
2012-06-06T09:59:46Z,Sellers,Deliver to,Far East
2012-06-06T10:00:00Z,German Industrial Output,Fell Than,More Forecast
2012-06-06T10:00:00Z,Industrial Output,Fell Than,More Forecast
2012-06-06T10:00:01Z,Honda,Says Electric Fit Beat Ford Focus to,Top EPA Range Rating
2012-06-06T10:00:04Z,Euro-Area Investment Drop,Offsets,Export Gains
2012-06-06T10:01:47Z,Cargill Plans Palm-Oil Plantations,in,Ivory Coast
2012-06-06T10:19:34Z,He,Calls for,Banking Union
2012-06-06T10:22:40Z,GENESYS LOGIC,IN,May
2012-06-06T10:23:22Z,Oil Pipeline,Hit by,Explosion
2012-06-06T10:23:22Z,Syrian Oil Pipeline,Hit by,Explosion
2012-06-06T10:24:07Z,Asian Stocks,Rise on,GDP
2012-06-06T10:24:07Z,Stocks,Rise on,Australian GDP
2012-06-06T10:32:58Z,Sovereign,Falls Before,ECB Policy
2012-06-06T10:35:48Z,Moody,as,Lowers German
2012-06-06T10:38:07Z,Dollar,Spurs,Demand
2012-06-06T10:38:07Z,Gold,Climbs to,4-Week High
2012-06-06T10:38:07Z,Weaker Dollar,Spurs,Demand
2012-06-06T10:41:01Z,Napoli Interested,in,Everton Defender Baines
2012-06-06T10:42:09Z,RHJ,Finds,Co-Investors
2012-06-06T10:52:18Z,Foreign Investors,Sell,6.3 Billion Rupees
2012-06-06T11:13:32Z,Decline,in,FDI
2012-06-06T11:13:48Z,Algeria Seeks Ivory Coast Land,of Cevital,Sugar
2012-06-06T11:14:53Z,Kennedy Wilson,Buys,Central Dublin Real Estate
2012-06-06T11:14:53Z,RBS,from,Ulster
2012-06-06T11:19:25Z,Portugal Borrowing Costs,Drop at,1.5 Billion-Euro Bill Sale
2012-06-06T11:19:59Z,Hollande Plan,Is,Financed
2012-06-06T11:24:56Z,Fed Funds Projected,Open at,0.13 ICAP Says
2012-06-06T11:33:03Z,Gazprom Offered New Assets,in,Siberian Swap
2012-06-06T11:34:34Z,GE,Buy,Higher-Output Turbine
2012-06-06T11:37:39Z,Barrick CEO,Replace,Aaron Regent
2012-06-06T11:37:39Z,CFO Jamie Sokalsky,Named,Barrick CEO
2012-06-06T11:37:48Z,Abu Dhabi Investment House,Takes Stake in,Zain Saudi
2012-06-06T11:45:03Z,Kazakh Central Bank,Reduces,Euro ’s Share
2012-06-06T11:48:53Z,Shield Repsol,Iberdrola From,Hostile Takeovers
2012-06-06T11:51:40Z,ECB,Keeps,Benchmark Rate
2012-06-06T11:54:51Z,Ethanol Engine Partners,Tap,Brazil
2012-06-06T11:54:51Z,Hero,Seeks,Ethanol Engine Partners
2012-06-06T12:01:19Z,Hu,Push Syria Rebels to,Annan Peace Plan
2012-06-06T12:02:57Z,Global Pirate Attacks,Declining by,24 % Month
2012-06-06T12:02:57Z,Pirate Attacks,Declining by,24 % Month
2012-06-06T12:08:36Z,Russia Open,Transition in,Shift
2012-06-06T12:08:36Z,Russia Open Transition,in,Shift
2012-06-06T12:17:52Z,G-20 Commission,Proposes Measures to,Cut OTC Derivatives Risks
2012-06-06T12:24:47Z,South Africa,in,Talks on Steel Plant
2012-06-06T12:27:22Z,ECB,Keeps Interest Rate,Hold
2012-06-06T12:27:29Z,Cell-Phone Market,Growing Since,2009
2012-06-06T12:29:53Z,Fitch,Tells Lawmakers to,Back Off as Tougher Rules Loom
2012-06-06T12:30:00Z,0.9 %,in,First Quarter
2012-06-06T12:32:55Z,KazMunaiGaz,Borrows,$ 1.13 Billion
2012-06-06T12:33:00Z,Kenya,Reopens,Nairobi Airport
2012-06-06T12:35:49Z,Euro,Pares,Gain Versus Dollar
2012-06-06T12:42:11Z,Draghi,Extends Cash Offerings,Outlook Dims
2012-06-06T12:48:19Z,Bomb,Explodes,Outside U.S. Mission in Benghazi
2012-06-06T12:48:19Z,Outside U.S. Mission,in,Benghazi
2012-06-06T12:50:01Z,Russia,in,June
2012-06-06T12:54:51Z,Swiss Re ’s Cole,Looking at,Euro Disruption Scenarios
2012-06-06T13:00:00Z,Finance Chiefs,See,Pickup
2012-06-06T13:00:00Z,Pickup,in,U.S. Hiring
2012-06-06T13:02:25Z,Draghi,Ease,Euro Debt Crisis Concern
2012-06-06T13:17:18Z,Sudan Inflation,Accelerates to,30.4 %
2012-06-06T13:17:55Z,Treasuries,Decline on,European Optimism
2012-06-06T13:18:35Z,Arab Investments,Tap,Asia Growth
2012-06-06T13:18:48Z,Bunds,Pare,Italy Debt Falls as Draghi Presses for Action
2012-06-06T13:18:48Z,Drop,Falls as,Draghi Presses
2012-06-06T13:21:04Z,Estonian Parliament,Approves,Natural-Gas Unbundling Bill
2012-06-06T13:23:29Z,Maria Sharapova,Beats,Kaia Kanepi
2012-06-06T13:28:08Z,Land,Valued From,Investors
2012-06-06T13:30:03Z,World Missing Environmental Goals,in,Paralysis of Indecision
2012-06-06T13:33:41Z,Automakers,in,Promoting Net-Connected Cars
2012-06-06T13:33:41Z,Verizon,Joins,Automakers
2012-06-06T13:35:00Z,Bond Yields,Drop on,Stimulus Speculation
2012-06-06T13:35:00Z,Mexican Bond Yields,Drop to,10-Month Low
2012-06-06T13:42:09Z,Greece ’s Ferronickel Producer Larco Posts 3 % Rise,in,2011 Profit
2012-06-06T13:43:49Z,Global Finance,Is,Ponzi Scheme
2012-06-06T13:45:56Z,Kinder Morgan,Operates CALNEV Pipeline Following,Repairs
2012-06-06T13:45:56Z,Morgan,Operates,CALNEV Pipeline
2012-06-06T13:46:50Z,Bezeq Rises,Drop,Overdone
2012-06-06T13:53:37Z,Gulf Cables Replaced,in,Kuwait 15
2012-06-06T13:53:37Z,Wataniya Telecom,Replaced in,Kuwait 15
2012-06-06T13:54:39Z,Longest,Winning Streak in,Month
2012-06-06T13:58:33Z,RBC,Hires,Junk Trader Steele
2012-06-06T14:05:50Z,Petra Kvitova,Beats,Shvedova
2012-06-06T14:10:34Z,5 %,in,20 Months
2012-06-06T14:19:23Z,Discount Investment,Rises After,Ham-Let Report
2012-06-06T14:38:27Z,Oil,Pares Gain After,Inventories Fall Less Expected
2012-06-06T14:42:06Z,Legg Mason ’s Nachtwey,Says,Firm
2012-06-06T14:42:40Z,Ethanol Output,in,U.S. Rose
2012-06-06T14:42:40Z,U.S. Rose,in Output,DOE
2012-06-06T14:45:22Z,Solar Industry,Has,One Year of Inventory
2012-06-06T14:48:56Z,Erste Group Bank,Move in,Prague
2012-06-06T14:52:18Z,Vladimir Krutov,Dies at,52
2012-06-06T14:59:40Z,Philips,Gets EU Antitrust Complaint on,Cathode-Ray Tubes
2012-06-06T15:08:02Z,Russia,Sold Million to,Cushion Ruble Fall
2012-06-06T15:12:29Z,Naira Advances,Sell,Dollars
2012-06-06T15:12:37Z,Buffett,Schmidt at,Economic Club
2012-06-06T15:13:21Z,Dodd-Frank,Is,Dud
2012-06-06T15:14:12Z,Egypt Wheat Output,Climbs Season to,9.5 Million Tons
2012-06-06T15:18:14Z,Norway Airport Security Strike,Strands,More Offshore Workers
2012-06-06T15:20:38Z,Kenya Airways,Are,Active
2012-06-06T15:26:39Z,Ruble,Rises Eurobond Yields Fall for,3rd Day
2012-06-06T15:28:13Z,Balanced Soft Landing,in,First Quarter
2012-06-06T15:28:30Z,May,Create,4 Million Jobs
2012-06-06T15:28:31Z,E-Star Alternativ,Move in,Budapest
2012-06-06T15:30:21Z,Lockhart,Says,Extending Operation Twist
2012-06-06T15:32:27Z,Jefferson County Creditors,Denied,Bankruptcy Committee
2012-06-06T15:33:06Z,Reykjavik Court,Rejects,Credit Suisse Kaupthing Priority Claim
2012-06-06T15:33:49Z,Earthquake Damage,Reaches,4 Billion Euros
2012-06-06T15:33:49Z,Italian Earthquake Damage,Reaches,4 Billion Euros
2012-06-06T15:33:58Z,Ray Bradbury,Dies at,91
2012-06-06T15:35:05Z,Sales,in,Four Months to April
2012-06-06T15:35:05Z,Sanlam,Says,Sales
2012-06-06T15:43:47Z,Rabobank,Sees Scope for,Further Sugar Exports From India
2012-06-06T15:46:39Z,VTB,are,Active
2012-06-06T15:47:43Z,Political Slap,in,Face
2012-06-06T15:47:43Z,Wisconsin,Suffers,Political Slap in Face
2012-06-06T15:50:46Z,Biggest Online Retail Loss,Driven by,B2W Delivery Delays
2012-06-06T15:50:46Z,Online Retail Loss,Driven by,B2W Delivery Delays
2012-06-06T15:53:24Z,French Nuclear Watchdog,Says Orders Won at,Too-Low Prices
2012-06-06T15:53:24Z,French Watchdog,Says at,Too-Low Prices
2012-06-06T15:53:24Z,Nuclear Watchdog,Says at,Too-Low Prices
2012-06-06T15:53:24Z,Watchdog,Says Orders Won at,Too-Low Prices
2012-06-06T15:56:06Z,Chile Peso,Extends,Gain
2012-06-06T15:56:06Z,ECB Speculation,Boosts,Export Outlook
2012-06-06T15:57:35Z,ECB,Extends,Refinancing
2012-06-06T15:57:52Z,Banco Comercial,Extends,Drop
2012-06-06T15:58:06Z,Week High,to Rise,Utilities
2012-06-06T16:01:00Z,Ex-Singapore Civil Defence Chief,Charged With,Corruption
2012-06-06T16:08:01Z,Suez Canal Revenue,Decreased in,May
2012-06-06T16:10:55Z,PKO,Are,Active
2012-06-06T16:12:59Z,Hedge Funds Shorts Match October,With,VIX
2012-06-06T16:19:49Z,Block Import,to Seeks,Tablets
2012-06-06T16:23:52Z,House Republicans Push Bills,Boosting Oil Output as,Jobs Effort
2012-06-06T16:24:38Z,Wiener Privatbank,Buys,75 %
2012-06-06T16:30:00Z,Dexia,Gets,EU Approval
2012-06-06T16:34:46Z,Nadal,Beats,Almagro
2012-06-06T16:37:31Z,I,’ll Have,Another Installed as Favorite
2012-06-06T16:38:23Z,New Jersey,Sued Over,Greenhouse Gas Initiative Pull-Out
2012-06-06T16:39:53Z,Republicans,Should Say After,Ruling
2012-06-06T16:39:53Z,Stay Insured,Should Say After,Ruling
2012-06-06T16:43:37Z,Sixth North Sea Forties June Crude Cargo Said,Be,Deferred
2012-06-06T16:45:36Z,Least 40,at Killed,HRW
2012-06-06T16:48:27Z,Bofinger,Tells,DRadio
2012-06-06T17:17:47Z,Corn,Recapture,Feed Demand
2012-06-06T17:18:19Z,Apatit,of,20 % Stake Sale
2012-06-06T17:18:46Z,Invenergy,Begins Operations at,Wind Farm in Michigan
2012-06-06T17:18:46Z,Wind Farm,in,Michigan
2012-06-06T17:21:02Z,Morgan Stanley,Said,Consider
2012-06-06T17:22:23Z,Walker,Survives,Recall in Weary Wisconsin
2012-06-06T17:23:31Z,Seen,Curbed in,South
2012-06-06T17:28:58Z,Unipol,Revises,Terms
2012-06-06T17:30:07Z,Barclays Battle,With,Lehman Unit
2012-06-06T17:30:40Z,Consumer Loans,Saved,Banking Industry
2012-06-06T17:30:55Z,Transneft ’s Bezverkhov May,Move to,Rosneft
2012-06-06T17:31:02Z,NFL Giants Extend,Coach,Tom Coughlin ’s Contract
2012-06-06T17:34:36Z,PetroSA,Applies for,Oil
2012-06-06T17:34:48Z,Carl Icahn,Sued by,Pension Funds Over CVR Energy Deal
2012-06-06T17:46:41Z,Wisconsin,In,Play for Romney
2012-06-06T18:04:48Z,Dollar,in,Swaps
2012-06-06T18:04:48Z,ResCap Bond Value,Set,Auction
2012-06-06T18:08:26Z,Fungi,Gone to,Diseases
2012-06-06T18:15:06Z,U.K.,Collaboration on,Gas Supply
2012-06-06T18:31:14Z,Ex-Columbus Hill Finance Chief,Gets,Prison Term
2012-06-06T18:31:32Z,Meister,Rejects,Europe Deposit Guarantee
2012-06-06T18:38:22Z,Fewer High School Graduates,Finding,Full-Time Work
2012-06-06T18:38:22Z,Fewer Recent High School Graduates,Finding,Work
2012-06-06T18:38:22Z,High School Graduates,Finding,Work
2012-06-06T18:38:22Z,Recent High School Graduates,Finding,Work
2012-06-06T18:46:46Z,Geithner,Plans for,Euro Area
2012-06-06T18:59:17Z,Forest Fire,in,Siberia
2012-06-06T18:59:17Z,Nine Paratroopers,Trying,Put Out Forest Fire
2012-06-06T18:59:17Z,Paratroopers,Trying,Put
2012-06-06T19:02:11Z,Cameron,Call for,Immediate Plan
2012-06-06T19:11:52Z,Obama Dueling Romney,With,Europe Debt Crisis
2012-06-06T19:18:45Z,Galicia,Are,Active
2012-06-06T19:18:45Z,Tenaris,Are,Active
2012-06-06T19:18:45Z,YPF,Are,Active
2012-06-06T19:28:26Z,Belmont Stakes,Saved From,Strike
2012-06-06T19:32:38Z,Oil,Rises for,Third Day
2012-06-06T19:35:28Z,N.Y. Gasoline,Strengthens as,Imports Decline
2012-06-06T19:37:38Z,Chesapeake,Shifting,Couple Hundred ’ Jobs
2012-06-06T19:37:55Z,El-Erian,Says,Financial Regulatory Efforts
2012-06-06T19:37:55Z,Financial Regulatory Efforts,Slowing,Growth
2012-06-06T19:59:12Z,Canadian Crude,Weakens After,Enbridge Shuts Oil Pipe 6A
2012-06-06T19:59:12Z,Crude,Weakens After,Enbridge Shuts Oil Pipe 6A
2012-06-06T19:59:12Z,Heavy Canadian Crude,Weakens After,Enbridge Shuts Oil Pipe 6A
2012-06-06T19:59:12Z,Heavy Crude,Weakens After,Enbridge Shuts Oil Pipe 6A
2012-06-06T20:09:46Z,Home Depot,Raises,Stock Repurchase Program
2012-06-06T20:12:52Z,Drugs,Seek,Cure
2012-06-06T20:12:52Z,Novel Drugs,Seek,Cure
2012-06-06T20:16:30Z,BofA ’s Petrie,Joins,Former Colleagues
2012-06-06T20:16:44Z,Obama Re-Election Map,Shaken After,Walker ’s Wisconsin Win
2012-06-06T20:16:44Z,Walker,After,Wisconsin Win
2012-06-06T20:17:52Z,Incyte,Climbs on,Arthritis Drug Results
2012-06-06T20:18:01Z,Apple,for,IPhone
2012-06-06T20:18:01Z,Ascent,Jumps,48 Percent
2012-06-06T20:18:59Z,BrightSource,Warned of,Embarrassment
2012-06-06T20:18:59Z,Obama,in,Loan Delay
2012-06-06T20:21:15Z,Green Mountain,Shows,One-Cup Brew Never Cheaper
2012-06-06T20:21:28Z,Ex-Goldman Executive Yoon,Starts,Private-Equity Fund
2012-06-06T20:21:41Z,Entergy Locks Out Reactor Workers,Using,Back-Up Employees
2012-06-06T20:21:41Z,Entergy Locks Reactor Workers,Using,Back-Up Employees
2012-06-06T20:22:29Z,Repsol,After,Unsuccessful
2012-06-06T20:24:21Z,Facebook,is,Short-Seller Target Among Stocks
2012-06-06T20:27:33Z,Dangdang,Leads,Biggest ADR Rally
2012-06-06T20:31:07Z,Stocks Rise,Most Year as,Euro Gains on Stimulus Bets
2012-06-06T20:34:29Z,Mason,for,Telus Stake
2012-06-06T20:35:21Z,User Passwords,Were,Compromised
2012-06-06T20:39:17Z,Clemens Accuser ’s Wife,Says,Injections Disclosed
2012-06-06T20:39:17Z,Injections,Disclosed in,2007
2012-06-06T20:40:02Z,Lee Enterprises Jumps,Discloses,Stake
2012-06-06T20:45:08Z,Rio Alto,Beats Gold Peers as,Volatility Dips
2012-06-06T20:48:30Z,Halliburton,Sees,Margins
2012-06-06T20:48:30Z,Margins,Lower in,Quarter on Guar Gum Cost
2012-06-06T20:52:08Z,Cap Biggest Rally,in,2012
2012-06-06T21:00:00Z,China Epidemic,Fueled by,Deficient Tr
2012-06-06T21:00:00Z,Otsuka ’s Experimental TB Drug,Fights,Disease
2012-06-06T21:00:00Z,Otsuka ’s TB Drug,Fights,Disease
2012-06-06T21:00:00Z,Roche Drug,Reduces,Skin Growths in Gene-Mutation Patients
2012-06-06T21:00:00Z,Skin Growths,in,Gene-Mutation Patients
2012-06-06T21:06:32Z,Norilsk,Climbs,Most in Two Weeks in U.S.
2012-06-06T21:06:32Z,Two Weeks,in,U.S.
2012-06-06T21:07:26Z,Treasuries,Drop Amid,Bets
2012-06-06T21:14:47Z,Fed,Says,Expansion
2012-06-06T21:17:22Z,India 's Growth,Spares,Political Class
2012-06-06T21:17:22Z,India 's Slowing Growth,Spares,Political Class
2012-06-06T21:22:51Z,Canadian Dollar,Strengthens for,Day
2012-06-06T21:22:51Z,Dollar,Strengthens for,3rd Day
2012-06-06T21:27:02Z,Hedge Funds,Lose,2.9 %
2012-06-06T21:29:09Z,Default Swaps,in,U.S. Fall on Central Banks Stimulus Speculation
2012-06-06T21:36:40Z,Western Asset 's Walsh,Says,Exit More Likely
2012-06-06T21:45:35Z,FTC,Says,Import Bans
2012-06-06T21:59:26Z,Nasdaq,Cover,Facebook Losses
2012-06-06T22:00:01Z,Spain,on Calls,Rheinische Post
2012-06-06T22:00:29Z,Google,on,Motorola Patent Case
2012-06-06T22:00:29Z,Microsoft,Loses,Round
2012-06-06T22:01:00Z,Danske,Spares,Traders
2012-06-06T22:01:00Z,Mess,Is,Refrain
2012-06-06T22:01:00Z,Retail Bankers,Targeted in,Cuts
2012-06-06T22:01:00Z,Spain,for,Unemployed
2012-06-06T22:01:09Z,Stosur,Makes Transition to,French Open Contender
2012-06-06T22:11:22Z,Hollywood,Keep,Campaign Treasury Full
2012-06-06T22:11:22Z,Obama,Taps,Hollywood
2012-06-06T22:11:29Z,Urban Outfitters,Rises on,European Outlook
2012-06-06T22:13:49Z,Florida,Continues,Purge of Noncitizen Voters
2012-06-06T22:16:33Z,Sura,in,Asset Manager
2012-06-06T22:30:00Z,CT,Scans in,Children May Raise Cancer Risk
2012-06-06T22:32:26Z,House,Adopts,Measure
2012-06-06T22:39:35Z,Nadal,Win at,French Open
2012-06-06T22:52:19Z,Madoff Trustee Picard,Sues,EFG Bank SA
2012-06-06T22:56:56Z,HTC Woes,Worsen on,Exclusion
2012-06-06T23:00:01Z,U.K.,Safeguard Water After,Drought Curbs Supply
2012-06-06T23:00:38Z,Women,Kill,Buzz
2012-06-06T23:00:52Z,Presidents,Win,Elections
2012-06-06T23:01:00Z,U.K. Retail Sales,Increased on,Warm Weather
2012-06-06T23:01:11Z,Cameron Norway Visit Will,See,Energy-Company Expansion
2012-06-06T23:01:11Z,Energy-Company Expansion,in,U.K.
2012-06-06T23:01:52Z,Crisis,Looms,Japan Stops
2012-06-06T23:01:52Z,Japan,Stops,Saving
2012-06-06T23:05:17Z,South Korea GDP,Expands,0.9 %
2012-06-06T23:09:59Z,Taxing Medical Devices Will,Keep,U.S.
2012-06-06T23:21:18Z,Codelco Opens Door,in,Anglo Copper Feud
2012-06-06T23:22:33Z,Envoy,in,Defiant Speech
2012-06-06T23:22:33Z,Iran,Casts Inspectors as,Spies in Envoy ’s Speech
2012-06-06T23:22:33Z,Spies,in,Envoy ’s Defiant Speech
2012-06-06T23:32:53Z,GVK,Seeks,$ 3.5 Billion From Venture
2012-06-06T23:38:15Z,Finland ’s Katainen,Says,U.S.
2012-06-06T23:38:15Z,U.S.,Worried About,Europe Banks
2012-06-07T00:23:13Z,First 787,With,Modifications
2012-06-07T01:10:24Z,Delaware,Can Intervene in,Bank of America
2012-06-07T04:00:00Z,Prozac-Contaminated Drinking Water May,Be,Link
2012-06-07T04:01:00Z,California Cigarette Tax,Trails,Precincts Counted
2012-06-07T04:01:00Z,California Pension Victories,Could Catch on,Nationwide
2012-06-07T04:01:00Z,Oracle,Introduces,Corporate Cloud
2012-06-07T04:01:01Z,230-Year Term,in,Ponzi Case
2012-06-07T04:01:01Z,Rajaratnam,Added,$ 4 Million
2012-06-07T04:01:01Z,Stanford,Deserves,Term
2012-06-07T04:01:07Z,Google,Pushes at,Apple
2012-06-07T04:46:20Z,Dodgers Choose Hershiser,in,Draft of Sons
2012-06-07T04:46:20Z,Orioles,Take,Dodgers Choose Hershiser
2012-06-07T04:46:20Z,Ripken,Hershiser in,Draft of Sons
2012-06-07T05:51:06Z,Dollar,Is Near,Week-Low Before Bernanke Speaks on Economy
2012-06-07T06:03:24Z,Japan,Confronts Flight With,Yen
2012-06-07T06:28:41Z,First Tuberculosis Drug,in,40 Years
2012-06-07T07:55:09Z,AT&T Deal,in,North America Comeback
2012-06-07T08:19:18Z,Ports,Revive,Indian Growth
2012-06-07T08:19:18Z,Singh,Vows,Ports
2012-06-07T08:36:48Z,Draghi,Stresses,Limits of ECB Tools
2012-06-07T08:58:45Z,King,Confronts Stimulus Revival Case,U.K. Slump Persists
2012-06-07T09:02:55Z,EU Fighting Total Lack,in,Aid Models
2012-06-07T09:02:55Z,Trust,of Lack,Fitch
2012-06-07T09:04:52Z,Russia Seeks Iranian Aid,in,Ushering
2012-06-07T09:04:52Z,Syria,Out,Assad
2012-06-07T09:16:01Z,Carmakers,Aggravate China Glut as,Dealers Struggle
2012-06-07T12:06:17Z,Saudi Arabia,Achieving,Oil Signals Output Reversal
2012-06-07T14:24:51Z,NYSE,Criticizes,Nasdaq ’s Facebook Compensation Plan
2012-06-07T15:12:12Z,Aussie,Rises on,Jobs Gains
2012-06-08T09:31:21Z,Bieber,Meets,Katy Perry
2012-11-06T02:46:41Z,June,in Spoke,Romney
2012-11-06T02:46:41Z,Late Elliott Carter Spoke,in,June of Hitler
