2012-02-04T00:00:01Z,European Stocks,Post,Biggest Weekly Rally of 2012
2012-02-04T00:00:01Z,Kuehne,Die,Welt
2012-02-04T00:00:01Z,Stocks,Post,Weekly Rally of 2012
2012-02-04T00:07:42Z,Vadim ’s Ferrari 250 GT Sells,in,Paris Auction
2012-02-04T00:24:54Z,Lead Justice,to,Antitrust Division
2012-02-04T00:58:43Z,Missouri Judge,Rejects,Congressional District Map Challenge
2012-02-04T05:00:00Z,Harvard,Remain,Undefeated in Ivy League
2012-02-04T05:00:00Z,Job Gains,Add,Heft
2012-02-04T05:00:05Z,Giants ’ Coughlin,Turns Up,Heat
2012-02-04T05:00:11Z,Fed,on,Low-Rate Policy
2012-02-04T05:00:37Z,Risk Appetite,in,Longest Win Streak
2012-02-04T05:01:01Z,$ 1.67 Billion,in,Facebook Stock
2012-02-04T05:01:01Z,BNY Mellon,Sues,Alabama ’s Bankrupt Jefferson County
2012-02-04T05:01:01Z,Foreclosure Accord,With,Banks Said
2012-02-04T05:01:01Z,Zuckerberg May,Sell,$ 1.67 Billion
2012-02-04T05:57:36Z,BIOTECH C January Sales,Fall,23.04 %
2012-02-04T05:57:36Z,TAIYEN BIOTECH C January Sales,Fall,23.04 %
2012-02-04T06:56:44Z,KEY,ELECT,Table
2012-02-04T07:00:00Z,Pound,Strengthens Against,Dollar
2012-02-04T08:20:21Z,Currency,Rises on,Optimism
2012-02-04T08:27:17Z,Sabic,in,Talks
2012-02-04T10:19:39Z,World ’s Largest Sugar Refinery Will,Buy,Sweetener From India
2012-02-04T10:27:51Z,Minister Fornero,Tells,Sky
2012-02-04T10:27:51Z,Stay,in,Italy
2012-02-04T11:00:00Z,Obama,Promotes,Homeowner Plan
2012-02-04T11:11:03Z,Bank Albilad,Jumps,Most
2012-02-04T11:40:58Z,CEO,Tells,Investir
2012-02-04T11:40:58Z,Ipsen ’s Tanakan Sales,Fall,35 %
2012-02-04T11:50:28Z,Three Women,Shortlisted for,di Mauro Succession
2012-02-04T11:52:02Z,Court,Rejects Petition in,Airwaves Case
2012-02-04T11:52:02Z,Kenya,Says From,Two Somali Bases
2012-02-04T11:56:04Z,Far-Right Party Leader Istvan Csurka,Dies,MTI Reports
2012-02-04T11:56:04Z,Hungarian Far-Right Party Leader Istvan Csurka,Dies,MTI Reports
2012-02-04T12:09:14Z,TEAM YOUNG January Sales,Fall,74.15 %
2012-02-04T12:18:11Z,Unidentified Banker,Tells,Times
2012-02-04T12:21:26Z,Groups,May Bid for,Brazil High-Speed Train
2012-02-04T12:21:26Z,Six Groups,May Bid for,Brazil High-Speed Train
2012-02-04T12:21:59Z,41 People,in,Operation
2012-02-04T12:21:59Z,PKK,Against,Urban Arm
2012-02-04T12:21:59Z,Turkey,Detains,41 People
2012-02-04T12:27:14Z,Armed Forces,Say in,Northern Iraq
2012-02-04T12:46:04Z,Malema,Loses Appeal Against,His Suspension
2012-02-04T13:14:27Z,Italy,Crippled,Snow Reaching as Far South as Naples
2012-02-04T13:14:27Z,Snow,Reaching as,Naples
2012-02-04T14:01:45Z,Pakistan,Take,180-Run Lead
2012-02-04T14:02:52Z,Bank,Abandons,Sky News Reports
2012-02-04T14:13:14Z,BBC Staff,Citing,Director
2012-02-04T14:13:14Z,Intimidating BBC Staff,Citing,Director
2012-02-04T14:13:14Z,Iran,Is,Intimidating BBC Staff
2012-02-04T14:15:48Z,Ring Tells,Die,Welt
2012-02-04T14:17:07Z,Mirror,Says After,Terry Stripped of Captaincy
2012-02-04T14:51:06Z,Siemens Energy,Expects,Sales Gain
2012-02-04T14:55:42Z,Conduct Live-Fire Exercises,to Saudis,SPA Reports
2012-02-04T14:55:42Z,Saudis,in,East
2012-02-04T15:03:53Z,Winless Run,in,Premier League
2012-02-04T15:10:45Z,Saudis,Cancel,Music Event Due
2012-02-04T15:14:04Z,Monti,Says,Italy Safe Place
2012-02-04T15:16:39Z,Obama,Condemns,Government Attack
2012-02-04T15:35:03Z,Fiscal Measures,Sticking,Points on Debt Accord
2012-02-04T15:35:03Z,Measures,Sticking,Points on Debt Accord
2012-02-04T15:38:59Z,Refusing Driver,for,License
2012-02-04T15:38:59Z,Saudi Woman,Sues Traffic Agency for,Refusing Driver ’s License
2012-02-04T16:06:24Z,Protesters,Attack Embassies in,AP Reports
2012-02-04T16:23:00Z,Vonn,Takes,Downhill
2012-02-04T16:29:24Z,France,Beats,Italy 30-12
2012-02-04T16:29:24Z,Italy 30-12,in,Opening Game of Rugby ’s 6 Nations
2012-02-04T16:29:24Z,Rugby,of,6 Nations
2012-02-04T16:55:39Z,Russia,Resolution on,Syria
2012-02-04T17:09:20Z,Rose 0.73 %,in,January
2012-02-04T17:30:23Z,Malema,Loses Appeal Against,His Suspension
2012-02-04T17:30:23Z,South Africa,From,Ruling ANC
2012-02-04T17:52:03Z,Russia,Resolution on,Syria
2012-02-04T18:23:02Z,Czech Replublic,Leads Germany in,Fed Cup Tennis
2012-02-04T19:25:20Z,Paccar Recalls Kenworth,Trucks on,Brakes
2012-02-04T20:05:14Z,Doughty Hanson Co-Founder Nigel Doughty,Dies at,Home Age 54
2012-02-04T20:12:47Z,Greece,Must Examine,Troika Terms
2012-02-04T20:14:30Z,Manchester City,Takes,Premier League Lead
2012-02-04T21:12:44Z,Ivory Coast,Advance to,African Cup
2012-02-04T22:00:14Z,Toronto,Reduce,Benefits
2012-02-04T23:17:10Z,Parcells,Is,Left Out
2012-02-05T12:01:56Z,Russia ’s UN Veto,Gives,Syria License
2012-02-05T16:30:20Z,Bailout,Hangs as,Cuts Sought
2012-02-05T16:30:20Z,Greek Bailout,Hangs as,Reforms
2012-02-05T16:30:20Z,Razor,on,Edge
2012-02-05T18:55:36Z,Niinistoe,Wins,Presidential Vote
