2012-09-04T00:00:00Z,Users,in,EU Deal
2012-09-04T00:13:12Z,Joe Biden,Should,Should Star of Week ’s Convention
2012-09-04T00:13:12Z,Week,of,Convention
2012-09-04T00:21:42Z,Osaka,Considers,Pricing Change
2012-09-04T00:27:40Z,Prisoner-Turned-Kingmaker Milne,Leads,Australia Green Battle
2012-09-04T01:34:39Z,Shell,Closes,Nigerian Oil Pipeline
2012-09-04T01:38:42Z,Australia ’s Current-Account Deficit Narrowed,in,Second
2012-09-04T03:00:00Z,Goldman Sachs Plans Private-Equity Comeback,in,Brazil
2012-09-04T03:34:21Z,Brunei Prince Claims Associate,Used,Him
2012-09-04T03:47:49Z,Decline May,Be,Most Overdone
2012-09-04T03:56:58Z,Russian Champion Zenit Signs Hulk,Witsel From,Portuguese Clubs
2012-09-04T04:00:01Z,Virginia,Leads Swing States at,Risk Over Cliff
2012-09-04T04:01:00Z,California Beating Illinois,Shows,Pension-Gap Cost
2012-09-04T04:01:00Z,Seattle 1962 Fair,Shows,Olympic Cities
2012-09-04T04:01:00Z,Seattle 1962 World ’s Fair,Shows,Olympic Cities
2012-09-04T04:01:00Z,Seattle Fair,Shows,Olympic Cities
2012-09-04T04:01:00Z,Seattle World ’s Fair,Shows Olympic Cities,How Win
2012-09-04T04:01:00Z,Tiger Woods Becomes First Golfer,in,Winnings
2012-09-04T04:01:00Z,U.S.,Have,Woman
2012-09-04T04:01:01Z,P&G Directors Face Own,Keeping,Tabs
2012-09-04T04:18:59Z,Beijing,in Sales,Centaline
2012-09-04T04:18:59Z,Home Sales,in,Double Beijing
2012-09-04T04:31:41Z,RBI Seen,Reluctant to,Cut Rates
2012-09-04T04:31:41Z,Swaps,Rebound,RBI Seen Reluctant to Cut Rates
2012-09-04T04:39:30Z,Japan Fiscal Impasse,Threatens,Stimulus
2012-09-04T04:45:15Z,Trainer Pletcher,Win,Straight Saratoga Titles
2012-09-04T04:45:29Z,Hong Kong Short Selling Turnover,Recorded,09/04/2012
2012-09-04T04:48:52Z,Nomura Investment Bank Co-Head Vereker,Named,Vice Chairman
2012-09-04T04:53:23Z,Russia,Agrees to,Grant Cyprus
2012-09-04T05:05:23Z,Bank ’s Lee,Sees,One Rate-Cut
2012-09-04T05:13:58Z,Beat Flight Attendant,Is,Suspended
2012-09-04T05:27:19Z,Global Outlook,Weighs on,China
2012-09-04T05:27:19Z,Hong Kong Stocks,Fall,Global Outlook Weighs
2012-09-04T05:27:19Z,Outlook,Weighs on,China
2012-09-04T05:31:46Z,Executives,Paying,Bribes
2012-09-04T05:31:46Z,Russia,Tells,Executives
2012-09-04T06:27:05Z,Army,Hits,Aleppo
2012-09-04T06:27:05Z,Syrian Army,Hits,Aleppo
2012-09-04T06:29:11Z,Tunisia Navy,Kills,Two Fishermen
2012-09-04T06:40:40Z,Foothold,in,Europe
2012-09-04T06:43:30Z,Cross-Border Women ’s Soccer League May,Lead to,Men ’s Competition
2012-09-04T06:43:30Z,Men,to,Competition
2012-09-04T06:55:35Z,RBA,Holds Key Rate as,Economy Withstands Global Slowdown
2012-09-04T06:57:40Z,Indonesia ’s East Kalimantan,Limiting,Coal Output
2012-09-04T07:00:00Z,Nordea,Raises Investments on,Exports
2012-09-04T07:00:00Z,Spain Joblessness Increases,in,Five Months
2012-09-04T07:13:44Z,China,Ceases,Foreign-Exchange Services
2012-09-04T07:33:09Z,Wallabies,Pick,Shipperley
2012-09-04T07:43:33Z,Iran,Acknowledges,Translation Error
2012-09-04T07:43:33Z,Translation Error,in,Mursi Speech
2012-09-04T07:53:36Z,Russia ’s Grain Exports,Reached,2.5 Million Metric Tons
2012-09-04T08:22:59Z,Pennsylvania Seen Tilting Democratic,in,Race Crucial
2012-09-04T08:23:43Z,Argentina,Complains at,WTO
2012-09-04T08:48:53Z,Philippine Peso,Advance on,Stimulus
2012-09-04T08:49:35Z,Czech Government,Proposes Ban on,Shale-Gas Exploration
2012-09-04T08:52:29Z,Asian Currencies Gain,Led by,Ringgit
2012-09-04T08:52:29Z,Currencies Gain,Led by,Ringgit
2012-09-04T08:56:55Z,Lenovo,Rises to,Two-Week High
2012-09-04T09:03:44Z,Plunge,Amid Shrinks,Markit
2012-09-04T09:03:44Z,U.K. Construction Shrinks,in,Orders
2012-09-04T09:04:03Z,Singapore,in,Bid
2012-09-04T09:06:03Z,Taiwan Central Bank Sells NT$ 39.8 b,in,Certificates
2012-09-04T09:36:08Z,Taiwan Dollar,Strengthens on,Europe Debt Optimism
2012-09-04T09:36:44Z,Third Time,Revive,Growth
2012-09-04T09:55:12Z,Northern Irish Police Officers Hurt,in,Second Night of Violence
2012-09-04T10:09:44Z,Field,in,Kashagan Venture
2012-09-04T10:12:25Z,Russia ’s Zenit,Pays Than,$ 100 Million
2012-09-04T10:16:51Z,Thailand ’s Top Water Provider,Record on,Growth
2012-09-04T10:16:51Z,Thailand ’s Water Provider,Rises,Record on Growth
2012-09-04T10:17:45Z,Companies,Pay,$ 20 Million
2012-09-04T10:20:55Z,Elpida Files Opposition,Stop,Micron Sale
2012-09-04T10:27:28Z,Gatland,Hired,Head Coach
2012-09-04T10:27:28Z,Head,Coach for,Lions Rugby Tour of Australia
2012-09-04T10:33:37Z,African Development Bank,Lends,Morocco $ 800 Million
2012-09-04T10:41:19Z,Ebola,Strikes,30
2012-09-04T10:41:43Z,Cameron Demotes Ken Clarke,in,Cabinet Revamp
2012-09-04T10:47:16Z,Impresa,Says,SIC Television Audience Share Dropped
2012-09-04T10:47:16Z,SIC Television Audience Share Dropped,in,August
2012-09-04T10:59:00Z,Nigeria ’s Crude Oil,Declined,3.2 %
2012-09-04T10:59:00Z,Nigeria ’s Oil,Declined,3.2 %
2012-09-04T11:01:09Z,Asian Stocks,Fall on,EU Outlook
2012-09-04T11:01:09Z,Stocks,Fall on,EU Outlook
2012-09-04T11:04:13Z,SAG Solarstrom,Buys,26 Megawatts
2012-09-04T11:06:35Z,$ 5.6 Billion,in,Bankia
2012-09-04T11:10:38Z,Foreign Investors,Sell,Net 471 Million Rupees
2012-09-04T11:11:10Z,Euro,Erases,Gain Versus Dollar
2012-09-04T11:16:10Z,Serbia,for,Budget
2012-09-04T11:21:25Z,Ohio ’s Gas-Fracking Boom Seen Aiding Obama,in,Swing State
2012-09-04T11:23:02Z,Manufacturing,Stagnated Amid,Global Slowdown
2012-09-04T11:23:50Z,Fed Funds Projected,Open at,0.14 ICAP Says
2012-09-04T11:25:44Z,Kenya Airways,Heads for,Two-Week High
2012-09-04T11:41:40Z,Israeli Police,See,Possible Settler Link
2012-09-04T11:41:40Z,Police,See,Possible Settler Link
2012-09-04T11:46:05Z,Farm-Production Costs,Climb,2.4 %
2012-09-04T11:46:05Z,French Farm-Production Costs,Climb,2.4 %
2012-09-04T11:58:26Z,Moody,as,Mulls Rating Downgrade
2012-09-04T12:01:51Z,Indian Stocks,Rebound From,One-Month Low
2012-09-04T12:01:51Z,Stocks,Rebound From,One-Month Low
2012-09-04T12:03:25Z,Nokia,in,U.S.
2012-09-04T12:23:14Z,Treasuries Fall,Snapping,Gain
2012-09-04T12:26:19Z,Oil Advances,in,Week on Stimulus Speculation
2012-09-04T12:32:15Z,Azerbaijan Central Bank Reserves,Increased,7.6 %
2012-09-04T12:33:43Z,Isaac Remnants,Send,Rain
2012-09-04T12:34:55Z,Dick Clark Productions Will,Be,Acquired
2012-09-04T12:45:57Z,IPhone Price Cuts,Send Bond Inflation Bets to,Low
2012-09-04T12:59:40Z,Markit Final Index,Was,51.5 in August
2012-09-04T12:59:40Z,Was,51.5 in,August
2012-09-04T13:00:00Z,Deutsche Bank,Creates,U.S. Core Inflation Index
2012-09-04T13:18:28Z,Inflation,Quickens to,5.9 %
2012-09-04T13:18:28Z,Russian Inflation,Quickens in,August
2012-09-04T13:30:00Z,Palm-Oil Use,Is Rising on,Shortage
2012-09-04T13:30:00Z,Seen,Is Rising on,Shortage
2012-09-04T13:33:18Z,Brazil Sugar Exports,More Profitable,Prices Drop
2012-09-04T13:36:29Z,Drought,Damps,Optimism of U.S. Farmers
2012-09-04T13:38:33Z,Deutsche Telekom,Revamps T-Venture Strategy After,Slow Start
2012-09-04T13:39:50Z,Desire2Learn,Startup From,RIM ’s Hometown
2012-09-04T13:39:50Z,RIM,From,Hometown
2012-09-04T13:45:58Z,10-Year Debt,in,Benchmark Sale
2012-09-04T13:45:58Z,General Electric Offering Three,Debt in,Benchmark Sale
2012-09-04T13:47:56Z,Brazil Industrial Production,Rises in,Row
2012-09-04T13:52:20Z,Obama Speech Will Meld Aspiration,With,Pragmatism
2012-09-04T14:00:00Z,Construction Spending,in,U.S.
2012-09-04T14:00:07Z,Kuwait,’s al-Saad,SPA
2012-09-04T14:03:22Z,Valerie Jarrett,Says,Obama Will Work With Business on Tax Reform
2012-09-04T14:03:33Z,U.S. Stocks,Retreat as,Data Show Manufacturing Contraction
2012-09-04T14:05:54Z,Yields,Hit,1 Month-Low
2012-09-04T14:06:54Z,Gold Futures Extend Gains,in,New York
2012-09-04T14:07:48Z,Ukraine ’s DTEK,Gets,Brazil Contract
2012-09-04T14:10:18Z,U.K. Stocks,Extend,Losses on U.S. Manufacturing Report
2012-09-04T14:12:54Z,Business,on Report,Text
2012-09-04T14:17:15Z,Reduction,in,EU Tariff
2012-09-04T14:17:15Z,Ukraine ’s Interpipe,Wins,Reduction in EU Tariff
2012-09-04T14:17:45Z,Airbus,Developing,Stretch Marks
2012-09-04T14:17:45Z,Supplier Strain,Hurts,Sales
2012-09-04T14:18:10Z,Billion,With,Mexican Share Sale
2012-09-04T14:20:01Z,Oil-Product Shipments,Seen by,DVB Gaining 9.7 %
2012-09-04T14:26:51Z,Obama Plan,Pares,Deficit
2012-09-04T14:26:51Z,Romney ’s End,Lacks,Means
2012-09-04T14:29:11Z,Quebec Separatists May Regain Power,With,Minority Mandate
2012-09-04T14:32:14Z,Bank,Says,Inflation
2012-09-04T14:32:14Z,Fall,Most in,Week
2012-09-04T14:32:14Z,Turkey,Yields Fall,Bank Says
2012-09-04T14:32:20Z,Dollar-Funding Stress,Abates,Money-Market Indicators Show
2012-09-04T14:32:20Z,Stress,Abates,Money-Market Indicators Show
2012-09-04T14:47:07Z,Better Place Plans,With,Debt
2012-09-04T15:01:00Z,Microsoft Aims,With,Debut of Windows for Cloud
2012-09-04T15:09:39Z,Bouygues,Said to,Sale to BNP Fund
2012-09-04T15:11:48Z,Airbus A400M Airlifter Certification Test May,Resume in,October
2012-09-04T15:14:30Z,Draghi Told Lawmakers ECB,Must Buy,Bonds
2012-09-04T15:14:30Z,Euro,for,Survival
2012-09-04T15:18:44Z,Pelosi,Touts,Congress ’s Women
2012-09-04T15:24:44Z,FirstRand,Climbs,Most in Two Weeks
2012-09-04T15:27:11Z,Traders,Diverge,Most in 13 Months From Strategists
2012-09-04T15:31:02Z,Rain,Suspends Play at,U.S. Open Tennis
2012-09-04T15:31:02Z,U.S. Open Tennis,in,Stosur-Azarenka Match
2012-09-04T15:33:01Z,3.3 %,in,First Half of 2012
2012-09-04T15:33:59Z,Lecturer,Gunned,Down
2012-09-04T15:33:59Z,Nigerian Lecturer,Gunned,Down
2012-09-04T15:41:04Z,North Sea Warming Seen Hurting Plaice,in,Study
2012-09-04T15:43:09Z,Colombia Peso Drops,in,Four Days on U.S. Concern
2012-09-04T15:43:21Z,Kenya ’s Top Coffee Climbs First Time,in,Three Weeks on Supplies
2012-09-04T15:50:00Z,Cheating,Exposes,Admissions Game
2012-09-04T15:58:26Z,Biggest Drop,in,Share Price
2012-09-04T16:00:00Z,Cofina,Extends,Gains
2012-09-04T16:03:18Z,Veolia,Rises on,Report
2012-09-04T16:04:28Z,Coffee Production Estimate,Raised at,ICO
2012-09-04T16:05:48Z,Pound,Rises,Second Day Versus Euro
2012-09-04T16:07:41Z,European Stocks,Decline on,U.S. Manufacturing Report
2012-09-04T16:07:41Z,Stocks,Decline on,U.S. Manufacturing Report
2012-09-04T16:12:24Z,Former Egypt Culture Minister Farouk Hosni,Referred to,Court
2012-09-04T16:17:32Z,29 %,in,August
2012-09-04T16:18:15Z,Angola Foreign-Currency Reserves Fall,in,July
2012-09-04T16:19:38Z,German Stocks,Decline as,U.S. Manufacturing Contracts
2012-09-04T16:19:38Z,Stocks,Decline as,U.S. Manufacturing Contracts
2012-09-04T16:27:34Z,MP,Says,Troika Flexibility on Aid Plan
2012-09-04T16:27:34Z,Portuguese MP,Says,Troika Indicated Flexibility on Aid Plan
2012-09-04T16:29:39Z,Santander,Takes,Share
2012-09-04T16:30:00Z,GFMS,Sees,Jewelry Demand Rebounding
2012-09-04T16:30:00Z,Slump,in,Indian Usage
2012-09-04T16:30:01Z,Central-Bank Gold Buying Seen,Reaching,493 Tons
2012-09-04T16:33:31Z,Querrey,Replaces Fish With,Spain
2012-09-04T16:46:52Z,Booming Charlotte,Taps,Growth Strategy
2012-09-04T16:46:52Z,Charlotte,Taps,Growth Strategy
2012-09-04T16:47:15Z,New York,Accuses,Madoff Trustee
2012-09-04T16:56:59Z,Lufthansa Cabin Crew Expand German,Pay,Dispute
2012-09-04T16:58:08Z,Case Husband,Deserves,Second Term
2012-09-04T17:10:28Z,Deltek,Sued by,Investor
2012-09-04T17:19:01Z,Obama,Vows,Convention Speech Will Offer Specific Plans
2012-09-04T17:32:44Z,ECB ’s Draghi,Criticizes,Global Regulators ’ Bank Liquidity Rule
2012-09-04T17:51:55Z,Gulf Gasoline,Weakens as,Valero Plants Start
2012-09-04T17:52:52Z,Two Azeris,Arrested on,Charges
2012-09-04T17:55:50Z,$ 465 Million,in,Loans
2012-09-04T18:01:32Z,Copper Falls,in,London
2012-09-04T18:21:24Z,Food-Stamp Use,Climbs to,Record
2012-09-04T18:31:22Z,Titan,Protect,Profit
2012-09-04T18:37:50Z,S&P,Erases Loss as,Apple Rally Paces Technology Rebound
2012-09-04T18:37:50Z,S&P 500,Erases,Loss
2012-09-04T18:54:56Z,Seed Azarenka,Defending Champion Stosur at,U.S. Open
2012-09-04T18:54:56Z,Top Seed Azarenka,Defending,Champion Stosur
2012-09-04T19:19:41Z,Venezuela Inflation,Slows as,Chavez Eyes Votes
2012-09-04T19:32:02Z,Brazil Selic May Top 9 %,in,2013
2012-09-04T19:32:02Z,Higher Inflation,on %,Mapfre
2012-09-04T19:57:26Z,Valeant,Gets,$ 2.75 Billion Bridge Loan
2012-09-04T20:03:13Z,Chinese Medical Firm,Sued by,SEC
2012-09-04T20:08:59Z,Be,Better Off,Off Four Years
2012-09-04T20:12:56Z,Amazon Rivals Netflix,in,Epix Deal
2012-09-04T20:20:47Z,Manufacturing,in,U.S. Shrank
2012-09-04T20:21:49Z,RIM ’s Interest,Hits,High Amid Doubts
2012-09-04T20:21:49Z,RIM ’s Short Interest,Hits,High
2012-09-04T20:29:00Z,Drought,Reduces,U.S. Yields
2012-09-04T20:41:18Z,U.S. Company Bond Sales,in,Six Months
2012-09-04T20:43:52Z,Venezuela ’s Amuay,in,Days
2012-09-04T20:45:31Z,Retail Gasoline,in,U.S.
2012-09-04T20:46:49Z,Lawyer Files Five-Page Cartoon Brief,in,Apple E-Book Case
2012-09-04T20:53:59Z,Bakken Oil Premium,Widens on,Expanded Rail Shipping Capacity
2012-09-04T21:00:00Z,Kenya,Make,Rate Cut
2012-09-04T21:05:17Z,Drug,Treat,Type
2012-09-04T21:05:17Z,Pfizer,Wins,Approval
2012-09-04T21:12:46Z,U.S. Yields Rise,in,Month
2012-09-04T21:13:46Z,RadioShack,With,Leap
2012-09-04T21:22:59Z,Slowing Global Economic Data,Amid Aussie,N.Z. Dollars Decline
2012-09-04T21:25:34Z,Seat Unit Heading,in,Right Direction
2012-09-04T21:25:34Z,Volkswagen ’s Piech,Says,Seat Unit Heading in Right Direction
2012-09-04T21:33:54Z,Chao,Uribe to,Board
2012-09-04T21:33:54Z,Directors,Step,Down
2012-09-04T21:35:47Z,Jarrett,Says,Obama Wants Overhaul
2012-09-04T21:41:23Z,Bond Sales,in,U.S.
2012-09-04T21:41:23Z,Deere,Leads Busiest Day in,Six Months
2012-09-04T21:49:42Z,Finra ’s Luparello,Join,Washington Law Firm
2012-09-04T21:49:59Z,Sears,Escapes,Class
2012-09-04T22:00:09Z,Convention,Propel Obama to,Term
2012-09-04T22:00:09Z,Democratic Convention,Propel,Obama
2012-09-04T22:01:00Z,Exclusive Talks,With,Avago on CST
2012-09-04T22:14:10Z,U.S. Government Debt,Reaches,$ 16 Trillion
2012-09-04T22:16:58Z,EPA ’s Margo Oge,Retires Following,U.S. Fuel-Economy Rule
2012-09-04T22:18:11Z,Guatemala,Opens,7 Areas
2012-09-04T22:21:31Z,U.S. Stocks,Trim Loss on,Apple
2012-09-04T22:30:00Z,Manufacturing Revival,Is,Bad Policy
2012-09-04T22:34:30Z,Facebook,Can Still Rule,Internet Economy
2012-09-04T22:43:07Z,Pena Nieto,Says Videgaray to,Co-Lead Mexico Transition Team
2012-09-04T23:00:00Z,Bin Laden,Toys in,Controversial Memoir
2012-09-04T23:00:00Z,ECM Asset,Starts First Fund,Invest in Loans
2012-09-04T23:00:00Z,Ex-Navy SEAL,Mixes,Sex Toys
2012-09-04T23:00:00Z,Sex Toys,in,Controversial Memoir
2012-09-04T23:00:01Z,Nazi-Persecuted Exiles Honored,Wants,Museum
2012-09-04T23:00:21Z,Who-Built-It Debate,Pits U.S. Against,Europe
2012-09-04T23:01:00Z,Osborne Seeks Caesar,’s Wife,Goodhart
2012-09-04T23:12:18Z,Japanese Stock Futures Edge,Higher on,Draghi Bond Buying
2012-09-04T23:14:47Z,Aberdeen ’s Kaloo,Tops,Emerging Markets
2012-09-04T23:15:47Z,Mexican Peso Bond Yields,Climb After,10-Year Debt Auction
2012-09-04T23:15:47Z,Peso Bond Yields,Climb After,Debt Auction
2012-09-04T23:27:48Z,Suncor Oil-Sands Production,Rise in,August
2012-09-04T23:27:48Z,Syncrude Output Rise,in,August
2012-09-04T23:42:21Z,Hall,Golds at,Paralympics
2012-09-04T23:53:53Z,It,Feels,Good
2012-09-04T23:53:53Z,Obama Super-PAC ’s Begala,Give,It Feels
2012-09-05T00:01:55Z,Materials Stocks,Are,Seen Too Expensive
2012-09-05T00:52:21Z,Honda,Gains in,Post-Quake Sales
2012-09-05T00:52:21Z,Toyota Lead August Gains,in,Post-Quake Sales
2012-09-05T03:16:24Z,Rolls-Royce,Sees,Year Record Sales on Asia Demand
2012-09-05T04:01:06Z,Chrysler Tops U.S. Carmakers,in,Best Month
2012-09-05T04:10:47Z,3-Year Contract Extension,in,U.K.
2012-09-05T04:20:02Z,Notre Dame ’s Analyst Pinkett,Gets,Ban
2012-09-05T07:49:40Z,Aussie,Touches,Seven-Week Low
2012-09-05T07:49:40Z,GDP,Misses,Estimates
2012-09-05T08:14:22Z,Cameron ’s Revamp,Shows,True Tory
2012-09-05T08:18:09Z,It,Adds,Banks
2012-09-05T09:38:39Z,Clinton,Stresses Cooperation With,China
2012-09-05T11:10:29Z,Central Banker,Pays Price,Googletown Rents Climb
2012-09-05T11:10:29Z,Irish Central Banker,Pays,Price
2012-09-05T11:22:56Z,Palm-Oil Stockpiles,in,Malaysia
2012-09-05T15:06:52Z,Hungary Surprise Rate Cut,Sends,Yield
2012-09-05T15:44:00Z,Nokia Doubling,Sends Stock to,Nine-Year High
2012-09-05T17:08:37Z,Apple,Claim of,Breach
2012-09-05T17:43:52Z,Ax Killer ’s Pardon Reignites War Fears,in,Oil-Rich Caucasus
2012-09-05T20:34:57Z,Evidence,Seen by,EPA
2012-09-05T20:34:57Z,Mounting Evidence,Seen by,EPA
2012-09-05T21:14:54Z,ECB,on,Unlimited Bond-Buying Plan
2012-09-05T21:14:54Z,Euro,Strengthens on,ECB ’s Unlimited Bond-Buying Plan
2012-09-05T23:55:27Z,Chinese Executives,Sign,Letter
2012-09-05T23:55:27Z,Executives,Sign,Letter
2012-09-05T23:55:27Z,Letter,Denouncing,Short Sellers
2012-09-06T11:47:48Z,Tiny Robots,Boosting,Output
2012-09-10T16:18:58Z,Santarus,Can Pursue,Patent Claims
