2012-06-05T01:39:03Z,Australia ’s Current-Account Deficit Widened,in,First Quarter
2012-06-05T01:52:59Z,IAEA ’s Amano,Says on,Issue
2012-06-05T02:48:23Z,China Services Industry,Expands at,Survey Indicates
2012-06-05T03:00:01Z,Bruederle,Rejects,Passauer Reports
2012-06-05T03:00:01Z,Doering,Says,Minimum Wage Talks
2012-06-05T03:00:01Z,Eletropaulo Dividends Imperiled,in,Brazilian Rate Review
2012-06-05T03:15:10Z,Europe Debt Crisis,Offers,Growth Opportunity
2012-06-05T03:29:03Z,Funds,Sell,Net 6.78 Billion Rupees
2012-06-05T03:29:03Z,Global Funds,Sell,Net 6.78 Billion Rupees
2012-06-05T03:47:17Z,Cut Executives,Pay,Year
2012-06-05T03:50:44Z,One Win,in,NBA Finals
2012-06-05T03:55:13Z,IDB President,Says,Working
2012-06-05T04:00:01Z,Global Recession,With,Subprime Conviction
2012-06-05T04:00:01Z,U.S.,Fracking,Trucks Hauling Sand Subject
2012-06-05T04:00:55Z,PG&E,Settle,Pipeline Blast
2012-06-05T04:00:58Z,GM Pension Shift,Misses,Investment-Grade Mark
2012-06-05T04:01:00Z,Belle de Jour ’ Movie,Is,Deneuve ’s Ever Made
2012-06-05T04:01:00Z,Belle de Jour ’ Sexiest Movie,Is,Deneuve ’s Made
2012-06-05T04:01:00Z,Cloud Forest Lodge,in,Ecuador Reserve
2012-06-05T04:01:00Z,Cyanide Millipede,Lodge in,Ecuador Reserve
2012-06-05T04:01:00Z,Lakers,Pick Up,Andrew Bynum ’s Contract Option
2012-06-05T04:01:00Z,N.J. Students Struggle,With,Tuition
2012-06-05T04:01:00Z,Samsung Tablet Computer Sales,in,U.S.
2012-06-05T04:01:00Z,Schools,Give,Perks
2012-06-05T04:01:00Z,Scott Conant,Craves,Prada
2012-06-05T04:01:00Z,Students,Pay,9.25 %
2012-06-05T04:01:00Z,We,Crunched,Numbers
2012-06-05T04:01:01Z,Alabama Officials,File,$ 1.6 Billion Claim
2012-06-05T04:01:01Z,Rolls-Royce,Must,Face Whistle-Blowers ’ Contract Suit
2012-06-05T04:01:21Z,Service Industry Index,Probably Held at,Low
2012-06-05T04:01:39Z,KKR,With,Kravis No. 1
2012-06-05T04:01:39Z,Wall Street CEO,Pay,20 %
2012-06-05T04:18:03Z,Kings,Rout,Devils
2012-06-05T04:18:03Z,NHL,of,Stanley Cup
2012-06-05T04:43:28Z,ChTPZ,Seeks,Kommersant Reports
2012-06-05T04:45:27Z,Hong Kong Short Selling Turnover,Recorded,06/05/201
2012-06-05T04:51:02Z,Unbeaten Racehorse Black Caviar,Suited for,Overseas Trip
2012-06-05T05:00:01Z,Ukraine Offers Gas,Weaken,Russia Reliance
2012-06-05T05:01:50Z,Rosneft,Hires,Vedomosti
2012-06-05T05:01:50Z,TNK-BP,’s Casimiro,Vedomosti
2012-06-05T05:07:51Z,Bafana Bafana,Coach,Pitso Mosimane
2012-06-05T05:41:18Z,Handelsblatt Fiscal Union,Comes Before,Euro Bond
2012-06-05T05:50:08Z,France,Create Ministry Devoted to,La Tribune
2012-06-05T06:07:45Z,RBA,Lowers Key Rate as,Europe
2012-06-05T06:19:13Z,Deutsche Bank,Likes,China ’s Shares
2012-06-05T06:31:34Z,CNBC Italy ’s Borrowing Costs,Remain,Manageable
2012-06-05T06:31:56Z,Aussie,Rises Suggest After,RBA Cuts Rate Than Swaps
2012-06-05T06:43:27Z,Arsenal,Sign,Midfielder Biglia
2012-06-05T06:45:52Z,Wharf,Rises on,Ocean Terminal Lease Extension
2012-06-05T06:58:51Z,U.K.,’s Grain,Shipping Data Show
2012-06-05T06:59:56Z,Roiss,Tells,ZF
2012-06-05T07:00:00Z,IEA,Sees,Bleak Outlook
2012-06-05T07:00:00Z,Mato Grosso Corn Harvest,Is Seen at,Record
2012-06-05T07:00:00Z,Unconventional Gas Output,in,Europe
2012-06-05T07:00:09Z,Cazeneuve,Tells,Stampa
2012-06-05T07:00:09Z,Euro Bonds,Tells,Stampa
2012-06-05T07:22:15Z,Shell CEO,Sell,Billion Woodside Stake
2012-06-05T07:43:42Z,Gedeon Richter,Snaps,Three Days
2012-06-05T07:52:47Z,Troika,Hires Ageshin for,Fixed-Income Sales
2012-06-05T08:00:00Z,Inflation,Holds Despite,Ruble Drop
2012-06-05T08:00:00Z,Russian Inflation,Holds at,Post-Soviet
2012-06-05T08:16:08Z,Dollar Strength,Counters,Stimulus Bets
2012-06-05T08:16:08Z,Gold,Extends,Decline
2012-06-05T08:30:55Z,Manchester United,Sign,Borussia Dortmund ’s Kagawa
2012-06-05T08:36:09Z,German Stocks,Decline as,EON Drop
2012-06-05T08:36:09Z,Stocks,Decline as,EON Drop
2012-06-05T08:38:30Z,Taiwan Dollar Ends Four-Day Drop,Fall on,Inflation
2012-06-05T08:44:20Z,Three-Month High,in,Europe
2012-06-05T08:52:33Z,Korea ’s Won,Leads,Asia Currency Gains
2012-06-05T08:52:33Z,Losses,Judged,Excessive
2012-06-05T08:58:36Z,Banks,in,First Plea
2012-06-05T08:58:36Z,Spain Minister,Urges EU Aid for,Banks in First Plea
2012-06-05T08:59:38Z,May,Be as Low as,5.2 %
2012-06-05T09:03:58Z,Azeris Killed,in,Deadliest Clash
2012-06-05T09:08:47Z,Euro-Area Manufacturing,Shrink as,Crisis Worsens
2012-06-05T09:09:16Z,It,Showed,New Chip Technologies
2012-06-05T09:09:54Z,U.S. General Replaced,in,S. Korea
2012-06-05T09:10:16Z,Queen,Amid,Jubilee
2012-06-05T09:10:16Z,Spanish Stocks,Rise Amid,Queen ’s Jubilee
2012-06-05T09:10:16Z,Stocks,Rise Amid,Queen ’s Jubilee
2012-06-05T09:13:19Z,El Nino Seen,Developing,Coming
2012-06-05T09:14:09Z,BNP Paribas ’ Alwi,Says,Investors
2012-06-05T09:47:41Z,Banking Coordination,in,Drive
2012-06-05T09:52:53Z,Government,Receives,Loan
2012-06-05T10:00:00Z,Syracuse,Vassar Among,Colleges Said
2012-06-05T10:10:47Z,Germany,Says,Finland
2012-06-05T10:20:16Z,Central Balkan Countries,Must,Debt Load
2012-06-05T10:44:17Z,Monsoon Rains,Reach,Southern India
2012-06-05T10:57:52Z,Norway,Gives,306 Million-Euro Grant
2012-06-05T10:58:26Z,Fed Funds Projected,Open at,0.13 ICAP Says
2012-06-05T11:01:52Z,Foreign Investors,Sell,5.74 Billion Rupees of Stocks
2012-06-05T11:03:49Z,Australia,Pauses,Approval
2012-06-05T11:03:49Z,GVK,for,$ 10 Billion Coal Mine
2012-06-05T11:09:30Z,Asia Stocks,Climb Amid,Global Policy Stimulus Speculation
2012-06-05T11:16:14Z,Clover Industries,Are,Active
2012-06-05T11:16:51Z,Euro Manufacturing,Shrink as,Crisis Deepens
2012-06-05T11:19:22Z,Apple Will,Lose,German Motorola Mobility Xoom Case
2012-06-05T11:21:26Z,Greece Needs Orderly Insolvency,Tells,Zeit
2012-06-05T11:23:43Z,Being,Sold as,Prices Near Record
2012-06-05T11:23:43Z,Gold,Being,Sold Aggressively
2012-06-05T11:58:37Z,Rupee Steady,Will,Cut Rates to Support Growth
2012-06-05T12:14:24Z,Barclays Bankers Indicted,in,Italy
2012-06-05T12:14:24Z,UniCredit,Indicted in,Italy
2012-06-05T12:16:33Z,Erie,Hires,GE ’s Postema
2012-06-05T12:16:33Z,Insurer,as,Chief Investment Officer
2012-06-05T12:20:16Z,Fisher,Expresses Doubts on,Stimulus
2012-06-05T12:22:33Z,China Sign Deal,Setting Up,$ 4 Billion Investment Fund
2012-06-05T12:24:29Z,Clinton,Warns Putin Amid,Strains
2012-06-05T12:30:00Z,Canada April Building,Permits,Decline 5.2 %
2012-06-05T12:32:52Z,Favorable Court Ruling,in,Tariffs Dispute
2012-06-05T12:32:52Z,Tallinna Vesi,Gets,Favorable Court Ruling
2012-06-05T12:39:26Z,Statoil,in,Talks on Shtokman Structure
2012-06-05T13:00:00Z,Deutsche Bank,Gets,Approval
2012-06-05T13:00:01Z,Bank,Keeps,Its Benchmark Interest Rate
2012-06-05T13:01:35Z,EON Will,Lose Millions After,Trader ’s Irregularities
2012-06-05T13:01:35Z,Trader,After,Irregularities
2012-06-05T13:17:16Z,Banks,May Reach,Zeit Reports
2012-06-05T13:17:16Z,German Banks,May Reach,Zeit Reports
2012-06-05T13:17:35Z,Property Owner,as,Value Jumps
2012-06-05T13:17:35Z,TAG,May Join Mid-Caps Index as,Property Owner ’s Value Jumps
2012-06-05T13:21:57Z,CEZ,Rises,Second Day Toward Highest
2012-06-05T13:23:08Z,Japan,After,Azumi Speaks
2012-06-05T13:23:08Z,Yen,Weakens After,Japan ’s Azumi Speaks
2012-06-05T13:30:00Z,ECB ’s Asmussen,Says,Baltics Proved Effectiveness
2012-06-05T13:30:00Z,Soybean Price,Seen as,Buying Opportunity
2012-06-05T13:44:32Z,Hutchison Returns,With,Scailex Purchase
2012-06-05T13:46:59Z,MF Global Trustee,Sees,Claims of Billion
2012-06-05T13:46:59Z,MF Trustee,Sees,Claims
2012-06-05T14:02:48Z,Fisher,Cites,Marketplace Fear
2012-06-05T14:04:10Z,Stress,in,Dollar-Funding
2012-06-05T14:09:28Z,Business,on Report,Text
2012-06-05T14:09:50Z,Brookfield Office,Expands With,Million Purchase
2012-06-05T14:10:59Z,Akzo Nobel ’s ICI,Loses,91.4 Million-Euro Cartel Fine Appeal
2012-06-05T14:14:50Z,Spain,Warm,Seen
2012-06-05T14:18:01Z,Egypt ’s Stocks,Slump Since,January Before Mass Rally
2012-06-05T14:22:48Z,Forint,Extends,Biggest Two-Day Advance
2012-06-05T14:22:48Z,Hungarian Forint,Extends,Biggest Two-Day Advance
2012-06-05T14:25:00Z,U.S.,Says,Markets
2012-06-05T14:28:37Z,Official,Says,G-7 Progress Toward Europe Fiscal Union
2012-06-05T14:46:38Z,Parliament,Approves Language Bill Amid,Protests
2012-06-05T14:46:38Z,Ukrainian Parliament,Approves Language Bill Amid,Protests
2012-06-05T14:47:16Z,Serbia Will,Probably Raise,Interest Rates
2012-06-05T14:52:51Z,CEZ,Move in,Prague Trading
2012-06-05T15:03:57Z,Norilsk Nickel,Are,Active
2012-06-05T15:07:28Z,NHL ’s Montreal Canadiens,Bring,Michel Therrien
2012-06-05T15:07:53Z,Samantha Stosur,Reach,French Open Semifinals
2012-06-05T15:07:53Z,Sara Errani,Reach,French Open Semifinals
2012-06-05T15:09:27Z,Spain,Urges EU Aid for,Banks
2012-06-05T15:10:15Z,Ghana Government Supporter,Charged in,Court Debt Case
2012-06-05T15:10:32Z,Uranium May,Be,Good News
2012-06-05T15:18:09Z,Duke,With,Higher Yield Than Money Funds
2012-06-05T15:18:09Z,Higher Yield,With Duke,GE Tempt Savers
2012-06-05T15:19:27Z,Gold,Says,Court Rules Modder East Strike Unprotected
2012-06-05T15:19:27Z,Gold One,Says,Court Rules Modder East Strike Unprotected
2012-06-05T15:21:33Z,Richter,Move in,Budapest Trade
2012-06-05T15:22:14Z,Latin America,Should Spend,$ 110 Billion
2012-06-05T15:26:30Z,AccessKenya Group,Guinness of,Ghana
2012-06-05T15:30:44Z,IMF ’s Lagarde,Says,Latvia Exceeded Expectations
2012-06-05T15:31:02Z,May Nigeria,Rises in,Five Months
2012-06-05T15:42:52Z,Corn-Pest Resistance Study,Sees,Need
2012-06-05T15:44:21Z,Banks,in,First Plea
2012-06-05T15:44:21Z,Spain Minister,Urges EU Aid for,Banks in First Plea
2012-06-05T15:45:50Z,Terrell Owens,Fires,Agent
2012-06-05T15:45:58Z,French Soil-Water Reserves Rise,in,May
2012-06-05T15:45:58Z,Soil-Water Reserves Rise,Exceeds,Normal
2012-06-05T15:50:01Z,Central Bank,Holds,Rate
2012-06-05T15:52:52Z,CEDC,Active in,Warsaw
2012-06-05T15:53:49Z,Tata Venture,Considering,Congo Hydroelectric Plant
2012-06-05T15:57:22Z,Google Advertising Service,Tracks,Success of Digital Marketing
2012-06-05T15:58:59Z,U.S. Stocks,Erase,Gain
2012-06-05T15:59:10Z,Europe,on,Debt Crisis
2012-06-05T15:59:10Z,Stocks,Fall on,Europe ’s Debt Crisis
2012-06-05T15:59:10Z,Ukrainian Stocks,Fall to,Three-Year Low
2012-06-05T16:00:00Z,Three Weeks,in,Office
2012-06-05T16:00:11Z,European Stocks,Rise as,U.S. Services Data Beat Estimates
2012-06-05T16:00:11Z,Stocks,Rise as,U.S. Services Data Beat Estimates
2012-06-05T16:00:28Z,Loans,See,2012 Loss
2012-06-05T16:03:22Z,Home-Loan Subsidy,Leaves,U.S. Exposed to Fiscal Storms
2012-06-05T16:03:22Z,U.S.,Exposed to,Storms
2012-06-05T16:12:43Z,Rosneft,Leads,Oil Stocks Lower as Falls on Europe Woes
2012-06-05T16:17:36Z,20 % Stake,in,O2 Germany
2012-06-05T16:24:16Z,Ruble,Strengthens Day Since,2009
2012-06-05T16:25:21Z,ECB ’s Asmussen,Says,Latvia Needs
2012-06-05T16:25:24Z,Standard,for,500 Index in 2013
2012-06-05T16:25:24Z,Standard ’s 500 Index,in,2013
2012-06-05T16:25:44Z,Strategists,’,Allocations
2012-06-05T16:32:44Z,Russia Stocks,Tumble Rosneft Falls to,Low
2012-06-05T16:33:04Z,Libya Spy Chief,Ordering,Attacks
2012-06-05T16:34:24Z,Nintendo,Introduces,Wii U
2012-06-05T16:42:47Z,May,Get,Precautionary Credit Line From EFSF
2012-06-05T17:02:37Z,Hardware Startups,Lure,Investors
2012-06-05T17:10:11Z,JPMorgan,Wins,Preliminary Municipal Bond Accord Approval
2012-06-05T17:10:44Z,China,Proposes Gas-Storage Venture to,RIA Novosti
2012-06-05T17:16:21Z,Industry Group,Says on,Verge of Collapse
2012-06-05T17:34:55Z,Middleman Robinson,Gets,27 Months
2012-06-05T17:35:13Z,Paulson,Buys,Saudi Prince ’s Ranch
2012-06-05T17:38:30Z,Genworth Canada Outlook,Lowered to,Stable
2012-06-05T17:41:44Z,Growth,in,Europe
2012-06-05T17:41:44Z,VF ’s North Face Brand,See,Growth in Europe
2012-06-05T17:42:07Z,New York City Budget,Balanced With,Help From Wall Street
2012-06-05T17:42:44Z,Djokovic,Level at,Two Sets
2012-06-05T17:51:43Z,Cut Jobs,to Unitymedia,Handelsblatt
2012-06-05T17:54:46Z,Syracuse,Vassar Among,Colleges Joining
2012-06-05T17:55:08Z,Woods ’s Agent Mark Steinberg,Loses,Driver ’s License
2012-06-05T18:00:00Z,BTA Executive Said,Were,Forged Last Year
2012-06-05T18:04:03Z,$ 12.3 Million Wind Tower Plant,in,Bahia
2012-06-05T18:13:22Z,al-Qaeda ’s No. 2,Drone,Strike
2012-06-05T18:18:06Z,Casey Martin,Qualifies for,U.S. Open Return
2012-06-05T18:29:02Z,Siluanov,Tells,Echo
2012-06-05T18:30:25Z,Chile Peso,Rises on,Speculation Central Banks
2012-06-05T18:31:20Z,India,Hires Accenture,Help
2012-06-05T18:47:42Z,Gasoline Gains,May Spur,Demand
2012-06-05T18:54:59Z,Significant Reduction,in,Pension Fund Fees
2012-06-05T19:01:33Z,Chesapeake Hearing Ends,With,Ruling on Delay Bid
2012-06-05T19:06:45Z,Djokovic,Saves,Four Match Points
2012-06-05T19:06:45Z,Four Match Points,Set Up Match With,Federer
2012-06-05T19:08:19Z,Gay-Marriage Foes,Lose Bid on,Ban
2012-06-05T19:10:23Z,Colombia,Yields,Fall to Low
2012-06-05T19:17:42Z,Canada Housing Market,Slows,Toronto Sales Cool
2012-06-05T19:19:27Z,Morgan Stanley Will,Pay,M
2012-06-05T19:23:00Z,Inventories,Reach,Four-Month High
2012-06-05T19:37:32Z,Pena Nieto,Sees Narrow at,Risk
2012-06-05T19:41:13Z,Syncrude,Strengthens Against,WTI
2012-06-05T19:50:46Z,Bain 's Sustainability,Contrasts With,Romney 's Rhetoric
2012-06-05T19:50:46Z,Romney,With,Rhetoric
2012-06-05T20:03:14Z,Wheat Declines,in,Six
2012-06-05T20:13:37Z,Huaneng Power,Climbs to,3-Month High on Appliance Subsidy
2012-06-05T20:15:01Z,Enterprise,in,Rear Window
2012-06-05T20:15:01Z,Zipcar,Now Sees,Enterprise
2012-06-05T20:15:43Z,Disney Junk-Food Ban,Is,Seen Costing
2012-06-05T20:16:24Z,Ex-McKinsey Consultant Banki,in,Talks Over Criminal Case
2012-06-05T20:17:16Z,Icahn ’s Chesapeake Intervention,Faces,$ 22 Billion Hurdle
2012-06-05T20:18:23Z,Freescale,Hires,Texas Instruments Analog Head Lowe
2012-06-05T20:21:33Z,Action,Avert,2013 Fiscal Cliff
2012-06-05T20:21:33Z,U.S. Chamber,Urges,Action
2012-06-05T20:22:24Z,Westport,Rises on,Caterpillar Venture
2012-06-05T20:24:36Z,Joy Global,Tempts With,Cheapest Industry Deal
2012-06-05T20:26:54Z,Israel ’s Fischer,Says,Tax Increase
2012-06-05T20:26:56Z,JA Solar,Rises as,First-Quarter Shipments Beat Forecast
2012-06-05T20:34:20Z,HP Executive,Was,Furious
2012-06-05T20:37:18Z,Oil,Rises for,Day
2012-06-05T20:41:39Z,Rubiales,Rises on,Million PetroMagdalena Bid
2012-06-05T20:47:38Z,Jerry Sandusky ’s Insurer,Must Pay Defense Costs for,Now
2012-06-05T20:51:05Z,Tombini,Says,Small Banks Solid
2012-06-05T20:54:33Z,Semafo,Shuns,Quebec
2012-06-05T21:04:00Z,Service Industries,in,U.S. Sustained Growth
2012-06-05T21:07:35Z,China Eastern,Leads,ADRs ’ Advance
2012-06-05T21:09:12Z,Merck,Win,Approval
2012-06-05T21:12:11Z,Yen,Weakens,Azumi Says
2012-06-05T21:12:39Z,Elektra,Jumps as,Slim ’s Brokerage Tops Buying
2012-06-05T21:12:39Z,Slim,as,Brokerage Tops Buying
2012-06-05T21:22:50Z,3.2 %,in,Sao Paulo
2012-06-05T21:28:00Z,Buffett ’s Berkshire Discloses Stake,in,Lee Enterprises
2012-06-05T21:32:03Z,Difference,in,Views
2012-06-05T21:34:24Z,Lung Association,Set,Agree on Soot Rule
2012-06-05T21:42:11Z,Schweitzer-Mauduit,Loses Bid to,Block Cigarette Papers
2012-06-05T21:42:34Z,Merck,Sues,Intas Copy
2012-06-05T21:42:34Z,Sandoz,Copy of,Emend
2012-06-05T21:45:01Z,Soybeans,May Open Steady,Grain
2012-06-05T21:51:01Z,JPMorgan Loss,Raises,Curry
2012-06-05T21:52:06Z,Brazil,on,4G Auction
2012-06-05T21:52:06Z,Vivo,Plan to,Bid on Brazil ’s 4G Auction
2012-06-05T21:55:09Z,Facebook,Extends,Share Declines
2012-06-05T21:56:37Z,Nabors Shareholders,Approve,Proxy Access
2012-06-05T22:00:01Z,Container Lines,Set in,Supply Glut
2012-06-05T22:01:26Z,Lehman Brokerage,Loses,Appeal of Barclays Asset Ruling
2012-06-05T22:03:09Z,Wisconsin Court,Approves Payment to,Ambac Policyholders
2012-06-05T22:04:28Z,Knology,Sued by,Investor
2012-06-05T22:05:02Z,Batista ’s CCX Declines,in,Sao Paulo
2012-06-05T22:30:28Z,Clemens Judge,Dismissing,Fourth Juror
2012-06-05T22:31:49Z,Emerging-Market Stocks,Climb From,Six-Month Low
2012-06-05T22:34:52Z,FGC Will,Pay Cruzeiro Obligations During,Intervention
2012-06-05T22:47:52Z,Apollo Global Real Estate Chief Azrack May,Leave,Post Year
2012-06-05T22:55:18Z,TiVo,Says,Cisco Infringes Digital Video Recorder Patents
2012-06-05T23:00:00Z,Brazil ’s Rousseff,Should Trim,Taxes
2012-06-05T23:00:00Z,China,About,Banks
2012-06-05T23:00:00Z,Swaps,Born in,U.K Boom Haunt Buyers
2012-06-05T23:00:00Z,Tales,Hide,Economy ’s Problems
2012-06-05T23:00:00Z,Tall Tales,Hide,Economy ’s Problems
2012-06-05T23:00:01Z,Hakkasan Targets London City Area,With,Restaurant Plan
2012-06-05T23:00:01Z,Hollow,Stares,Evoke War Horrors
2012-06-05T23:00:01Z,Spain,to,FROB
2012-06-05T23:00:01Z,Torn Limbs,Stares in,Israel
2012-06-05T23:00:07Z,Barry Diller,Can Upend,TV Industry
2012-06-05T23:00:20Z,Massacre,Has,Few Echoes of War
2012-06-05T23:00:20Z,Syrian Massacre,Has,Echoes of War
2012-06-05T23:00:36Z,Temporary,as Seen,Demand
2012-06-05T23:01:00Z,%,Pay,Increase
2012-06-05T23:01:00Z,9.5 %,Pay,Increase
2012-06-05T23:12:33Z,Tarullo,Says,Fed Helping Oversight of JPMorgan Portfolio
2012-06-05T23:28:40Z,Djokovic,Fights Off,4 Match Points
2012-06-05T23:32:18Z,Venus,Gets in,Our Way
2012-06-05T23:36:09Z,Agreement,Expand Outlets in,Russia
2012-06-05T23:47:44Z,Fannie Mae,Picks,Ex-BofA General Counsel Mayopoulos
2012-06-06T03:21:22Z,Noda Sales-Tax Push,Rising,Japan Majority Opposition
2012-06-06T04:00:01Z,Bronx Bus Crash Findings,Expose,Holes
2012-06-06T04:00:01Z,Holes,in,U.S. Safety Net
2012-06-06T04:00:02Z,Reduction,in,Pentagon
2012-06-06T04:01:00Z,AMR Pilots,Distracted by,Brakes Said
2012-06-06T04:01:00Z,Henley May,Follow,Taylor Swift
2012-06-06T04:01:00Z,Starbucks Unit,in,Coinstar Kiosk Deal
2012-06-06T04:01:01Z,Former Dodgers Manager Lasorda,Recovering From,Mild Heart Attack
2012-06-06T04:01:01Z,Trial,Takes,Day
2012-06-06T08:07:29Z,Qantas,Faces Price War,Overseas Losses Widen
2012-06-06T08:24:34Z,Children,Lose to,Bailed-Out Bankers
2012-06-06T10:13:44Z,Draghi May,Move Toward,Rate Cut
2012-06-06T10:21:38Z,Putin,Vows,China Trade Ties
2012-06-06T11:15:16Z,13-Month Low,in,May
2012-06-06T11:38:28Z,Bankinter CEO,Says,Rigor
2012-06-06T12:42:37Z,Roche ’s Actemra Beat Abbott Drug,in,Rheumatoid Arthritis
2012-06-06T14:23:19Z,Gold Bugs Defy Bear-Market Threat,With,Soros Buying
2012-06-06T15:19:15Z,EU,Unveils Debt Writedown Law as,Step
2012-06-06T15:43:43Z,Clinton Differs,With,Obama in Urging Short Tax-Cut Extension
2012-06-06T15:43:43Z,Obama,in,Urging Short Tax-Cut Extension
2012-06-06T15:49:44Z,Austria,’s Erste,Raiffeisen Downgraded by Moody ’s
2012-06-06T15:49:44Z,Raiffeisen,Downgraded by,by Moody
2012-06-06T16:45:02Z,Cuts,in,Dodd-Frank Agencies
2012-06-06T16:45:02Z,House Republicans,Seek,Cuts in Dodd-Frank Agencies
2012-06-06T16:59:42Z,Fish,Heads to,Chicken Fat Light Homes
2012-06-06T17:07:56Z,German Resistance,Thwarts,Marchionne ’s Call for Unity
2012-06-06T17:07:56Z,Resistance,Thwarts,Marchionne ’s Call for Unity
2012-06-06T18:12:02Z,Failure,in,Risk Controls
