2012-12-21T00:00:00Z,Adoboli Fraud,in,UBS Recklessness
2012-12-21T00:01:00Z,British Lawmakers Demand Osborne,Strengthens,Bank-Firewall Plans
2012-12-21T00:01:00Z,Lawmakers Demand Osborne,Strengthens,Bank-Firewall Plans
2012-12-21T00:01:00Z,Pink,Sharing Policies Beyond,BOE Circle
2012-12-21T00:20:02Z,U.S.,Left,Children
2012-12-21T00:21:33Z,Duke Energy,Gets,Development Bank Loans
2012-12-21T00:38:13Z,Boehner,on,Tax Plan B
2012-12-21T00:38:13Z,Republicans,Are Delaying,Vote
2012-12-21T01:47:49Z,China ’s CSI 300 Falls,in,6 Days
2012-12-21T02:00:01Z,First Black Court Chief,Confronts Corruption in,Brazil
2012-12-21T02:08:41Z,Cathay Pacific,Says,Demand Rising on North America
2012-12-21T02:08:41Z,Demand,Rising on,North America
2012-12-21T02:19:25Z,H.Bloom Cuts Down,With,Software Picking Lilies
2012-12-21T02:22:14Z,Bond Risk,Decreases,Credit-Default Swap Prices Show
2012-12-21T02:45:05Z,Boehner,on,Tax Plan Lacking
2012-12-21T02:45:05Z,House Scraps,Vote on,Boehner ’s Tax Plan
2012-12-21T03:10:59Z,Sinohydro,Approves,Plans
2012-12-21T03:13:41Z,Rubber,Pares Third Weekly Advance on,U.S. Fiscal-Cliff Concerns
2012-12-21T03:18:24Z,China Overnight Rate Drops,Adds,Funds
2012-12-21T03:18:24Z,PBOC,Adds,Funds
2012-12-21T03:24:28Z,Mexico ’s Pena Nieto,Nominates,Guzman
2012-12-21T03:28:23Z,China Machinery Engineering,Surges on,Debut
2012-12-21T03:46:32Z,ING,Passes in,Tokyo Pro-Bond Plans
2012-12-21T03:51:30Z,Gold,Poised for,Worst Week
2012-12-21T04:02:03Z,China,Eases Rules on,Listings
2012-12-21T04:30:51Z,Dialog,Customers for,Oil Storage Terminal
2012-12-21T04:45:16Z,Hong Kong Short Selling Turnover,Recorded,12/21/2012
2012-12-21T05:00:01Z,American Dream,Fades for,Generation Y Professionals
2012-12-21T05:00:01Z,Bank,Lending,Money Machine
2012-12-21T05:00:01Z,Dream,Fades for,Generation Y Professionals
2012-12-21T05:00:30Z,Ethics Panel,Finds,Shelley Berkley Violated House Rules
2012-12-21T05:00:43Z,Timberwolves,End,Oklahoma City ’s NBA Streak
2012-12-21T05:00:45Z,Shootings,Costing,U.S. Billion Show Burden of Gun Violence
2012-12-21T05:00:58Z,China,Approves,Trading in Rapeseed Futures
2012-12-21T05:00:58Z,Trading,in,Rapeseed Futures
2012-12-21T05:01:00Z,Autism Cures,Promised by,DNA Testers
2012-12-21T05:01:00Z,Drug Stocks,Prey for,Insiders
2012-12-21T05:01:00Z,Industry,Resists,Change
2012-12-21T05:09:00Z,He,Step Down as,Foes Demand
2012-12-21T05:18:46Z,Crane,Buys,Bill-Machine Maker MEI Conlux
2012-12-21T05:38:52Z,Brigham Young,Defeats,San Diego State 23-6 in Poinsettia Bowl
2012-12-21T05:38:52Z,San Diego State 23-6,in,Poinsettia Bowl
2012-12-21T06:02:45Z,Aussie,Heads for,Weekly Drop
2012-12-21T06:17:34Z,U.S. House Republicans,Cancel,Vote
2012-12-21T06:41:13Z,Kosovo,Gets,Million From IMF
2012-12-21T06:45:53Z,OMV Petrom Signs Accord,With,Expert Petroleum
2012-12-21T07:40:57Z,12 Typhoon,Aircraft From,BAE
2012-12-21T07:40:57Z,Oman,Buys,8 Hawk Aircraft
2012-12-21T07:41:23Z,China ’s Stocks,Drop From,High
2012-12-21T07:48:11Z,Copper Ends Selloff,in,London
2012-12-21T08:02:55Z,Hollande,Says,2013
2012-12-21T08:20:40Z,Sotheby ’s 2012 Wine Auction Sales,Plunge,25 Percent
2012-12-21T08:20:40Z,Sotheby ’s Wine Auction Sales,Plunge,25 Percent
2012-12-21T08:22:45Z,Banks ’ Dollar Funding Costs Rise,in,Europe
2012-12-21T08:46:14Z,Vietnam ’s 5-Year Bonds,Have,Week
2012-12-21T08:46:14Z,Vietnam ’s Bonds,Have Week in,Month on Rate Outlook
2012-12-21T08:54:47Z,Yuan,Has,Biggest Weekly Gain
2012-12-21T09:09:29Z,It,Serving,Less Coffee
2012-12-21T09:11:52Z,MasterCard,Sued by,Deutsche Bahn
2012-12-21T09:11:52Z,Sainsburys,Bahn Over,Card Fees
2012-12-21T09:28:06Z,It,Detained,U.S. Citizen
2012-12-21T09:29:02Z,Rebar Futures,Climb After,Jiangsu Producer Lifts Product Prices
2012-12-21T09:37:14Z,Pound,Stays,Versus Dollar
2012-12-21T09:37:14Z,U.K. Growth,Revised,Down
2012-12-21T09:39:31Z,Copper Traders,Turn,Hedge Funds Buy More
2012-12-21T09:41:14Z,Singapore,Proposes,Consumer-Credit Rules
2012-12-21T09:48:55Z,390,at Loss,Politika
2012-12-21T09:52:36Z,CEZ,of,Partner
2012-12-21T09:57:39Z,Trafigura,Buys,Gasoil
2012-12-21T09:59:22Z,Morgan Stanley,Says,Currency Recommendations Made
2012-12-21T10:00:00Z,Consumer Confidence,Remains Near,Record Low
2012-12-21T10:00:00Z,Italian Consumer Confidence,Remains Near,Record Low
2012-12-21T10:07:50Z,Republicans,Cancel,Budget-Plan Vote
2012-12-21T10:12:31Z,Thai 10-Year Bonds,Have,Best Week
2012-12-21T10:42:47Z,Tottenham May,Make,Mln Offer
2012-12-21T10:44:36Z,Biggest Drop,in,Two Months on China
2012-12-21T10:47:36Z,Continental,Starts,Refinancing Syndicated Loan Due 2014
2012-12-21T10:58:54Z,Lira,Weakens,Most
2012-12-21T10:58:54Z,Turkish Lira,Weakens,Most in Month
2012-12-21T11:00:07Z,Air Berlin,Says,Plane Emergency Landing in Thailand
2012-12-21T11:00:07Z,Plane Made Emergency Landing,in,Thailand
2012-12-21T11:03:11Z,Billionaire Usmanov Seeks,in,VKontakte Next Year
2012-12-21T11:04:40Z,Subsidy Sought,in,Spain
2012-12-21T11:09:04Z,Iran Talks,in,Early 2013
2012-12-21T11:11:20Z,Austrian Landlord Conwert ’s German Properties Soar,With,KWG
2012-12-21T11:24:54Z,Lufthansa,Slots for,EU Antitrust Approval
2012-12-21T11:37:53Z,$ 7 Billion,in,U.K. Mariner Field
2012-12-21T11:38:45Z,U.K. Recovery Weaker,Than Estimated,Deficit Widens
2012-12-21T11:41:29Z,U.K. Treasury,Hires,McKinsey Partner
2012-12-21T11:58:04Z,$ 3.6 Billion,in,German Savings
2012-12-21T12:00:55Z,Your Team Wants,You,Stop
2012-12-21T12:01:01Z,SMA Solar,Buys,Majority Stake
2012-12-21T12:12:54Z,Hutchison Austrian Mobile Takeover,Clears,Hurdle
2012-12-21T12:12:54Z,Hutchison Mobile Takeover,Clears,Regulatory Hurdle
2012-12-21T12:13:32Z,Rupee,Has,Worst Week in Month
2012-12-21T12:13:32Z,Worst Week,in,Month on Stalled U.S. Budget Talks
2012-12-21T12:25:44Z,China,Lifts Bird Flu Ban From,Minnesota
2012-12-21T12:25:51Z,Ex-Stripper,Loses U.K. Lawsuit Over,Definition of Employee
2012-12-21T12:26:52Z,NYSE,Cedes Autonomy to,12-Year-Old Market
2012-12-21T12:27:56Z,Alstom,Buys,Canada ’s ASAT Solutions
2012-12-21T12:28:12Z,Disney,Wins,EU Approval
2012-12-21T12:29:10Z,Soybeans,Climb Investors as,Slump to One-Month Low
2012-12-21T12:31:10Z,Kenya Premier Mudavadi,Leaves,Election Alliance of ICC Suspects
2012-12-21T12:33:56Z,Merck ’s Tredaptive,Is Under,Review by EU Regulator
2012-12-21T12:35:10Z,Companies,End,Disputes
2012-12-21T12:50:33Z,EFT,Gets,Loan
2012-12-21T12:56:37Z,U.K.,Closes,Corporation-Tax Loophole
2012-12-21T13:08:04Z,Cameron,Calls,Argentina ’s Stance on Falklands Unjustified
2012-12-21T13:10:48Z,Norway Wealth Fund,Gets,Approval
2012-12-21T13:13:21Z,Fed,With,Target Range
2012-12-21T13:36:41Z,Canadian Dollar,Touches,Two-Week Low
2012-12-21T13:36:41Z,Dollar,Touches,Two-Week Low
2012-12-21T13:43:18Z,Djokovic,Hires,IMG
2012-12-21T13:43:18Z,IMG,Manage,Career
2012-12-21T14:01:51Z,Swaps Armageddon,Lingers as,New Rules Concentrate Risk
2012-12-21T14:03:53Z,Brazilian Stocks,Tumble on,Billion Charge
2012-12-21T14:03:53Z,Stocks,Tumble as,Vale Retreats
2012-12-21T14:07:47Z,Demand,Climbed Than,Forecast
2012-12-21T14:11:49Z,Petrol,in,Istrabenz
2012-12-21T14:11:52Z,Croatia ’s Sibenik,Gets,EBRD Loan
2012-12-21T14:14:47Z,BAE ’s $ 4 Billion Oman Order,Extends,U.K. Fighter Heritage
2012-12-21T14:14:47Z,BAE ’s $ Billion Oman Order,Extends,U.K. Fighter Heritage
2012-12-21T14:14:47Z,BAE ’s Billion Oman Order,Extends,U.K. Fighter Heritage
2012-12-21T14:20:41Z,Rate Scandal,Sees,U.K. Fines Triple Record
2012-12-21T14:24:33Z,Rand,Set for,Biggest Drop
2012-12-21T14:28:49Z,England Player Raheem Sterling,Commits,Long-Term
2012-12-21T14:29:20Z,Canada ’s October Economy,Grew on,Oil Production
2012-12-21T14:34:00Z,Ruble,Weakens Against,Dollar First Time
2012-12-21T14:34:23Z,Deutsche Bank,Draws,Fire
2012-12-21T14:37:30Z,Zimbabwe ’s $ 4 Billion Sovereign Fund,Questioned by,Analysts
2012-12-21T14:37:30Z,Zimbabwe ’s $ Billion Sovereign Fund,Questioned by,Analysts
2012-12-21T14:37:30Z,Zimbabwe ’s Billion Sovereign Fund,Questioned by,Analysts
2012-12-21T14:41:57Z,Speculators,Mull,NYSE
2012-12-21T14:43:20Z,Steve Jobs ’s Yacht Seized,in,Amsterdam
2012-12-21T14:43:50Z,AirAsia,Says,Safran No Shoe-In to Power Latest Airbus Jets
2012-12-21T14:43:50Z,GE,Shoe-In to,Power Latest Airbus Jets
2012-12-21T14:47:44Z,15.1 %,of Growth,Minister
2012-12-21T15:00:01Z,U.S. Fuel Demand,in,November
2012-12-21T15:06:38Z,Michigan Consumer Sentiment,Fell to,Five-Month Low
2012-12-21T15:09:16Z,Barclays Staff Ask U.K. Court,in,London Libor Suit
2012-12-21T15:13:36Z,Peru,Spur,Southern Copper
2012-12-21T15:13:58Z,Germany,Faces,Warmest Christmas
2012-12-21T15:15:17Z,Apocalypse,Fills Mexico Hotels,Travel Rises
2012-12-21T15:15:17Z,Mayan Apocalypse,Fills,Mexico Hotels
2012-12-21T15:15:17Z,Travel,Rises,Record
2012-12-21T15:16:42Z,Debt Risk,Rises From,17-Month Low
2012-12-21T15:17:30Z,Italy Budget Law,Is,Passed
2012-12-21T15:20:28Z,U.K. Stocks,Decline as,U.S. Republicans Scrap Tax Vote
2012-12-21T15:25:06Z,Building 90 MW Wind Farm,in,Chile
2012-12-21T15:25:06Z,Enel Green Power,Starts,Building 90 MW Wind Farm in Chile
2012-12-21T15:27:41Z,Payrolls Rise,Led by,North Carolina
2012-12-21T15:32:22Z,Turbines,in,South Africa
2012-12-21T15:32:22Z,Vestas,Gets Order for,74 Megawatts of Turbines
2012-12-21T15:35:12Z,Dollar-Funding Stress,Holds,Steady
2012-12-21T15:35:12Z,Stress,Holds,Steady
2012-12-21T15:39:15Z,Putin,Says,Russia ’s Financial Aid
2012-12-21T15:43:33Z,Filings Match,With,Up Biggest Bankruptcy
2012-12-21T15:43:33Z,Lehman ’s Year-End Fees,Match With,Up Biggest Bankruptcy
2012-12-21T15:45:35Z,Argentine Forecast Gap,Keeps,Wheat Market Guessing
2012-12-21T15:45:35Z,Forecast Gap,Keeps,Wheat Market Guessing
2012-12-21T15:45:40Z,Platts,Leaves,Forties Crude De-Escalator Formula Unchanged
2012-12-21T15:48:43Z,Eni-Anadarko African LNG Plant,Be,World ’s Second-Largest
2012-12-21T15:49:04Z,Mediclinic,Reaches,Record
2012-12-21T16:00:00Z,Canada Deficit,Narrows,Tax Revenue Grows
2012-12-21T16:00:01Z,Chinese Officials,Flock to,Microblog
2012-12-21T16:00:01Z,Officials,Flock to,Microblog
2012-12-21T16:02:23Z,Expedia Buying Stake,in,Travel Site Trivago
2012-12-21T16:15:13Z,Polish Power,Rises Amid,Outages
2012-12-21T16:16:31Z,Most U.S. Crops,in,Great Plains
2012-12-21T16:20:41Z,Microsoft,Wins,U.K. Court Ruling Over Motorola Pager Patent
2012-12-21T16:24:20Z,Retail Sales,Slow,Polish Unemployment Rises
2012-12-21T16:24:20Z,Zloty Retreats,Slow,Polish Unemployment Rises
2012-12-21T16:30:47Z,Desert Locusts Threaten Egypt,Arabia as,Swarms Lay Eggs
2012-12-21T16:36:04Z,NYSE Euronext Investor,Sues Over,Billion ICE Bid
2012-12-21T16:36:46Z,Russia,Stocks,Retreat as Oil Falls
2012-12-21T16:37:41Z,Entergy Plant,Boosts Lift Nuclear Output to,3-Month High
2012-12-21T16:41:10Z,21st Century Technology,Surges on,Transport CCTV
2012-12-21T16:41:10Z,Century Technology,Surges on,Transport CCTV
2012-12-21T16:41:19Z,New York Times Circulation Gains,Print,Losses
2012-12-21T16:44:31Z,CNPC Join Tethys Petroleum,in,Tajikistan Exploration
2012-12-21T16:48:38Z,Bloomberg,Sees,Threat
2012-12-21T16:49:37Z,Goldman Sachs Group,Selling,17 German Stores
2012-12-21T16:51:24Z,Republicans,Cancel,Tax Vote
2012-12-21T16:53:48Z,Madoff Investors Fail,in,Bid
2012-12-21T16:56:29Z,Republicans,Cancel Vote on,Taxes
2012-12-21T16:56:53Z,Vitol,Sell,Urals
2012-12-21T17:11:05Z,Schools,Look After,Connecticut Massacre
2012-12-21T17:15:17Z,Obama,Recalls,Senator Inouye ’s Fundamental Integrity
2012-12-21T17:36:45Z,Chile Peso,Extends,Weekly Drop
2012-12-21T17:38:12Z,Manulife Financial,Adds,CNO Ex-CEO Prieur
2012-12-21T17:40:15Z,Disney,Wins,U.S. Appeals Court Ruling
2012-12-21T17:41:38Z,NFL ’s Bills,Reach Stadium Deal to,Stay
2012-12-21T17:44:49Z,Century,in,Making
2012-12-21T17:44:49Z,Dollar Stores ’ Rise,Was Than,More Century in Making
2012-12-21T17:45:37Z,Malaga,Gets,Ban
2012-12-21T17:45:40Z,Expedia Buying Stake,in,Travel Site Trivago
2012-12-21T17:51:21Z,117 Rioters,in,Looting
2012-12-21T17:51:21Z,Argentine Police,Arrest,117 Rioters in Looting
2012-12-21T17:51:21Z,Police,Arrest,117 Rioters in Looting
2012-12-21T17:54:13Z,Stake,in,New York
2012-12-21T17:54:13Z,TIAA-CREF,Buys,Stake in New York
2012-12-21T17:56:12Z,Diesel,Rises,Mercuria Buys
2012-12-21T17:59:20Z,Lawmakers,Approve,Ponta Cabinet
2012-12-21T17:59:20Z,Romanian Lawmakers,Approve,Ponta Cabinet
2012-12-21T18:10:58Z,Citigroup Top Lobbyist,Turns Christmas-Tree Seller for,Holidays
2012-12-21T18:21:10Z,South Africa Gold Miners,With,Silicosis File Class-Action Motion
2012-12-21T18:48:33Z,Daily Gun Slaughter,Obscured by,Newtown Rampage
2012-12-21T19:03:32Z,Surplus Rose,in,November
2012-12-21T19:05:49Z,Saudi Arabia 's Oil Minister Naimi,Says,Supply Matches Dem
2012-12-21T19:08:00Z,Challenge Apple,to,IPad
2012-12-21T19:17:03Z,London Heathrow Link,Stays Shut by,Fire
2012-12-21T19:29:42Z,Argentina ’s Economy,Grew From,Year Ago
2012-12-21T19:45:53Z,JPMorgan,Promotes Owen to,Community Banking
2012-12-21T19:56:26Z,Obama,Turns Time to,Traveler Kerry
2012-12-21T19:59:32Z,Florida Debt-Relief Firm Penalized,in,First CFPB-State Sanction
2012-12-21T20:00:04Z,Feedlots,Buy Cattle on,Supply as Feed Costs Gain
2012-12-21T20:18:53Z,Kids,in,Obesity Crisis
2012-12-21T20:22:52Z,Regulator,Share,Cyber Attack Information
2012-12-21T20:32:36Z,Peltz ’s Trian,Raises Million for,Second Fund
2012-12-21T20:33:43Z,EBay,Slips,Into Physical Stores
2012-12-21T20:34:46Z,Senate,Clears,Billion Defense Measure
2012-12-21T20:45:16Z,QE,Multiplied by,Five Fuels
2012-12-21T20:53:42Z,Diane von Furstenberg,Wins,Bid
2012-12-21T21:00:00Z,Burberry,Manages,Talent
2012-12-21T21:04:35Z,Alexza,Wins,U.S. Approval for Drug
2012-12-21T21:08:18Z,China Vanadium Parent,Makes,Buyout Bid
2012-12-21T21:09:24Z,Impasse,in,U.S. Budget Talks Signals Haven Demand
2012-12-21T21:09:39Z,Oil Drops First Time,in,Six Days on Fiscal Concern
2012-12-21T21:12:35Z,Lawyers,in,$ 20 Million Facebook Accord
2012-12-21T21:12:43Z,Stocks,Drop on,U.S. Budget Concerns
2012-12-21T21:15:16Z,Pinnacle,Buy,Ameristar Casinos
2012-12-21T21:17:59Z,GE,Buys,Avio ’s Aviation Parts Business
2012-12-21T21:18:25Z,NPS Gattex,Wins,Approval
2012-12-21T21:27:40Z,Democrats,in,Congress
2012-12-21T21:30:19Z,Americans,Look,Spending Rises
2012-12-21T21:32:48Z,Rupee,Leads,Weekly Asian Currencies Drop
2012-12-21T21:34:30Z,Herbalife Bulls,Take After,Pyramid Claim
2012-12-21T21:34:41Z,Red Hat,Rises as,Sales Beat Estimates
2012-12-21T21:36:53Z,House Republicans,Cancel,Vote
2012-12-21T21:51:39Z,WMC Mortgage,Sued in,N.Y. Court
2012-12-21T21:53:48Z,China,With,Review of Chicken
2012-12-21T22:16:14Z,World ’s Wealthiest,Add,$ 15 Billion
2012-12-21T22:30:49Z,Gardner Denver,Explore,Sale
2012-12-21T22:30:49Z,Talks,With,SPX End
2012-12-21T22:32:30Z,Men,Supporting,Terror Group Al-Shabaab
2012-12-21T22:32:30Z,Three Men,Supporting,Terror Group Al-Shabaab
2012-12-21T22:45:17Z,Brady,Says,Congress Unlikely
2012-12-21T22:45:17Z,Congress Unlikely,Avoid,Fiscal Cliff
2012-12-21T22:45:35Z,Emerging Stocks,Drop,Most in Six Weeks
2012-12-21T22:45:35Z,Stocks,Drop,Most in Six Weeks
2012-12-21T23:20:15Z,IMF,Urges,France
2012-12-21T23:20:17Z,AMR Regional Airline Unit ’s New Labor Contracts,Win,Approval
2012-12-21T23:21:30Z,Vornado,Buys,Majority
2012-12-21T23:31:32Z,Tanker,Carrying Bakken Oil to,Canadian Refinery
2012-12-21T23:42:42Z,Las Vegas CityCenter Condos,Sell in,Bulk
2012-12-21T23:55:17Z,Manchin NRA A-Rating,Gives,Cover
2012-12-21T23:55:48Z,BOJ,Adds,Stimulus
2012-12-21T23:56:07Z,Feasible Ways Obama,Can Work on,Climate Change
2012-12-21T23:56:07Z,Four Feasible Ways Obama,Can Work on,Climate Change
2012-12-21T23:58:27Z,Challenge,Tossed by,U.S. Judge
2012-12-21T23:58:27Z,Legal Challenge,Tossed by,U.S. Judge
2012-12-22T05:00:02Z,Hagel,Apologizes for,Aggressively Gay ’ Envoy
2012-12-22T05:00:25Z,Massachusetts,Sees,Third Senate Race
2012-12-22T05:01:00Z,Dickens ’s Revamped London Home,Reopens for,Christmas
2012-12-22T05:01:00Z,Dodd-Frank Swap Rules,Delayed,Six Months for Overseas Trades
2012-12-22T05:01:00Z,Kidnapped Conductor,Still Missing in,Mexico
2012-12-22T05:01:00Z,Polk ’s Lust,With,Mexico
2012-12-22T05:01:00Z,Time Warner Cable,Said to,Bid for Bresnan Business
2012-12-22T05:01:00Z,Wind Power Generation Beating Natural Gas,in,2012
2012-12-22T16:11:59Z,Fight,Laws After,Newtown
2012-12-22T22:32:57Z,Congress,Prevent,Tax Increase
2012-12-22T22:32:57Z,Obama,Prods,Congress
2012-12-24T16:29:27Z,You,Do Call,Most
