2012-01-29T05:00:00Z,Houston Rockets Defeat Knicks 97-84,in,Past 10 Games
2012-01-29T05:00:00Z,Penguins Captain Sidney Crosby,Suffered,Neck Injury
2012-01-29T05:00:00Z,Phil Emery,Join,NFL ’s Chicago Bears
2012-01-29T06:47:47Z,20 %,in,March
2012-01-29T07:40:53Z,Investors,in,Talks
2012-01-29T08:50:38Z,Exploration Rights Deal,in,Kurdistan
2012-01-29T08:50:38Z,Total,Nears,Exploration Rights Deal in Kurdistan
2012-01-29T09:09:12Z,Cambridge College Invests,in,Tesco Stores
2012-01-29T09:16:11Z,Saudi Cement,Rises Since,2008 on Dividend Payments
2012-01-29T09:43:46Z,JSE,in,Talks
2012-01-29T10:04:51Z,Rafael Nadal,Wins,First Set Against Djokovic
2012-01-29T10:38:04Z,GlaxoSmithKline Seeking Acquisition,in,Turkey
2012-01-29T10:45:15Z,Egyptian Protest Groups,Call for,Elections Registration
2012-01-29T10:45:15Z,Protest Groups,Call for,Earlier Elections Registration
2012-01-29T11:14:28Z,Djokovic,Wins,Second
2012-01-29T11:27:49Z,Wegelin Owners,Get,Der Sonntag
2012-01-29T11:57:21Z,Djokovic,Leads,Nadal Two Sets
2012-01-29T12:28:10Z,Jordan May,Become,Sonntag Reports
2012-01-29T12:30:33Z,RBS ’s Hester May,Get,8 Million Pounds Bonus
2012-01-29T12:33:15Z,Manchester City,Rejects,Liverpool Approach
2012-01-29T12:56:57Z,Oman Cement,Development in,Qatar
2012-01-29T12:56:57Z,United Development,in,Qatar
2012-01-29T13:04:37Z,Rank Group,in,Talks Buy
2012-01-29T13:04:37Z,Talks,in Group,Times
2012-01-29T13:11:30Z,U.K. Defense Ministry,Explores,Estate Deal
2012-01-29T13:15:29Z,RBS,for,Marriott Hotels
2012-01-29T13:21:22Z,Partner,Drop on,Competition Concern
2012-01-29T13:25:55Z,QInvest,Acquires,30.5 % of Al Nakheel Agriculture
2012-01-29T13:29:57Z,Nadal,Draws With,Djokovic
2012-01-29T13:33:59Z,Hawker Beechcraft,Says,Mideast Sales
2012-01-29T13:33:59Z,Mideast Sales,Boosted by,Governments
2012-01-29T13:33:59Z,Sales,Boosted by,Governments
2012-01-29T13:35:13Z,Itau,Considers,U.S. Acquisitions
2012-01-29T13:39:20Z,Cut 2011 Bonuses,to Banks,JDD Reports
2012-01-29T13:58:11Z,Deliver,Final Arguments in,Florida
2012-01-29T13:58:11Z,Final Arguments,in,Florida
2012-01-29T13:58:11Z,Gingrich,Deliver,Arguments in Florida
2012-01-29T14:43:31Z,Hoefl-Riesch,Takes Super-Combined in,St. Moritz
2012-01-29T14:45:16Z,Egyptian Stocks,Rise to,Four-Month High
2012-01-29T14:45:16Z,Stocks,Rise to,Four-Month High
2012-01-29T15:23:45Z,Middlesbrough,in,F.A. Cup Fourth Round
2012-01-29T15:23:45Z,Sunderland,Is Held by,Middlesbrough in F.A. Cup Fourth Round
2012-01-29T15:50:08Z,Dividends,in,2013
2012-01-29T15:50:08Z,Ryanair Plans Buybacks,Dividends in,2013
2012-01-29T15:53:03Z,Gingrich May,Win,One
2012-01-29T16:00:00Z,Solar Outlook,Boosts,New York Index
2012-01-29T16:38:22Z,African Union,Increased,Intra-Regional Trade
2012-01-29T16:39:53Z,Papademos,Wins,Backing of Political Party Leaders
2012-01-29T16:42:03Z,German Presidential Office Raided,in,Probe of Former Spokesman
2012-01-29T17:07:43Z,Exports,Grow in,2012
2012-01-29T17:07:43Z,German Exports,Grow in,2012
2012-01-29T17:20:14Z,Hester,Turn,Down RBS Bonus
2012-01-29T17:26:54Z,ABB,Nears,Billion Purchase
2012-01-29T17:36:03Z,Qatar National Bank,Finish Denizbank Purchase in,2012
2012-01-29T18:12:05Z,Djokovic Outduels Nadal,in,Longest Final
2012-01-29T22:07:46Z,Tiger Woods Fades,in,Final Round
2012-01-29T22:19:54Z,N.Y. Philharmonic Musicians ’ Agreement,Sees Raise for,2012
2012-01-29T22:23:10Z,Robert V. Lindsay,Brother at,J.P. Morgan
2012-01-29T23:01:00Z,AC Milan,Keep Pace With,Juventus
2012-01-29T23:01:00Z,Davos Signals Confidence,in,Franc Cap
2012-01-29T23:01:00Z,Madrid,Extends,Lead
2012-01-29T23:23:01Z,U.S. GDP,Trails,Forecast
2012-01-29T23:35:20Z,EU1 .1 Billion Rights Offer,in,Merger Plan
2012-01-29T23:35:20Z,Unipol,Approves,EU1 .1 Billion Rights Offer in Merger Plan
2012-01-29T23:40:02Z,Euro Falls Versus Dollar,in,Brussels on Crisis
2012-01-29T23:46:48Z,South Korea Current-Account,Surplus Narrows to,3-Month Low
2012-01-30T00:00:01Z,Arsenal Rallies,in,Fourth Round of F.A. Cup Soccer
2012-01-30T04:53:11Z,VietJet Budget Flights,Lure,Travelers From Bus
2012-01-30T05:00:07Z,Neeson ’s Grey ’ Tops Box Office,in,Sales
2012-01-30T07:23:21Z,Standard Chartered,Sees,Hyperinflation Risk for Hong Kong
2012-01-30T08:02:45Z,China,Preserves Ammunition as,PBOC Bucks Reserve-Ratio Forecasts
2012-01-30T12:21:20Z,Debt Talks Risk,Derailing,EU Summit
2012-01-30T12:21:20Z,Greek Debt Talks Risk,Derailing,EU Summit
2012-01-30T13:00:08Z,Needs Florida,Save,Campaign
2012-01-30T13:00:08Z,Needs Strong Florida,Save,Campaign
2012-01-30T17:02:00Z,Assad ’s Security Forces Battle,in,Damascus Suburbs
2012-01-30T17:05:22Z,RBS Chief,Waives Bonus After,Labour Seeks Parliamentary Vote
2012-01-30T17:22:36Z,Sandberg Shares,With,Bossy Girls
2012-01-30T23:04:09Z,Hedge Funds,Lift,Bets
