2012-01-21T00:01:00Z,EU May Include Asset-Backed Securities,in,Revised Bank Liquidity Rules
2012-01-21T00:42:14Z,CFTC Position Limits Rule Lawsuit,Dismissed by,U.S. Appeals Court
2012-01-21T00:42:14Z,U.S. Appeals Court,in,D.C.
2012-01-21T00:50:55Z,Germany ’s Westerwelle,Urges,Iran
2012-01-21T00:50:55Z,Iran,Begin,Dialogue
2012-01-21T03:31:05Z,Nippon Steel May Post 40 % Drop,in,Pretax Profit
2012-01-21T05:00:01Z,Treasuries,Off to,Worst Start
2012-01-21T05:00:11Z,Euro Gains,in,Seven Weeks as Region ’s Borrowing Costs Fall
2012-01-21T05:00:11Z,Region,as,Borrowing Costs Fall
2012-01-21T05:01:00Z,Adjustments,in,U.S. Baseball
2012-01-21T05:01:00Z,Texas Rangers Pitcher Yu Darvish,Prepares for,Adjustments
2012-01-21T05:02:03Z,Copper Imports,in,December on Demand Outlook
2012-01-21T05:03:34Z,Miami Dolphins,Hire,Packers Assistant Joe Philbin
2012-01-21T05:03:47Z,Vietnam Inflation,Slows to,17.27 %
2012-01-21T05:14:55Z,Global Growth Signs,Spur,Risk Demand
2012-01-21T05:14:55Z,Growth Signs,Spur,Risk Demand
2012-01-21T05:14:55Z,Loonie,Gains,Week
2012-01-21T07:00:00Z,Borrowing Costs Fall,as Slide,Spanish Auctions
2012-01-21T07:00:01Z,Gilts,Drop as,France
2012-01-21T07:00:01Z,Spain,Sell,Debt
2012-01-21T08:31:01Z,France,Considers,Financial Times Reports
2012-01-21T08:52:53Z,Bundesbank ’s Nagel,Tells,Sueddeutsche ECB 3-Year Demand May Fall
2012-01-21T08:57:14Z,National Football League May,Lure,Record Viewers
2012-01-21T09:56:20Z,Talks,With,Karzai
2012-01-21T10:30:18Z,Polish Central Bank,Give,IMF Loan
2012-01-21T10:51:51Z,Nigeria,in,Delta Region
2012-01-21T10:51:51Z,US Citizen Kidnapped,in,Nigeria ’s Delta Region
2012-01-21T11:09:43Z,French Journalist,Was Killed by,Syrian Rebels
2012-01-21T11:09:43Z,Journalist,Was Killed by,Le Figaro
2012-01-21T11:24:17Z,Reynders,Tells,De Standaard
2012-01-21T11:31:57Z,Hawkin,’s Rescued,Times Reports
2012-01-21T11:38:34Z,Bond Loss Talk,Would,Would Fatal
2012-01-21T11:38:34Z,Noonan,Tells,Sueddeutsche
2012-01-21T11:38:34Z,Sueddeutsche,Would,Would Fatal
2012-01-21T12:23:09Z,Azerbaijan Originated,in,Iran
2012-01-21T12:32:35Z,Russia,Needs,One Month
2012-01-21T12:44:21Z,Egypt Brotherhood Bloc,Wins,Most Seats
2012-01-21T12:44:21Z,Egypt Muslim Brotherhood Bloc,Wins,Most Seats
2012-01-21T12:48:54Z,Cameron,Discusses on,EU Single Market
2012-01-21T13:03:06Z,Fuel,Spotted in,Waters
2012-01-21T13:03:06Z,Light Fuel,Spotted in,Waters
2012-01-21T13:24:13Z,Yemeni Parliament,Passes,Immunity Law
2012-01-21T13:42:54Z,Sarkozy,Would Lose,57 % -43 %
2012-01-21T14:08:21Z,London Moves Into Empty Office Building,in,London City
2012-01-21T14:37:42Z,Rick Santorum,Is Winner of,Iowa Caucuses
2012-01-21T14:38:03Z,Worley,Takes,Women ’s Giant Slalom
2012-01-21T14:54:25Z,Etihad Etisalat,Rises on,Earnings
2012-01-21T15:02:16Z,Polish Treasury,Cancels,Ciech Adviser Tender
2012-01-21T15:25:18Z,Commission,Sticks After,France Objects
2012-01-21T15:25:18Z,European Commission,Sticks After,France Objects
2012-01-21T15:31:37Z,Visit Libya,to Minister,Ansa
2012-01-21T15:37:03Z,Essar Group,Seeks Million Refund From,WSJ Reports
2012-01-21T16:16:20Z,Schaeuble,Sees Trust Returning to,Euro Markets
2012-01-21T16:56:06Z,Purchase 4.9 % Stake,in,Godrej Consumer
2012-01-21T16:56:06Z,Temasek,Agrees to,Purchase Stake in Godrej Consumer
2012-01-21T17:13:00Z,Allendale,Says on,Argentina Rain
2012-01-21T18:39:16Z,Egypt Brotherhood Bloc,Wins,Most Seats
2012-01-21T18:39:16Z,Egypt Muslim Brotherhood Bloc,Wins,Most Seats
2012-01-21T20:04:56Z,QPR,End,Winless Run
2012-01-21T20:04:56Z,Winless Run,in,English Premier League
2012-01-21T20:43:50Z,Snowfall,in,New York City Area Amounts
2012-01-21T20:46:58Z,Munster,Earns,Seed for Quarterfinals
2012-01-21T20:46:58Z,Rugby,of,Heineken Cup
2012-01-21T22:00:01Z,Brotherhood,Takes,47 % of Seats
2012-01-21T22:00:01Z,Muslim Brotherhood,Takes,47 %
2012-01-21T22:10:06Z,Lebanese-British Al-Qaeda Chief Killed,in,Airstrike
2012-01-21T23:50:52Z,Utah Jazz ’s Favors,Throwing,Ball Into
2012-01-22T04:01:50Z,Rangers Beat Bruins 3-2,in,Overtime
2012-01-22T12:19:49Z,Hungarians Rally,in,Support of Orban Government
2012-01-22T14:11:17Z,Group,Kills,165
2012-01-22T14:11:17Z,Islamist Group,Kills,165
2012-01-22T14:11:17Z,Nigerian Group,Kills,165
2012-01-22T14:11:17Z,Nigerian Islamist Group,Kills,165
2012-01-22T20:54:41Z,Finns,Pick,Niinistoe
2012-01-23T05:00:18Z,Dimon,as,$ 23 Million Held Flat
2012-01-23T05:00:18Z,Gorman,Pay,Said
2012-01-23T05:00:18Z,Said,Be,25 % as Dimon ’s Million Held Flat
