2012-04-07T01:11:40Z,Chavez,Says,Saturday
2012-04-07T04:00:00Z,Employment Increase,Trails,Most-Pessimistic Forecasts
2012-04-07T04:00:07Z,DMS,Loses Challenge to,Billion Contract Held
2012-04-07T04:01:18Z,Rangers ’ Tortorella,Fined by,NHL
2012-04-07T04:01:26Z,First Weekly Rise,in,Month
2012-04-07T07:43:34Z,De Guindos,Tells FAZ Without,External Help
2012-04-07T07:43:34Z,Spain Will Manage,Tells FAZ Without,External Help
2012-04-07T08:06:52Z,Egypt Lead Kenyan Tea Buying,in,First 2 Months of Year
2012-04-07T08:06:52Z,Pakistan,Buying in,First 2 Months of Year
2012-04-07T09:34:48Z,Proglio,Tells,Figaro
2012-04-07T10:44:06Z,LBO France,Says Among,Contenders
2012-04-07T10:44:06Z,Le Figaro,Says Among,Contenders
2012-04-07T11:31:29Z,Pro-Putin Youth Group,Dissolve,It
2012-04-07T11:43:00Z,Yemen Loyalist Forces Deploy,in,Sana’a
2012-04-07T12:02:50Z,U.K. Property Agents,See,Telegraph Reports
2012-04-07T12:26:22Z,Shtokman,of,Natural Gas
2012-04-07T12:56:47Z,Celtic,Beats,Kilmarnock
2012-04-07T12:58:22Z,Omega Founder Robinson,in,Talks With FMG
2012-04-07T12:58:22Z,Talks,in Robinson,Telegraph Reports
2012-04-07T13:33:49Z,Swimmer,in,Thames
2012-04-07T14:06:23Z,Cambridge University,Beats Oxford University in,Boat Race
2012-04-07T14:53:32Z,Sarkozy,Condemns Offshore Oil Drilling Plans in,Mediterranean
2012-04-07T14:57:35Z,Outback Steakhouse Owner,Seeks,Million
2012-04-07T15:27:20Z,Staples,Nominates,Harvard President Drew Faust
2012-04-07T15:59:11Z,German Tax Office,in,Talks Buy
2012-04-07T16:28:40Z,Cambridge,Beats,Oxford
2012-04-07T16:28:40Z,Swimmer,Halts,London Boat Race
2012-04-07T18:39:09Z,Chelsea,Beats Wigan With,Injury-Time Goal in Premier League
2012-04-07T18:39:09Z,Injury-Time Goal,in,Premier League
2012-04-07T18:56:26Z,Leinster,Advance to,Heineken Cup Rugby Semifinals
2012-04-07T20:22:16Z,Juventus,Leads in,Italy
2012-04-07T21:10:47Z,Apollo,Agree on,Sweetened $ Offer
2012-04-07T23:19:11Z,Dufner,Gets,New Sponsorship Agreement
2012-04-08T10:31:24Z,India ’s Singh,Accepts,Zardari ’s Invitation
2012-04-08T16:56:56Z,Mickelson,Trails Hanson by,One Shot
2012-04-08T20:41:33Z,Tiger Woods,Finishes,Worst Masters
