2012-04-01T00:36:44Z,Kentucky,Reach,NCAA Championship Game
2012-04-01T00:43:53Z,Weakness,in,Global Demand
2012-04-01T04:00:00Z,Sjodin Share Kraft Nabisco Golf,Going,Into Final Round
2012-04-01T04:01:00Z,Sheikh ’s Monterosso,Wins,World ’s Richest Horse Race
2012-04-01T04:01:09Z,Employment,Kept,Growing
2012-04-01T04:05:27Z,Romney,Says,Wisconsin Win Will Knock Santorum
2012-04-01T04:58:23Z,Air India Banks,Approve,Billion Debt Revamp
2012-04-01T05:09:19Z,Japan ’s Azumi,Supports,Jim Yong Kim
2012-04-01T05:11:36Z,No. 1 Kentucky,Meets,Second-Seeded Kansas
2012-04-01T05:11:36Z,No. Kentucky,Meets,Kansas
2012-04-01T05:17:40Z,Peru CPI,Quickens to,Eight-Month High
2012-04-01T05:28:14Z,Gulf Navigation Full-Year Loss,Narrows,Expenses Decline
2012-04-01T05:38:55Z,New Zealand Regulators,File,Suit Against Hanover Directors
2012-04-01T06:56:16Z,Murdoch May,Step Down as,Sunday Telegraph
2012-04-01T07:03:38Z,Taiwan,Eases Curbs After,Crude Costs Rise
2012-04-01T07:07:43Z,Crude Oil,for Rice,Fars News
2012-04-01T07:07:43Z,Uruguay May Barter Rice,With,Iran
2012-04-01T07:13:42Z,6 %,in,Borrowing Costs
2012-04-01T07:18:40Z,Bahraini Shiite Group,Blames Government for,Death of Protester
2012-04-01T07:52:55Z,Retailer Aquascutum,Begins,Sale Process
2012-04-01T09:00:22Z,BAE,Closes Pension Plan for,New Employees
2012-04-01T09:30:31Z,Sodic,Heads for,Lowest Close
2012-04-01T09:58:40Z,JPMorgan,Leads,Group Bidding
2012-04-01T10:07:14Z,Iraq ’s Maliki,Invites Opponents,Meeting
2012-04-01T10:11:33Z,Hollande,Lead Over,Sarkozy
2012-04-01T10:38:23Z,Injure 33,in,Mombasa
2012-04-01T10:38:23Z,Kenya Grenade Attacks,Kill,Injure 33
2012-04-01T10:52:05Z,Monte Paschi,Sees,Potential
2012-04-01T11:15:14Z,Roche May,Abandon,its Bid
2012-04-01T11:16:36Z,$ 8 Billion,in,Savings
2012-04-01T11:47:38Z,South Africa,Growth,Higher
2012-04-01T11:54:34Z,South Africa ’s Deficit,Set,4.5 % for 2011-12
2012-04-01T11:54:34Z,South Africa ’s Fiscal Deficit,Set,4.5 % for 2011-12
2012-04-01T12:51:19Z,Iran,Says,Russia Relations
2012-04-01T12:51:19Z,Russia Relations,See Leap With,Putin at Kremlin
2012-04-01T12:52:10Z,Greens,in,Year
2012-04-01T12:52:10Z,Year,in,Weekly Poll
2012-04-01T12:55:40Z,Togo,Gets Million Loan for,Transport Project
2012-04-01T13:13:28Z,UBM Chairman,Independent on,Sunday
2012-04-01T13:27:03Z,PFI Stake,Independent on,Sunday Reports
2012-04-01T13:34:44Z,Jordan,in,CEGCO
2012-04-01T13:34:44Z,Saudi Arabia ’s ACWA Power Increases Stake,in,Jordan ’s CEGCO
2012-04-01T13:41:41Z,IAG,Has Held,Talks
2012-04-01T13:41:41Z,Malaysian Airline,Mail on,Sunday
2012-04-01T14:01:00Z,Australia,to,Broadband Network
2012-04-01T14:01:00Z,Australian Budget Surplus,Gives,Swan
2012-04-01T14:01:00Z,Budget Surplus,Gives,Rate Cut Flexibility
2012-04-01T14:01:00Z,Projects,Related to,Australia ’s Broadband Network
2012-04-01T14:06:38Z,Anglo American,Sell,Scaw Metals Unit
2012-04-01T14:25:42Z,Liverpool 2-0,in,Soccer ’s Premier League
2012-04-01T14:25:42Z,Newcastle,Defeats,Liverpool 2-0
2012-04-01T14:25:42Z,Soccer,in,Premier League
2012-04-01T14:47:08Z,Equity Firms,May Create,Food Company
2012-04-01T14:47:08Z,Private Equity Firms,May Create,Food Company
2012-04-01T15:01:17Z,Murder Wave,Swamps,New Orleans
2012-04-01T15:10:08Z,Olesen,Holds Off,Challenge
2012-04-01T15:18:24Z,Petrobras,in,Talks
2012-04-01T15:41:38Z,Hamas,Approves Million Budget in,Gaza
2012-04-01T16:00:01Z,China,Bans,Mircoblog Comment
2012-04-01T16:30:00Z,Starbucks,Heads for,China Cities
2012-04-01T16:55:02Z,Swansea,End,Run
2012-04-01T17:01:00Z,Central Bank Curbs,Take,Effect
2012-04-01T17:01:00Z,Lending,in,Indonesia
2012-04-01T17:10:26Z,Suspected Sect Members,in,Nigeria
2012-04-01T17:36:45Z,MTN ’s Former CEO Nhleko,Says,Iran Bribery Allegations Untrue
2012-04-01T18:00:00Z,PetroChina,’s Exxon,Rosneft
2012-04-01T18:25:15Z,Delegates,’,Week
2012-04-01T18:30:01Z,General ’s Bribe Bombshell,Adds to,India Leadership Disarray
2012-04-01T18:38:35Z,Roche,Looks Forward to,to Swift Completion
2012-04-01T20:13:23Z,NBA,Between,Top Two Teams
2012-04-01T20:37:33Z,Libya Names Military Governor,in,Conflict-Ravaged South
2012-04-01T21:03:21Z,Clinton,Builds,Gulf Military Ties
2012-04-01T22:00:00Z,Exports,Rising on,Indonesia Ban
2012-04-01T22:00:00Z,Nickel-Ore Exports,Rising on,Indonesia Ban
2012-04-01T22:00:23Z,New Reading Teachers,Should Pass,Reading Test
2012-04-01T22:00:34Z,Euro,Was Flawed at,Birth
2012-04-01T22:00:59Z,Money-Market Funds,Should Kick,Their Buck-a-Share Habit
2012-04-01T22:01:00Z,Goldman,HSBC for,Jose Cuervo Talks
2012-04-01T22:01:00Z,Greek Crisis Spurs War,in,Gifts
2012-04-01T22:01:10Z,Fed,Are Keeping,Wall Street ’s Secrets
2012-04-01T22:01:10Z,SEC,Are Keeping,Wall Street ’s Secrets
2012-04-01T22:54:15Z,Virtual Wallets,in,Venture
2012-04-01T23:00:00Z,Deloitte Survey,Says on,Economy
2012-04-01T23:00:01Z,Bats,Pushes,New Markets
2012-04-01T23:00:01Z,It,Reviews,IPO
2012-04-01T23:00:01Z,London,at,Antunes Restaurant
2012-04-01T23:00:01Z,Votorantim,Joining,Camargo
2012-04-01T23:00:02Z,Newcastle,Has Victory in,League
2012-04-01T23:00:02Z,Spurs End 5-Match Winless Run,Has Victory in,League
2012-04-01T23:01:00Z,U.K. Home Prices,Underpinned by,Tax-Holiday Rush
2012-04-01T23:01:01Z,Britons Say Government,Has,Lost Touch
2012-04-01T23:31:19Z,1.6 %,in,One Week
2012-04-02T02:17:36Z,S. Korean Inflation Moderates,in,20 Months
2012-04-02T03:36:42Z,Japan Tankan,Stagnates as,Threat
2012-04-02T04:00:15Z,Novak Djokovic,Beats,Murray
2012-04-02T06:13:00Z,Suu Kyi ’s Party,Declares,Landslide
2012-04-02T07:29:28Z,China Economy,Boosts,Outlook
2012-04-02T07:29:28Z,Oil,Rises,Day
2012-04-02T09:02:56Z,Euro Leaders,Seek Help After,Firewall Boosted
2012-04-02T09:55:29Z,Indonesia,Stalls on,Fuel Policy
2012-04-02T09:55:29Z,Yudhoyono ’s Support,Slips,Indonesia Stalls
2012-04-02T10:57:25Z,Portugal,of,Cimpor
2012-04-02T11:03:16Z,Inter,Gets,Win
2012-04-02T12:03:13Z,New York,March as,Record Month Ends
2012-04-02T12:31:27Z,Spain ’s Technology Startups,Get,Second Wind
2012-04-02T12:58:52Z,Romanee-Conti,Tops,Million Sellout Auction
2012-04-02T15:56:33Z,Goldman,Goes,Neutral
2012-04-02T17:34:37Z,Egypt ’s Secularists,Criticize,Brotherhood Presidency Run
