2012-05-29T01:00:00Z,Australian New-Home Sales,Surge Most,6.9 %
2012-05-29T01:00:00Z,New-Home Sales,Surge,6.9 %
2012-05-29T02:05:36Z,Renesas Shares Extend Two-Day Drop,Fall to,Record
2012-05-29T02:21:03Z,Libya,’s Output,IOD
2012-05-29T03:00:01Z,Manabi Seeks Batista Gains,in,Bear-Market IPO
2012-05-29T03:21:51Z,KMT,on,Tax Proposal
2012-05-29T03:21:51Z,Shares,Climb,Most in Four Weeks on KMT ’s Tax Proposal
2012-05-29T03:21:51Z,Taiwanese Shares,Climb,Most
2012-05-29T03:28:05Z,Asia Currencies Decline,Led by,Ringgit
2012-05-29T03:56:07Z,Saigon Petroleum,Buy,Fuel
2012-05-29T04:00:01Z,Banana Republic,With,Mad Men
2012-05-29T04:00:01Z,Best Quarter,With,Banana Republic ’s Mad Men
2012-05-29T04:00:22Z,Republican Differences,With,Hill Consultation
2012-05-29T04:00:22Z,Romney,Finesses,Republican Differences With Hill Consultation
2012-05-29T04:00:29Z,Obama,Pick for,Nuclear Safety Cop Seen Shunning Confrontation
2012-05-29T04:01:00Z,AT&T Chief,Fills,GOP Accounts
2012-05-29T04:01:00Z,BBB Borrowing Cost,Nearing,2008 Low
2012-05-29T04:01:00Z,California Workers,Get Pay Bump as,Even Brown Seeks Cuts
2012-05-29T04:01:00Z,Democrats,Hit,His
2012-05-29T04:01:00Z,Norman Mailer Chomps Rip Torn,’s Ear,Runs for Mayor
2012-05-29T04:01:00Z,Norman Mailer Chomps Rip Torn ’s Ear,Runs for,Mayor
2012-05-29T04:01:00Z,Picasso,Paints,His Mistress
2012-05-29T04:01:00Z,Playboy,Meets,Elvis
2012-05-29T04:01:01Z,Inventory,Raises,Prospect of Writedown
2012-05-29T04:45:21Z,Hong Kong Short Selling Turnover,Recorded,05/29/201
2012-05-29T04:45:57Z,MRSK May,Be,Handed
2012-05-29T05:11:21Z,James,Open,Conference Finals
2012-05-29T05:32:40Z,Kim Dotcom,Can,Return to Luxury Mansion
2012-05-29T05:45:20Z,Endemol,Considers,Merger
2012-05-29T05:45:20Z,John de Mol,’s Talpa,Dagblad
2012-05-29T06:00:00Z,FIX,Publishes,European Standards
2012-05-29T06:00:06Z,Allianz,With,Euler Hermes Unit
2012-05-29T06:13:40Z,Germany,’s Voters,Handelsblatt
2012-05-29T06:22:11Z,Uganda ’s Social Security Fund,Erases,Most of Year-Earlier Loss
2012-05-29T06:26:49Z,Shareholders,in,Suit
2012-05-29T06:26:49Z,Vestas Nears Deal,With,Shareholders in Suit
2012-05-29T06:55:23Z,Religious Bias,in,Turkey
2012-05-29T06:55:23Z,Toyota,Denies,Reports
2012-05-29T07:05:18Z,Company Bond Risk Falls,in,Europe
2012-05-29T07:08:03Z,Buying Turkey,in,Ontas Oner
2012-05-29T07:08:03Z,Silgan Interested,in,Buying Turkey ’s Ontas Oner
2012-05-29T07:09:58Z,10-Year Yield,Rises to,1.76 %
2012-05-29T07:09:58Z,Treasuries Fall,Rises to,1.76 %
2012-05-29T07:09:58Z,Yield,Rises,Two Basis Points
2012-05-29T07:15:27Z,8 Billion Yen Loan,With,Four Banks
2012-05-29T07:15:46Z,Parties,Agree to,Limit Referendum
2012-05-29T07:15:46Z,Slovenian Parties,Agree to,Limit Referendum
2012-05-29T07:21:59Z,Jolie,Backs,U.K. Campaign Against Sexual Violence
2012-05-29T07:27:25Z,Sweden Consumer Confidence,Rises After,Rate Cuts
2012-05-29T07:27:39Z,Bank Lending Stress,Holds Near,Low
2012-05-29T07:30:00Z,Tate,Receives Gift by,Hockney
2012-05-29T07:31:31Z,Chinese Sugar Smuggling Seen,Declining by,Two-Thirds Q2
2012-05-29T07:31:31Z,Sugar Smuggling Seen,Declining by,Two-Thirds
2012-05-29T07:31:31Z,Two-Thirds,in,Q2
2012-05-29T07:35:55Z,Alstom,Takes,Legal Action
2012-05-29T07:35:55Z,Rafako Engineering,Extends,Losses
2012-05-29T07:54:34Z,Vietnam 's Bonds,Advance on,Surplus Funds
2012-05-29T07:56:47Z,Commerzbank,Sees,Renewable Energy Financing Threat
2012-05-29T08:00:15Z,Increases Akbank Weight,in,Global Indexes
2012-05-29T08:00:15Z,MSCI,Says,Increases Akbank Weight From May 31
2012-05-29T08:01:26Z,VIG,Rebound From,Five-Month Low
2012-05-29T08:20:18Z,Petronet,at,Terminal in West India
2012-05-29T08:20:18Z,Petronet ’s Terminal,in,West India
2012-05-29T08:27:17Z,Asia Currencies Decline,Led by,Rupiah
2012-05-29T08:32:28Z,Portugal ’s Asset Sales,Draw,Bids
2012-05-29T08:33:29Z,Korea Gas First-Quarter Profit,Rises Amid,Higher Financial Costs
2012-05-29T08:35:30Z,Fukushima Radiation,in,Migrating Bluefin Tuna Expected
2012-05-29T08:38:12Z,Samsung,Starts,ITunes Rival
2012-05-29T08:48:32Z,Gold,Set for,Worst Run
2012-05-29T08:50:41Z,China Investment Appeal,Adds to,Wen ’s Challenge
2012-05-29T08:50:41Z,Wen,to,Challenge
2012-05-29T08:53:19Z,Air,Cancels,104 Flights
2012-05-29T08:53:19Z,Turkish Air,Cancels,104 Flights
2012-05-29T09:00:00Z,Italy Pension Spending Rose,in,2011
2012-05-29T09:01:26Z,Rubber,Climbs as,China Stimulus Hope Outweighs European Concerns
2012-05-29T09:06:39Z,OTP,Loses,Lawsuit
2012-05-29T09:12:33Z,American Companies,Beating Europe to,First Commercial CCS Plant
2012-05-29T09:12:33Z,Companies,Beating Europe to,First Commercial CCS Plant
2012-05-29T09:31:32Z,Infinia,in,Cyprus
2012-05-29T09:40:43Z,Treasuries,Head for,Monthly Gain on Euro Debt Crisis
2012-05-29T09:44:44Z,Iran ’s Mehmanparast,Says to,Fail
2012-05-29T09:45:15Z,Avoca Capital,Hires,Freeman ’s Hatchley
2012-05-29T09:54:15Z,German 10-Year Bunds Rise,Falls to,Record Low
2012-05-29T09:56:40Z,SP Setia Eyeing Other London Sites,in,Case Battersea Bid
2012-05-29T09:56:47Z,15 %,in,First Half of June
2012-05-29T09:57:56Z,Sweden ’s Borg Will,Be,Very Happy
2012-05-29T09:59:49Z,Depression,Heads Northward With,30 MPH Winds
2012-05-29T09:59:49Z,Tropical Depression,Heads With,30 MPH Winds
2012-05-29T10:00:00Z,Danish House Prices,Will Fall Through,2013
2012-05-29T10:00:00Z,House Prices,Will Fall Through,2013
2012-05-29T10:00:00Z,U.K. Retail-Sales Index,Highest in,13 Months
2012-05-29T10:03:14Z,China Unicom,Pass 2G as,Largest Revenue Source
2012-05-29T10:06:01Z,Spokesman,Sees,Debt Sales
2012-05-29T10:14:30Z,UN,to,Annan
2012-05-29T10:17:00Z,Mauritius,Feels Euro-Area Crisis Winds as,Trade Deficit Swells
2012-05-29T10:24:26Z,China ’s Stocks,Climb on,Stimulus Speculation
2012-05-29T10:24:42Z,Palm Oil,Highest in,Two Weeks
2012-05-29T10:42:19Z,Ex-Olympus CEO Woodford,Settles,Unfair-Firing Lawsuit
2012-05-29T10:50:20Z,7.6 %,in,September
2012-05-29T10:55:01Z,25 % Increase,in,Wage Talks
2012-05-29T10:55:54Z,Taiwan Finance Minister,Quits Over,Tax Plan
2012-05-29T11:02:45Z,Bankia Depositors Buying Bonds,Leave Spain on,Bailout Hook
2012-05-29T11:08:05Z,Foreign Investors,Buy,1.79 Billion Rupees
2012-05-29T11:11:48Z,Fed Funds Projected,Open at,0.13 ICAP Says
2012-05-29T11:18:33Z,Dollars,Raise,Foreign Exchange Reserves
2012-05-29T11:18:33Z,Turkey,Asks,Banks
2012-05-29T11:32:05Z,Defra ’s U.K. Biodiversity Report,Shows,Lower Bird Population
2012-05-29T11:48:45Z,Burundi Coffee Organization,Raises,Prices
2012-05-29T11:54:34Z,U.S. Envoy,Ignites Russia Controversy With,Bribe Accusation
2012-05-29T12:14:09Z,Crude Advances,in,New York
2012-05-29T12:17:00Z,$ 240 Million,in,First Sugar Mill
2012-05-29T12:17:00Z,Olam,Invest,Million
2012-05-29T12:19:32Z,Its Biggest Housing Project,in,St. Petersburg
2012-05-29T12:23:29Z,Dogan,Buy,2 Wind Power Plants
2012-05-29T12:29:34Z,South Africa GDP Growth,Slows,Mining Production Slumps
2012-05-29T12:31:23Z,HSBC,With Merger,Al Watan
2012-05-29T12:31:23Z,Oman Bank Merger,With,HSBC
2012-05-29T12:42:23Z,Wheat Drops,Boosts,Crop Outlook
2012-05-29T12:47:04Z,Bancolombia Board,Approves,Sale of 3 Trillion Pesos
2012-05-29T12:47:39Z,Tanzania,Says,Commodities Boom Will Cut Need
2012-05-29T12:47:49Z,MTN,Accelerates,Buyback
2012-05-29T13:00:20Z,Sandvik,Says,Greek Crisis Spreads Concern
2012-05-29T13:18:23Z,Heat May,Be,Concentrated
2012-05-29T13:31:54Z,Clemens Juror,Dismissed From,Ex-Pitcheer ’s Perjury Trial
2012-05-29T13:31:54Z,Ex-Pitcheer,From,Perjury Trial
2012-05-29T13:37:35Z,Kenyan Shilling,Weakens on,Month-End Demand
2012-05-29T13:37:35Z,Shilling,Weakens on,Month-End Demand
2012-05-29T13:45:32Z,AIDS-Blocking Protein Found,in,Blood of Carriers
2012-05-29T13:45:33Z,Spanish Futures Risk,Weighing on,Bonds
2012-05-29T13:45:38Z,Rand,Gains,2nd Day as Yields Rise
2012-05-29T13:55:44Z,Merkel Ally Rebuffs Rajoy,Call for,Aid
2012-05-29T13:55:44Z,Spain,for,Banks
2012-05-29T14:03:24Z,Home Prices,in,U.S. Fell
2012-05-29T14:03:24Z,Slower Pace,in,Year
2012-05-29T14:04:05Z,Saint-Gobain,Rebuffed by,Top U.S. Court
2012-05-29T14:07:27Z,Canadian Dollar,Fluctuates After,U.S. Consumer Confidence Falls
2012-05-29T14:07:27Z,Dollar,Fluctuates After,U.S. Consumer Confidence Falls
2012-05-29T14:07:51Z,Ibercaja Boards,Meet,Decide
2012-05-29T14:07:51Z,Liberbank,Meet,Decide
2012-05-29T14:11:06Z,Bonus Army,Marches on,Washington
2012-05-29T14:12:05Z,SouthGobi Resources,Sees,Coal Exports on New China Gates
2012-05-29T14:19:33Z,EU,’,Barnier Seeks Banking Union Manage
2012-05-29T14:26:48Z,Vatican Case,Raises,Questions
2012-05-29T14:30:30Z,China,in,2013
2012-05-29T14:30:30Z,Lead World ’s Online Retail Market,to China,Xinhua
2012-05-29T14:32:37Z,EDF,Seeks U.S. Gas Assets,Prices May Rise From 10-Year Low
2012-05-29T14:32:37Z,Prices,May Rise From,Low
2012-05-29T14:32:59Z,U.S. Expels Top Syrian Diplomat,in,Washington
2012-05-29T14:33:55Z,BP,Resumes,Exploration
2012-05-29T14:40:06Z,Lira,Yields,Fall on Bets Basci
2012-05-29T14:42:09Z,Iraq Seeks Oil Investors,in,Post-Saddam Exploration Offer
2012-05-29T14:43:00Z,Spanish Banks,in,Dire State
2012-05-29T14:43:21Z,Chevron May Use Solar,in,Oilfield Shared by Kuwait
2012-05-29T14:43:21Z,Oilfield,in Solar,Saudi
2012-05-29T14:50:19Z,Suits,Denied,U.S. High Court Review
2012-05-29T14:56:43Z,North Sea Forties Oil Cargo,Said,Deferred
2012-05-29T14:56:43Z,Third North Sea Forties Oil Cargo,Said,Deferred
2012-05-29T15:02:59Z,Apranga Retailer Sales,Grew,28 %
2012-05-29T15:02:59Z,Plans,Revise,Forecast
2012-05-29T15:09:45Z,Dogan Holding,Surges,Most in One Month
2012-05-29T15:09:53Z,California,in,Cymric Field
2012-05-29T15:09:53Z,Chevron Stops Oil,Leak in,California ’s Cymric Field
2012-05-29T15:09:53Z,Steam Leak,in,California ’s Cymric Field
2012-05-29T15:11:01Z,Deutsche Post State Aid Repayment,Set at,298 Million Euros
2012-05-29T15:15:51Z,Citigroup,Kills,Panel Overseeing Toxic-Asset Division
2012-05-29T15:20:38Z,Orange Juice,Jumps on,Florida Storm Speculation
2012-05-29T15:24:10Z,Impact Services,Sold Unit Before,Bankruptcy
2012-05-29T15:24:59Z,Impala Platinum Gross Refined Platinum Output,Fell,46 %
2012-05-29T15:26:31Z,Kodak Court Loss,Leaves for,Bondholders
2012-05-29T15:32:03Z,Rafael Nadal,Starts,French Open
2012-05-29T15:34:02Z,Bashneft Drops,Most Misses,Estimates
2012-05-29T15:34:02Z,Revenue,Misses,Estimates
2012-05-29T15:34:49Z,Magyar Telekom,Move in,Budapest Trade
2012-05-29T15:36:32Z,EU,as,Highest Rate Kept
2012-05-29T15:38:04Z,Pound,Approaches,3 1/2 Year High Versus Euro
2012-05-29T15:40:36Z,Wells,Bank of,Scotland
2012-05-29T15:42:20Z,Italy Quake,Kills,15 People
2012-05-29T15:43:29Z,Federal Grid,Decline on,Rosneftegaz Takeover Report
2012-05-29T15:48:05Z,GP,Buy,Utility
2012-05-29T15:53:26Z,Pimco,’s Bubble,Spain Bailout
2012-05-29T15:54:12Z,It,’ll Buy From,Barclays
2012-05-29T16:00:01Z,Aquino,Wins,Ouster of Top Judge
2012-05-29T16:05:59Z,EnQuest,in,North Sea Oilfields
2012-05-29T16:07:16Z,Euro Exit Aftershocks Risk,Reaching,China
2012-05-29T16:07:16Z,Greek Euro Exit Aftershocks Risk,Reaching,China
2012-05-29T16:08:26Z,Repsol Cuts Dividend,Raises After,YPF Loss
2012-05-29T16:08:26Z,Ruble,Depreciates for,Day
2012-05-29T16:08:50Z,2011,Behind,Pace in Crisis
2012-05-29T16:08:50Z,2011 ’s Pace,in,Crisis
2012-05-29T16:10:37Z,Libya Election Commissioner,Says,May Delay Parliamentary Vote
2012-05-29T16:26:40Z,Address Disability Plan,to,Shortfall
2012-05-29T16:26:40Z,Congress,Unwilling to,Address Disability Plan ’s Shortfall
2012-05-29T16:40:52Z,LNG Re-Export License,Expires on,May 31
2012-05-29T16:52:23Z,Bubka ’s Advice Spurs Azarenka,in,Women ’s Tennis
2012-05-29T16:52:23Z,Women,in,Tennis
2012-05-29T16:54:46Z,Two Weeks,in,Office
2012-05-29T17:10:00Z,Andritz,Offers Million for,Metal-Form Maker Schuler
2012-05-29T17:10:01Z,Chile ’s Pulp Maker,Says,Prices
2012-05-29T17:10:01Z,Chile ’s Top Pulp Maker,Says,Prices Rebounded
2012-05-29T17:10:01Z,Prices,Rebounded in,1st Quarter
2012-05-29T17:12:18Z,Sprint Nextel,Gets,Billion Loan
2012-05-29T17:20:06Z,ELA Funds,Jumped,ECB Data Show
2012-05-29T17:30:37Z,Cut Military,to,Alternative Fuels
2012-05-29T17:30:37Z,Republicans,Move to,Cut Military 's Alternative Fuels
2012-05-29T17:35:02Z,Anadarko Claims Act,in,Contract Case
2012-05-29T17:38:54Z,Feb. 21,in,N.Y.
2012-05-29T17:38:54Z,Palladium,Heads for,Biggest Gain
2012-05-29T17:44:09Z,Russia Party,Introduces,Kudrin Protest Bill
2012-05-29T18:42:22Z,Gref,Tells,Russia Today
2012-05-29T18:55:13Z,Colombia Peso Bond Yields,Hold at,One-Week Low on Growth Outlook
2012-05-29T18:57:44Z,Walker,Has Stronger Case In,Wisconsin ’s Jobs Debate
2012-05-29T18:57:44Z,Wisconsin,In,Jobs Debate
2012-05-29T19:00:00Z,Hitler Hashimoto,Comes to,Japan Fed
2012-05-29T19:00:01Z,Google Chromebook,Gets,Speeds
2012-05-29T19:03:07Z,Brazil ’s Electric Regulator,Proposes,Tariff Rise
2012-05-29T19:03:16Z,40 %,in,March
2012-05-29T19:10:09Z,Sberbank ’s Gref,Tells,TV
2012-05-29T19:13:45Z,Dry Weather,Reduce,U.S. Crop
2012-05-29T19:18:11Z,Constant Contact 's Goodman,Discusses,Pulse Survey
2012-05-29T19:18:11Z,Contact 's Goodman,Discusses,Pulse Survey
2012-05-29T19:22:10Z,Canadian Natural Gas,Slips on,Cooler-Than-Normal Weather Outlook
2012-05-29T19:45:08Z,Serena Williams Beaten,in,French Open First Round
2012-05-29T19:46:50Z,Obama,Frees,8 States
2012-05-29T19:53:38Z,IRS,Finds,One
2012-05-29T19:55:27Z,Anadarko,Settles Rig Dispute With,Noble
2012-05-29T19:59:31Z,Extra,Spending,Ahead of Election
2012-05-29T19:59:31Z,Spending,Ahead of,Election
2012-05-29T19:59:31Z,Venezuela Lawmakers,Approve,Extra
2012-05-29T19:59:43Z,Chinese Solar Shipments,May Drop,75 %
2012-05-29T19:59:43Z,Solar Shipments,May Drop,75 %
2012-05-29T20:07:05Z,Toyota Prius,Surge,Into Global Top Three
2012-05-29T20:12:45Z,CF Combo Data,Showing,Less Benefit
2012-05-29T20:12:45Z,Vertex,Revises,CF Combo Data
2012-05-29T20:12:54Z,BMO,Upgrade on,Platform Sales
2012-05-29T20:13:34Z,Consumer Confidence,in,U.S. Fell
2012-05-29T20:19:04Z,Oil,Erases,Advance
2012-05-29T20:23:17Z,Razzano Upsets Serena Williams,in,French Open Tennis
2012-05-29T20:23:35Z,Ethanol Drops,With,Corn Contract to Lowest Levels
2012-05-29T20:24:33Z,N.Y. Gasoline,Strengthens as,U.K. Refinery Expected
2012-05-29T20:30:40Z,Deal,Leading to,Member Resignation
2012-05-29T20:30:40Z,NLRB,Reached,Deal Leading to Member Resignation
2012-05-29T20:31:56Z,Credit Swaps,in,U.S. Fall on Signs
2012-05-29T20:31:56Z,Greece May Stay,in,Euro
2012-05-29T20:35:46Z,S&P,Rises on,Greece
2012-05-29T20:35:46Z,S&P 500,Rises as,Home Data Signal Stability
2012-05-29T20:42:29Z,Agreement,With,London Underground
2012-05-29T20:42:29Z,Transport Union,in,Agreement With London Underground on Olympics
2012-05-29T20:48:12Z,Comgas,Rises in,Sao Paulo
2012-05-29T20:49:28Z,Depression Beryl May,Pick Up Speed on,Way to Ocean
2012-05-29T20:49:28Z,Tropical Depression Beryl May,Pick Up,Speed
2012-05-29T20:49:31Z,Wheat,Open on,Crop Ratings
2012-05-29T21:08:13Z,Canada ’s Dollar,Heads for,Monthly Loss on Europe Wagers
2012-05-29T21:15:12Z,Close,in,Sao Paulo
2012-05-29T21:19:06Z,Greek Opinion Poll,Revise,Bailout Terms
2012-05-29T21:19:06Z,Opinion Poll,Revise,Bailout Terms
2012-05-29T21:21:58Z,SouFun,Leads,Rally
2012-05-29T21:27:39Z,Euro Declines Versus Dollar,Damps,Demand
2012-05-29T21:38:03Z,Dylan,Peres Among,Obama Medal of Freedom Picks
2012-05-29T21:41:47Z,U.S. Gulf Coast Oils,Strengthen to,WTI Steady
2012-05-29T21:42:53Z,Power,Surges in,New York
2012-05-29T21:42:53Z,Wholesale Power,Surges,Temperatures Soar
2012-05-29T21:54:54Z,MBIA Lawyer,Finishes,Opening Statement
2012-05-29T21:54:54Z,Opening Statement,in,New York Trial
2012-05-29T22:06:01Z,Dewey Files,Save,Firm
2012-05-29T22:09:16Z,FBI Arrest Files,in,New Zealand Court
2012-05-29T22:09:16Z,Kim Dotcom,Wins Access to,FBI Arrest Files in New Zealand Court
2012-05-29T22:09:16Z,Roy Oswalt Signs,With,Texas Rangers
2012-05-29T22:09:55Z,China,Boosts,Demand
2012-05-29T22:09:55Z,Emerging Stocks,Jump,Most
2012-05-29T22:09:55Z,Stocks,Jump,Most in Two Months
2012-05-29T22:20:37Z,Ex-IMI California Executive Pleads Guilty,in,Bribery Case
2012-05-29T22:27:02Z,Xstrata,Says,Peru Copper Deliveries Unaffected by Protest
2012-05-29T23:00:00Z,Euro Bonds,With,Strings
2012-05-29T23:00:00Z,McLaren F1 Developer Designs New Auto,Driving,100 MPH
2012-05-29T23:00:01Z,Krugman,Spender of,Last Resort
2012-05-29T23:00:01Z,Scissor Sisters,Sharpen,Neil Young Serenades Queen
2012-05-29T23:00:01Z,U.K. Government,Should,Should Spender of Last Resort
2012-05-29T23:00:01Z,Witkin ’s Surreal Fetishists,Lure,Parisians
2012-05-29T23:00:06Z,Serena Williams Exits French Open,With,Earliest Grand Slam Loss
2012-05-29T23:00:07Z,Hole,in,Romney ’s Resume
2012-05-29T23:00:07Z,Massachusetts,Is Hole in,Romney ’s Resume
2012-05-29T23:00:07Z,Romney,in,Resume
2012-05-29T23:00:08Z,3-D Gaming Technology,in,Grocer
2012-05-29T23:00:08Z,Ocado Tackles Tesco,With,3-D Gaming Technology in Grocer
2012-05-29T23:00:25Z,Cap-and-Punt,Is Way to,Cut Future Deficits
2012-05-29T23:00:28Z,A350,Helps,Boeing Plot 777
2012-05-29T23:01:00Z,Exit,Exposing,Deposit-Guaranty Flaws
2012-05-29T23:01:00Z,Greek Exit,Exposing,Deposit-Guaranty Flaws
2012-05-29T23:23:35Z,Ex-BP Engineer Mix ’s Travel Restrictions,Eased by,Judge
2012-05-29T23:28:00Z,United Continental,Sued by,Pilots
2012-05-30T02:51:41Z,Tata Motors Profit,Beats,Estimates
2012-05-30T04:01:00Z,Atlantic Broadband Cable Firm ’s Owners,Seek,Sale
2012-05-30T04:01:00Z,Phillies ’ Roy Halladay May Miss 6-8 Weeks,With,Strained Muscle
2012-05-30T04:01:01Z,Clemens Prosecutors,Rest,Perjury Case
2012-05-30T04:01:01Z,Dartmouth Endowment Letter,Prompts,New Hampshire Review
2012-05-30T06:30:17Z,Mall Brawl,Looms in,Australia
2012-05-30T07:48:25Z,Asean Backing Junk Debt,Lures,Prudential
2012-05-30T07:48:25Z,Backing Junk Debt,Lures,Prudential
2012-05-30T09:21:33Z,Mercedes Cuts Truck Production,in,Brazil
2012-05-30T10:57:12Z,Majority Want,Revised,Terms
2012-05-30T11:07:02Z,Governor Ordonez,Denounces,Critics
2012-05-30T11:42:10Z,Rubber Inventory,Rising as,Slowdown Cuts Demand
2012-05-30T12:16:27Z,Iceland Property Bubble,Grows With,Currency Controls
2012-05-30T14:07:01Z,Spain,Ejects,Clean-Power Industry
2012-05-30T14:59:46Z,America Movil Discussed Cooperation,With,KPN
2012-05-30T16:44:31Z,Romney,Joins Trump in,Avoids Obama Birth Talk
2012-05-30T18:39:48Z,Planes,Owned by,Aviation Agencies Employees
2012-05-30T20:12:16Z,Pep Boys,Terminates,Proposed Merger Deal
2012-06-01T04:01:01Z,Goldman,’s Blankfein,U.S.
