2012-06-18T00:19:02Z,Eliminated Sweden May Have Final,Say on,Euro 2012 Rivals ’ Fate
2012-06-18T00:19:02Z,Sweden May Have Final,Say on,Euro 2012 Rivals ’ Fate
2012-06-18T00:36:37Z,G-7 Urge Greece Remain,in,Euro
2012-06-18T01:21:00Z,Malaysia,Backs,Rare-Earths License
2012-06-18T01:29:47Z,Japan,Sets,Endorsing Panel ’s Proposals
2012-06-18T01:57:50Z,U.S.,Open,Lead as Jim Furyk Bogeys Hole
2012-06-18T02:00:00Z,Vanya,In,Your Face
2012-06-18T02:30:00Z,Rajoy,in,Mexico
2012-06-18T02:42:15Z,Citigroup Asia Fees,Rising as,Debt Sales Counter Equity Drop
2012-06-18T03:02:06Z,Rajoy,Says,Greek Election Results Good for Spain
2012-06-18T03:12:43Z,Webb Simpson,Wins,U.S. Open Title
2012-06-18T03:26:57Z,Investors,May,Shift Eyes From Euro Debt Crisis to U.S. Economy
2012-06-18T03:57:43Z,Bo Xilai Damaged Communist Party ’s Image,Says,Successor Zhang
2012-06-18T04:00:01Z,Obama,in,Ohio
2012-06-18T04:00:01Z,Romney,Front Against,Obama in Ohio
2012-06-18T04:01:00Z,Bridges,Toilets With,Naming Rights
2012-06-18T04:01:00Z,Toilets,With,Naming Rights
2012-06-18T04:01:33Z,Yankees ’ Winning Streak,Hits,Nine Games
2012-06-18T04:03:35Z,Wallabies,’ Surgery,Will Probably Return Next Year
2012-06-18T04:12:21Z,Gupta Judge Ignored Sentence Proposals,in,Insider Cases
2012-06-18T04:36:19Z,Heat,Hold Lead Off,Thunder
2012-06-18T04:45:21Z,Hong Kong Short Selling Turnover,Recorded,06/18/201
2012-06-18T04:45:39Z,Stony Brook,Is,Ousted From College World Series With 12-2 Loss
2012-06-18T04:47:29Z,Rice Shipments,Reach,2.87 Million Tons
2012-06-18T05:00:00Z,Alzheimer,to,Drug Rights
2012-06-18T05:00:00Z,Roche,Acquires,Rights
2012-06-18T05:04:46Z,Brazil Top,in,Latin America
2012-06-18T05:22:02Z,Opel Closure Cost Seen,Rising,Westdeutsche Allgemeine Reports
2012-06-18T05:27:47Z,Chairman,Die,Welt
2012-06-18T05:27:47Z,Windreich,Making,IPO Plans
2012-06-18T05:34:11Z,Yunnan Tin,Pay,Dividend
2012-06-18T05:58:08Z,Simpson,Wins First Major,Woods Leaves
2012-06-18T05:58:08Z,U.S.,Open Stuck at,14
2012-06-18T06:01:00Z,He,Weighs,Hedge Fund
2012-06-18T06:05:57Z,Quintain Estates,Enters Joint Venture for,Greenwich Penninsula
2012-06-18T06:22:28Z,Boeing,Bid for,South Korean Fighter Deal
2012-06-18T06:22:32Z,Election,Damps,Euro-Breakup Concern
2012-06-18T06:22:32Z,Greek Election,Damps,Euro-Breakup Concern
2012-06-18T06:28:10Z,Income,Rises on,Oil Gains
2012-06-18T06:28:10Z,Net Income,Rises on,Oil Gains
2012-06-18T06:28:10Z,Tatneft,Climbs,Net Income Rises
2012-06-18T06:29:06Z,Banks,Tap,Financial Aid
2012-06-18T06:29:06Z,Spanish Banks,Tap Financial Aid Through,EFSF
2012-06-18T06:30:01Z,RBI,Keeps Unchanged,Borrowing Costs
2012-06-18T06:44:56Z,French First Lady ’s Tweet,Gets,Thumbs Down
2012-06-18T06:49:47Z,Japan,Stocks Advance as,Vote
2012-06-18T06:49:56Z,Korean Won,Rises to,Bonds Fall After Greece Vote
2012-06-18T06:49:56Z,One-Month High,Fall After,Greece Vote
2012-06-18T06:49:56Z,Won,Rises to,Bonds Fall
2012-06-18T06:51:43Z,RBS ’s Kapur,Says in,July
2012-06-18T06:55:26Z,Vietnam ’s PV Oil,Offers,Cargo
2012-06-18T06:56:51Z,2-Year High,at Checks,Vatan
2012-06-18T06:59:08Z,IGas Energy,Appoints Greenhill,Help
2012-06-18T07:03:37Z,Most Spaniards,Expect to,Criticize Deal
2012-06-18T07:03:37Z,Spaniards,Expect Bank Rescue to,Fail
2012-06-18T07:04:45Z,Consumer Confidence,Climbed to,92.1
2012-06-18T07:04:45Z,Turkish Consumer Confidence,Climbed to,92.1
2012-06-18T07:21:45Z,Ivory Coast Troops Clash,With,Liberian Gunmen
2012-06-18T07:22:17Z,Hellenic Telecom May,Sell,Foreign Subsidiary
2012-06-18T07:24:53Z,Vietnam Bonds Drop,in,June on Interbank Rates
2012-06-18T07:32:35Z,Nansei Sekiyu,Halts Oil-Product Shipments,Typhoon Approaches
2012-06-18T07:38:51Z,Aussino,Jumps to,15-Month High
2012-06-18T07:54:08Z,CEZ,Snaps,Six-Day Rout
2012-06-18T07:59:51Z,CVC,for,Elster
2012-06-18T07:59:51Z,Melrose,in,Talks
2012-06-18T08:20:27Z,Norway,’s Agriculture,Transport Ministers
2012-06-18T08:29:53Z,China,Stocks,Movers
2012-06-18T08:33:03Z,Treasuries,Erase,Decline
2012-06-18T08:33:28Z,14 %,in,Prague
2012-06-18T08:33:28Z,Kit Digital Climbs,Rally ’s,Extending Last Week
2012-06-18T08:40:12Z,Kenya 2012,Forecast at,5 %
2012-06-18T08:40:12Z,World Bank,Keeps,2013 GDP Growth Forecast
2012-06-18T08:59:43Z,MTN Group,Appoints Mroué as,Chief Executive
2012-06-18T09:22:29Z,NATO Ties,Bind,Solutions Remain
2012-06-18T09:22:29Z,Solutions,Remain in,Euro
2012-06-18T09:23:30Z,German Natural Gas Bill,Rises on,Higher Prices
2012-06-18T09:25:53Z,Sudan Anti-Austerity Rallies Continue,in,Khartoum
2012-06-18T09:44:40Z,PetroChina ’s Kazakh Unit,Pays Million in,Dividends
2012-06-18T09:45:00Z,EU,Urges,Investment in Telecommunications Infrastructure
2012-06-18T09:45:00Z,More Investment,in,Telecommunications Infrastructure
2012-06-18T09:54:37Z,BP,Buys,Gasoil Cargo
2012-06-18T10:00:00Z,Bundesbank,Says,Greater Uncertainty Over German Outlook
2012-06-18T10:00:01Z,Former Greek PM Simitis,Urges,Skai TV
2012-06-18T10:00:01Z,Former PM Simitis,Urges,Coalition Government
2012-06-18T10:10:29Z,Samsonite,Saying,Luggage
2012-06-18T10:10:29Z,Samsonite Surges,Is,Safe
2012-06-18T10:12:40Z,Socialist Becomes First Lawmaker,Living in,U.K.
2012-06-18T10:21:33Z,Arla,on,Stake Purchase
2012-06-18T10:29:54Z,Mauritian Rupee,Weakens,Most in Seven Months
2012-06-18T10:29:54Z,Rupee,Weakens,Most in Seven Months on Reserve Rebuild
2012-06-18T10:29:57Z,EU,Says,Ban on Insuring Iranian Oil Will Proceed
2012-06-18T10:46:33Z,Banks,Reverse,Gains
2012-06-18T10:46:33Z,Bond Yields,Surpass,7 %
2012-06-18T10:46:33Z,European Banks,Reverse,Gains
2012-06-18T10:46:33Z,Spanish Bond Yields,Surpass,7 %
2012-06-18T10:52:24Z,Arabtec,in,Dubai
2012-06-18T10:52:24Z,Tamweel,Arabtec in,Dubai
2012-06-18T10:58:08Z,UN Worker Convicted,in,Ethiopian Court
2012-06-18T11:00:00Z,Putin,Urges,Tighter Global Derivatives Regulation
2012-06-18T11:06:43Z,Fed Funds Projected,Open at,0.16 ICAP Says
2012-06-18T11:07:58Z,Libya Parliamentary Campaigning,Begins Amid,Security Concerns
2012-06-18T11:15:22Z,U.K.,Says,More EU Pork Farms Phasing Out Stalls
2012-06-18T11:20:00Z,ECB Cash,in,European Crisis
2012-06-18T11:20:00Z,Money-Market Signals,Muffled by,ECB Cash
2012-06-18T11:38:13Z,India,Holds Rate,Inflation Curbs Easing
2012-06-18T11:41:26Z,41 % Drop,in,Output
2012-06-18T11:41:26Z,Rio ’s Rossing Uranium Mine Reports,in,2011
2012-06-18T11:49:11Z,Irish Life Fund,Buys,Viridian Wind Farm Stake
2012-06-18T11:49:11Z,Viridian Wind Farm Stake,in,First Deal
2012-06-18T12:06:44Z,REC,Rises as,Japan Seeks
2012-06-18T12:14:05Z,Tesco,End,Foray
2012-06-18T12:17:17Z,Money Managers,Raise Bets on,Higher London Cocoa
2012-06-18T12:27:00Z,28 %,in,Five Months
2012-06-18T12:40:37Z,Jakks,Says,Oaktree Ends Talks
2012-06-18T12:41:42Z,Kenya Coffee Auction Recess,Starting Amid,Low Stocks
2012-06-18T12:43:21Z,Cave Paintings ’ Age,Questioned by,Archaeologist
2012-06-18T12:43:21Z,Spanish Cave Paintings ’ Age,Questioned by,Archaeologist
2012-06-18T12:54:13Z,Sudan,Devalues,Pound
2012-06-18T13:00:00Z,Belgian Consumer Confidence,Holds Steady as,Job Concerns Mount
2012-06-18T13:00:00Z,Consumer Confidence,Holds Steady as,Job Concerns Mount
2012-06-18T13:18:33Z,Grease Plant,Damaged by,Fire
2012-06-18T13:18:45Z,Kleiner Perkins Invests,in,Seed Company
2012-06-18T13:22:24Z,Foreign Investors,Buy,3.92 Billion Rupees
2012-06-18T13:24:19Z,Kenya Shilling,Rises on,Dollar Flows
2012-06-18T13:30:11Z,Global Inflation,Worah ’s,Pimco
2012-06-18T13:32:38Z,Czech Stocks,Reverse Gains as,Erste Group Drops
2012-06-18T13:39:39Z,Biggest Bond Traders,Divided With,Yields Lows
2012-06-18T13:39:39Z,Bond Traders,Divided on,Fed
2012-06-18T13:42:55Z,Egypt Stocks,Fall as,Military Curtails President ’s Powers
2012-06-18T13:42:55Z,Military Curtails President,as,Powers
2012-06-18T13:48:26Z,Dollar Shortage Seen,in,$ 2 Trillion Gap
2012-06-18T13:49:42Z,Moody,on,Upgrade
2012-06-18T13:51:44Z,S&P,Hires Don Howard as,Chief Risk Officer
2012-06-18T13:59:38Z,Serbian Current-Account Gap,Widens on,Cash
2012-06-18T14:00:00Z,Homebuilder Confidence,in,U.S.
2012-06-18T14:01:21Z,Vodafone,Gets,Approval for C&W Bid
2012-06-18T14:01:54Z,Ipad Toting Doctors,Spur,Venture Funding in Medical Apps
2012-06-18T14:01:54Z,Venture Funding,in,Medical Apps
2012-06-18T14:03:36Z,McKesson Ex-Chief McCall,Loses,Supreme Court Fraud Appeal
2012-06-18T14:04:56Z,Texas Dispute,With,Time Warner Cable Denied Court Review
2012-06-18T14:05:14Z,Lira,Weakens,1st Day
2012-06-18T14:26:21Z,AmBev Value,Rises Toward,Top
2012-06-18T14:27:03Z,Heat Wave,Pushing Toward,East Coast Cities
2012-06-18T14:41:23Z,Erste Group Bank,Are,Active
2012-06-18T14:44:45Z,Europe,Emerging,Market Crisis Ultimatum
2012-06-18T14:58:38Z,U.K. Commercial Real Estate Falls,in,May
2012-06-18T15:07:28Z,Stocks,in,Greece Rally
2012-06-18T15:08:36Z,Pan Africa Insurance,Jumps on,Bets Hubris
2012-06-18T15:08:59Z,Chile Central Bank,Sees,Rates Stable
2012-06-18T15:13:23Z,Air Canada Pact,Maintains,Pension Plan
2012-06-18T15:17:01Z,Zloty,Snaps,Three-Day Rally
2012-06-18T15:18:02Z,Claims James Murdoch,Denies Had,IPhone
2012-06-18T15:32:16Z,Ruble,Strengthens After,Election
2012-06-18T15:32:26Z,Microsoft Tablet,Must Shed,Office Image
2012-06-18T15:32:57Z,Icahn,With,Bonds Below Par
2012-06-18T15:35:16Z,Gilts Advance,Boosts,Safety Bid
2012-06-18T15:35:27Z,Magyar Telekom,Move in,Budapest
2012-06-18T15:35:53Z,Depression,Brawl Over,Booze
2012-06-18T15:35:53Z,Republicans,Ignore,Depression
2012-06-18T15:37:04Z,Election,Leaves,Pyrrhic Victory Risk
2012-06-18T15:37:04Z,Greek Election,Leaves Pyrrhic Victory Risk as,Aid Talks
2012-06-18T15:44:44Z,Markets Shareholders,Accept,ICAP Offer
2012-06-18T15:55:10Z,Bond-Swap,Divide,Deepens Amid Europe Distortion
2012-06-18T15:58:11Z,European Stocks,Changed on,Spain Borrowing Costs
2012-06-18T15:58:11Z,Spain,on,Borrowing Costs
2012-06-18T15:58:11Z,Stocks,Changed on,Spain Borrowing Costs
2012-06-18T15:59:06Z,Greek Vote,Damp,Concern
2012-06-18T15:59:06Z,Spanish Yields,Surges,Vote Fails
2012-06-18T15:59:06Z,Vote,Damp,Concern
2012-06-18T15:59:06Z,Yields,Surges,Vote Fails
2012-06-18T16:05:39Z,Pulawy,Are,Active
2012-06-18T16:05:45Z,Forint,Rises as,Hungarian Bonds Gain
2012-06-18T16:07:06Z,Soybeans,Erase,Yesterday ’s Gain
2012-06-18T16:07:18Z,Health-Care Ruling Cloaked,in,Secrecy Spurs Guessing Game
2012-06-18T16:20:57Z,Turkey,’s Prison,NTV Reports
2012-06-18T16:20:58Z,Hungary,Hails,Compromise on Bank Bill
2012-06-18T16:20:58Z,Rangel ’s 42-Year Tenure,in,House Hinges
2012-06-18T16:21:46Z,Rand,Set as,Yields Fall on Stimulus
2012-06-18T16:28:50Z,Naira,Strengthens,First Day
2012-06-18T16:42:17Z,Acron,Wins,Injunction
2012-06-18T17:00:00Z,Aid,Be Withheld Until,EU ’s Wieser
2012-06-18T17:00:00Z,Greek Aid,Be Withheld Until,Troika Review
2012-06-18T17:08:51Z,Oudin Wins First Tour Title,in,Birmingham
2012-06-18T17:11:24Z,Boost Capital,With,Debt Exchange
2012-06-18T17:15:05Z,Germany,in,Bond Bubble
2012-06-18T17:15:05Z,Gross,Says,Germany
2012-06-18T17:21:57Z,Apax CEO,Says,Confident as Firm Steps
2012-06-18T17:25:56Z,Police,in,Hacking Probe
2012-06-18T17:25:56Z,U.K. Prosecutors,Get New Evidence From,Police in Hacking Probe
2012-06-18T17:30:00Z,Germany,Must Make,Greece ’s Vote Count
2012-06-18T17:47:59Z,$ 28.4 Million,in,Professional Fees
2012-06-18T17:47:59Z,MF Global Parent,Accrues,$ 28.4 Million in Professional Fees
2012-06-18T17:47:59Z,MF Parent,Accrues,Million
2012-06-18T17:53:08Z,Fed QE3,in,Mortgages
2012-06-18T18:00:03Z,Russia,Says,UN Resumes Syria Mission
2012-06-18T18:02:18Z,Azerbaijan,Condemns,Turkmen Disputed Caspian Field Exploration
2012-06-18T18:26:17Z,Buffett,Extends,Real-Estate Bet
2012-06-18T18:35:04Z,JPMorgan Hedge,Thwarted by,Illiquidity
2012-06-18T18:51:10Z,Veronica White,Succeeding,Benepe
2012-06-18T18:57:33Z,Cameron,Urges,Stronger ECB Action
2012-06-18T18:57:33Z,Stronger ECB Action,Quell,Euro Crisis
2012-06-18T19:07:33Z,U.K. Government,Reject,FT Reports
2012-06-18T19:12:44Z,Draghi Urged Van Rompuy,Fill Quickly,Board Position
2012-06-18T19:12:44Z,ECB,Says,Draghi Urged Van Rompuy
2012-06-18T19:12:49Z,Israel ’s SDE,Discusses Marine Power Plants With,Ecuador Ministry
2012-06-18T19:16:45Z,Enbridge,Reversing Line 9 Crude Pipe From,Sarnia
2012-06-18T19:27:29Z,Heating Oil,Sink on,Concern
2012-06-18T19:30:05Z,Chile Peso,Erases,Loss on Federal Reserve Stimulus Speculation
2012-06-18T19:30:07Z,California Public Employees Win Concessions,in,New Budget
2012-06-18T19:34:09Z,Croatia,Tied,0-0
2012-06-18T19:46:50Z,Elections,Spur,Demand
2012-06-18T19:46:50Z,Greek Elections,Spur,Demand
2012-06-18T19:46:50Z,Peru Sol,Rises to,One-Month High
2012-06-18T19:50:18Z,Crude Falls,in,Three Days on European Debt
2012-06-18T20:00:00Z,Geithner,Meets with,Wang
2012-06-18T20:05:23Z,Yandex Internet,Search,Share Falls
2012-06-18T20:08:47Z,Groupon,Jumps as,Morgan Stanley Analysts Upgrade Shares
2012-06-18T20:09:12Z,InterDigital,Selling,Intel Wireless Patents
2012-06-18T20:13:45Z,Safira,Expects,$ 30 Million
2012-06-18T20:14:01Z,Deal,With,Unions on Tappan Zee Savings
2012-06-18T20:19:18Z,Solar Makers,Climb After,Japan Announces Subsidized Rates
2012-06-18T20:22:28Z,Clemens Jury,Reaches Verdict in,Federal Perjury Trial
2012-06-18T20:23:09Z,Harry Winston,Sees,Diamond M&A
2012-06-18T20:27:52Z,Verizon,Raises Prices On,Faster FiOs Quantum Web Service
2012-06-18T20:28:21Z,It,Deliveries of,Model S Car
2012-06-18T20:30:00Z,IMF Staff,Sees,Urgent Need
2012-06-18T20:30:59Z,Hermes,Exchanges on,Sustainability Reports
2012-06-18T20:31:22Z,Bakken,Rises Before,Tesoro Finishes North Dakota Plant Expansion
2012-06-18T20:34:09Z,Itau,as,$ 5.8 Billion Offer Seen as Fair
2012-06-18T20:34:09Z,Redecard,Surges as,Itau ’s $ 5.8 Billion Offer
2012-06-18T20:35:25Z,Lazard Rallies,Discloses,Stake
2012-06-18T20:35:25Z,Peltz,as,Trian
2012-06-18T20:37:11Z,Facebook,Working on,Location-Based Mobile-Ad Product
2012-06-18T20:41:21Z,Sants,Tells,FT
2012-06-18T20:51:53Z,Texas Hailstorms May Cost Insurers,Record,$ 2
2012-06-18T20:58:12Z,Facebook Rises,Declines Since,IPO
2012-06-18T21:00:39Z,Lady Gaga,Is,Where Treated
2012-06-18T21:04:51Z,Bimbo CEO,Stops Through,2014
2012-06-18T21:06:18Z,Canada Natural Gas,Rises as,Warmer Weather Forecast
2012-06-18T21:06:40Z,Aussie Dollar,Rises on,Treasury Secretary ’s Euro Comments
2012-06-18T21:06:40Z,Treasury Secretary,on,Euro Comments
2012-06-18T21:20:34Z,Euro,Weakens as,Leaders Ask Merkel
2012-06-18T21:24:32Z,ResCap Judge,Approves,Probe Into Pre-Bankruptcy Deals
2012-06-18T21:29:35Z,Rural Power Group,Says,EPA Rules Thwart Coal-Fueled Electricity
2012-06-18T21:30:25Z,Soy,Open on,Dry Weather
2012-06-18T21:34:25Z,Credit-Default Swaps,Climb,Bond Yields Soar
2012-06-18T21:40:09Z,$ 60 Million,in,VisionChina Assets
2012-06-18T21:40:09Z,Gobi,Can Attach Million,Oak
2012-06-18T21:42:02Z,Venezuela,Approves,Chavez
2012-06-18T21:44:29Z,Brazil,as,GDP Outlook Cut
2012-06-18T21:49:27Z,Global Regulators,Need,Better Coordination
2012-06-18T21:49:27Z,Regulators,Need,Better Coordination
2012-06-18T21:54:12Z,Televisa,Agrees to,Antitrust Conditions for Iusacell Deal
2012-06-18T21:56:15Z,U.S. Corn,Worsen on,Dry Midwest Weather
2012-06-18T21:59:06Z,Ex-AT Employee,Passing Tips on,Apple
2012-06-18T22:00:00Z,Europe Muddle,Thickens,Doubts Persist
2012-06-18T22:00:00Z,Leaders,Stem,Crisis
2012-06-18T22:00:01Z,Bank Deposit Outflows,Slowed After,Elections
2012-06-18T22:00:01Z,Greek Bank Deposit Outflows,Said,Have Slowed After Elections
2012-06-18T22:00:40Z,Cuomo,Gets,Deal
2012-06-18T22:05:25Z,Low,in,Two-Day Gain
2012-06-18T22:05:43Z,Mexican Yields,Record,Spain ’s Borrowing Costs Soar
2012-06-18T22:05:43Z,Yields,Drop,Record
2012-06-18T22:30:00Z,Equal Opportunity,in,Sports
2012-06-18T22:30:33Z,Mitt Romney,Were,Jewish
2012-06-18T22:30:37Z,Europe ’s Banks,Need,TARP of Their Own
2012-06-18T22:31:00Z,Pension Reforms,Have,Their Day
2012-06-18T22:40:55Z,Facebook,Buys,Face.com
2012-06-18T22:48:11Z,Blasts,Hit,Nigeria ’s Northeastern City
2012-06-18T22:48:11Z,Multiple Blasts,Hit,Nigeria ’s Northeastern City of Damaturu
2012-06-18T23:01:00Z,U.K. Solar Industry,Sidesteps,Tariff Cut
2012-06-18T23:11:30Z,Carroll ’s Upturn,Gives,England Selection Dilemma
2012-06-18T23:14:48Z,Tomlinson,Retires After,11 NFL Seasons
2012-06-18T23:26:40Z,Natural Gas,Rises on,Hot Weather Forecast
2012-06-18T23:28:51Z,War Crimes Trial,Delayed,Tribunal Rules
2012-06-18T23:32:02Z,Brainard,Sees Need for,Time for Greece Bailout
2012-06-18T23:33:26Z,Nalbandian ’s On-Court Tantrum,Is,First to Bloody Tennis Official
2012-06-18T23:51:28Z,Obama,Prods Putin End With,Talks
2012-06-18T23:58:42Z,Former Verizon CEO Seidenberg,Joins,Perella Weinberg
2012-06-19T00:51:38Z,Cioffi,Settlement With,SEC Approved by U.S. Judge
2012-06-19T00:51:38Z,Tannin Settlement,With,SEC Approved by U.S. Judge
2012-06-19T03:49:32Z,Hong Kong ’s Wealth Gap,Widens as,City Ages
2012-06-19T04:01:01Z,NRC License,Challenged by,Massachusetts
2012-06-19T05:32:48Z,AIJ,Rattles,Japan ’s Pensions
2012-06-19T06:12:01Z,Australian Bonds Gain,Drops on,Europe Crisis
2012-06-19T06:31:03Z,Suicides,Trouble at,Korean Savings Banks
2012-06-19T10:53:57Z,Morgan Stanley May,Settle,Nuns U.K. Bond Lawsuit
2012-06-19T11:02:19Z,UVA Names Zeithaml Interim President,Replacing,Sullivan
2012-06-19T14:32:08Z,News Corp. ’s Klein,Steps,Down From Internal Hacking Probe
2012-06-19T20:36:50Z,Oracle Rises,Helps,Profit Beat Estimates
2012-06-19T21:34:58Z,Gol Founder,Quits as,CEO
2012-06-20T04:00:01Z,Romney,Wraps Up Six-State Bus Campaign in,Native Michigan
2012-06-20T04:00:18Z,Dimon,Defends,JPMorgan Disclosures Scrutinized by SEC
