2012-08-14T04:00:00Z,New York Fed,Finds,63 % of Firms
2012-08-14T04:00:01Z,California Schools Barring Taxes,Push Bills to,2051
2012-08-14T04:00:01Z,California Schools Taxes,Push,Bills
2012-08-14T04:00:28Z,Giants ’ Hakeem Nicks,Comes Off,Physically Unable
2012-08-14T04:01:00Z,Ellsworth Kelly,Casts,His Cold Eye
2012-08-14T04:01:00Z,Hamptons Fantasy Tennis Stars Williams,Spadea at,250
2012-08-14T04:01:00Z,Macy,Leads,Industrywide Shoe Expansion
2012-08-14T04:01:00Z,Win,in,Yankee Debut
2012-08-14T04:01:01Z,New York,’,A.G. Probes Nonprofits
2012-08-14T04:01:05Z,Regular-Season NFL London Games,in,2013
2012-08-14T04:25:54Z,Convertibles,Redeemed as,Dollar Costs
2012-08-14T04:31:28Z,$ 560 Million,Using,Alfa Loan
2012-08-14T04:31:28Z,Million,Using,Alfa Loan
2012-08-14T04:45:29Z,Hong Kong Short Selling Turnover,Recorded,08/14/2012
2012-08-14T05:05:43Z,Emaar Second-Quarter Apartment Sales,Climbs,Villas Drop
2012-08-14T05:18:21Z,Contact,Plans,Cash Distributions
2012-08-14T05:41:39Z,Japan,Vows to,Block Activists
2012-08-14T05:58:01Z,Aeroexpress,Shortlists,Tribune
2012-08-14T05:58:01Z,Siemens,Alstom for,Trains
2012-08-14T06:00:00Z,TUI Third-Quarter Earnings,Increase on,Hotel Business Growth
2012-08-14T06:01:18Z,Athens,in Moscovici,Kathimerini
2012-08-14T06:01:18Z,France ’s Moscovici,in,September
2012-08-14T06:02:37Z,Cotton Harvest,in,Australia Seen
2012-08-14T06:15:59Z,Drought May Persist,in,U.S. Midwest
2012-08-14T06:15:59Z,Soybeans,Advance as,Drought May Persist in U.S. Midwest
2012-08-14T06:17:45Z,K+S May,Selling,Nitrogen Unit
2012-08-14T06:23:53Z,Finnish Economy Shrank,in,Second Quarter
2012-08-14T06:27:41Z,France,Unexpectedly Avoids,GDP Contraction
2012-08-14T06:30:21Z,United,Set,Arsenal
2012-08-14T06:55:25Z,11 Firms,Sell Russia Gas to,Turkey
2012-08-14T06:55:25Z,Firms,Sell,Russia Gas
2012-08-14T06:55:52Z,Crude Oil,Rises Before,Expected U.S. Inventory Decline
2012-08-14T06:55:52Z,Oil,Rises Before,Expected U.S. Inventory Decline
2012-08-14T07:00:00Z,Austrian Consumption,Economy in,2nd Quarter
2012-08-14T07:00:00Z,Exports Lifted Economy,in,2nd Quarter
2012-08-14T07:00:00Z,Spain ’s July Underlying Inflation,Accelerates,Slump Persists
2012-08-14T07:02:32Z,Slovak Economic Growth,Slows in,Quarter
2012-08-14T07:10:19Z,More Women,Youth at,Leadership-Shift Conference
2012-08-14T07:10:19Z,Women,Youth at,Leadership-Shift Conference
2012-08-14T07:12:36Z,KPN,for,Base Unit
2012-08-14T07:12:36Z,Telenet,Makes,Provisional Offer
2012-08-14T07:32:53Z,Economy,Slips Into Second Recession in,4 Years
2012-08-14T07:32:53Z,Hungarian Economy,Slips,Into Second Recession
2012-08-14T07:48:31Z,Military Bank Stock-Trading Volume,Surges to,Record
2012-08-14T07:48:40Z,May,Attend,Hearing
2012-08-14T07:48:40Z,Standard Chartered CEO,in,New York
2012-08-14T07:50:40Z,Krona,Strengthens After,Industrial Production Data
2012-08-14T07:50:40Z,Swedish Krona,Strengthens After,CPI
2012-08-14T07:53:38Z,Celesio First-Half Profit,Writing,Down Units
2012-08-14T08:09:52Z,Retail Sales,in,U.S. Probably Rose First Time
2012-08-14T08:11:06Z,July Wheat Exports,Seen at,1.8 Million Tons
2012-08-14T08:11:06Z,Russian July Wheat Exports,Seen by,SovEcon
2012-08-14T08:11:40Z,Cut Sundance Offer,to Said,Iron Ore Drops
2012-08-14T08:18:04Z,Foreign Funds,Buy Stocks Before,U.S. Data
2012-08-14T08:18:04Z,Funds,Buy Stocks Before,U.S. Data
2012-08-14T08:24:42Z,TNT Express Merger Review May,Be Delayed by,EU Regulator
2012-08-14T08:24:42Z,UPS,Delayed by,EU Regulator
2012-08-14T08:32:19Z,Rose,in,June
2012-08-14T08:34:41Z,Output Drops,in,Ukraine
2012-08-14T08:36:47Z,Gains,in,Asian Currencies on Stimulus Optimism
2012-08-14T08:36:47Z,Ringgit,Leads,Gains in Asian Currencies on Stimulus Optimism
2012-08-14T08:51:04Z,U.K. Inflation,Unexpectedly Accelerates on,Clothes
2012-08-14T08:58:23Z,German GDP,Weakening on,Low CPI
2012-08-14T09:08:11Z,Krona Strength,Damps,Prices
2012-08-14T09:16:22Z,China,Stocks,Rise in 3 Days
2012-08-14T09:16:22Z,Rise,in,3 Days
2012-08-14T09:45:50Z,PV Oil,Buy Fuel Oil Cargoes for,Production Tankers
2012-08-14T09:58:06Z,Agreement,Reached on,Romania ’s Precautionary Loan
2012-08-14T09:58:06Z,IMF,Says,Agreement
2012-08-14T09:58:06Z,Romania,on,Precautionary Loan
2012-08-14T09:58:53Z,Vanilla,in,2012
2012-08-14T10:01:56Z,Brazil ’s Domestic Sugar Sales,Seen,More Profitable
2012-08-14T10:01:56Z,Brazil ’s Sugar Sales,Seen,More Profitable
2012-08-14T10:11:47Z,1.6 %,in,First Seven Months of Year
2012-08-14T10:30:43Z,German Growth,Slowed in,Second Quarter
2012-08-14T10:30:43Z,Growth,Slowed in,Second Quarter
2012-08-14T10:33:48Z,Serbia ’s Foreign-Exchange Reserves,Declined,0.2 %
2012-08-14T10:51:24Z,Egypt,Offers,Billion Repos
2012-08-14T11:00:18Z,Number,Get,Right Number
2012-08-14T11:00:18Z,Number One,Get,Right Number
2012-08-14T11:22:09Z,Egypt,Selling Stake in,Stock Exchange
2012-08-14T11:22:23Z,Foreign Investors,Buy,3.62 Billion Rupees of Indian Stocks
2012-08-14T11:22:55Z,Cabinet,Approves,$ 16.5 Billion Mecca Metro System
2012-08-14T11:22:55Z,Saudi Cabinet,Approves,$ 16.5 Billion Mecca Metro System
2012-08-14T12:05:19Z,Gold,Set to,Gain
2012-08-14T12:13:56Z,Mechel,Gives Up Iron Ore Licenses,Focus
2012-08-14T12:14:06Z,Gillard Refugee Backflip,Wins,Australia Opposition Support
2012-08-14T12:14:37Z,Macquarie,Sees,India ’s Sugar Output
2012-08-14T12:23:03Z,Little,Changed at,78.63 Pence
2012-08-14T12:23:03Z,Pound,Erases,Decline Versus Euro
2012-08-14T12:24:17Z,Drought May Persist,in,U.S. Midwest
2012-08-14T12:24:36Z,Indian Inflation,Eases,More Estimated to 32-Month Low
2012-08-14T12:24:36Z,Inflation,Estimated to,Low
2012-08-14T12:40:31Z,Oil,Rises for,First Time
2012-08-14T12:42:22Z,Chilean Senate,Looks on,Credit Cards
2012-08-14T12:42:22Z,Senate,Looks on,Credit Cards
2012-08-14T12:46:52Z,Abu Dhabi Stocks,Rise to,High
2012-08-14T12:54:01Z,Dollar,Trades at,1.2331 in New York
2012-08-14T12:54:01Z,Euro,Erases,Gains
2012-08-14T12:54:47Z,Facebook ’s Instagram Deal,Cleared by,U.K. Antitrust Regulator
2012-08-14T13:11:52Z,Prices,Climbed Than,Forecast
2012-08-14T13:11:52Z,Wholesale Prices,in,U.S.
2012-08-14T13:18:46Z,Oil-Tanker Glut Seen Swelling,in,Persian Gulf
2012-08-14T13:22:42Z,Rejlers,Slips After,Quarterly Income Falls
2012-08-14T13:30:00Z,Soybean Sowing,in,Brazil
2012-08-14T13:55:03Z,Naira,Snaps,4-Day
2012-08-14T13:55:03Z,Winning,Streak on,Oil Company Sale Shortage
2012-08-14T13:56:56Z,Slovenia ’s Factor Banka Announces Merger,With,KD Bank
2012-08-14T14:00:01Z,U.S. Business Inventories Rose 0.1 %,in,June
2012-08-14T14:08:23Z,Wheat Prices,Drop in,Chicago
2012-08-14T14:08:46Z,Greece,Praised in,Crisis Fight
2012-08-14T14:10:21Z,Egypt Brotherhood Officials,Charged to,Violence
2012-08-14T14:10:34Z,Serb Central Bank Member,Quits Over,Changes
2012-08-14T14:25:33Z,Euro-Area Economic Output,Contracted on,Spain
2012-08-14T14:31:57Z,Heebner,Selling,Whirlpool
2012-08-14T14:37:17Z,Glencore ’s Katanga,Has First Loss on,Power
2012-08-14T14:37:34Z,Novatek,Hires,Former Rosneft Investor Relations Head Palivoda
2012-08-14T14:44:18Z,GE ’s Immelt Seen Beating Dimon,in,Credit-Swaps Market
2012-08-14T14:53:41Z,Jana Partners,Took Stake in,Agrium
2012-08-14T14:54:03Z,Army Drills,With Forces,AA
2012-08-14T14:54:03Z,Turkey Prepping Forces,With,Army Drills on Syria Border
2012-08-14T14:57:54Z,Debate,in,Iceland
2012-08-14T14:57:54Z,EU,Says Following,Debate
2012-08-14T14:59:03Z,CEZ,Rises,Most in Three Months
2012-08-14T15:13:07Z,Chesapeake Energy Asset Sales,Plug,Cash Drain
2012-08-14T15:27:04Z,Junk-Bond Buyers Plot Escape,in,Debt Gap
2012-08-14T15:27:19Z,Cosan Shifting,Raises,Stock Forecasts
2012-08-14T15:40:54Z,July,in %,Gestion Reports
2012-08-14T15:40:54Z,Rose 24 %,in,July
2012-08-14T15:48:51Z,Nigeria Agency,Pay Billion for,Fire
2012-08-14T15:52:44Z,GDP Growth,Beats,Estimates
2012-08-14T15:53:06Z,Deutsche Euroshop Profit,Climbs on,Shopping-Mall Expansions
2012-08-14T15:54:49Z,Standard Life,Rises Since,Most 2009 on First-Half Profit
2012-08-14T15:57:32Z,European Stocks,Rise on,German GDP Report
2012-08-14T15:57:32Z,Stocks,Rise on,German GDP Report
2012-08-14T16:04:14Z,Wells Fargo,Challenges,Ally
2012-08-14T16:10:21Z,Knight $ 440 Million Loss,Sealed by,Rules
2012-08-14T16:10:21Z,Knight Million Loss,Sealed by,Rules Canceling Trades
2012-08-14T16:15:12Z,Heebner,Buys,Sells Whirlpool
2012-08-14T16:15:42Z,Drivers Limit,Involved in,Drunk-Driving Deaths
2012-08-14T16:18:04Z,Ruble,Snaps,Three Days of Declines
2012-08-14T16:19:48Z,UBS,Sues,Billionaire Olenicoff
2012-08-14T16:25:48Z,Penn State,Gets Accreditation Warning After,Scandal
2012-08-14T16:34:09Z,IMG Golf,Settles,Lawsuit Against Luke Donald ’s Former Agent
2012-08-14T16:34:09Z,Luke Donald,Against,Former Agent
2012-08-14T16:36:01Z,Kenya ’s Benchmark Coffee Grade,Declined,6.1 %
2012-08-14T16:40:00Z,Volume,Surged Before,LBO Announcement
2012-08-14T16:43:24Z,Australia,Keeps,Barnes
2012-08-14T16:43:24Z,Pumas,Name,Team
2012-08-14T16:43:42Z,Biggest Python Found,in,Everglades
2012-08-14T16:50:17Z,Fraser,Says to,Aug. 24
2012-08-14T16:50:17Z,Neave,Says,Thai APB Deadline Extended
2012-08-14T16:50:28Z,$ 1.81 Billion,in,New Loans
2012-08-14T16:50:28Z,Banks,Granted Billion,Last Month
2012-08-14T16:50:28Z,Ecuadorean Banks,Granted,$ 1.81 Billion
2012-08-14T17:01:23Z,Idaho Lake Water Plant,With,Improved Membranes
2012-08-14T17:13:33Z,PNE Wind,Selling Projects to,Dong
2012-08-14T17:22:31Z,ECB,Share,Power
2012-08-14T17:22:31Z,U.S. Stocks,Pare,Gains on Report Pressing
2012-08-14T17:37:05Z,Eton Park Sells Entire Stake,in,SPDR Gold
2012-08-14T17:37:59Z,Hickory Argentine Bond Case,Sent to,Trial Judge
2012-08-14T17:37:59Z,Hickory Bond Case,Sent to,Trial Judge
2012-08-14T17:41:07Z,Telenet,Denies L’Echo Report on,Bid
2012-08-14T17:42:00Z,U.K. Water Company United Utilities,Climbs on,Breakup Bid Report
2012-08-14T17:51:49Z,U.S. Government Finances Deteriorating,Tells,MNI
2012-08-14T17:58:23Z,Wells Fargo,Pays,$ 6.5 Million
2012-08-14T18:22:06Z,Mets,Get Catcher Shoppach,Named
2012-08-14T18:22:06Z,Player,Be,Named
2012-08-14T18:29:27Z,Las Vegas Marriott Loan Suit,Dismissed by,New York Judge
2012-08-14T18:44:18Z,Amazon,in,Second Quarter
2012-08-14T18:44:18Z,Google,Amazon in,Second Quarter
2012-08-14T18:47:57Z,Printer,Hacking,Attack
2012-08-14T18:55:15Z,Fisker,Hires,Former GM Volt Chief Posawatz
2012-08-14T18:55:21Z,Germany,Buys,Army Maintenance Stakes
2012-08-14T19:14:50Z,Moore Capital,Buys Stake in,SPDR Gold Trust
2012-08-14T19:14:50Z,SPDR Gold Trust,in,Second Quarter
2012-08-14T19:31:15Z,Bradesco ’s Miranda,Sees,Real
2012-08-14T19:34:00Z,U.S. Stocks,Erase Gains as,Tech Shares Sink
2012-08-14T19:44:40Z,Romney,Defends Medicare Proposal to,Ohio Seniors
2012-08-14T20:00:00Z,Industrial Growth,Accelerated in,July
2012-08-14T20:00:00Z,Russian Industrial Growth,Accelerated to,2.5 %
2012-08-14T20:06:16Z,Stem Losses,in,Europe
2012-08-14T20:13:05Z,Home Depot Profit,Tops Estimates,Customer Spend More
2012-08-14T20:13:32Z,Treasuries,Drop,Commodities Rise After Retail Sales Data
2012-08-14T20:13:36Z,Buffett ’s Berkshire Hathaway,Discloses,National Oilwell Stake
2012-08-14T20:16:07Z,Deere,Poised for,Profit Boost
2012-08-14T20:17:25Z,Michael Kors,Surges After,Raising Profit Forecast
2012-08-14T20:18:06Z,Estee Lauder,Topping,Profit Estimates
2012-08-14T20:18:31Z,Retail Sales,in,U.S.
2012-08-14T20:24:56Z,Bats,Plans Retail Program,Compete With NYSE Initiative
2012-08-14T20:30:38Z,AMC Networks Shares Post Their Biggest Drop,in,Three Months
2012-08-14T20:35:08Z,Pickens ’s BP Capital Fund Exits Stake,in,Chesapeake Energy
2012-08-14T20:39:03Z,Angie ’s List,Plunges After,Lockup Ends on Insider Sales
2012-08-14T20:44:02Z,Approval,Hits,Record Low
2012-08-14T20:45:08Z,Retail Sales,Lift,ADRs
2012-08-14T20:45:49Z,Auto Sales,in,2012
2012-08-14T20:48:36Z,Oil,Rises as,U.S. Retail Sales Beat Forecasts
2012-08-14T20:53:21Z,Ryan Opposed Debt Reduction Plan Romney,Used as,Model
2012-08-14T20:58:59Z,Libor ’s Risks,Emerged From,Clubby London Banking Culture
2012-08-14T20:59:28Z,Goldman,Dismissal of,Investor MBS Lawsuit
2012-08-14T21:00:25Z,S&P,Erases Gain as,Tech
2012-08-14T21:00:25Z,S&P 500,Erases,Gain
2012-08-14T21:00:31Z,$ 8.5 Billion IPO,Looks Like,Next Facebook
2012-08-14T21:00:31Z,$ Billion IPO,Looks Like,Facebook
2012-08-14T21:00:31Z,Billion IPO,Looks Like,Facebook
2012-08-14T21:06:22Z,Aussie,Majors After,U.S. Retail Data
2012-08-14T21:15:36Z,U.S. Credit Swaps,Hold at,3-month Low
2012-08-14T21:20:22Z,3-Month High,at Dollar,Oil Rise
2012-08-14T21:21:56Z,Emerging Stocks,Snap Two-Day Retreat Before,U.S. Data
2012-08-14T21:21:56Z,Stocks,Snap Two-Day Retreat Before,U.S. Data
2012-08-14T21:24:31Z,Dollar,Strengthens to,High Against Yen
2012-08-14T21:26:21Z,Shell,Raises Billion Since,2010
2012-08-14T21:31:25Z,BlueMountain Teams,With,Global Lending
2012-08-14T21:35:15Z,Einhorn ’s Greenlight,Buys,Xerox
2012-08-14T21:38:53Z,Digital,Blindsided,Smart Money
2012-08-14T21:44:46Z,Gasoline Rises,Seen for,Corn
2012-08-14T21:45:00Z,Soybeans,Open Higher on,Demand
2012-08-14T22:01:48Z,Lampert 's Hedge Fund,Discloses,Stakeholding
2012-08-14T22:03:50Z,VimpelCom,Beats MTS on,Emerging-Market Revenue
2012-08-14T22:23:40Z,Knight Trading Loss,Said,Linked to Software
2012-08-14T22:24:41Z,Blackstone,Help,Lead Billion
2012-08-14T22:30:00Z,Ryan,Starts,Great Debate on Subject
2012-08-14T22:30:00Z,Stability,For,Sake
2012-08-14T22:30:06Z,Private Sector,Can Reduce,Unemployment
2012-08-14T22:30:06Z,Sector,Can Reduce,Unemployment
2012-08-14T22:31:00Z,Gore Vidal ’s Burr,Is,Antidote
2012-08-14T22:50:01Z,Samsung Witness,Says,Apple Goods Infringe Photo Patents
2012-08-14T23:00:01Z,Diana ’s Versace Dress,Lures,Crowds
2012-08-14T23:00:01Z,Flute,Generates Profits for,Impresario
2012-08-14T23:00:01Z,Indian Flute,Generates,Profits
2012-08-14T23:00:01Z,Indian Magic Flute,Generates Profits for,Impresario
2012-08-14T23:00:01Z,Magic Flute,Generates Profits for,Impresario
2012-08-14T23:20:38Z,New York,of,Apthorp Complex
2012-08-14T23:23:20Z,BP,Seek,Billion Selling Gulf of Mexico
2012-08-15T00:52:51Z,Chinese Estates,Says,Macau Annuls Land Sale for La Scala
2012-08-15T00:52:51Z,Estates,Says,Macau Annuls Land Sale for La Scala
2012-08-15T01:05:20Z,N.Y.,Settles,Standard Chartered Probe
2012-08-15T01:15:50Z,Romney-Ryan,See,Fed QE
2012-08-15T02:13:45Z,$ 20 Million Stake,in,BP
2012-08-15T03:24:47Z,North Korea,Wins,China Pledge
2012-08-15T04:00:01Z,Airwaves,on Verizon,Comcast Said Agree to U.S. Demands
2012-08-15T04:00:01Z,Hedge Fund Manager,Denies,Trading on Insider Tip
2012-08-15T04:00:01Z,Verizon,Agree to,U.S. Demands
2012-08-15T04:01:00Z,Aresco,Takes Over,Big East Commissioner ’s Job
2012-08-15T04:01:00Z,Big East Commissioner,Over,Job
2012-08-15T04:01:00Z,Blood Clot,in,Leg
2012-08-15T04:01:00Z,Giants ’ Shaun Rogers Will Miss Season,With,Blood Clot in Leg
2012-08-15T04:01:00Z,June,in Soros,Moore Among Holders of Facebook Stock
2012-08-15T04:01:00Z,NHL Players ’ Union,Offers to,Cut Share of Hockey-Related Revenue
2012-08-15T04:01:00Z,Soros,in,June
2012-08-15T04:01:01Z,$ 2.3 Billion,in,Notes
2012-08-15T04:01:01Z,Samsung Witness,Says,Apple Knew
2012-08-15T06:11:05Z,Aussie,Lower Before,U.S. Output Data
2012-08-15T06:49:45Z,HTC ’s Chou,Tells,Workers
2012-08-15T07:16:18Z,Oil,Is,Changed Ahead
2012-08-15T08:12:11Z,Locals,Pull,Funds
2012-08-15T08:39:23Z,Regime Collapsing,Says,Former Prime Minister
2012-08-15T08:39:23Z,Syrian Regime Collapsing,Says,Former Prime Minister
2012-08-15T09:36:38Z,Umbrella Sales,Boom as,U.K. Retailers Suffer Soggy Summer
2012-08-15T10:17:22Z,Citizens,Say,Government Serious
2012-08-15T13:32:35Z,Paulson,Add,Gold
2012-08-15T13:32:35Z,Soros,Add,Gold
2012-08-15T15:11:32Z,Breast Implant Scandal,Spurs,U.K. Cosmetic Surgery Review
2012-08-15T17:43:16Z,Fed,Probes After,N.Y. Deal
2012-08-15T20:40:22Z,Facebook Director Thiel,Gets,Flexibility
2012-08-15T23:00:00Z,$ 160 Menu,Draws Protesters to,Wichita Dinner
2012-08-15T23:00:00Z,$ Menu,Draws,Protesters
2012-08-15T23:00:00Z,Lionless $ 160 Menu,Draws Protesters to,Wichita Dinner
2012-08-15T23:00:00Z,Lionless $ Menu,Draws,Protesters
2012-08-15T23:00:00Z,Lionless Menu,Draws Protesters to,Wichita Dinner
2012-08-15T23:00:00Z,Menu,Draws Protesters to,Wichita Dinner
2012-08-16T19:34:21Z,Obama Spars,With,Romney on Energy
2012-08-17T13:48:03Z,Egypt,’s Ally,Panetta
