2012-05-05T01:21:08Z,Facebook,Buys,Glancee Location-Based Tool
2012-05-05T02:40:41Z,Chen Deal Highlights Stakes,in,U.S.-China Relationship
2012-05-05T04:00:00Z,Job Gains,Trailing,Forecasts Add to U.S. Slowdown Concern
2012-05-05T04:00:01Z,Doan ’s Goal,Gives,Coyotes 1-0 Win
2012-05-05T04:00:01Z,Predators,in,NHL Playoffs
2012-05-05T04:00:08Z,Accused 9/11 Planner,Faces,Victim Families
2012-05-05T04:00:08Z,Accused Planner,Faces,Victim Families
2012-05-05T04:00:08Z,Victim Families,in,Cuba
2012-05-05T04:00:27Z,Euro Drops,Damp,Demand
2012-05-05T04:01:00Z,Substantial Equity Stake,in,A&E
2012-05-05T04:01:00Z,White House Burns,in,Top Business Books
2012-05-05T04:01:01Z,Toyota,Gets,New York Acceleration Claims
2012-05-05T04:01:01Z,Yahoo Investor,Steps,Up Pressure
2012-05-05T04:01:06Z,Buffett,Prepares,Meeting
2012-05-05T05:45:45Z,Celtics,Win in,NBA Round-One Playoff Games
2012-05-05T06:00:01Z,Pound,Rises,3rd Week Versus Euro
2012-05-05T06:33:03Z,Mayweather,Guaranteed,ESPN Reports
2012-05-05T07:08:07Z,Bangladesh ’s April Inflation,Slows Earlier to,9.93 %
2012-05-05T07:20:13Z,London,Move on,Hollande Tax Fears
2012-05-05T07:25:27Z,Elderly Folk Trapped,of Number,FT
2012-05-05T07:25:27Z,U.K. ’s Number,in,Debt Doubles
2012-05-05T08:59:55Z,Rosneft Plans,Spending 23 % on,Refinery Upgrades
2012-05-05T09:40:24Z,Schaeuble,Defends,German Wage-Tariff Demands
2012-05-05T09:53:07Z,Thomas Cook,Agrees on,Billion Refinancing Package
2012-05-05T10:10:22Z,Wojciechowski May Buy Shares,in,J.W. Construction
2012-05-05T11:11:36Z,Mediapro,Bid for,Spanish TV
2012-05-05T12:28:29Z,Tunisiana,Acquires,3G
2012-05-05T12:39:19Z,PIRC,Tells,Clients
2012-05-05T12:58:19Z,France ’s Carmignac Fears Hollande,Bets on,Merkel
2012-05-05T13:23:07Z,Stansted Passengers,Faced,2-Hour Wait
2012-05-05T14:13:48Z,Berkshire ’s Rose,Turns to,Manufacturing
2012-05-05T14:26:03Z,Arsenal ’s Champions League,Hopes,Hurt With Norwich
2012-05-05T14:44:16Z,Bahrain Blast,Injures,Four Policemen in Bani Jamra
2012-05-05T14:44:16Z,Four Policemen,in,Bani Jamra
2012-05-05T14:48:39Z,Clinton,in,Bangladesh
2012-05-05T14:52:26Z,Germany ’s Kauder,Sees,Welt
2012-05-05T15:26:59Z,Egypt,Imposes,Defense Ministry Area Curfew
2012-05-05T15:35:11Z,Economic Woes,Drive,Oil
2012-05-05T15:35:11Z,Woes,Drive,Oil
2012-05-05T15:35:15Z,Harlequins Defeat Sale,in,Rugby ’s Premiership
2012-05-05T15:35:15Z,Rugby,in,Premiership
2012-05-05T16:17:56Z,Arsenal,’s Sagna,Wenger
2012-05-05T16:17:56Z,Miss Euro,to Sagna,Wenger
2012-05-05T16:23:14Z,Taiwan,Rise in,Nielsen Survey
2012-05-05T16:23:14Z,U.S. Rise,in,Nielsen Survey
2012-05-05T16:48:55Z,Buffett,Says,U.S. Banks
2012-05-05T18:09:22Z,Chelsea,Defeats,Liverpool 2-1 in English F.A. Cup Soccer Final
2012-05-05T18:09:22Z,Liverpool 2-1,in,English F.A. Cup Soccer Final
2012-05-05T19:18:44Z,Chelsea,Beats,Liverpool
2012-05-05T19:18:44Z,Liverpool,Win,Fourth F.A. Cup
2012-05-05T20:12:06Z,Cologne,Is,Relegated
2012-05-05T20:12:06Z,Dortmund,Sets Bundesliga Points Record,Relegated
2012-05-05T21:14:09Z,Pacers Beat Magic,in,Overtime
2012-05-05T21:47:45Z,Barcelona,Beats,Espanyol 4-0
2012-05-05T21:47:45Z,Lionel Messi,Tops,70-Goal Mark
2012-05-05T22:39:20Z,Mohammed,Deferring,Pleas
2012-05-06T04:00:03Z,Berkshire,’s Combs,Weschler Get
2012-05-06T04:00:03Z,Buffett,Shuns Super PAC Contributions While,Backing Obama
2012-05-06T04:00:03Z,Weschler,Get,$ 1 Million Pay
2012-05-06T04:01:00Z,Another,Heads for,Preakness
2012-05-06T08:27:26Z,Apple,Wins,Sanctions in Samsung Infringement Suit
2012-05-06T08:27:26Z,Ruling,Sanctions in,Samsung Infringement Suit
2012-05-06T08:27:26Z,Sanctions,in,Samsung Infringement Suit
2012-05-06T12:09:45Z,Greece Votes,With,Euro Future
2012-05-06T15:01:00Z,Japan,Enters,Recess
2012-05-07T03:01:00Z,Hypermarcas Profit,Climbs,24 %
