2012-02-18T00:00:00Z,China ’s Xi,With,Riverdance
2012-02-18T00:00:00Z,Germany,of,Finance Minister
2012-02-18T00:00:01Z,Dimon,’s Dust-Up,Poor Fed Data
2012-02-18T00:00:01Z,England,of,Inflation Forecasts
2012-02-18T00:00:11Z,Murdoch,Shows Trademark Defiance on,Sunday Tabloid
2012-02-18T00:01:38Z,Wanxiang,Reach,Million China Electric-Vehicle Deal
2012-02-18T00:03:15Z,Carmelo Anthony,With,Groin Injury
2012-02-18T01:37:04Z,China ’s New Home Prices Decline,in,January
2012-02-18T02:46:29Z,China ’s January Housing Prices Post Worst Performance,in,Year on Curbs
2012-02-18T04:40:10Z,Krugman,Embraces,Label
2012-02-18T05:00:01Z,Yen,Tumbles After,Monetary Easing
2012-02-18T05:00:19Z,Canadian Currency,Rises Against,Major Peers
2012-02-18T05:00:19Z,Currency,Rises Against,Most Major Peers
2012-02-18T05:01:00Z,Maryland ’s House,Passes,Same-Sex Marriage Bill
2012-02-18T05:01:01Z,N.Y.,Can Ban,Use
2012-02-18T05:01:13Z,Treasury Notes,Fall,Third Week
2012-02-18T05:01:21Z,High Court,Halts,Montana Corporate Funds Ban
2012-02-18T05:58:00Z,Australia Leadership Speculation,Intensifies on,Gillard Woes
2012-02-18T09:18:39Z,Egypt Unemployment Rate Rose,in,4th Quarter
2012-02-18T09:42:39Z,125 %,to Debt,Welt
2012-02-18T11:00:00Z,Obama,Urges,Congress
2012-02-18T11:29:30Z,Brussels Airlines,Gets,Permits for Congo Subsidiary
2012-02-18T11:43:37Z,Terra,Resigns After,FSA Report
2012-02-18T11:58:04Z,3 %,in,2012
2012-02-18T12:37:35Z,Egypt Plan,Bring,Gaza Fuel Via Israeli Crossing
2012-02-18T12:37:35Z,Hamas,Rejects,Egypt Plan
2012-02-18T12:48:30Z,BMW,’s Expansion,Automotive News
2012-02-18T13:01:00Z,Australian Leadership Speculation,Intensifies on,Gillard ’s Woes
2012-02-18T13:01:00Z,Gillard,on,Woes
2012-02-18T13:01:00Z,Leadership Speculation,Intensifies on,Gillard ’s Woes
2012-02-18T13:45:21Z,Dutch Prince ’s Life,in,Still Danger
2012-02-18T13:45:37Z,Libya,’s Bourse,Karoud
2012-02-18T14:04:16Z,China ’s Zhai,Urges End to,Syria Violence
2012-02-18T14:04:16Z,Damascus Talks,With,Assad
2012-02-18T14:23:54Z,Brazil,Prepares Measures to,Folha
2012-02-18T14:35:56Z,Chelsea Ties 1-1,in,F.A. Cup Fifth-Round Match
2012-02-18T14:50:31Z,ECB ’s Visco,Says,Europe
2012-02-18T14:50:31Z,Europe,Must,Counter Contagion Risk
2012-02-18T14:55:30Z,FDP,Says,No Party
2012-02-18T14:55:30Z,Wulff,’s Successor,Welt Reports
2012-02-18T15:22:42Z,Air Cemac Ends Pact,With,South African Air
2012-02-18T15:26:51Z,Season,Until,End
2012-02-18T16:00:56Z,Lord Lucan,Was,BBC Reports
2012-02-18T16:00:56Z,U.K.,Out of Smuggled,BBC Reports
2012-02-18T16:08:12Z,Lindsey Vonn,Wins,Fifth Straight World Cup Downhill Ski Title
2012-02-18T16:19:34Z,VAT Rise,out Rules,La Libre
2012-02-18T16:21:09Z,Estonia Unions Protest,in,Capital Over Collective Agreement Plan
2012-02-18T17:01:00Z,EU Companies,Could Save,EU40 Billion
2012-02-18T17:14:16Z,Deal,Avert,Takeover
2012-02-18T17:14:16Z,Detroit ’s Bing,Strikes,Deal
2012-02-18T17:14:18Z,Confidence,in,Italy Returned
2012-02-18T17:14:18Z,Italy Returned,in,Financial Markets
2012-02-18T17:45:50Z,Rangers,Lose After,Administration
2012-02-18T18:29:23Z,England,Beats Pakistan by,Nine Wickets
2012-02-18T19:44:19Z,Chelsea Ties Birmingham 1-1,in,Soccer ’s F.A. Cup
2012-02-18T19:44:19Z,Soccer,in,F.A. Cup
2012-02-18T23:14:49Z,Taviani Brothers,Wins,Berlin Film Festival ’s Prize
2012-02-19T01:15:47Z,Henry Tang,Should Quit,Hong Kong Leadership Election
2012-02-19T05:00:07Z,Whitney Houston Remembered,in,New Jersey Hometown
2012-02-19T06:17:16Z,Lawyer,Tells,Jurors
2012-02-19T16:00:01Z,China,Cuts Reserve-Ratio for,Growth
