2012-09-20T00:00:01Z,IMF,Wants,Ivory Coast
2012-09-20T00:34:13Z,Indonesia ’s Capital Votes,With,National Reach
2012-09-20T00:35:07Z,6 Million,in,U.S.
2012-09-20T00:35:07Z,CBO,Says,6 Million in U.S.
2012-09-20T00:50:23Z,Fed,Unleashes,Dollars
2012-09-20T01:41:40Z,Software Millionaire,Kicks Off,South Korea Presidential Campaign
2012-09-20T02:16:58Z,Romney Mideast Differences,With,Obama More Style
2012-09-20T02:46:34Z,Japan ’s Exports,Slide for,Third Month on China-EU Slowdown
2012-09-20T03:51:58Z,Sydney-Hobart Yacht Race,Attracts,Entries
2012-09-20T04:00:02Z,NFL Scoring,Sets Record,Vegas Adjusts to Replacement Referees
2012-09-20T04:00:02Z,Vegas,Adjusts to,Replacement Referees
2012-09-20T04:01:00Z,California,Gets,Best Bonds
2012-09-20T04:01:00Z,More Homes,in,U.S.
2012-09-20T04:01:00Z,NHL,Cancels Preseason Games Through,Sept. 30
2012-09-20T04:01:00Z,Nationals,Move to,Brink
2012-09-20T04:01:00Z,Penn State,Keep,Operations Secret
2012-09-20T04:01:00Z,Profit,Misses on,Discounting
2012-09-20T04:01:00Z,Rats Hunter Unearths Smellodrama,Revisiting,1776 War
2012-09-20T04:01:00Z,U.S. Visas,Hit by,Crossfire
2012-09-20T04:01:04Z,Self-Loathing Lawmakers,Running Against,U.S. Congress
2012-09-20T04:01:22Z,Rockets,Sign Accord With,East West Bank
2012-09-20T04:09:47Z,Aberdeen Asset ’s Elston,Sees Weakness in,Economy
2012-09-20T04:25:50Z,Baseball 8-Year TV Agreements,With,Fox
2012-09-20T04:31:00Z,PDVSA,Extinguish Fire at,El Palito Naphtha Tank
2012-09-20T04:45:29Z,Hong Kong Short Selling Turnover,Recorded,09/20/2012
2012-09-20T05:05:40Z,Sales Fall,as KEB,CITIC Market Dollar Debt
2012-09-20T05:09:30Z,Biggest Ship,in,U.S.
2012-09-20T05:09:30Z,MSC,Sets Record,Rates Climb
2012-09-20T05:27:22Z,Oil Three-Minute Slide,Vexes,Vitol
2012-09-20T05:28:55Z,Vitol ’s Fransen,Sees,Brent Trading
2012-09-20T05:41:19Z,Holiday Game Sales,Be Close to,Year ’s Levels
2012-09-20T05:41:19Z,Last Year,Close to,Levels
2012-09-20T05:41:19Z,Sony,Says,Last Year ’s Levels
2012-09-20T05:54:01Z,Stevens,Paid,Almost A$ 1 Million
2012-09-20T06:04:15Z,Egypt,Sets Up,Panel
2012-09-20T06:17:11Z,Imperial Tobacco Forecasts,Increased,Revenue on Eastern Europe
2012-09-20T06:35:18Z,Japan,Stocks,Fall on Exports
2012-09-20T06:52:19Z,DSM,Buy,Cargill ’s Cultures Unit
2012-09-20T06:59:33Z,China,Overtakes,U.S.
2012-09-20T07:00:00Z,Australia,Scope to,Delay Surplus Return
2012-09-20T07:18:44Z,E.ON,Euros for,Slovak Stake
2012-09-20T07:23:08Z,Freight-Futures Trading Seen,Shipping,Rout
2012-09-20T07:48:20Z,Audi,Asked,China Dealership
2012-09-20T07:48:20Z,China Dealership,Remove,Anti-Japan Banner
2012-09-20T07:49:07Z,2009,Since Stocks,Data
2012-09-20T07:49:07Z,China,Stocks,Fall to Lowest Level
2012-09-20T07:49:12Z,Assad ’s Sister Bushra,Is Moving to,Al-Diyar Reports
2012-09-20T07:58:39Z,May,Be Cut After,Rival Walks
2012-09-20T08:03:28Z,Azerbaijan ’s Umid Gas Field,in,Caspian
2012-09-20T08:06:16Z,CLP ’s Jhajjar Unit,in,India
2012-09-20T08:20:58Z,Candu,Is in,Talks With Turkey
2012-09-20T08:20:58Z,Talks,With,Turkey
2012-09-20T08:21:22Z,Euro,Stays,Lower Versus Dollar
2012-09-20T08:21:22Z,Lower Versus Dollar,Yen After,European PMI Data
2012-09-20T08:29:51Z,Gilt Yields,Slip to,Week Low on Safety Bid
2012-09-20T09:01:21Z,Third Quarter,for Declines,Exports
2012-09-20T09:16:20Z,China Money Rate,Surges,Quarter-End Nears
2012-09-20T09:21:03Z,Commerzbank ’s Blessing,Sees Cooperation With,Insurers
2012-09-20T09:21:24Z,Dollar Funding Costs,Hold Near,5-Day High in Euro Money Markets
2012-09-20T09:31:07Z,Asian Stocks,Drop From,High
2012-09-20T09:31:07Z,Stocks,Drop From,High
2012-09-20T09:32:27Z,Iraq ’s Kurds,Say,Exports Rise
2012-09-20T09:38:15Z,Won,Leads Drop in,Asian Currencies
2012-09-20T09:45:21Z,Deutsche Bank,Sell BHF to,RHJ
2012-09-20T09:46:52Z,Spain Sells 4.8 Billion Euros,Most Since,January
2012-09-20T09:48:46Z,Eni,Makes,First Oil Discovery
2012-09-20T09:48:46Z,First Oil Discovery,in,Ghana ’s Cape Three Points Block
2012-09-20T09:48:46Z,Ghana,in,Cape Three Points Block
2012-09-20T09:55:02Z,Nidec,Help,Achieve Margin Target
2012-09-20T09:58:11Z,Election Leader,Delay,Euro Goal
2012-09-20T09:58:11Z,Lithuanian Election Leader,Delay,Euro Goal
2012-09-20T09:58:24Z,Banks,Had,Billion Basel III Shortfall
2012-09-20T09:58:43Z,Japan ’s Retailers,Reopen China Stores,Demonstrations Ease
2012-09-20T10:21:42Z,Citigroup,Warns Irish Investors to,Plan
2012-09-20T10:27:12Z,Estonia,Committed to,Baltic Nuclear Plant
2012-09-20T10:32:26Z,Cerberus,Supports,Potential Capital Actions
2012-09-20T10:33:05Z,Rupiah,Weakens for,Bonds Decline on Current Account
2012-09-20T10:33:05Z,Third Day,Decline on,Current Account
2012-09-20T10:34:46Z,Zongyi,Builds,Italy ’s Largest Roof-Mounted Solar PV Plant
2012-09-20T10:38:31Z,Euro-Area Services,Slump to,39-Month Low
2012-09-20T10:42:45Z,Investors,Take,Profits
2012-09-20T10:58:11Z,Fed Funds Projected,Open at,0.14 ICAP Says
2012-09-20T11:00:11Z,Lonmin Deal,Sets,Dangerous Precedent
2012-09-20T11:19:32Z,Haunting Image,Drives Reckitt Benckiser CEO to,Clean
2012-09-20T11:42:27Z,Veolia,Wins Contract From,Vallourec
2012-09-20T11:49:04Z,5 %,in,2012
2012-09-20T12:02:45Z,Russia,Pay,Farmers
2012-09-20T12:03:01Z,2 %,in,2013
2012-09-20T12:03:44Z,Putin Will,Be,Better Russia Partner Than Billionaires
2012-09-20T12:07:39Z,Germany,Blocking Visas Before,Elections
2012-09-20T12:12:15Z,Wen,Says,Continue
2012-09-20T12:15:43Z,Romney,Softens Tone on,Immigration
2012-09-20T12:23:59Z,BSkyB,Gets Ofcom Nod as,Murdoch Hacking Response Faulted
2012-09-20T12:27:52Z,Ruble,Weakens,Most
2012-09-20T12:34:38Z,Gulfsands,Seeking,Diversify
2012-09-20T12:36:09Z,KazMunaiGas EP,Appoints Zhamauov as,Chief of Embamunaigas Unit
2012-09-20T12:43:08Z,Fodder Corn Seen,Mature in,Most Regions
2012-09-20T12:43:08Z,German Fodder Corn Seen,Mature in,Regions
2012-09-20T12:47:46Z,Bawag,in,Talks With Cerberus About Capital Injection
2012-09-20T12:47:46Z,Talks,With,Cerberus About Capital Injection
2012-09-20T12:53:35Z,Exxon Will Return Polish Shale Gas,Permits to,Government
2012-09-20T12:53:35Z,Exxon Will Return Two Polish Shale Gas,Permits to,Government
2012-09-20T12:53:42Z,Management Positions,in,Europe
2012-09-20T12:59:08Z,Markit Index,Held in,September
2012-09-20T13:00:01Z,Peltz,Gets,$ 1 Billion
2012-09-20T13:00:11Z,New U.S. Embassy,Clears Hurdle for,2017 Opening
2012-09-20T13:04:13Z,Inquiry Into Russian Agent ’s Death,in,London
2012-09-20T13:04:25Z,Romania,Gets,Four Offers
2012-09-20T13:15:41Z,Bond Volatility,Approaches,Record Low
2012-09-20T13:15:41Z,Fed,Drains,Convexity
2012-09-20T13:25:38Z,Renewable Grants,Threaten,RWE
2012-09-20T13:26:03Z,AB InBev Targets Parents,Bartenders in,Responsibility
2012-09-20T13:26:03Z,Bartenders,in,Responsibility
2012-09-20T13:27:31Z,SNB ’s Danthine,Welcomes,Franc ’s Weakening Versus Euro
2012-09-20T13:27:48Z,Russia ’s Grain Yields,Said,That of 2010
2012-09-20T13:30:00Z,Fed ’s Lockhart,Says,August Jobs Report
2012-09-20T13:31:14Z,Court Order,Resume,Wind Project
2012-09-20T13:31:29Z,EU Targets Money Funds,in,Bid
2012-09-20T13:45:00Z,Americans ’ View,Improves to,Four-Month High
2012-09-20T13:49:13Z,Iran,Denies,Troop Presence
2012-09-20T13:49:13Z,Kerry,Warns Iraq on,Aid
2012-09-20T13:51:01Z,$ 383 Million,in,Investments
2012-09-20T14:00:00Z,Czarnikow,Says,Sugar May Extend Slide
2012-09-20T14:00:00Z,Euro-Area Consumer Confidence,Unexpectedly Fell in,September
2012-09-20T14:00:00Z,Index,Declined in,August
2012-09-20T14:00:46Z,25 %,by Drop,MTI Reports
2012-09-20T14:04:22Z,Treasuries,Remain After,Philadelphia Fed Report
2012-09-20T14:07:08Z,Stake,in,Atlanta
2012-09-20T14:08:58Z,EU Banks May Face Graduated Capital Surcharges,in,Compromise Bid
2012-09-20T14:12:59Z,International Renewables Agency,Hires,Masdar Power Head Wouters
2012-09-20T14:24:15Z,Olsen Seen Dashing Rate Cut Bets,in,Acceptance of Strong Krone
2012-09-20T14:24:57Z,South Africa,Keeps Lending Rate at,5 %
2012-09-20T14:31:21Z,Belarus,Denies Arms Sales After,U.S. Treasury Sanctions
2012-09-20T14:31:26Z,Emerson CEO,Sees Gain Chilling Food,Home-Cooling Growth Slows
2012-09-20T14:57:08Z,Hits,in,Republican Party
2012-09-20T14:57:08Z,Romney,Takes,Hits
2012-09-20T15:00:20Z,New Orleans,Wait for,Metal
2012-09-20T15:10:42Z,Soak-the-Rich Tax Policies,Never Even Got,Them Damp
2012-09-20T15:10:42Z,Tax Policies,Never Even Got,Them Damp
2012-09-20T15:15:45Z,Gazprom,Summa to,Study
2012-09-20T15:15:45Z,Summa,Using LNG as,Marine Fuel
2012-09-20T15:18:05Z,Tortoises Manhandled,Splits,Environmentalists
2012-09-20T15:19:06Z,Central Bank,Lowers,Growth Estimate
2012-09-20T15:30:00Z,OPEC,Curb,Exports
2012-09-20T15:31:10Z,AEP,Argues,EPA Carbon Rules Relies
2012-09-20T15:31:51Z,U.K.,Proposes,Incentives
2012-09-20T15:32:35Z,AMR,Can Pay,Fees
2012-09-20T15:32:35Z,May,Provide,Financing
2012-09-20T15:34:25Z,Bruce Willis ’s Belvedere,Gets,Creditor Support
2012-09-20T15:35:41Z,Samaras,Gets New Rebuff on,Greek Budget Cuts
2012-09-20T15:45:04Z,BASF,Buys,Becker
2012-09-20T15:48:32Z,Zimbabwe Ends,in,World Twenty20
2012-09-20T15:49:51Z,BBVA Chairman,Sees,Spain
2012-09-20T15:49:51Z,Spain,Seeking,Precautionary Credit Line
2012-09-20T15:53:05Z,Warren Senate Campaign,Gets,Boston Boost
2012-09-20T16:01:14Z,Libya Premier,Pursuing,Suspects
2012-09-20T16:01:14Z,Pursuing,Suspects in,U.S. Mission Attack
2012-09-20T16:01:14Z,Suspects,in,U.S. Mission Attack
2012-09-20T16:03:17Z,European Stocks,Drop on,China Manufacturing Report
2012-09-20T16:03:17Z,Stocks,Drop on,China Manufacturing Report
2012-09-20T16:06:18Z,Debate Champ Warren,Meets,Brown
2012-09-20T16:09:08Z,Gasoline,Leads Rebound as,Coffee Slumps
2012-09-20T16:10:06Z,Capital Shopping,Joins,Europe REITs ’ $ 3.5 Billion Bond Sales
2012-09-20T16:15:59Z,Cities,Weighing,Mortgage Seizures
2012-09-20T16:20:56Z,Valeant,Selling Billion in,Bonds Finance Acquisitions
2012-09-20T16:26:12Z,Movers,Bilk,Customers
2012-09-20T16:26:12Z,Wheelchair,Held,Hostage
2012-09-20T16:27:04Z,Cosmo ’s 25-Year Sentence Upheld,in,413
2012-09-20T16:33:47Z,Romney,With,Fortune Missed Private Equity Boom of Billions
2012-09-20T16:44:41Z,CIA Role,in,U.S. Drone
2012-09-20T16:47:28Z,Taiwan,’s Said,Sonangol
2012-09-20T16:49:36Z,Manufacturing Slowdown,by Hurt,Brutto
2012-09-20T16:56:40Z,AECOM,Wins,Sewage Projects
2012-09-20T17:00:00Z,Jakarta,Govern,Polls Show
2012-09-20T17:00:01Z,Najib,Urges,Moderation
2012-09-20T17:01:58Z,China ’s Biggest Shipowners,See,Market Slump
2012-09-20T17:01:58Z,China ’s Shipowners,See,Market Slump
2012-09-20T17:03:33Z,Journalist,Arrested Over,Stolen Mobile Phone
2012-09-20T17:03:33Z,Tabloid Journalist,Arrested Over,Stolen Mobile Phone
2012-09-20T17:05:34Z,Treasuries,Pare,Gains
2012-09-20T17:10:51Z,U.K.,Extend,Sunday Opening
2012-09-20T17:22:19Z,Billionaire,Seeks,Citizenship Ruling
2012-09-20T17:22:19Z,Georgian Billionaire,Seeks,Citizenship Ruling
2012-09-20T17:22:22Z,Sanofi Bid,Goes to,EU Courts
2012-09-20T17:24:29Z,Gunvor,Is,Force
2012-09-20T17:24:29Z,Major Force,in,Russia
2012-09-20T17:38:48Z,Chilean Swap Rates,Tumble,Data Show Global Economies Slowing
2012-09-20T17:38:48Z,Swap Rates,Tumble,Data Show Economies Slowing
2012-09-20T17:48:04Z,England Rugby,’s Foden,Miss Autumn Tests
2012-09-20T17:51:03Z,Sony,Weighs,Sale of U.S. Headquarters Tower
2012-09-20T17:56:33Z,Louisiana Offshore Oil Port,Receiving,Domestic Oil Cargoes
2012-09-20T18:02:23Z,Chrysler,Halts Output at,Detroit Plant
2012-09-20T18:05:43Z,Contact,With,Jets
2012-09-20T18:15:14Z,Buffett,Skips,Conference
2012-09-20T18:21:03Z,Peru Central Bank May,Allow,Sol
2012-09-20T18:31:00Z,Mahindra,Shrinks,Vehicle
2012-09-20T18:32:08Z,U.S. Stocks,Reverse Loss as,Consumer Staples
2012-09-20T18:32:44Z,Fitch,Says,Pension Obligation
2012-09-20T18:33:04Z,4.4 %,in,2013
2012-09-20T18:33:04Z,Argentine Budget,Sees GDP Growth in,2012
2012-09-20T18:33:04Z,Budget,Sees GDP Growth in,2012
2012-09-20T19:10:26Z,Fishers,Join,Loggers
2012-09-20T19:11:13Z,Reds Manager Baker,Remains,Hospitalized With Heartbeat
2012-09-20T19:35:02Z,Colombia Yields,Hold as,Growth Tops Estimates
2012-09-20T19:45:08Z,Claims,Curb,Gasoline Rally
2012-09-20T19:45:08Z,Jobless Claims,Curb,Gasoline Rally
2012-09-20T19:53:01Z,Accused Movie Shooter ’s Prosecutors,Drop,Notebook Bid
2012-09-20T19:55:09Z,FirstEnergy Chief,Sees,Canada Clearing Cnooc-Nexen
2012-09-20T20:00:00Z,Cotton-Surplus Estimate,Raised,China Demand Slows
2012-09-20T20:00:00Z,Estimate,Raised,China Demand Slows
2012-09-20T20:03:57Z,Torchmark Outlook,Lowered to,Negative
2012-09-20T20:09:40Z,Former GM CEO,Says in,WSJ U.S.
2012-09-20T20:09:44Z,DreamWorks,Rises on,Upgrade
2012-09-20T20:11:32Z,HBO CEO Bill Nelson,Retires From,Time Warner Pay-TV Network
2012-09-20T20:12:01Z,China,as,Slowing Economy May Curb Grain Demand
2012-09-20T20:15:45Z,Apple Internet Radio Entry,Could Put,Pandora
2012-09-20T20:23:33Z,Businesses,Pay for,Offers Discount Service
2012-09-20T20:24:18Z,Periscope Maker,Closes as,Vendors
2012-09-20T20:26:24Z,Bondholder Revenge,Delayed,Means $ 25 Billion Cost
2012-09-20T20:28:40Z,Liberty Global ’s $ 2.5 B Telenet Deal,Add to,Europe Growth
2012-09-20T20:28:40Z,Liberty Global ’s $ B Telenet Deal,Add to,Europe Growth
2012-09-20T20:28:40Z,Liberty Global ’s B Telenet Deal,Add to,Europe Growth
2012-09-20T20:30:57Z,Government Consents Next Hurdle,in,Nexen Bid
2012-09-20T20:31:31Z,Ex-Fannie Mae Chief Raines,Dismissed From,Securities Suit
2012-09-20T20:33:55Z,Trulia Soars,in,Trading
2012-09-20T20:42:39Z,Corn Decline,Boosts,Crops
2012-09-20T20:45:02Z,Brazil,Boosts State Companies Dividend as,Tax Revenue Drops
2012-09-20T20:46:57Z,Poker,Lures,Penn National
2012-09-20T20:49:02Z,Clinton,Backs,Pentagon
2012-09-20T20:50:07Z,QE Forever ’ May End,With,Real Estate
2012-09-20T20:53:29Z,Unicom,Leads,Slump
2012-09-20T20:58:17Z,Brazil May Export 2.2 Billion Liters,in,2013
2012-09-20T21:00:00Z,Soccer,Beats Baseball Thanks to,Young Electronic Arts ’ FIFA Fans
2012-09-20T21:00:05Z,Libertarian Johnson,Embraces,Spoiler Role
2012-09-20T21:07:07Z,Most U.S. Stocks,Fall on,Concern
2012-09-20T21:07:07Z,U.S. Stocks,Fall Over,Economic Slowdown
2012-09-20T21:13:19Z,Facebook ’s Beacon Settlement Upheld,in,Privacy Lawsuit
2012-09-20T21:14:28Z,Gundlach Porsche,Stolen in,10
2012-09-20T21:14:28Z,Mondrian Stolen,in,10
2012-09-20T21:31:13Z,Fed ’s Kocherlakota,Backs,Stimulus in Policy Reversal
2012-09-20T21:31:13Z,More Stimulus,in,Policy Reversal
2012-09-20T21:33:57Z,$ 1 Billion,in,First 10-Year Bond Sale
2012-09-20T21:33:57Z,Ford Motor,Raises,$ 1 Billion in First 10-Year Bond Sale
2012-09-20T21:39:11Z,Belize,Making,Half of Million Bond Payment
2012-09-20T21:40:04Z,TransAlta,Sees Power Generation Growth With,Canada LNG Exports
2012-09-20T21:41:52Z,California Pension,Freezes,Cuts Bonuses
2012-09-20T21:46:27Z,Microsoft Avoids U.S. Tax,Says With,HP
2012-09-20T21:46:27Z,Senate Memo,Says With,HP
2012-09-20T21:51:04Z,Genomma,Cutting,Sales Forecast
2012-09-20T21:52:33Z,Soybeans,Fall on,Improving Crops
2012-09-20T22:00:01Z,China ’s Wen,Avoid,Tariffs
2012-09-20T22:00:01Z,German Tax Revenue,in,August
2012-09-20T22:01:01Z,French First Lady ’s TV Presentation Talks,Rekindle,Controversy
2012-09-20T22:16:06Z,May,See,Six Bidders
2012-09-20T22:20:47Z,Chicago-Area Man,Indicted in,Attempted-Bombing Case
2012-09-20T22:20:47Z,Chicago-Area Man 18,Indicted in,Case
2012-09-20T22:28:31Z,RusHydro Discount,Widens on,Kyrgyzstan Plants
2012-09-20T22:30:00Z,World,of,Toughest Jobs
2012-09-20T22:30:06Z,Extremists,Can Learn From,Larry Flynt
2012-09-20T22:30:06Z,Muslim Extremists,Can Learn From,Larry Flynt
2012-09-20T22:30:15Z,Coup Lands Banana Republic,in,Gap
2012-09-20T22:30:58Z,Inequities,in,Public Schools
2012-09-20T22:38:42Z,Gasoline,Rises,BP Upset
2012-09-20T22:42:02Z,Mexican Peso,Holds on,U.S. Unemployment Claims
2012-09-20T22:42:02Z,Peso,Holds Near,One-Week Low
2012-09-20T22:44:53Z,Inmet,Sees Mailing in,2 Weeks
2012-09-20T22:45:00Z,China,Must Break Out of,History ’s Trap
2012-09-20T22:45:00Z,History,Out of,Trap
2012-09-20T22:45:00Z,Japan,Must Break Out of,History ’s Trap
2012-09-20T22:46:27Z,Emerging-Market Stocks,Drop,Most
2012-09-20T22:51:46Z,Liverpool,Beats,Young Boys 5-3
2012-09-20T22:51:46Z,Young Boys 5-3,in,Europa League
2012-09-20T23:00:00Z,BofA,Appoint,Mukherjee
2012-09-20T23:00:01Z,Web Surfers,Using,Apps Boost Economy
2012-09-20T23:01:00Z,Demand,of %,IoD
2012-09-20T23:01:00Z,ECB,Says,Cost of New Frankfurt Skyscraper Soars
2012-09-20T23:01:02Z,Hollande,Faces,Defeat on Energy Price Caps
2012-09-20T23:06:36Z,Fed ’s Pianalto,Sees,Stimulus From Bond Purchases
2012-09-20T23:38:34Z,American Pain,is,Self-Inflicted
2012-09-20T23:38:34Z,Pain,is,Self-Inflicted
2012-09-20T23:56:33Z,Atlantic City,Over,Airport
2012-09-20T23:56:33Z,Port Authority May,Take Over,Atlantic City ’s Airport
2012-09-21T00:52:41Z,Apple Maps Lose Way,With,IPhone App Victim
2012-09-21T04:00:02Z,Obama,Leading in,Polls
2012-09-21T04:01:00Z,Golf,at,Tour Championship
2012-09-21T04:01:00Z,Tiger Woods,Tied for,Lead
2012-09-21T04:01:01Z,AU Optronics,Fined Million in,U.S.
2012-09-21T04:01:01Z,Oklahoma,Join,Dodd-Frank Attack
2012-09-21T04:01:43Z,NCAA,Says,More Study Needed
2012-09-21T04:06:37Z,Nationals,Give Washington First Baseball Postseason in,79 Years
2012-09-21T06:05:35Z,Budget Deal,Is Goal of,Senators Guided
2012-09-21T08:54:25Z,Northern Irish Town,Goes,Cultural to Shake Image of Bombings
2012-09-21T08:59:51Z,IPhone 5 Limits,Spark Samsung Discounts in,Europe
2012-09-21T08:59:51Z,IPhone Limits,Spark Samsung Discounts in,Europe
2012-09-21T09:38:23Z,Drought,Destroys,U.S. Crops
2012-09-21T09:38:23Z,India,Wins on,Feed Sales
2012-09-21T10:32:48Z,Euro,Rises,Most
2012-09-21T13:12:56Z,10 Million IPhones,in,Record Debut
2012-09-21T14:45:43Z,Harvard Club,Settles With,Waiters
2012-09-21T14:54:50Z,Soros Said,in,Talks Hire From Highbridge
2012-09-21T15:00:01Z,Noda ’s Election Decision,Winning,Japan Party Contest
2012-09-21T16:05:46Z,Obama,Raises Than,Romney Dependent on Super-PAC Edge
2012-09-22T01:10:19Z,Banker Breakups May Help,Spur,U.K. Divorce Law Changes
