2012-06-04T00:32:23Z,Japan,Open,Final World Cup Qualifying
2012-06-04T00:42:39Z,Asian Stocks,Fall After,U.S. Jobless Rate
2012-06-04T01:53:47Z,Japan Yields,Drop on,Growth Concern
2012-06-04T02:05:09Z,Australian Bond Risk,Surges to,Highest
2012-06-04T02:05:09Z,Australian Corporate Bond Risk,Surges to,Highest
2012-06-04T02:05:09Z,Bond Risk,Surges Since,November
2012-06-04T02:05:09Z,Corporate Bond Risk,Surges to,Highest
2012-06-04T03:33:03Z,Palm Oil Futures,in,Dalian Drop
2012-06-04T03:40:48Z,ETF Bearish Bets,Drop to,Year Low
2012-06-04T03:40:48Z,ETF Bets,Drop to,Year
2012-06-04T04:00:00Z,Edwards Verdict,Shows,Clemens Need
2012-06-04T04:00:00Z,Prison-Bound Bauer,Reprises,Confessions
2012-06-04T04:00:01Z,Bayer Drug,Stalls Stomach Tumors After,Standard Treatment
2012-06-04T04:00:01Z,Glaxo Melanoma Drugs Beat Standard Chemotherapy,in,Study
2012-06-04T04:00:01Z,Obama Teams,With,Bill Clinton
2012-06-04T04:00:10Z,Crown Bid,Calling,Black-Swan Traders
2012-06-04T04:00:10Z,Triple Crown Bid,Calling,Black-Swan Traders
2012-06-04T04:01:00Z,Bark Ball,Rubenstein at,Opera
2012-06-04T04:01:00Z,Biggest Buying Wave,Defies Threat to,Tax Exemption
2012-06-04T04:01:00Z,Buying Wave,Defies,Threat
2012-06-04T04:01:00Z,Cuts ’ Cost,Sleeping in,Vermont Dumpster
2012-06-04T04:01:00Z,Lusty Orangutans,Amuse,Borneo Visitors
2012-06-04T04:01:00Z,Minority Stake,in,New York Mets
2012-06-04T04:01:00Z,Olympic Champion Gymnast Shawn Johnson,Citing,Injuries
2012-06-04T04:01:00Z,Orangutans,Amuse,Lovely Akmad
2012-06-04T04:01:00Z,Psychiatric Cuts ’ Cost,Sleeping in,Vermont Dumpster
2012-06-04T04:01:00Z,Sleeping,Shows,Psychiatric Cuts ’ Cost
2012-06-04T04:01:02Z,Vote,Turns On,Work Creation Record
2012-06-04T04:01:15Z,Crucify Comment,Prompts,House Inquisition
2012-06-04T04:18:32Z,China Services Growth,Weakens as,JPMorgan Cuts
2012-06-04T04:31:05Z,Russia Partners,in,Talks Buy
2012-06-04T04:31:05Z,Talks,in Partners,Kommersant
2012-06-04T04:45:18Z,Hong Kong Short Selling Turnover,Recorded,06/04/201
2012-06-04T04:48:41Z,Extra,Rest After,Mets ’ No-Hitter
2012-06-04T05:21:39Z,Celtics,Hold in,Overtime
2012-06-04T05:37:19Z,Cut EU5 .3 Billion,to Needs,Echos
2012-06-04T05:39:30Z,CEO,Tells,FTD
2012-06-04T05:41:36Z,Indonesia,Sets,June Base Price
2012-06-04T06:10:19Z,Bonds,Open,Little Changed With Yield at 1.18 %
2012-06-04T06:10:19Z,German Bonds,Open,Little Changed
2012-06-04T06:30:31Z,Turkey Preparing Housing-for-Oil Deal,With,Venezuela
2012-06-04T06:31:34Z,Spain,in,Talks With Europe on Direct Aid for Banks
2012-06-04T06:31:34Z,Talks,With,Europe
2012-06-04T06:42:05Z,Bear Market,Closes Since,1983
2012-06-04T06:43:28Z,Szijjarto,Tells,M1
2012-06-04T06:44:53Z,South African Reserve Bank,Wants,Minimum CAR
2012-06-04T06:45:18Z,Companies Fear Labor Constraint,Die,Welt
2012-06-04T06:45:18Z,German Companies Fear Labor Constraint,Die,Welt
2012-06-04T06:45:28Z,Lawmaker,With,Parliament Oath
2012-06-04T06:45:28Z,Sachin Tendulkar,Starts Innings as,Lawmaker With Parliament Oath
2012-06-04T06:53:23Z,Iran,Sets in,Press TV
2012-06-04T06:53:59Z,Kazakh Rail Monopoly ’s Unit,Borrow,800 Million Euros
2012-06-04T07:15:51Z,SocGen Trading Loss Conviction Opens,in,Paris
2012-06-04T07:35:41Z,Sony,Dips Since,1980
2012-06-04T07:39:35Z,Finland ’s Government Gains Popularity,in,Helsingin Sanomat Poll
2012-06-04T07:43:10Z,U.S.,Look for,War MIA
2012-06-04T07:43:10Z,Vietnam,Opens,3 Sites
2012-06-04T07:49:48Z,Renesas,Rises on,Possible Subordinated Bonds Sale Report
2012-06-04T07:52:20Z,Banks ’ Dollar Funding Costs Approach Two-Month High,in,Europe
2012-06-04T07:56:33Z,Ship Azeri Gas,to Grid,Sabah
2012-06-04T08:00:01Z,Conergy,Agrees to,Supply Pakistan ’s Largest Solar-Energy Complex
2012-06-04T08:00:01Z,Supply Pakistan,to,Largest Solar-Energy Complex
2012-06-04T08:14:16Z,Philippine Peso,Decline as,Global Growth Concerns Mount
2012-06-04T08:28:43Z,SADC,Urges Madagascar Leader,Negotiate
2012-06-04T08:29:11Z,Mol Declines First Day,Leads,Shares Lower
2012-06-04T08:43:39Z,Vietnam,’s Said,Arcadia
2012-06-04T08:50:16Z,China ’s Chongqing,Is,First City
2012-06-04T08:51:02Z,China,Adds to,Slowdown Proof
2012-06-04T08:51:02Z,Commodities,Drop,China Adds to Slowdown Proof
2012-06-04T08:51:02Z,Stocks,Drop,China Adds
2012-06-04T08:55:16Z,KING,'S,TOWN BANK May Sales Rise
2012-06-04T08:55:30Z,Solarworld,Sees,China Dumping Case
2012-06-04T08:57:02Z,Two Soldiers,Killed During,PKK Operations
2012-06-04T08:57:02Z,Two Turkish Soldiers,Killed During,PKK Operations
2012-06-04T09:00:00Z,Euro-Area Producer-Price Inflation,Slows for,Seventh Month
2012-06-04T09:30:40Z,African Banks ’ Loans,Grew to,2.5 Trillion Rand
2012-06-04T09:30:40Z,Banks ’ Loans,Grew to,2.5 Trillion Rand
2012-06-04T09:30:40Z,South African Banks ’ Loans,Grew to,2.5 Trillion Rand
2012-06-04T09:37:55Z,Cabinet,Takes,Time
2012-06-04T09:40:58Z,South Africa ’s Banking Assets,Grew,9 %
2012-06-04T09:40:58Z,South Africa ’s Total Banking Assets,Grew in,2011
2012-06-04T09:43:40Z,Vietnam Five-Year Bonds Rise,Weakens on,Rate-Cut Bets
2012-06-04T09:48:35Z,Ivory Coast,Sees Cotton Output Return on,Prices
2012-06-04T10:11:13Z,Cameroon Robusta-Export Price,Rises to,June 3
2012-06-04T10:19:52Z,China,Stocks,U.S. Jobs
2012-06-04T10:27:36Z,Nigeria ’s Naira,Heads for,4-Month Low as Oil Drops
2012-06-04T10:47:09Z,Zimbabwe,of,Tractive Power
2012-06-04T10:47:55Z,Asian Stocks,Slide,Jobs Report Adds to Growth Concern
2012-06-04T10:47:55Z,Jobs Report,Adds to,Growth Concern
2012-06-04T10:47:55Z,Stocks,Slide,Jobs Report Adds
2012-06-04T10:59:04Z,Hungary Postpones Central Bank,Vote as,Forint Forces IMF Bargain
2012-06-04T11:00:00Z,Pena Nieto Lead Cut,in,Survey Ahead of Mexico Vote
2012-06-04T11:04:21Z,EU,Says,Move to Policy Role
2012-06-04T11:04:21Z,Rehn Spokesman Altafaj,Move to,Policy Role
2012-06-04T11:27:05Z,Fed Funds Projected,Open at,0.13 ICAP Says
2012-06-04T11:42:44Z,Arrest,in,Eaton Centre Weekend Shooting
2012-06-04T11:42:44Z,Toronto Police,Make,Arrest in Eaton Centre Weekend Shooting
2012-06-04T11:44:21Z,Cam Ranh Bay,Lures,Panetta Seeking Return
2012-06-04T11:48:06Z,$ 37.7 Million,in,BNP Paribas Unit
2012-06-04T12:16:30Z,Serbia,Starts,Government Talks
2012-06-04T12:31:32Z,Morocco,Raises Fuel Prices By,About 20 Percent to Cut Spending
2012-06-04T12:53:02Z,Foreign Investors,Sell,1.38 Billion Rupees of Indian Stocks
2012-06-04T12:56:36Z,Safaricom,in,Intraday Trading
2012-06-04T12:58:04Z,$ 1 Billion Facility,Repay,Sukuk
2012-06-04T12:58:04Z,Billion Facility,Repay,Sukuk
2012-06-04T12:58:04Z,DIFC Investments,Gets,Billion Facility
2012-06-04T13:15:16Z,Brazil Future Yields,Meeting,Minutes
2012-06-04T13:30:24Z,Moscovici,Step Up Demand to,Banks
2012-06-04T13:30:24Z,Rehn,Step Up Demand to,Banks
2012-06-04T13:45:52Z,Vantage Capital,Raises,$ 223 Million
2012-06-04T14:01:17Z,Gazprom ’s TGK-1 Power Generator,Says,Fell on Winter
2012-06-04T14:03:05Z,U.S. Stocks,Extend Drop,Factory Orders Decline
2012-06-04T14:03:10Z,Tibco,Says for,Efficiency
2012-06-04T14:05:11Z,Ex-Blackwater Guards,End,Iraq Shooting Cases
2012-06-04T14:14:27Z,Regency,in,New York
2012-06-04T14:19:46Z,Bank Critic Goodman,Lending,Chill
2012-06-04T14:20:09Z,S&P,Revising,Commercial Mortgage Ratings
2012-06-04T14:22:13Z,Turkish Yields,Fall to,Lowest
2012-06-04T14:22:13Z,Yields,Fall After,Inflation
2012-06-04T14:23:17Z,EFG-Hermes,Takes,Legal Measures Amid Planet Takeover Bid
2012-06-04T14:36:36Z,Iraq Signs Unit-Building Contract,With,Turkey ’s Bilal Insaat
2012-06-04T14:36:36Z,Turkey,With,Bilal Insaat
2012-06-04T14:41:57Z,Deadly Riots,in,Oil Town
2012-06-04T14:48:13Z,Koza Altin,Move in,Istanbul
2012-06-04T14:48:22Z,Krispy Kreme 's Morgan,Sees Room for,Audio
2012-06-04T14:51:14Z,Akorli,Named,MD
2012-06-04T14:51:14Z,Ghana Oil,Rises to,Record High
2012-06-04T14:52:29Z,Poland,for,LOT
2012-06-04T14:52:59Z,Erste Group Bank,Are,Active
2012-06-04T14:54:22Z,City Tax Flexibility Backed,in,Ruling
2012-06-04T15:00:01Z,Topix Bear,Turns,Clock
2012-06-04T15:00:21Z,Obama,’s Pollution,Groups
2012-06-04T15:00:58Z,Merkel ’s Coalition,Eases,Leipziger
2012-06-04T15:05:04Z,Secret Service Agents,Shielded From,Suit
2012-06-04T15:07:59Z,French Open Champion Li Na,Is Ousted by,Qualifier
2012-06-04T15:07:59Z,Open Champion Li Na,Is Ousted by,Qualifier
2012-06-04T15:13:49Z,Ghana Oil,Are,Active
2012-06-04T15:18:44Z,Chad,’s Habre,Justice Ministry
2012-06-04T15:19:13Z,Vanguarda Seeks First Profit,in,Shift to Soybeans
2012-06-04T15:21:29Z,Dole,Sued Over,Banana Pesticide
2012-06-04T15:26:05Z,High-Yield ETFs,Lure,Investors Dealers
2012-06-04T15:27:37Z,Gazprom,Rises on,South Stream News
2012-06-04T15:27:37Z,Russia Stocks,Rebound,Gazprom Rises on South Stream News
2012-06-04T15:31:07Z,UBS,Promotes Friedman for,Wealth Management Units
2012-06-04T15:33:18Z,Dixy,Buy Out,Holders Opposed
2012-06-04T15:33:34Z,Morgan Stanley,Sees,Gain
2012-06-04T15:33:51Z,Online Search Share,in,Russia
2012-06-04T15:35:10Z,Colombian Peso,Rises,Most
2012-06-04T15:35:10Z,Peso,Rises as,Taxes Boost Inflows
2012-06-04T15:36:00Z,TNK-BP,Snaps,Slide
2012-06-04T15:36:29Z,Corning,Sees Flexible Glass in,Consumer Electronics
2012-06-04T15:37:32Z,Sierra Leone,Says,Vodacom Interested
2012-06-04T15:37:32Z,Vodacom Interested,in,Telecoms Investment
2012-06-04T15:38:41Z,Scrushy,Rejected in,Supreme Court Appeals
2012-06-04T15:38:41Z,Siegelman Rejected,in,Supreme Court Appeals
2012-06-04T15:42:05Z,Platts,Starts,Forward-Month Price Assessments
2012-06-04T15:45:27Z,E-Star Alternativ Shares,Move in,Budapest
2012-06-04T15:45:27Z,Mol,Move in,Budapest
2012-06-04T16:07:44Z,Success,in,Rio
2012-06-04T16:10:34Z,Bank,Buys,Billion of Securities
2012-06-04T16:11:46Z,Tiananmen Protesters Gather,in,Remembrance
2012-06-04T16:14:48Z,HP-Oracle Itanium Chip Trial May,Turn on,Hurd ’s Exit Terms
2012-06-04T16:14:48Z,Hurd,on,Exit Terms
2012-06-04T16:14:48Z,Itanium Chip Trial May,Turn on,Hurd ’s Exit Terms
2012-06-04T16:15:26Z,Court,Cancels,Sale
2012-06-04T16:27:16Z,PBG,Builder of,Polish Soccer Arenas
2012-06-04T16:29:53Z,Warren Buffett Charity Lunch Auction,Draws,Initial Bid
2012-06-04T16:41:27Z,German Monopolies Agency,Sees,Energy Cost-Tsunami
2012-06-04T16:57:14Z,Barclays,Sued by,Sealink Over Mortgage Bonds
2012-06-04T17:00:00Z,Europe Crisis Boosted Borrowing Costs,in,U.S.
2012-06-04T17:00:00Z,Fed,Says,Europe Crisis Boosted Borrowing Costs in U.S.
2012-06-04T17:00:23Z,$ 150 Million,in,Financing
2012-06-04T17:00:23Z,EON,Gets,Million in Financing
2012-06-04T17:05:26Z,Gulf Coast Gasoline,Strengthens After,Motiva Shuts Crude Unit
2012-06-04T17:11:48Z,BNP Paribas,Hires,Swiss Rock ’s Vogt
2012-06-04T17:15:00Z,Digital,Push with,Training Game
2012-06-04T17:24:26Z,Vitro,Confronts,Bondholders Over Bankruptcy Plan Approval
2012-06-04T17:37:38Z,Goldman Sachs,Sees,Potential S&P 500 Bear Market
2012-06-04T18:01:52Z,Triple Gold Output,in,Ivory Coast
2012-06-04T18:06:05Z,Aid Spain,’s Banks,Country
2012-06-04T18:13:03Z,Bakken Oil,Plunges on,Pipe Restrictions
2012-06-04T18:17:06Z,Apple ’s IPhone,Copied,Samsung Inventions
2012-06-04T18:27:50Z,Recall,to,Bitter End
2012-06-04T18:27:50Z,Wisconsin,Fights,Some
2012-06-04T18:39:21Z,U.S. Stocks,Erase,Losses
2012-06-04T18:45:11Z,Brazil Soybean Growers,Sell,28 % of Crop
2012-06-04T19:00:51Z,Low Yields,Seen Through,Election
2012-06-04T19:00:51Z,Treasury Bears,Give Up,Low Yields Seen Through Election
2012-06-04T19:00:51Z,Yields,Seen Through,Election
2012-06-04T19:07:54Z,June Vote,Reach to,Overseas Swaps
2012-06-04T19:16:09Z,Sandusky,Loses,State High Court Bid
2012-06-04T19:26:49Z,Cancer Doctors,Push,Congress
2012-06-04T19:26:49Z,Congress,Help,End Drug Shortages
2012-06-04T19:29:22Z,Leader,on,Health
2012-06-04T19:45:18Z,Factory Orders,in,U.S.
2012-06-04T19:57:11Z,Crude Rises,in,Five Days
2012-06-04T20:00:00Z,Brain Response,Help,Understand Depression
2012-06-04T20:04:33Z,Microsoft,Add,Football
2012-06-04T20:05:17Z,Ariad ’s Ponatinib Shown,in,Study
2012-06-04T20:05:33Z,Facebook,Hits Record Low After,Bernstein Questions Stock
2012-06-04T20:07:20Z,Million,in,Social
2012-06-04T20:11:43Z,Brazil,Takes Over,Cruzeiro
2012-06-04T20:12:31Z,RIM,Tumbles,Lowest
2012-06-04T20:16:25Z,WellPoint Will,Expand,Retail Offeri
2012-06-04T20:19:13Z,Retirement Savings,Move,Tax Pros
2012-06-04T20:24:18Z,Canadian Natural Gas,Rises for,More Cooling
2012-06-04T20:31:12Z,Blackstone Said,in,Talks Seize
2012-06-04T20:32:14Z,Icahn,to,Demand for Board Overhaul
2012-06-04T20:32:59Z,Canadian Stocks,Pare Losses After,Commodity Prices
2012-06-04T20:32:59Z,Stocks,Pare Losses After,Commodity Prices
2012-06-04T20:47:31Z,Dollar Decline,Appeal of,Commodities
2012-06-04T20:48:38Z,Wal-Mart CEO Duke,Gets,87 % Votes for Board Re-Election
2012-06-04T20:50:35Z,Treasury Yield,Rises From,Record
2012-06-04T20:52:21Z,Natural Gas,Rises on,Cooling-Use Outlook
2012-06-04T20:58:06Z,U.S. Stocks,Reverse,Losses
2012-06-04T21:00:01Z,Bank,Keep Record Rate,May
2012-06-04T21:00:16Z,India,Could,Could Headed
2012-06-04T21:00:21Z,KV Pharmaceutical,Must,Face Suit
2012-06-04T21:01:00Z,S&P,Sees at,Least Chance of Greece Exit
2012-06-04T21:04:39Z,Growth Slowdown,Seen in,U.S.
2012-06-04T21:11:19Z,Emerging Stocks,Drop to,Low on China
2012-06-04T21:11:19Z,Stocks,Drop to,Low on China
2012-06-04T21:11:45Z,Gafisa Falls,Lacks,Cash
2012-06-04T21:12:52Z,ISoftStone,Sinks to,Record
2012-06-04T21:12:52Z,Qihoo,Tumbles,ISoftStone Sinks to Record
2012-06-04T21:12:54Z,Peru Seeks Pension Fund Changes,in,18 Months
2012-06-04T21:14:15Z,Canada Dollar,Touches Six-Month Low,Central Bank Meeting
2012-06-04T21:17:36Z,Aussie,Rise with,Commodities
2012-06-04T21:17:36Z,N.Z. Dollars Rise,with,Commodities
2012-06-04T21:21:58Z,Default Swaps,in,U.S. Rise
2012-06-04T21:23:20Z,Treasuries,Lift,Yields
2012-06-04T21:49:30Z,Gasoline,Tumbles on,Plant Startup
2012-06-04T21:52:04Z,PDG,Approving Investment Offer From,Vinci Partners
2012-06-04T22:00:03Z,Flint Hills,Using Edeniq Gear to,Boost Ethanol Yields
2012-06-04T22:07:50Z,GSA,Paid Million in,Bonuses to Staff
2012-06-04T22:09:44Z,Google,Acquire,Meebo
2012-06-04T22:15:18Z,Clemens,Loses,Bid
2012-06-04T22:51:59Z,Ireland,Takes,14-Game Unbeaten Run Into Euro 2012
2012-06-04T23:00:00Z,Hack,Takes on,Fake Terrorists
2012-06-04T23:00:00Z,Nasty Hack,Takes in,in New Republic
2012-06-04T23:00:01Z,Oil Tankers,Squeezed to,Lowest
2012-06-04T23:00:02Z,Obama,Avoiding,Romney ’s Biggest Weakness
2012-06-04T23:00:07Z,Politics,Is,Presidential
2012-06-04T23:00:50Z,Israel,Can Finally Win,Six-Day War
2012-06-04T23:01:00Z,Nero Morphs Into Foulmouthed Rocker,in,Paris
2012-06-04T23:01:59Z,Japan ’s Debt,Sustains,Depression
2012-06-04T23:24:22Z,Juror,Lies Trigger New Trial for,Three
2012-06-04T23:27:45Z,Japanese Stock Futures,Climb Amid,Stimulus Speculation
2012-06-04T23:40:11Z,JPMorgan,Faces,$ 4.2 Billion Trading Loss
2012-06-05T00:41:07Z,HP,Tells,Judge Oracle Broke Contract
2012-06-05T01:47:13Z,China,Subsidizes,Purchases of Energy-Saving Appliances
2012-06-05T03:28:57Z,May,Bring,Corzine Negligence Claims
2012-06-05T04:00:01Z,Ford Rejected Offloading Pension,Spend on,Growth
2012-06-05T04:00:34Z,Chesapeake Energy May Fare Better,Keeping,Its Pipeline Unit
2012-06-05T04:01:00Z,Facebook ’s CEO,Pressed by,Lawmakers
2012-06-05T04:01:00Z,FedEx,Retires,24 Jets
2012-06-05T04:01:00Z,Shell May,Get,Pennsylvania Tax Windfall
2012-06-05T04:01:01Z,Blankfein,Says,Gupta Present as Board Discussed Earnings
2012-06-05T04:01:01Z,Oracle ’s Legal Defeat Means,Cash From,Java Sales
2012-06-05T04:01:02Z,More Recession Odds,in,Romney
2012-06-05T04:01:02Z,Nobel Winner Stiglitz,Sees,More Recession Odds in Romney
2012-06-05T04:01:05Z,He,Faulted,Solyndra
2012-06-05T04:01:05Z,Romney-Backed Solar Company,Fails,Days
2012-06-05T04:01:53Z,Astros,Take,Shortstop
2012-06-05T04:01:53Z,First,Pick in,MLB Draft
2012-06-05T04:12:32Z,Hotels,Workers Amid,U.S. Job Concerns
2012-06-05T05:30:00Z,Obama,Draw,Donors
2012-06-05T09:54:33Z,China Wall,Hit by,Global Banks
2012-06-05T12:57:42Z,Second Day,in,New York
2012-06-05T13:46:18Z,Starbucks,Acquires,Bay Bread
2012-06-05T14:12:18Z,12 Years,Bauer for,Insider Trades
2012-06-05T14:12:18Z,Lawyer Kluger,Gets,Bauer 9 for Insider Trades
2012-06-05T14:50:35Z,Queen ’s Diamond Jubilee Climaxes,With,Palace Appearance
2012-06-05T14:53:43Z,Nigerian Deadliest Crash,in,Decades Dents Industry Image
2012-06-05T20:02:25Z,Indians Evading Laws,Draw,Scrutiny
2012-06-05T20:02:25Z,Payday Lenders,Draw,Scrutiny
2012-06-05T20:12:05Z,It,Sales of,Vaginal Implants
2012-06-13T20:21:24Z,Campaign Rhetoric,Binds Obama to,Romney
2012-07-09T14:00:00Z,Employment Index,in,U.S. Declines
