2012-05-14T00:00:00Z,Obama,in,Ohio
2012-05-14T00:00:00Z,Obama Pitches Equal,Win Women,Charges Drop
2012-05-14T00:16:19Z,Itoham Foods,Hires Banks for,10 Billion Yen Sale of Bonds
2012-05-14T00:17:58Z,Juventus,Goes,Unbeaten
2012-05-14T00:19:04Z,Nagoya,Hires Banks for,10 Billion Yen Sale
2012-05-14T01:04:06Z,Cathay Pacific,Says,Economy Fares
2012-05-14T01:05:23Z,Forecast,Misses,Estimates
2012-05-14T01:43:37Z,Mangalore Refinery,Offers,Fuel Oil Loading
2012-05-14T02:00:00Z,Carson Legend,Included,Cutthroat Ways
2012-05-14T02:04:45Z,Manchester City,Chases,Neighbor
2012-05-14T03:12:55Z,Fashion Label Paul Smith Plans Shanghai Megastore,in,China
2012-05-14T03:30:00Z,Sub-Saharan Africa,'s Growth,IMF
2012-05-14T03:36:09Z,Kobe,Hires Banks for,10 Billion Yen Sale
2012-05-14T04:00:01Z,Faux Coke Porn Site,Symbolizes,Cybersquatting Concerns
2012-05-14T04:01:00Z,Harrisburg Ex-Mayor,Left,Pennsylvania City
2012-05-14T04:01:00Z,Legs,Short on,Flavor
2012-05-14T04:01:00Z,Toyota Rates,Best for,Suppliers
2012-05-14T04:01:00Z,Wines Targeting Women,Are,Long
2012-05-14T04:01:04Z,Detroit 54.5 MPG Mandate,Gets,Help
2012-05-14T04:01:04Z,Detroit MPG Mandate,Gets,Help
2012-05-14T04:01:04Z,U.S. Army,From,Tanks
2012-05-14T04:01:05Z,College,Is Denied on,DNA Results
2012-05-14T04:01:05Z,Funeral,Is Denied on,DNA Results
2012-05-14T04:01:05Z,Mother ’s Wish,Is Denied on,DNA Results
2012-05-14T04:05:53Z,Blacks,Name,Training Squad for Ireland Test Series
2012-05-14T04:45:25Z,Hong Kong Short Selling Turnover,Recorded,05/14/201
2012-05-14T04:53:13Z,Kings Beat Coyotes 4-2,in,NHL Western Conference Finals
2012-05-14T05:00:00Z,Inter RAO,Completes,Sale of Enel OGK-5 Stake
2012-05-14T05:09:47Z,Golikova May,Be,Next Finance Minister
2012-05-14T06:00:05Z,Karvalits,Urges Caution With,Hungary Rates
2012-05-14T06:16:11Z,Sumitomo Realty Profit,Rises on,Leasing
2012-05-14T06:46:04Z,Berlin,’s Airport,FTD
2012-05-14T07:03:22Z,Corn Advances,Attracts,Importers
2012-05-14T07:08:37Z,FTD,Says Than,Expected
2012-05-14T07:08:37Z,Heidelberger Druck ’s Drupa Orders,Says Than,Expected
2012-05-14T07:14:41Z,Industrial-Output Growth,Slowed in,April
2012-05-14T07:14:41Z,Kazakh Industrial-Output Growth,Slowed in,April
2012-05-14T07:22:07Z,RusHydro Increases Stake,in,Russian Utility Inter RAO
2012-05-14T07:28:43Z,China Pension Fund,Invests,16 %
2012-05-14T07:31:16Z,Galatasaray,Surges,Fenerbahce Falls
2012-05-14T07:31:30Z,$ 3 Billion,in,Egypt Agriculture
2012-05-14T07:37:54Z,Azerbaijan,Offers,Stations in Libya
2012-05-14T07:37:54Z,Filling Stations,in,Libya
2012-05-14T07:37:54Z,Stations,Build,Refinery
2012-05-14T07:40:39Z,Alpha Lead Bidders,in,Indian State Solar Auction
2012-05-14T07:40:39Z,Welspun Group,Bidders in,Indian State Solar Auction
2012-05-14T07:53:20Z,OTP,Leads,Hungarian Stocks Lower on Europe Debt Crisis Concern
2012-05-14T07:56:41Z,Mauritius Commercial,Heads for,5-Month High on Improved Profits
2012-05-14T07:57:13Z,Russian,Linked to,Club Fire
2012-05-14T08:00:27Z,Ex-Sparx Chief Operating Officer,Joins,Goldman Sachs Asset
2012-05-14T08:03:19Z,China ’s Stocks,Drop to,Three-Week Low
2012-05-14T08:05:03Z,Afren,Rises,Most
2012-05-14T08:11:02Z,Toyota Tsusho-Tepco Venture,Buys AGL Wind Farm for,A$ 174 Million
2012-05-14T08:21:20Z,Serb Current-Account Gap,Widens on,Export Drop
2012-05-14T08:22:40Z,Second Place,in,Presidential Poll
2012-05-14T08:26:28Z,Taiwan Bonds Advance,Spurs,Safety Demand
2012-05-14T08:27:19Z,$ 1.6 Billion Earnings Boost,in,Savings Plan
2012-05-14T08:34:53Z,Shell,Contract for,Vietnam ’s TGT Oil
2012-05-14T08:34:53Z,Vietnam,for,TGT Oil
2012-05-14T08:46:17Z,Drop,in,Czech Shares
2012-05-14T08:46:17Z,Erste Group Falls,Leads,Drop
2012-05-14T08:49:03Z,Gains,Commodities at,Close
2012-05-14T08:49:03Z,Gold,Gives,Gains
2012-05-14T08:49:03Z,Up Gains,Commodities at,Close
2012-05-14T08:50:51Z,Gazprom,Plant in,East Russia
2012-05-14T08:50:51Z,Mitsui Study Joint Gas-Chemicals Plant,in,East Russia
2012-05-14T08:54:32Z,PBOC,Weakens,Fixing Rate
2012-05-14T08:54:32Z,Yuan Declines,Weakens,Fixing Rate
2012-05-14T09:06:17Z,Troika Dialog,Hires,Bankers
2012-05-14T09:27:03Z,Five-Month Low,Falls on,Greece
2012-05-14T09:27:03Z,Indonesia ’s Bonds,Drop to,Five-Month Low
2012-05-14T09:33:47Z,Athens Tax Office,Set Ablaze by,Explosive Devices
2012-05-14T09:34:06Z,Israeli Life-Science Companies,Raise Funds in,Two Years
2012-05-14T09:34:06Z,Life-Science Companies,Raise,Funds
2012-05-14T09:35:36Z,Jordan,Raises Fees on,Phosphate
2012-05-14T10:15:44Z,Mexico,Off,Pacific Coast
2012-05-14T10:23:29Z,Morgan Stanley,Raises,2012-13 Global Sugar Surplus
2012-05-14T10:23:50Z,White Sugar Premiums May Signal,Increased,Demand
2012-05-14T10:24:44Z,Belka,Says,Poland 's Rates Mark Return
2012-05-14T10:35:33Z,Asian Operators,Asking to,Cover Tankers
2012-05-14T10:35:33Z,Iran Ship Insurer,Says,Operators
2012-05-14T10:35:33Z,Operators,Asking to,Cover Tankers
2012-05-14T10:44:06Z,22 Wind Turbines,in,U.K.
2012-05-14T10:44:06Z,Nordex,With,22 Wind Turbines in U.K.
2012-05-14T10:46:51Z,Warsaw Exchange,Hits,Low
2012-05-14T10:50:52Z,Fed Funds Projected,Open at,0.13 ICAP Says
2012-05-14T10:55:48Z,Kenya Shilling,Set for,Lowest
2012-05-14T10:56:27Z,Euro-Area Industrial Output,Unexpectedly Fell in,March
2012-05-14T11:00:00Z,20 Percentage Points,in,Mexico Opinion Poll
2012-05-14T11:00:00Z,Pena Nieto,Leads by,20 Percentage Points in Mexico Opinion Poll
2012-05-14T11:27:41Z,Korea,of,Kim Declines
2012-05-14T11:32:05Z,Palm Oil,Plunges,Most in 14 Months
2012-05-14T11:38:27Z,Foreign Investors,Buy,Net 1.76 Billion Rupees
2012-05-14T12:02:59Z,CEZ,Retreats on,Albania Risk
2012-05-14T12:07:43Z,Greek Opinion Poll Indicates Majority,Supports,Bailout Plan
2012-05-14T12:07:43Z,Opinion Poll Indicates Majority,Supports,Bailout Plan
2012-05-14T12:09:27Z,Money Managers,Raise Bets on,Higher Cocoa Prices
2012-05-14T12:14:15Z,Losses,on Falls,Higher Plant Costs
2012-05-14T12:14:28Z,Loewe,Surges on,Report Apple Targets TV Maker
2012-05-14T12:15:52Z,Aabar,Boosts,Stake
2012-05-14T12:18:18Z,Balchunas,Discusses,ETF
2012-05-14T12:27:25Z,PKO Bank,Rising,Bad-Loan Provisions
2012-05-14T12:32:06Z,Derivatives,Wonderful for,Audio
2012-05-14T12:32:06Z,Levitt,Says,Derivatives
2012-05-14T12:34:54Z,Athi River Mining,Jumps,Record
2012-05-14T12:38:05Z,SunTrust ’s Rogers,Says,JPMorgan Loss
2012-05-14T12:46:37Z,Chile Reports Mid-Sized Earthquake,in,Arica
2012-05-14T12:47:02Z,2012 Low,to Falls,Saudi Call for Drop
2012-05-14T12:47:02Z,Oil Falls,Call for,Drop
2012-05-14T12:49:04Z,Treasury,Says,ResCap Filing Unfortunate
2012-05-14T12:50:30Z,Egypt,Refers Graft Complaint Against,Shafik
2012-05-14T12:53:29Z,Merkel,Says,Crisis Policy Unaffected
2012-05-14T12:59:58Z,Schaeuble,Urges Greece to,Avert Cost
2012-05-14T13:12:20Z,Cameron ’s Cuts,Widening,North-South U.K. Wealth Rift
2012-05-14T13:20:51Z,Rousseff,Expands Brazil Welfare Benefits to,Target Child Poverty
2012-05-14T13:23:48Z,Telecom Egypt First-Quarter Net,Rises on,Wholesale Business
2012-05-14T13:28:12Z,Delay Bank Downgrades,to Said,JPMorgan
2012-05-14T13:28:12Z,Moody,’s Said,JPMorgan
2012-05-14T13:35:56Z,Derivatives,Signal,Rising Money Market Stress
2012-05-14T13:37:23Z,Gannett Finance Chief Saleh,Takes,CFO Job
2012-05-14T13:37:54Z,Crown Acquisitions,Buys,Stake
2012-05-14T13:37:54Z,NYC,in,Olympic Tower Complex
2012-05-14T13:40:50Z,Euro Money-Market Indicator,Shows,Increased Bank Lending Stress
2012-05-14T13:43:35Z,Intellectual Ventures,Jointly Buy,IPWireless Patents
2012-05-14T13:44:53Z,Europe Concern,Boosts,Dollar
2012-05-14T13:44:53Z,Gold,Erases,Year ’s Gain
2012-05-14T13:57:48Z,Algorithms,Competing With,Brokers
2012-05-14T14:08:21Z,Million,in,U.S.
2012-05-14T14:15:06Z,Takeover Talks,Fail,Funds Run Out
2012-05-14T14:20:49Z,Iran ’s Parliament,Approves,Subsidy Cuts
2012-05-14T14:23:39Z,Debt Risk,Rises as,Spain Bank Woes Heighten Euro Alarm
2012-05-14T14:23:39Z,Sovereign Debt Risk,Rises as,Spain Bank Woes Heighten Euro Alarm
2012-05-14T14:27:56Z,F&C ’s Charles,Leaves as,Operations Boss of Hedge Fund Unit
2012-05-14T14:29:36Z,2.5 %,in,June
2012-05-14T14:31:01Z,379 Shell Companies,in,Fraud-Prevention Push
2012-05-14T14:31:01Z,SEC,Halts,Trades
2012-05-14T14:31:44Z,Decline,Drops,21 %
2012-05-14T14:31:44Z,Russia ’s RTS Index,Extends,Decline
2012-05-14T14:33:41Z,Egypt,in,Mostorod Refinery
2012-05-14T14:33:41Z,Qatar Petroleum,Set,Invest in Egypt ’s Mostorod Refinery
2012-05-14T14:37:09Z,Banks,Fall on,Concern Fiscal Woes
2012-05-14T14:37:09Z,European Banks,Fall on,Concern Greek Fiscal Woes
2012-05-14T14:43:35Z,Aston Villa,Coach,Alex McLeish
2012-05-14T14:43:35Z,One Season,in,Charge
2012-05-14T14:46:12Z,Clemens,Loses,Bid
2012-05-14T14:50:22Z,Gazprom European Exports,Extend,Declines
2012-05-14T15:00:05Z,Tropical Depression Forms,in,Pacific
2012-05-14T15:01:42Z,Total Plugs Nigeria Gas Leak,Cap Within,Days
2012-05-14T15:02:17Z,JPMorgan,Says Treasury 10-Year Yield May Slide to,1.5 % on Europe
2012-05-14T15:05:00Z,Camps,Drift Mill After,Component Failure
2012-05-14T15:05:00Z,Hulamin,Closes,Camps
2012-05-14T15:09:23Z,Central Bank,on,Surprise Easing
2012-05-14T15:09:46Z,Spanish Yields,Climb to,5-Month High
2012-05-14T15:09:46Z,Yields,Climb to,5-Month High
2012-05-14T15:10:39Z,Kenya Shilling,Weakens,Weakest
2012-05-14T15:10:39Z,Weakest,in,Three Months
2012-05-14T15:14:41Z,Rusal Net,Slumps,84 %
2012-05-14T15:14:41Z,Rusal Quarterly Net,Slumps,84 %
2012-05-14T15:16:44Z,Lundbeck,Rises on,Results for Experimental Antidepressant
2012-05-14T15:26:09Z,Closer Monitoring,in,Serbian Runoff Vote
2012-05-14T15:30:01Z,First-Quarter Profit,in,Tax Filing
2012-05-14T15:31:06Z,Magyar Telekom,Move in,Budapest
2012-05-14T15:32:18Z,Default Swaps,Jump,Most
2012-05-14T15:32:18Z,Hungarian Default Swaps,Jump,Most in 4 Months
2012-05-14T15:32:38Z,Otokar,Rises on,Armored Vehicle Contract
2012-05-14T15:33:42Z,Profit,in,Tax Filing
2012-05-14T15:33:42Z,Vestel Elektronik,Showing,Profit in Tax Filing
2012-05-14T15:34:53Z,Gubre Fabrikalari,Showing,Profit
2012-05-14T15:34:53Z,Profit,in,Tax Filing
2012-05-14T15:38:11Z,Ally,’s Bankruptcy,Plans Sale to Fortress
2012-05-14T15:38:11Z,Ally ’s ResCap Files Bankruptcy,Sale to,Fortress
2012-05-14T15:39:10Z,Russia Stocks,in,Bear Market
2012-05-14T15:43:57Z,Zloty Slides,in,Almost Four Months on Greece Concern
2012-05-14T15:45:40Z,Sberbank Said,With,Higher Denizbank Bid
2012-05-14T15:46:21Z,Egypt Draft Budget,Reducing Deficit to,7.9 % of GDP
2012-05-14T15:48:09Z,JPMorgan Loss,Shows,Need for Banking Reform
2012-05-14T16:00:13Z,Merkel,Vote,Loss
2012-05-14T16:01:04Z,EU,Re-Examination of,Bailout Terms
2012-05-14T16:03:18Z,Colorectal Cancer,in,Mid-Stage Trial
2012-05-14T16:03:18Z,Mologen Drug,Slows,Colorectal Cancer
2012-05-14T16:03:27Z,Skye Bank,in,Six on Loan Deal
2012-05-14T16:04:33Z,Gold,Erases,Year ’s Gain
2012-05-14T16:06:48Z,Romney Vowing Dodd-Frank Repeal,Hits,JPMorgan Risky Trades
2012-05-14T16:07:30Z,U.K. Stocks,Tumble on,Concern Greece Will
2012-05-14T16:08:43Z,European Stocks,Drop on,Greek Deadlock
2012-05-14T16:08:43Z,Stocks,Drop on,Greek Deadlock
2012-05-14T16:09:15Z,Swiss Stocks,Drop,Greek Government Talks Deadlocked
2012-05-14T16:09:53Z,JPMorgan Losses Spark Frenzy,in,Swaps Indexes
2012-05-14T16:25:59Z,Ferragamo,Sees,2012 Growth
2012-05-14T16:30:01Z,Heat ’s Bosh,Is After,Game 1 Abdominal Strain
2012-05-14T16:51:36Z,Standard Microsystems,Is Sued Over,$ 939 Million Takeover
2012-05-14T16:54:22Z,Deficits,Irrelevant With,Record Yields
2012-05-14T16:54:22Z,Treasury Demand,Shows,Deficits
2012-05-14T16:56:40Z,Azeri Opposition Protests,in,Capital
2012-05-14T17:02:21Z,Canada ’s Banks,Catch,Europe
2012-05-14T17:05:43Z,Heebner,Buys,Whirlpool
2012-05-14T17:19:52Z,Court,Lets,Apple Pursue U.S. Ban on Samsung Galaxy Tablet
2012-05-14T17:25:59Z,Dale Hunter,Quits,NHL Capitals ’ Coach After Loss to Rangers
2012-05-14T17:25:59Z,NHL Capitals,Coach After,Loss
2012-05-14T17:31:26Z,Gazprom,Holds Talks Before,CIS Moscow Summit
2012-05-14T17:33:55Z,Sanders,Sees Conflict With,Dimon on New York Fed Board
2012-05-14T17:38:33Z,State Street Junk ETF,Used,Obtain Up
2012-05-14T17:45:06Z,Google-Backed Offshore-Wind Grid,Gets,Environmental Review
2012-05-14T17:45:06Z,Offshore-Wind Grid,Gets,Environmental Review
2012-05-14T17:53:27Z,Chile,Says,Growth May Top 5 %
2012-05-14T17:53:27Z,Copper Sales,Drive,GDP
2012-05-14T17:57:06Z,Navy,Taken by,Lawmakers
2012-05-14T18:00:00Z,Stake,in,Health Law
2012-05-14T18:02:03Z,U.S. Gulf Oil Premiums,Weaken,Seaway Pipeline Startup Nears
2012-05-14T18:25:39Z,Obama,Rekindle,U.S. Can-Do Spirit
2012-05-14T18:37:41Z,Chile,Consider,Further Cuts
2012-05-14T18:37:41Z,Further Cuts,in,Maximum Rates
2012-05-14T18:44:15Z,Lupin,Torrent Over,Blood-Pressure Medicine
2012-05-14T18:44:15Z,Novartis,Sues,Torrent
2012-05-14T18:50:57Z,Greece Euro-Exit Debate,Goes,Public
2012-05-14T19:12:42Z,Show 300 Hours,to Televisions,AFP Reports
2012-05-14T19:28:23Z,Omega Cuts Sunoco,Buys,Wellpoint
2012-05-14T19:30:13Z,JPMorgan,Shakes Up,CIO Unit Leaders
2012-05-14T19:45:26Z,Funds,Chasing,USDA Price
2012-05-14T19:45:26Z,Grains,Lure,Funds
2012-05-14T19:45:26Z,ICE,Adds,Grains
2012-05-14T19:47:31Z,Argentina,Sends Letter on,Spain Biodiesel Ban
2012-05-14T19:49:59Z,U.S. Prosecutor,Urges,Disclosure
2012-05-14T19:51:37Z,Saudi Price,Call Near,Five-Month Low on Greece
2012-05-14T19:52:46Z,Trial Over MBIA,to,2009 Restructuring
2012-05-14T19:52:59Z,USDA Studying Data,Releases,Commodities Trading Hours Expand
2012-05-14T19:55:23Z,Buying Ally,in,International Business
2012-05-14T19:55:23Z,GM CEO Interested,in,Buying Ally ’s International Business
2012-05-14T20:00:01Z,Saudi Security,Tightens Around,World ’s Crude Facility
2012-05-14T20:00:01Z,World,Around,Biggest Crude Facility
2012-05-14T20:03:49Z,Wheat Seeding,Accelerates on,Drier U.S. Weather
2012-05-14T20:11:03Z,AT&T CEO,Says,Gauge
2012-05-14T20:11:03Z,Economy Hard,Gauge,Consumers Diverge
2012-05-14T20:15:53Z,Chesapeake,Keep,Cash
2012-05-14T20:17:44Z,Skills,Hinder,Factory Gains
2012-05-14T20:21:09Z,Commodities,Drop,Euro Weakens
2012-05-14T20:21:09Z,Euro,Weakens on,Greek Crisis
2012-05-14T20:21:09Z,Stocks,Drop,Euro Weakens on Greek Crisis
2012-05-14T20:22:59Z,Best,Buy ’s,Schulze
2012-05-14T20:28:23Z,Francesca,Fires,CFO Gene Morphis Over Social Media Use
2012-05-14T20:31:50Z,BackOffice Associates,in,Talks With Goldman Sachs for IPO
2012-05-14T20:31:50Z,Talks,With,Goldman Sachs
2012-05-14T20:38:16Z,Ethanol,Extends,Longest Losing Streak
2012-05-14T20:39:23Z,$ 1.45 Billion Debt,With,Record Low Coupons
2012-05-14T20:52:37Z,BMC,Adopts,Takeover Defenses
2012-05-14T20:56:45Z,Facebook Said,Set,Finish
2012-05-14T21:00:00Z,Laxative-Free,Scans Work as,Colonoscopies
2012-05-14T21:00:12Z,Citi ’s Killer App,Gives Hope to,iPhone Sweatshops
2012-05-14T21:04:04Z,SEC,Sues,China Natural Gas Chairman
2012-05-14T21:06:08Z,Pacific System May,Become,Season 's First Tropical Storm
2012-05-14T21:06:58Z,Melco,Leads ADRs Record Losing Streak on,Growth
2012-05-14T21:14:49Z,OHL Mexico,Are,Active
2012-05-14T21:17:41Z,Gas,Stops,Gains
2012-05-14T21:18:08Z,JPMorgan ’s New Investment Head Zames,Shakes Up,Office
2012-05-14T21:27:38Z,FDIC Counsel Krimminger,Join,Washington Law Firm
2012-05-14T21:42:04Z,Fox,Adds,Five Comedies
2012-05-14T21:50:04Z,Appaloosa ’s Tepper Bets,With,Apple
2012-05-14T21:56:18Z,Default Swaps,in,U.S. Rise on Talk Greece May Exit Euro
2012-05-14T21:57:31Z,Brazil Real,Weakens Since,2009
2012-05-14T22:01:00Z,Italy,of,Rottapharm
2012-05-14T22:15:17Z,ResCap,Goes,Bankrupt
2012-05-14T22:15:59Z,Greece,Gets,Hint
2012-05-14T22:19:22Z,Ex-N.Y. Senator Espada Found Guilty,in,Clinic-Theft Case
2012-05-14T22:23:51Z,ICA,Tumbles,Revoked
2012-05-14T22:23:51Z,OHL Highway Contract,Is,Revoked
2012-05-14T22:24:41Z,DBRS,Says,Daniel Curry
2012-05-14T22:24:41Z,Daniel Curry,Become,Leader
2012-05-14T22:26:03Z,San Antonio Voters,Pass,Record Million
2012-05-14T22:26:29Z,Los Angeles Gasoline,Slips,Second Day
2012-05-14T22:26:29Z,Tesoro,Starts,Unit
2012-05-14T22:29:07Z,Federal Jury Convicts Michigan Doctor,In,$ 6.7 Million Medicare Fraud Case
2012-05-14T22:53:31Z,He,Raises,Wall Street Money
2012-05-14T22:53:31Z,Obama,Hits Romney on,Bain
2012-05-14T23:00:01Z,Cannes Opens,With,Willis
2012-05-14T23:00:01Z,Turkey,on,EU Bid
2012-05-14T23:00:23Z,Balkan,Joins in,Key Votes
2012-05-14T23:00:23Z,Greece,Turns,Balkan
2012-05-14T23:00:23Z,Serbia,Joins Europe in,Key Votes
2012-05-14T23:00:26Z,Greatest Generation,Was,Robbed
2012-05-14T23:00:30Z,JPMorgan,of,Trading Losses
2012-05-14T23:01:00Z,Biggest Ship Hedge Fund,Turns,Bullish on Supertankers
2012-05-14T23:01:00Z,Ship Hedge Fund,Turns,Bullish on Supertankers
2012-05-14T23:01:01Z,Brooks,Learn,Will Charged in Phone-Hacking Case
2012-05-14T23:01:01Z,She,Will,Will Charged in Phone-Hacking Case
2012-05-14T23:05:30Z,Ehud Barak,Is In,Iran Nuke Talks
2012-05-14T23:09:09Z,Brazil,of,Pao de Acucar
2012-05-14T23:14:18Z,Oaktree ’s Marks,Pays,Record $ 52 Million
2012-05-14T23:14:35Z,JPMorgan ’s Trades,Probed by,U.S. National Bank Agency
2012-05-14T23:20:35Z,Colorado Civil Unions Legislation,Assigned,Kill
2012-05-14T23:33:21Z,Ex-BP Engineer Mix,Says in,Spill Case
2012-05-14T23:43:26Z,Claims,Dismissed From,Ecuador Lawsuit
2012-05-14T23:45:00Z,Ropes Expands,in,Asia
2012-05-14T23:45:02Z,ResCap Judge,Says,Quick Request Related
2012-05-15T02:36:42Z,More Investment Quota,in,China
2012-05-15T04:01:28Z,Baseball,Fires,Arbitrator
2012-05-15T04:55:46Z,ResCap,Gets Interim Approval for,$ 1.45 Billion Bankruptcy Loan
2012-05-15T05:45:00Z,Portman,Defending,Romney Calls Job Losses
2012-05-15T07:17:08Z,Vivendi Jumps,Tops SFR on,Music
2012-05-15T07:31:19Z,Inflation,With,Eye
2012-05-15T10:02:39Z,Bonus Curbs,Endorsed by,EU Lawmakers
2012-05-15T10:12:39Z,Online Games,in,China
2012-05-15T10:39:58Z,Hollande ’s First Day,Is Marked by,Merkel Summit
2012-05-15T10:51:58Z,Asia Stocks,Fall for,Day
2012-05-15T10:52:07Z,UniCredit,Intesa Among,26 Italian Banks
2012-05-15T12:34:18Z,SAP ’s Facebook,Soaring,Market
2012-05-15T14:55:02Z,GDP,Grew,4.9 %
2012-05-15T14:55:02Z,Russian GDP,Grew,4.9 %
2012-05-15T16:07:49Z,Greek President,Proposes,Government
2012-05-15T16:07:49Z,President,Proposes,Government of Non-Politicians
2012-05-15T17:22:10Z,Paul,Stops,Spending
2012-05-15T17:47:22Z,Lead Shortage,Looms in,’13
2012-05-15T17:47:22Z,Shortage,Looms on,Record Demand
2012-05-15T18:38:57Z,China,Kicks U.S. Equity Aside,Local Funds Rise
2012-05-15T19:06:53Z,Record Ruby,Boosts Million Gems Sale by,Safra
2012-05-15T20:27:12Z,Apple Said,With,Intel Chips
2012-05-15T20:32:11Z,Groupon Shares Rise,Tops,Analyst Estimates
2012-05-16T18:32:37Z,CBS,Rides NFL to,Vie
