2013-07-11T00:00:00Z,Duties,Targeted by,U.S. Lawmakers
2013-07-11T00:00:00Z,Mississippi Mayor ’s Election,Shows,Voting Law ’s Imperfect Legacy
2013-07-11T00:31:03Z,Trayvon Martin Shooter,Had,Police Trainer
2013-07-11T00:55:22Z,Asiana ’s San Francisco Crash Seen,Pushing Airline to,Loss
2013-07-11T01:13:06Z,Morgan Stanley,Recommends,Hedge
2013-07-11T01:26:55Z,Nippon Steel,Compensate,Wartime Korean Laborers
2013-07-11T01:49:13Z,Hong Kong Stocks,Heading on,Bernanke
2013-07-11T01:49:25Z,Abramovich,Credit for,CEO
2013-07-11T01:49:25Z,Chelsea,for,Soccer Upswing
2013-07-11T01:53:58Z,Hong Kong,Allocates,Site
2013-07-11T01:59:34Z,Japanese Shares,Swing on,Energy Explorers
2013-07-11T01:59:34Z,Shares,Swing on,Energy Explorers
2013-07-11T02:10:59Z,Baht,Rises to,Bonds Gain
2013-07-11T02:15:45Z,Boeing,Sees,Aircraft-Backed Bond Issues Doubling
2013-07-11T02:20:55Z,China,as,Stocks
2013-07-11T02:20:55Z,Rebar,Highest in,Eight Weeks
2013-07-11T02:35:58Z,House,Passes,Billion Energy-Water
2013-07-11T02:43:56Z,Europe,in,Banning Anchored
2013-07-11T02:43:56Z,PGA,Joins,Europe
2013-07-11T02:43:56Z,U.S.,Europe in,Banning Anchored
2013-07-11T02:52:29Z,Guam May,Switch From,Oil
2013-07-11T04:00:00Z,Fabulous Fab Trial,Revisits,Subprime Crisis
2013-07-11T04:00:01Z,NTSB Face Hersman,Shows,Cool Resolve of U.S. Air Crash Chasers
2013-07-11T04:00:07Z,Bernanke,by,QE Purchases
2013-07-11T04:01:00Z,Irwin,’s Eerie,Mind-Bending Show
2013-07-11T04:01:00Z,Tribune Spinoff,Hastens,Ending of Newspaper-TV Marriage
2013-07-11T04:01:01Z,Tourre,Loses,Tentative Ruling
2013-07-11T04:01:07Z,IPhones,Stuck to,Windshields Threaten Dashboard Maps
2013-07-11T04:01:08Z,Jackson Ends 13-Year Career,With,NBA
2013-07-11T04:01:10Z,Bynum,Agrees to,Two-Year Deal
2013-07-11T04:12:24Z,AirAsia X Shares,Deter Drop After,IPO
2013-07-11T04:12:24Z,Maybank,Buys,AirAsia X Shares
2013-07-11T04:44:06Z,Cops,Returned to,Crashed Plane
2013-07-11T04:45:25Z,Hong Kong Short Selling Turnover,Recorded,07/11/2013
2013-07-11T04:46:00Z,Ex-Disney CEO Eisner,Praises,Iger
2013-07-11T04:47:00Z,Indian Rupee,Rises,Highest
2013-07-11T04:47:00Z,Rupee,Rises,Highest After Bernanke Comments
2013-07-11T04:51:51Z,Vietnam Rules,Threatens,Intervention
2013-07-11T04:58:03Z,SoloPower,Move,Headquarters
2013-07-11T05:00:00Z,Growth,Withstands,Metals Slump
2013-07-11T05:00:00Z,Peru,Keep,4.25 % Rate
2013-07-11T05:19:49Z,Chateau d’Yquem,Extends,Decline
2013-07-11T05:19:49Z,Chateau d’Yquem ’90,Extends Decline Since,2009
2013-07-11T05:20:53Z,India ’s Bond Yields,Decline as,Rupee Rebounds
2013-07-11T05:24:34Z,U.S. Natural Gas Futures Decline,in,Asian Trading
2013-07-11T06:09:22Z,Commodities,Poised Since,2010 Bernanke Comments
2013-07-11T06:14:04Z,Oilseed Crops,in,India
2013-07-11T06:20:33Z,Italian Bonds Rise,in,Three Days
2013-07-11T06:34:59Z,Exporters,Sustaining,Spain ’s Economy
2013-07-11T06:34:59Z,Rajoy,Punishes,Exporters
2013-07-11T06:55:03Z,Bank,Boosts,2014 Growth Estimate
2013-07-11T07:24:18Z,Rolls Hands Mitsubishi A350 Work,Boosting,Japan Order Prospects
2013-07-11T07:29:38Z,Hong Kong Horse Bets,Hit,Record
2013-07-11T07:29:38Z,Races,Draw,Young Punters
2013-07-11T07:34:58Z,Philips,Loses,EU Court Challenge
2013-07-11T07:40:56Z,Australian Currency,Improve,Earnings
2013-07-11T07:40:56Z,Currency,Improve,Earnings
2013-07-11T07:40:56Z,Weaker Australian Currency,Improve,Earnings
2013-07-11T07:40:56Z,Weaker Currency,Improve,Earnings
2013-07-11T07:57:45Z,Moody,Sees,Property Price Headwinds
2013-07-11T08:00:00Z,Clean Energy Investment,Rises,China
2013-07-11T08:00:00Z,ECB 's Weidmann,Says,Rate Increase Possible
2013-07-11T08:00:00Z,Energy Investment,Rises,22 % Led by U.S.
2013-07-11T08:00:00Z,IEA,Sees Supply Peak Outpacing Demand in,2014
2013-07-11T08:13:16Z,Cosco Shipping Loss Triples,in,Latest Sign of Weak China Profits
2013-07-11T08:18:48Z,Japan Purchases Alternatives,in,Tender
2013-07-11T08:21:05Z,Hungary ’s June Inflation Rate,Exceeds,Economist Forecast
2013-07-11T08:25:18Z,China ’s Stocks,Rally for,Advance
2013-07-11T08:25:18Z,China ’s Stocks Rally,in,18 Months
2013-07-11T08:26:22Z,Adecco,Investigated in,French Antitrust Inquiry
2013-07-11T08:26:22Z,Randstad Investigated,in,French Antitrust Inquiry
2013-07-11T08:28:18Z,Glaxo Executives,Admit to,Bribery
2013-07-11T08:32:16Z,China Repo Rate,Jumps as,Deposit Sale Highlights Cash Shortage
2013-07-11T08:44:43Z,Balfour Beatty,Rises,11 %
2013-07-11T08:50:53Z,Prices,Decline as,Euro-Area Recession
2013-07-11T08:50:53Z,Swedish Prices,Decline as,Krona Weigh
2013-07-11T09:00:13Z,10-Year Bonds,Erase Advance Before,Debt Auction Results
2013-07-11T09:00:13Z,Bonds,Erase,Advance
2013-07-11T09:00:13Z,Italian 10-Year Bonds,Erase,Advance
2013-07-11T09:00:13Z,Italian Bonds,Erase,Advance
2013-07-11T09:04:44Z,Petropavlovsk Jumps,Says,Debt
2013-07-11T09:11:29Z,BOJ,Cites,Recovery
2013-07-11T09:11:29Z,Japan,in,Economy
2013-07-11T09:11:49Z,Shanghai Economic Test Zone,Lures,Imitators From China Ports
2013-07-11T09:34:09Z,Indonesia Fights Inflation,With,More-Than-Forecast Rate Rise
2013-07-11T09:34:18Z,Li Talks,as Policy,Nomura
2013-07-11T09:42:44Z,Government Notes,Drop as,Nation Sells Debt Securities
2013-07-11T09:42:44Z,Italian Government Notes,Drop as,Nation Sells Debt Securities
2013-07-11T09:44:38Z,LME Nickel,in,June
2013-07-11T09:55:00Z,South Africa Mine Wage Talks,Open With,Highest Demands
2013-07-11T10:00:00Z,Obama,Gets,Marks
2013-07-11T10:07:17Z,Balfour Beatty,Creates Venture for,Water Projects
2013-07-11T10:10:41Z,$ 3.8 Million Investment,in,Ivorian Hospitals
2013-07-11T10:10:41Z,Drogba,Leads,$ 3.8 Million Investment in Ivorian Hospitals
2013-07-11T10:19:54Z,Banks,Drop on,Al Rajhi Profit
2013-07-11T10:19:54Z,Saudi Banks,Drop Most in,Month
2013-07-11T10:31:32Z,Call,Stop,Pre-Briefing on U.K. Budget
2013-07-11T10:31:32Z,Osborne,Accepts,Call
2013-07-11T10:37:56Z,RWE,Build,World ’s Offshore Wind Farm
2013-07-11T10:37:56Z,World ’s Biggest Offshore Wind Farm,in,U.K.
2013-07-11T10:46:38Z,Fee Outlook,Is Improving on,Signs
2013-07-11T10:46:38Z,Improving,in,3 Months
2013-07-11T10:46:38Z,Most,Is,Improving
2013-07-11T10:50:23Z,Greece ’s Unemployment Rate,Increased to,Record High
2013-07-11T11:15:08Z,Landslide,Kills,18 as 107 Reported Missing
2013-07-11T11:16:53Z,U.K.,Gets,18 Gigawatts of Power Plant Applications
2013-07-11T11:26:03Z,SNS Reaal,Offers Bondholders Million Ahead,Ruling
2013-07-11T11:35:39Z,Author Jesse Kornbluth,Discusses,Noble
2013-07-11T11:45:11Z,Alkane,Looking Before,Drilling for U.K. Shale Gas
2013-07-11T11:58:32Z,Tiger Asia Accused,in,Hong Kong Case
2013-07-11T12:00:00Z,Carrington,Join,Website Auction.com
2013-07-11T12:00:00Z,Rick Sharga,Leaves,Carrington
2013-07-11T12:01:12Z,U.K. Calls,in,Fraud Office Over G4S Payments
2013-07-11T12:05:49Z,Jordan,Starts Pumping Water From,Disi Aquifer
2013-07-11T12:08:36Z,Malaysia,Holds,Rate
2013-07-11T12:10:01Z,Coeure,Says,ECB Will Reassess Rate Guidance
2013-07-11T12:13:33Z,Turkey Risks,Losing,Half U.S. Steel Pipe Sales
2013-07-11T12:21:08Z,Bernanke,Backs,Stimulus
2013-07-11T12:26:05Z,Putin Preferred,in,Moscow
2013-07-11T12:30:00Z,Canadian May New Home Price Index,Rises,0.1 %
2013-07-11T12:30:00Z,May New Home Price Index,Rises,0.1 %
2013-07-11T12:44:53Z,Agar,Helps Australia to,Lead Over England
2013-07-11T12:46:13Z,Jobless Claims,in,U.S. Unexpectedly Rise to Two-Month High
2013-07-11T13:03:49Z,Ashford,Gets,Accreditation
2013-07-11T13:10:16Z,Seasonal Temperatures,Dominate,U.S. East Coast
2013-07-11T13:10:16Z,Temperatures,Dominate U.S. East Coast in,Late July
2013-07-11T13:27:28Z,Doric May,Take,Airbus A380s Early
2013-07-11T13:27:28Z,May,Take,Airbus A380s Early
2013-07-11T13:31:24Z,Italian Senators Debate,Push to,Strip Berlusconi of Seat
2013-07-11T13:31:24Z,Senators Debate,Push to,Strip Berlusconi of Seat
2013-07-11T13:45:00Z,Consumer Comfort,Improves to,Highest Level
2013-07-11T13:47:02Z,My Dinner,With,Muslim Brotherhood
2013-07-11T13:58:49Z,Gassled Investors,Take Action Over,Tariff Cut
2013-07-11T14:01:50Z,Project,in,U.K.
2013-07-11T14:11:03Z,Afren Founder Imomoh,Says,Oil Industry Needs Engineering Mentors
2013-07-11T14:15:28Z,U.K.,Predicts,$ 2.9 Billion Benefit
2013-07-11T14:16:16Z,IMF,Urges,Restraint
2013-07-11T14:16:16Z,Serbia,Unexpectedly Holds,Key Rate
2013-07-11T14:18:03Z,Booker,From,Shadow
2013-07-11T14:21:25Z,Gasoline,Jumps on,Bernanke Comments
2013-07-11T14:24:50Z,Oryx,Sees,Kurdistan Growth
2013-07-11T14:29:01Z,Jain Irrigation,Sell India Assets to,Cut Debt
2013-07-11T14:33:58Z,Americans,Die,Younger Than Europeans
2013-07-11T14:46:16Z,Bonds,Advance as,$ 12 Billion Aid
2013-07-11T14:46:16Z,Bonds Advance,Eases,Economic Concern
2013-07-11T14:46:16Z,Egyptian Bonds,Advance as,Billion Aid
2013-07-11T14:46:16Z,Egyptian Bonds Advance,Eases,Economic Concern
2013-07-11T15:19:08Z,Obama,Make,Public Case Amid Immigration Opposition
2013-07-11T15:20:50Z,ICE July Cotton Delivery,Is Highest for,Month
2013-07-11T15:21:27Z,Love,Sets,$ 22 Million Burne
2013-07-11T15:23:23Z,Derek Jeter,Is,Rehab Stint
2013-07-11T15:26:53Z,47.6 %,in,Bakrie Deal
2013-07-11T15:30:00Z,OPEC,Says,Year
2013-07-11T15:30:00Z,Oil Movements,Says by,Most
2013-07-11T15:34:28Z,Andina Falls,in,Chile
2013-07-11T15:37:15Z,Tories,Give Cameron Red Lines for,2015 Coalition Talks
2013-07-11T15:51:41Z,Osborne,Says,Austerity Plan
2013-07-11T15:57:44Z,Bernanke,on,Policy Assurance
2013-07-11T15:57:49Z,European Stocks,Stimulus,Optimism
2013-07-11T15:57:49Z,Stocks,Stimulus,Optimism
2013-07-11T16:00:00Z,Exports,Are,Increased
2013-07-11T16:00:00Z,U.S. Plunge,in Rates,CDC
2013-07-11T16:00:00Z,U.S. Wheat Stockpiles,Lowered,12.6 %
2013-07-11T16:00:00Z,Youth Homicide Rates,in,U.S. Plunge
2013-07-11T16:00:04Z,U.S. Cotton-Crop Forecast,Held by,USDA
2013-07-11T16:00:10Z,Ang,Says for,Bank Stakes
2013-07-11T16:01:00Z,Sinopec,Beats Bond Freeze as,China Inc
2013-07-11T16:03:09Z,Bonds,Drop as,Portuguese Securities Slide
2013-07-11T16:03:09Z,Italian Bonds,Drop as,Portuguese Securities Slide
2013-07-11T16:26:55Z,Illinois Parental-Notice Abortion Law,Upheld by,Top Court
2013-07-11T16:36:22Z,India ’s Currency Too,Weak With,Growth
2013-07-11T16:36:22Z,India ’s Worst Currency Too,Weak With,Growth
2013-07-11T16:38:53Z,NYC ’s Vance,Weathering,Strauss-Kahn
2013-07-11T16:44:20Z,Deutsche Telekom,Raided With,Orange
2013-07-11T16:45:51Z,Moody,Raises Default Rate Forecast to,3.2 %
2013-07-11T16:49:30Z,Indian Oil,Buys,Crude
2013-07-11T16:49:30Z,Oil,Buys,African Crude
2013-07-11T16:59:24Z,U.K. Antitrust Regulator,Investigating,Pension Oversight
2013-07-11T17:03:05Z,Europe,Do,Derivatives Deal
2013-07-11T17:03:05Z,U.S.,Do,Derivatives Deal
2013-07-11T17:08:02Z,Railway CEO,Faulted for,Blaming Engineer
2013-07-11T17:12:30Z,Sales,Tied to,Homebuilders Surge
2013-07-11T17:14:55Z,BofA Lead Drop,in,Sales of Structured Notes
2013-07-11T17:14:55Z,GE,Drop in,Sales of Structured Notes
2013-07-11T17:17:32Z,McGraw Hill Financial Names Peterson CEO,Succeeding,McGraw
2013-07-11T17:20:47Z,Sukhoi May Refinance Superjet 100 Plane Debt,Seek,More Capital
2013-07-11T17:20:55Z,Corn Bets,Turn,Bearish
2013-07-11T17:20:55Z,Rain,Revives,U.S. Crops
2013-07-11T17:22:13Z,115,to Drop,Commerzbank
2013-07-11T17:22:13Z,Year-End,by Drop,Commerzbank
2013-07-11T17:23:35Z,Ex-Hospital CEO Reynolds Pleads Guilty,in,Kickback Case
2013-07-11T17:29:49Z,Jeter,Hits,Single
2013-07-11T17:34:56Z,CME Requests CFTC Approval,Barring,Wash Trades
2013-07-11T17:38:49Z,15 Runs,in,First Ashes Cricket Test
2013-07-11T17:38:49Z,England,Leads,Australia
2013-07-11T17:42:46Z,S&P,Climbs Above,Record Close
2013-07-11T17:42:46Z,S&P 500,Climbs Above,Record Close
2013-07-11T17:47:38Z,Copper,Reaches Three-Week High for,Stimulus
2013-07-11T17:59:16Z,House GOP,Offers,Housing Bill
2013-07-11T18:02:42Z,Wayne Rooney,Leaves,Manchester United ’s Asian Tour
2013-07-11T18:05:05Z,Banks,Selling in,Boom
2013-07-11T18:05:05Z,Miami,Tops U.S. Foreclosures,Banks Selling
2013-07-11T18:09:41Z,Rising Deaths,in,Quebec Train Crash Make
2013-07-11T18:17:40Z,Dan Loeb,Fuhrman at,Charlie Bird
2013-07-11T18:18:55Z,Treasury 's Lew,Meets,Executives
2013-07-11T18:22:49Z,Runaway Train,in,Quebec Spotlights Wild West-Era Brakes
2013-07-11T18:25:13Z,FHA,Expands,Foreclosure Alternatives
2013-07-11T18:26:05Z,Browder Sentenced,Guilty in,Russian Tax Case
2013-07-11T18:26:05Z,Dead Adviser Guilty,in,Russian Tax Case
2013-07-11T18:29:33Z,Bernanke,Backs,Sustained Stimulus
2013-07-11T18:29:33Z,Gold,Rises to,Two-Week High
2013-07-11T18:31:01Z,Barclays,Sees,Rupee Jump
2013-07-11T18:31:01Z,HSBC,Lured by,Returns
2013-07-11T18:32:46Z,Wheat Posts Longest Rally,in,Four Months on U.S. Outlook
2013-07-11T18:41:04Z,Risks,in,Wake of Disaster
2013-07-11T18:45:49Z,Trayvon Martin,Died From,Zimmerman ’ Profiling
2013-07-11T19:06:04Z,Hogs,Increasing,U.S. Supplies
2013-07-11T19:41:43Z,Father,Cancels Tiramisu Under,Pentagon Furloughs
2013-07-11T19:51:36Z,Hedge Funds Ads,Will Only Harm,Greedy
2013-07-11T20:05:37Z,Best Buy,Boosting,Five-Year Bond Sale
2013-07-11T20:05:37Z,Buy,Boosting,Five-Year Bond Sale
2013-07-11T20:06:06Z,Jackson Lewis,Adds,Six From Patton Boggs
2013-07-11T20:06:06Z,Seven Partners,Six From,Patton Boggs
2013-07-11T20:07:26Z,Alnylam,Rises After,Positive Data in Heart Weakness Trial
2013-07-11T20:07:26Z,Positive Data,in,Heart Weakness Trial
2013-07-11T20:11:20Z,Celgene,Rises on,Revlimid Study Result
2013-07-11T20:15:06Z,Alaska Air Will Start,Paying,Dividend
2013-07-11T20:15:11Z,Liberty ’s John Malone,Urges,Ergen
2013-07-11T20:15:24Z,States,Defend,Clean-Energy Mandates Targeted
2013-07-11T20:22:56Z,Brain Trauma Surge,Raises,CDC Alarm
2013-07-11T20:30:12Z,Amazon Seen Gaining Advantage,With,Apple ’s E-Book Defeat
2013-07-11T20:30:12Z,Apple,With,E-Book Defeat
2013-07-11T20:32:39Z,New Houses Fall,for Applications,MBA
2013-07-11T20:36:00Z,Press Counterclaims,in,Hobbitt Game Suit
2013-07-11T20:50:03Z,Obama,Keeps Up,Pace
2013-07-11T20:50:19Z,American Equity,Resumes Debt Sale,Bonds Rebound
2013-07-11T20:50:19Z,Equity,Resumes,Debt Sale
2013-07-11T20:52:56Z,Light Louisiana Sweet,Strengthens for,First Time
2013-07-11T20:52:56Z,Louisiana Sweet,Strengthens in,Two Weeks
2013-07-11T20:55:19Z,Sprint,Offers,Guarantee
2013-07-11T20:59:33Z,Pemex Contracts,Draw,Interest
2013-07-11T21:11:09Z,Canada Dollar,Rises on,Bets of U.S.
2013-07-11T21:17:29Z,Abortions,Made,Harder
2013-07-11T21:17:29Z,Harder,Turn to,Flea Market Pills
2013-07-11T21:17:29Z,Legal Abortions,Made,Harder
2013-07-11T21:22:38Z,U.S.,Sued by,Fannie Mae Investors
2013-07-11T21:22:51Z,Treasury 10-Year Notes,in,Longest Rally
2013-07-11T21:27:23Z,Aveo,Subpoenaed by,U.S. Regulator
2013-07-11T21:29:40Z,China ’s Lou,Urges,Fed
2013-07-11T21:29:40Z,Risks,Tapering,Bond Buying
2013-07-11T21:29:58Z,Rise,to Production,PressTV Reports
2013-07-11T21:49:13Z,Credit Swaps,in,U.S. Decline
2013-07-11T21:51:25Z,$ 1.5 Billion,in,First 2013 Sale
2013-07-11T21:52:33Z,Analyst Conflict Disclosures,in,Debt Market
2013-07-11T21:52:33Z,Finra Board,Approves,Analyst Conflict Disclosures
2013-07-11T21:56:38Z,Rally,Most in,10 Months on Stimulus Bets
2013-07-11T22:00:01Z,Kittel Tops Cavendish,in,Sprint
2013-07-11T22:00:01Z,You,Would Do,Unto Yourself
2013-07-11T22:00:47Z,Republicans,Can Exploit,Obamacare
2013-07-11T22:03:56Z,Brazil Second Biggest Union,Urges,Mantega
2013-07-11T22:03:56Z,Brazil Second Union,Urges Mantega to,Quit
2013-07-11T22:17:15Z,Chile,Keeps Rate,Hold as Inflation Rises
2013-07-11T22:31:49Z,Ethanol,Strengthens Against,Gasoline
2013-07-11T22:32:33Z,Brazil,Eases Curbs as,Weakens
2013-07-11T22:35:11Z,Talks,With,Banks
2013-07-11T22:40:52Z,Bonds,in,International Debt Markets
2013-07-11T23:00:01Z,China Leverage Risks,Bypass Super-Saver Households,GDP Slows
2013-07-11T23:00:01Z,Number 11 Agar Breaks Record,in,Ashes Test Swinging
2013-07-11T23:00:03Z,Cerberus,for,Next Seibu Step
2013-07-11T23:01:00Z,Buyers,Flock to,Market
2013-07-11T23:01:00Z,London,Record,Buyers Flock to Market
2013-07-11T23:25:15Z,$ 750 Million,in,Africa ’s First Debt Sale
2013-07-11T23:25:15Z,Africa,in,First Debt Sale
2013-07-11T23:25:54Z,Aides,Say Over,Cost
2013-07-11T23:25:54Z,Senate Student-Loan Plan Falls,Say Over,Apart Cost
2013-07-11T23:47:06Z,Growth,Withstands,Metals Slump
2013-07-11T23:47:06Z,Peru,Keeps,4.25 % Rate
2013-07-11T23:48:21Z,U.S.,Sees China Opening Economy as,Pursue Investment Accord
2013-07-11T23:49:22Z,Chinese PC Giant Lenovo,Starts Manufacturing in,U.S.
2013-07-11T23:49:22Z,PC Giant Lenovo,Starts,Manufacturing
2013-07-12T00:00:00Z,Philip Caldwell,CEO After,Henry Ford II
2013-07-12T00:38:46Z,Henry Tang ’s Wife,Admits,Guilt Over Illegal Basement
2013-07-12T01:46:17Z,Senate,Sets,Stage
2013-07-12T02:00:00Z,Benghazi Stance,in,Senate
2013-07-12T02:42:24Z,Abenomics,Leaves,Japan ’s Hinterland
2013-07-12T04:00:01Z,$ 219 Million Last Week,in,Rebound
2013-07-12T04:00:01Z,Bernanke Departure,With,Duke Heralds Cascade of Fed Appointments
2013-07-12T04:00:01Z,Gowdy,Cites Optimism on,House Immigration Plan
2013-07-12T04:00:01Z,Obama ’s Ad Men,Turning,Movie Nights Into Mini-Elections
2013-07-12T04:00:01Z,Republican Gowdy,Cites,Optimism
2013-07-12T04:01:00Z,Clariant Expanding,in,U.S.
2013-07-12T04:01:00Z,Netflix,in,Talks for Season of Arrested Development
2013-07-12T04:01:00Z,Sales,in,Disney World Test
2013-07-12T04:01:01Z,Teen,Died,Told
2013-07-12T04:01:01Z,Zimmerman Profiled,Is,Told
2013-07-12T04:01:05Z,Ilya Kovalchuk,Retires After,11 Seasons
2013-07-12T04:01:06Z,Final MLB All-Star Spots,Go to,Freeman
2013-07-12T04:01:06Z,MLB All-Star Spots,Go to,Freeman
2013-07-12T04:01:09Z,Jeter,Hurts Thigh in,Return
2013-07-12T04:06:37Z,AB InBev,Capped by,Mexico
2013-07-12T04:06:37Z,Heineken ’s Exclusive Beer Deals,Capped by,Mexico
2013-07-12T04:28:36Z,House-Passed Farm Bill Deemed,Flawed by,Senate Democrats
2013-07-12T05:50:45Z,Dollar,Set Before,Fed ’s Bullard Speaks
2013-07-12T05:50:45Z,Fed,Before,Bullard Speaks
2013-07-12T07:16:47Z,Nokia,Revive,Demand
2013-07-12T07:38:51Z,Rupee,Spur,India
2013-07-12T08:55:36Z,Mead Johnson,in,China Price Probe
2013-07-12T09:27:39Z,Coffee Harvest,in,Vietnam
2013-07-12T10:33:57Z,Vulture Investors Frustrated,in,Dublin Weigh Irish Exit
2013-07-12T12:16:35Z,Exxon ’s $ 735 Million Ukraine Pledge,Shows,Black Sea Zeal
2013-07-12T12:16:35Z,Exxon ’s $ Million Ukraine Pledge,Shows,Black Sea Zeal
2013-07-12T12:16:35Z,Exxon ’s Million Ukraine Pledge,Shows,Black Sea Zeal
2013-07-12T12:30:33Z,Carney Seen Echoing Fed,in,Tying BOE Guidance
2013-07-12T12:49:26Z,Maruti,in,Four Years
2013-07-12T13:37:49Z,Warren,Push,New Glass-Steagall Law
2013-07-12T14:08:43Z,Wildfires,Surging,Los Angeles Power Costs
2013-07-12T14:12:20Z,Schneider Electric,Offers,$ 5 Billion
2013-07-12T14:22:13Z,Gold Traders,Bullish in,Five Weeks After Fed
2013-07-13T12:48:40Z,Typhoon Soulik,Makes,Landfall
