2013-11-14T00:00:00Z,CME,Gets,$ 7 Billion Credit Line
2013-11-14T00:00:03Z,Paulson,in,Iceland Bet Five Years
2013-11-14T00:00:27Z,U.S. 10-Year Note Auction,Draws,Bid
2013-11-14T00:00:27Z,U.S. Note Auction,Draws,Highest Indirect Bid
2013-11-14T00:01:00Z,Cameron,Urges Calm Immigration Language in,Bid
2013-11-14T00:22:26Z,Government,Decide on,Timing
2013-11-14T00:54:27Z,Goldman Sachs ’ Cohen,Sees,Value in Record-High Stocks
2013-11-14T00:54:27Z,Value,in,Record-High Stocks
2013-11-14T01:24:03Z,Warhol,’,Car Crash
2013-11-14T01:24:03Z,Warhol ’s Car Crash,Fetches,Record Million
2013-11-14T01:24:24Z,Japan,Poised as,Refinery Cuts Boost Prices
2013-11-14T01:25:03Z,YRC Needs Union Accord,Says as,Nov.
2013-11-14T01:28:47Z,Bank,Holds,Rate for Sixth Month
2013-11-14T02:00:38Z,N.J. Housing-Bias Accord,Scuttles,U.S. Supreme Court Case
2013-11-14T02:15:51Z,China May,Buy to,Boost Reserves
2013-11-14T02:15:51Z,Rubber,Rises Near,2-Week High
2013-11-14T02:30:50Z,Copper,Rises,Yellen Says
2013-11-14T02:41:14Z,Australia,With,Longest Domestic Covered Bond
2013-11-14T02:41:14Z,Westpac,Joins ANZ With,Australia ’s Longest Domestic Covered Bond
2013-11-14T02:45:18Z,Peso,Strengthens,Most
2013-11-14T02:45:18Z,Philippine Peso,Strengthens,Most
2013-11-14T02:51:03Z,New Evidence Bid,in,Australia Apple Dispute
2013-11-14T02:51:03Z,Samsung,Loses,New Evidence Bid in Australia Apple Dispute
2013-11-14T03:00:01Z,Bachelet Bids,With,Call for Free Education
2013-11-14T03:11:58Z,Second Day,in,Shanghai
2013-11-14T03:16:17Z,Australia ’s Senate,Rejects Raising Debt Ceiling to,Billion
2013-11-14T04:45:23Z,Hong Kong Short Selling Turnover,Recorded,11/14/2013
2013-11-14T05:00:01Z,Charter Unveils Digital Service,in,Bid
2013-11-14T05:00:01Z,Florida,Shifts From,Republicans
2013-11-14T05:00:01Z,Housing-Bias Accord,Scuttles,U.S. Supreme Court Case
2013-11-14T05:00:01Z,Pentagon,Says to,More Disputed Russian Copter Deals
2013-11-14T05:00:17Z,China,Increases Typhoon Aid to,$ 1.64 Million
2013-11-14T05:01:00Z,Gold,Making,People Crazy
2013-11-14T05:01:00Z,Mercedes ’s $ SLS Supercar,Roars on,Desert Track
2013-11-14T05:01:00Z,Mercedes ’s SLS Supercar,Roars on,Desert Track
2013-11-14T05:01:00Z,Noah ’s Ark Depends,in,Default-Plagued Debt
2013-11-14T05:01:00Z,Obama Seen,Forced,Go to Congress
2013-11-14T05:01:00Z,Redfin,Raises,$ 50 Million Led
2013-11-14T05:01:00Z,Regal Tombs Shines,in,Met Show
2013-11-14T05:01:00Z,Snapchat,Attract,Teens
2013-11-14T05:01:00Z,Woods,Makes,Caddie ’s Beef Jerky Golf-Bag Accessory
2013-11-14T05:01:01Z,Ex-NFL Player Sam Hurd,Gets,15 Years ’ Prison
2013-11-14T05:01:02Z,Wall Street,Courting,Gay Students
2013-11-14T05:17:37Z,China,of,Wen
2013-11-14T06:00:00Z,Gold Demand,Fell,21 % Last Quarter
2013-11-14T06:00:00Z,Investors,Sold,ETP Holdings
2013-11-14T06:20:00Z,Boeing ’s Largest Union,Swapping,Pensions
2013-11-14T06:20:00Z,Swapping,Pensions for,777X
2013-11-14T06:26:54Z,$ 1.6 Trillion Debt Pile,Impedes,Rate Freedom
2013-11-14T06:26:54Z,$ Trillion Debt Pile,Impedes,Rate Freedom
2013-11-14T06:26:54Z,Local $ 1.6 Trillion Debt Pile,Impedes,Rate Freedom
2013-11-14T06:26:54Z,Local $ Trillion Debt Pile,Impedes,Rate Freedom
2013-11-14T06:26:54Z,Local Trillion Debt Pile,Impedes,Rate Freedom
2013-11-14T06:26:54Z,Trillion Debt Pile,Impedes,Rate Freedom
2013-11-14T06:27:10Z,EADS Third-Quarter Profit,Rises on,Higher Airbus Jet Deliveries
2013-11-14T06:34:37Z,Sound Global Forms Wastewater Treatment Unit,in,Fujian
2013-11-14T06:35:06Z,Businesses,Hold on,Investment
2013-11-14T06:35:06Z,Economy,Shrinks,Businesses Hold Off on Investment
2013-11-14T06:35:06Z,French Economy,Shrinks,Businesses Hold Off
2013-11-14T06:39:03Z,Gazprom Second-Quarter Profit,Rises,Retroactive Payments Halt
2013-11-14T06:54:32Z,Diverging,More From,Losers
2013-11-14T07:00:00Z,Lilly Triples Investment,in,Growing Market for Diabetes
2013-11-14T07:06:32Z,29 %,in,2014
2013-11-14T07:06:32Z,Copper Processing Fees,Yamaguchi ’s,UBS
2013-11-14T07:06:32Z,Rise,to Fees,UBS ’s Yamaguchi
2013-11-14T07:13:18Z,Mizuho,Raises,20 %
2013-11-14T07:25:17Z,Volkswagen,Pays,Least
2013-11-14T07:50:21Z,Indian Inflation Estimates,Adds,Rate-Rise Pressure
2013-11-14T07:50:21Z,Indian Inflation Exceeding Estimates,Adds,Rate-Rise Pressure
2013-11-14T07:50:21Z,Inflation Estimates,Adds,Rate-Rise Pressure
2013-11-14T07:50:21Z,Inflation Exceeding Estimates,Adds,Rate-Rise Pressure
2013-11-14T08:18:00Z,BOE ’s Fisher,Says,Pound Level
2013-11-14T08:18:00Z,Pound Level,Inconsistent With,Trade Gap Size
2013-11-14T08:18:10Z,Hungary GDP Growth,Accelerates Than,More Forecast
2013-11-14T08:27:18Z,Company,Loses,Market Share
2013-11-14T08:31:40Z,China ’s Stocks Rise,Drop Since,August
2013-11-14T08:33:57Z,Romania ’s Economy,Grows at,Pace
2013-11-14T08:36:24Z,Serco,Plunges as,Profit Guidance Hurt
2013-11-14T08:48:18Z,German Stocks,Hold,Stimulus
2013-11-14T08:48:18Z,Stocks,Hold,Stimulus
2013-11-14T08:49:51Z,Tepco Picks Mitsubishi Electric,Others as,Smart-Meter Providers
2013-11-14T08:54:21Z,Great Portland First-Half Profit,Jumps on,London Property Demand
2013-11-14T08:54:21Z,Portland First-Half Profit,Jumps on,London Property Demand
2013-11-14T09:00:01Z,November,for Editorial,Text
2013-11-14T09:00:13Z,Yuan,Halts Three-Day Decline Before,Lew Visit
2013-11-14T09:01:02Z,China Banks,Pay,Most
2013-11-14T09:11:28Z,EU Politicians,Reach,Agreement on Solvency II Rules
2013-11-14T09:12:04Z,World ’s Largest Refinery,Turns to,India
2013-11-14T09:26:09Z,Euro Recovery,Wanes as,Germany Slows
2013-11-14T09:27:06Z,KBC,Cleans Up,Loan Book
2013-11-14T09:27:06Z,Profit,Tops,Estimates
2013-11-14T09:27:06Z,Quarterly Profit,Tops,Estimates
2013-11-14T09:29:57Z,Italy Contracts,in,Third Quarter
2013-11-14T09:32:53Z,Schaeuble,in,Brussels
2013-11-14T09:34:55Z,Lebanon ’s Central Bank,in,Bond Market
2013-11-14T09:36:37Z,$ 673 Million,in,Savings
2013-11-14T09:44:39Z,Paul McCartney,Urges,Putin
2013-11-14T09:56:22Z,Tencent,Rises as,Web Game Sales Increase
2013-11-14T10:02:00Z,Temasek ’s Pavilion,Pays Billion for,Tanzania Gas Share
2013-11-14T10:22:42Z,Mistry,Sees,Steady Palm Oil Prices
2013-11-14T10:22:42Z,Output,Trails,Estimates
2013-11-14T10:24:05Z,Nordex,Raises Wind Turbine Order Outlook on,European Growth
2013-11-14T10:30:59Z,Lenzing Falls,in,Vienna
2013-11-14T10:31:40Z,Start World,to,Largest China Warehouse Fund
2013-11-14T10:37:36Z,Bouygues Stock,Rises as,Spending Reductions Boost Profit
2013-11-14T10:44:49Z,CVC Capital Partners Said,Move in,Health Care
2013-11-14T10:51:30Z,Asian Stocks,Rise on,Optimism Yellen Will
2013-11-14T10:51:30Z,Asian Stocks Rise,Keep,Stimulus
2013-11-14T10:51:30Z,Stocks,Rise on,Optimism Yellen Will
2013-11-14T10:51:30Z,Stocks Rise,Keep,Stimulus
2013-11-14T10:56:34Z,Czech GDP,Shrinks Before,Intervention
2013-11-14T10:59:23Z,Europe Recovery,Wanes as,France Contracts
2013-11-14T11:01:19Z,ECB,Says,Forecasters Cut Inflation Projections
2013-11-14T11:10:51Z,Ruble,Rises,Day
2013-11-14T11:14:32Z,British Retail Sales,Declined,0.7 %
2013-11-14T11:14:32Z,Retail Sales,Unexpectedly Declined,0.7 %
2013-11-14T11:18:32Z,Portuguese Hotel Revenue Rose 4.3 Percent,in,September
2013-11-14T11:19:43Z,UN Seeks Carbon Market,Revamp as,Green-Project Backers Bolt
2013-11-14T11:24:15Z,Portugal September Overnight,Stays in,Hotels
2013-11-14T11:24:19Z,JPMorgan,Gets Map With,HSBC
2013-11-14T11:29:10Z,Prices,Discounted to,Russia
2013-11-14T11:48:03Z,Croatia,Raises,Budget Gap Outlook
2013-11-14T11:51:44Z,Inflation,Tops,Economists ’ Predictions
2013-11-14T11:54:57Z,CGI Profit,Beats,Estimates Helped
2013-11-14T11:54:57Z,CGI Quarterly Profit,Beats,Estimates
2013-11-14T11:54:57Z,Estimates,Helped by,Logica Purchase
2013-11-14T11:56:41Z,Emirates,Widens,Gap
2013-11-14T11:56:41Z,Record Order,Builds,Dominance
2013-11-14T12:00:23Z,GDP,Beats Estimates With,Expansion
2013-11-14T12:00:23Z,Polish GDP,Beats Estimates With,Fastest Expansion
2013-11-14T12:00:54Z,Brazil Economic Activity,Unexpectedly Contracts in,September
2013-11-14T12:00:54Z,Brazil Economic Activity Contracts,in,September
2013-11-14T12:02:13Z,Burberry,Sees,Beauty Profit
2013-11-14T12:10:18Z,Denmark,Feeds,World ’s Home Debt Load
2013-11-14T12:22:25Z,Cyprus ’s Economic Slump,Shows Milder Decline in,Third Quarter
2013-11-14T12:32:41Z,EADS Forecasts Cash Outflow,in,2013
2013-11-14T12:56:56Z,Manchester United,Has First-Quarter Profit as,Revenue Increases
2013-11-14T13:03:59Z,Egypt,Says,Tension
2013-11-14T13:03:59Z,Glitch,in,Storied Ties
2013-11-14T13:03:59Z,Tension,With,U.S.
2013-11-14T13:08:02Z,Polish October Inflation Rate Drops,in,Four Months
2013-11-14T13:16:31Z,Biggest Gain,in,Week
2013-11-14T13:16:31Z,WTI Oil,Swings After,Biggest Gain in Week
2013-11-14T13:29:20Z,Welsh Water,Remain,Below Inflation Rate
2013-11-14T13:30:01Z,Forecast,in,Third Quarter
2013-11-14T13:30:01Z,Productivity,in,U.S. Rose
2013-11-14T13:38:47Z,Ukraine,Gets EU Extension After,Tymoshenko Vote
2013-11-14T13:38:57Z,Allianz,Says,Stocks Attractive
2013-11-14T14:22:31Z,Jana,Took,Stakes
2013-11-14T14:22:31Z,Stakes,in,Corp.
2013-11-14T14:44:50Z,DNO,Jumps,Record as Earnings Beat Estimates
2013-11-14T14:45:00Z,Consumer Comfort,Improves in,Seven Weeks
2013-11-14T14:48:37Z,Gasoline,Rises as,API Reports Supply Drop
2013-11-14T15:00:00Z,U.S. Mortgage Rates,Climb for,Week
2013-11-14T15:17:22Z,Economy,Performing,Far Short
2013-11-14T15:17:22Z,Yellen,Says,Economy
2013-11-14T15:30:00Z,Model,Shows,Mixed Signals
2013-11-14T15:32:37Z,Democrats,Seek,Action
2013-11-14T15:32:37Z,Obama,Speak on,Health Law
2013-11-14T15:33:31Z,Prudential CEO,Sees Future in,Retaining U.S. Jackson Life Unit
2013-11-14T15:42:51Z,Singer,Builds,Celesio Stake
2013-11-14T15:51:01Z,RWE Trading Unit ’s Loss Doubles,in,Third Quarter on Gas Costs
2013-11-14T15:55:40Z,Mexico ’s Congress,Approves Widest Budget Gap in,Four Years
2013-11-14T15:59:09Z,Gangster Whitey Bulger,Receives,Two Life Sentences
2013-11-14T15:59:56Z,Canada ’s Trade Deficit,Narrows on,Energy
2013-11-14T16:00:00Z,Household Debt,in,U.S.
2013-11-14T16:00:01Z,Record Yuan,Shows Resilience as,Lew Visits
2013-11-14T16:01:23Z,JPMorgan ’s #AskJPM Twitter Hashtag,Backfires Against,Bank
2013-11-14T16:05:27Z,States,Reinstate,Canceled Health Plans
2013-11-14T16:07:31Z,Seen Limited,in,WikiLeaks Trade Document
2013-11-14T16:14:06Z,Broadcast Foreign-Ownership Restriction,Eased by,U.S. FCC
2013-11-14T16:18:23Z,OTP,Jumps,Most
2013-11-14T16:19:10Z,Third Point Invests,in,Turkey ’s Biggest Real Estate Company
2013-11-14T16:19:10Z,Turkey,in,Biggest Real Estate Company
2013-11-14T16:22:33Z,Market,Lose Cost Benefit by,2030
2013-11-14T16:27:53Z,Amtrak Serving Free Wine,Loses,Millions
2013-11-14T16:30:19Z,Vale,Steps Up Divestments,Brazil Tax Dispute Deadline Looms
2013-11-14T16:39:08Z,Pound,Climbs to,High Versus Yen
2013-11-14T16:39:49Z,Kerry Voices Discord,With,Netanyahu Over New Sanctions
2013-11-14T16:40:57Z,Bonds,Climb With,Peso
2013-11-14T16:40:57Z,Mexican Bonds,Climb With,Peso
2013-11-14T16:40:57Z,Yellen,on,Support for Stimulus
2013-11-14T16:41:54Z,JA Solar,Supplying,30 Megawatts
2013-11-14T16:43:24Z,Fed ’s Yellen,Sees,Monetary Policy
2013-11-14T16:44:50Z,Poland Defies Power Slump,in,3.7
2013-11-14T16:57:07Z,C$ 250 Million,in,IPO
2013-11-14T16:58:11Z,IMF,Sees,Bulgaria ’s Budget Revenue Projection
2013-11-14T17:00:00Z,Cameron,Flies to,Sri Lanka Demanding Probe of War Crimes
2013-11-14T17:04:13Z,Draghi,Says,ECB Satisfied With State-Aid Rules
2013-11-14T17:04:13Z,ECB Satisfied,With,State-Aid Rules
2013-11-14T17:20:29Z,2014 Net,Halve on,Low Power Prices
2013-11-14T17:20:29Z,RWE,Says,2014 Net
2013-11-14T17:24:13Z,Ed Reed,Rejoins,Rex Ryan
2013-11-14T17:24:13Z,NFL,by,Texans
2013-11-14T17:37:05Z,Madame Chairman,Holds,Her Own
2013-11-14T17:41:03Z,Clashes,Erupt in,Saudi Capital
2013-11-14T17:45:35Z,Freeland,Taps Middle Class Angst in,Battle
2013-11-14T17:48:57Z,Tiger Global Purchases Stakes,in,Yahoo
2013-11-14T17:56:45Z,Google,Says,U.S. Government Requests for Data Rise
2013-11-14T18:22:01Z,Said,Signal,Cooperation
2013-11-14T18:25:04Z,Merck,Raises,2013 Profit Forecast
2013-11-14T18:27:03Z,Seattle Home,Built Out,Spite
2013-11-14T18:28:09Z,Ikea,in,Canada
2013-11-14T18:32:16Z,Gangster Whitey Bulger,Receives,Two Life Sentences
2013-11-14T18:39:55Z,Sales,Tied to,Rates Tumble
2013-11-14T18:55:38Z,Controlling Shareholder,Explores,Alternatives
2013-11-14T19:00:00Z,Wolves,Tamed Earlier by,Hunters
2013-11-14T19:03:18Z,Google Acquire Recurrent Solar Projects,in,U.S. West
2013-11-14T19:24:35Z,Google,Wins,Dismissal of Suit Over Digital Books Project
2013-11-14T19:25:07Z,Racial Discrimination,in,Auto Loans Probed by Two U.S. Agencies
2013-11-14T19:33:42Z,Gold,Climbs,Yellen Signals Continued
2013-11-14T19:33:42Z,Yellen Signals,Continued,Federal Reserve Stimulus
2013-11-14T19:58:44Z,Air Products,in,Third Quarter
2013-11-14T19:58:44Z,SAC,Boosts Stakes in,Air Products
2013-11-14T19:58:44Z,Yahoo,Products in,Third Quarter
2013-11-14T19:59:46Z,Starbucks Costs Retreat,in,Coffee Bear Market Slump
2013-11-14T20:00:00Z,U.S. Midwest Farmland Values Rose 14 %,in,Third Quarter
2013-11-14T20:05:15Z,BNY Mellon,Raised,Madoff ’s Credit
2013-11-14T20:10:01Z,Obama,Gives One-Year Reprieve for,Canceled Policies
2013-11-14T20:23:03Z,Mayor Ford,Denies,Prostitution Allegations
2013-11-14T20:28:25Z,Good Enough,in,CFTC Rule
2013-11-14T20:34:10Z,Yellen,Says,Fed
2013-11-14T20:37:02Z,New Fund,Lets Investors Fish for,Returns in Farmed Seafood
2013-11-14T20:37:02Z,Returns,in,Farmed Seafood
2013-11-14T20:41:50Z,Camp,Nears Decision on,Tax Changes
2013-11-14T20:53:24Z,Rubber Gloves,Give,Ansell Edge
2013-11-14T20:59:02Z,Chicago Gasoline,Weakens After,Refinery Restart
2013-11-14T20:59:20Z,Franchitti,Racing,Career
2013-11-14T21:00:00Z,Support,in,Euro Cloud
2013-11-14T21:00:00Z,Yen,Finds,Support
2013-11-14T21:00:37Z,Lacrosse,Coach After,Team Hazing Suspension
2013-11-14T21:07:39Z,Citadel Reports Holding,in,Loeb ’s Reinsurer
2013-11-14T21:07:39Z,Loeb,in,Reinsurer
2013-11-14T21:08:32Z,Videgaray,Says Mexico Hedged Oil for,2014
2013-11-14T21:09:59Z,Vanda,Wins U.S. Panel Backing for,Blind
2013-11-14T21:10:22Z,Jeter,Goes From,Record Book
2013-11-14T21:11:07Z,Tennessee Valley Authority Defies McConnell,With,Coal Cut
2013-11-14T21:12:46Z,Volkswagen Issues Global,Recall of,2.64 Million Vehicles
2013-11-14T21:21:59Z,Viacom Profit,Beats,Estimates
2013-11-14T21:23:03Z,Canada,Stocks,Rise
2013-11-14T21:23:03Z,Gold,Surges on,Yellen Talk
2013-11-14T21:24:06Z,Bid Wars Wane,in,U.S. Housing Markets on Supply Rise
2013-11-14T21:27:59Z,Armour Buying MapMyFitness,in,$ 150 Million Deal
2013-11-14T21:31:35Z,Alfa ’s Sigma Bets,With,$ 908 Million Campofrio Bid
2013-11-14T21:31:37Z,Sabesp Third-Quarter Profit,Rises to,475 Million Reais
2013-11-14T21:31:54Z,CEO,Over,Turnaround Plan
2013-11-14T21:31:54Z,Cisco Sales Miss,Casts,Shadow Over CEO ’s Turnaround Plan
2013-11-14T21:34:40Z,S&P,Extends Record as,Yellen Signals Stimulus Support
2013-11-14T21:34:40Z,S&P 500,Extends,Record
2013-11-14T21:38:36Z,S&P Ratings States,Reject Support New Jersey to,California
2013-11-14T21:48:55Z,Capital Growth,Takes,Sells Hertz
2013-11-14T21:51:11Z,Negotiations,With,Iran
2013-11-14T21:55:36Z,His,Book,audio
2013-11-14T21:55:36Z,Reddit Co-Founder Ohanian,Discusses,His New Book
2013-11-14T22:01:25Z,Loeb ’s FedEx Stake,Heightens,Focus
2013-11-14T22:13:26Z,Canadian Currency,Reaches,10-Week
2013-11-14T22:13:26Z,Currency,Reaches,10-Week
2013-11-14T22:17:00Z,FCC Chief,Tells,Carriers
2013-11-14T22:17:16Z,U.S. Yield Gap,Widens to,High
2013-11-14T22:17:16Z,Yellen,Backs,Stimulus
2013-11-14T22:20:50Z,Amgen,Can Reach,U.S.
2013-11-14T22:20:50Z,Sanofi Drugs,Can Reach,U.S.
2013-11-14T22:27:46Z,Credit Swaps,in,U.S.
2013-11-14T22:29:46Z,Paulson Hedge Fund,Adds to,Merger Play Raising Vodafone
2013-11-14T22:34:38Z,Obama,Offers,Extension
2013-11-14T22:35:45Z,Loeb ’s Third Point Reports Stakes,in,FedEx
2013-11-14T22:40:49Z,Democrats,With,2014 Races
2013-11-14T22:53:02Z,Oil Production,to Open,Senator
2013-11-14T23:00:00Z,Tesla,Under,Hood
2013-11-14T23:01:00Z,Europe ’s Health Cuts,Leave,Ill Struggling
2013-11-14T23:01:25Z,Twitter Registered,With,Finra
2013-11-14T23:05:56Z,Sirios Capital Management Holdings,in,3rd Quarter
2013-11-14T23:17:55Z,Mexico,’s Oil,Videgaray
2013-11-14T23:18:44Z,America,to,Allies on Iran
2013-11-14T23:36:59Z,Berkshire,Acquires,Billion Exxon Mobil Stake
2013-11-14T23:51:16Z,New Zealand Sentences Ross,in,Jail for Ponzi Scheme
2013-11-14T23:54:59Z,Cabrera Repeats,in,AL
2013-11-14T23:54:59Z,McCutchen Chosen National League MVP,Repeats in,AL
2013-11-14T23:58:36Z,Lone Pine,Bolsters Amazon With,Stakes in Baidu
2013-11-14T23:58:36Z,Stakes,in,Baidu
2013-11-15T00:00:01Z,China Faults Japan,Europe at,UN Talks
2013-11-15T00:01:00Z,BOE ’s Miles,Says,Rates Too Blunt
2013-11-15T00:37:04Z,Ex-LinkBrokers Employee Chouchane,Gets,Two Years ’ Prison
2013-11-15T00:44:40Z,Japan ’s Banks,See,Profit Declining in Second Half
2013-11-15T00:44:40Z,Japan ’s Biggest Banks,See,Profit
2013-11-15T00:44:40Z,Profit,Declining in,Second Half
2013-11-15T01:03:19Z,Temasek,Pares,U.S. Stocks
2013-11-15T01:14:13Z,Rio Unit,Readies,Billion Rights Offer
2013-11-15T01:40:12Z,Executive,Tells,Media
2013-11-15T01:46:14Z,China State Companies ’ Dominance,Tested by,Market Pledge
2013-11-15T05:00:01Z,Peltz ’s Trian,Sold State Street Shares in,Third Quarter
2013-11-15T05:00:03Z,Broker Dual Status,in,Mortgage
2013-11-15T05:00:03Z,Morgan Stanley,Seek,Broker Dual Status in Mortgage
2013-11-15T05:00:12Z,Pirates ’ McCutchen,Wins in,NL
2013-11-15T05:01:00Z,Applied Materials Forecasts Sales,Profit With,Estimates
2013-11-15T05:01:00Z,Icahn Reports Stake,in,Apple Worth
2013-11-15T05:01:00Z,More Trials,Prompted by,Admissions
2013-11-15T05:01:00Z,Profit,In,Line
2013-11-15T05:01:00Z,Trials,Prompted by,Admissions
2013-11-15T05:01:00Z,Wall Street Bid,Quashed by,U.S. Regulator
2013-11-15T05:01:00Z,White,Says SEC Ready for,More Trials Prompted by Admissions
2013-11-15T06:43:17Z,Samsung Said,Using,Three-Sided Display
2013-11-15T08:08:43Z,2014 Split,End,SFR ’s Weight
2013-11-15T08:08:43Z,Vivendi,Promises,2014 Split
2013-11-15T08:10:57Z,Moody,After,Downgrade
2013-11-15T08:26:53Z,China,by,IPO Freeze
2013-11-15T08:26:53Z,Hong Kong,Buoyed as,Alibaba Eyes U.S.
2013-11-15T09:43:01Z,Yellen Signals,Continued,QE Undeterred
2013-11-15T09:46:28Z,Putin,Beats,EU
2013-11-15T10:09:33Z,Funds,Reject,Terms Deal
2013-11-15T10:09:33Z,Select F&N Bondholders,Say,No
2013-11-15T11:25:46Z,German SPD Chief,Sell Party on,Merkel Coalition
2013-11-15T11:25:46Z,SPD Chief,Sell Party on,Merkel Coalition
2013-11-15T14:38:26Z,EU Push,Fought By,Luxembourg
2013-11-15T14:39:01Z,Sale,in,Nevada
2013-11-15T15:02:14Z,Ethanol,Rises,Output Gain Fails
2013-11-15T15:02:14Z,Output Gain,Fill,Stocks
2013-11-15T15:54:05Z,McDonald,as,Combats Twitter Grief
2013-11-15T15:54:05Z,Third Window,Charm as,McDonald ’s Combats Twitter Grief
2013-11-15T16:36:43Z,BMW,Makes Lone Shift to,Carbon Fiber
2013-11-15T19:47:01Z,EU,Stumbles,Germany Resists
2013-11-15T21:34:29Z,Dollar Fall,With,Treasuries
2013-11-15T21:34:29Z,Yen,Fall With,Treasuries
2013-11-15T21:36:54Z,Soros Join Loeb,Taking New Stakes in,FedEx
2013-11-16T04:14:51Z,Cuomo,End,N.Y. Clothes Exemption
