2013-11-15T00:01:00Z,Picture-Postcard Villagers,in,Tory Heartland Powerless
2013-11-15T00:01:00Z,U.S.,Call for,Climate Equity Metric
2013-11-15T00:31:51Z,Tepper,as,Appaloosa Reduces Holding
2013-11-15T00:31:51Z,Viking,Buys,BofA Stake
2013-11-15T00:47:07Z,N.Y. Fed,Seeks,Dismissal
2013-11-15T01:48:47Z,Bond Risk,Decreases in,Credit Default Swap Prices Show
2013-11-15T02:00:05Z,Assets,in,East Asia
2013-11-15T02:00:05Z,Neuberger Berman,Boosts,Assets
2013-11-15T02:20:06Z,Taiwan Dollar,Heads on,Outflows
2013-11-15T02:30:30Z,Copper,Pares Weekly Drop,Yellen Signals Continued
2013-11-15T02:30:30Z,Yellen Signals,Continued,Stimulus
2013-11-15T02:36:02Z,Soybeans,Trim,Second Weekly Gain on Improved Weather
2013-11-15T02:41:09Z,Apple,Winning,Script in Samsung Damages Retrial
2013-11-15T02:41:09Z,Script,in,Samsung Damages Retrial
2013-11-15T02:50:40Z,Rebar,Rises to,Trim Weekly Loss
2013-11-15T03:11:27Z,Baht,Set for,Weekly Decline
2013-11-15T03:11:27Z,Foreigners,Trim,Asset Holdings
2013-11-15T03:43:51Z,Danger,in Property,HKMA
2013-11-15T03:43:51Z,Hong Kong Property,in,Still Danger of Overheating
2013-11-15T04:34:33Z,Rupiah,Leads,Currency Losses
2013-11-15T04:50:03Z,Palm Oil,Poised as,Demand From India Seen
2013-11-15T05:00:01Z,Paulson,Adding to,Vodafone Stake
2013-11-15T05:00:01Z,Yellen,Sees,Chance Fed Could
2013-11-15T05:00:33Z,Lockheed Job,Cuts,Echo Through Industry
2013-11-15T05:00:45Z,Cuomo,Facing,Test
2013-11-15T05:01:00Z,Bull Market,in,Art Spurs Hunt
2013-11-15T05:01:00Z,Cities,Raise,Alarms Over EPA ’s Surprise Hydrant Rule
2013-11-15T05:01:00Z,Credit-Card Rewards Programs,Examined by,U.S. Consumer Bureau
2013-11-15T05:01:00Z,Cuomo,Pushing,Computer Chips Aids
2013-11-15T05:01:00Z,Dorothy ’s Shoes,Morph From,Silver
2013-11-15T05:01:00Z,EPA,Over,Surprise Hydrant Lead Rule
2013-11-15T05:01:00Z,New Cholesterol Drugs Face Doctors,Seeking,Heart Results
2013-11-15T05:01:00Z,Puerto Rico ’s GO Bonds May,Be Reduced by,Fitch
2013-11-15T05:01:01Z,Arbitration Group,Creates,Appeal Right
2013-11-15T05:01:01Z,Google Win,in,Copyright Suit May Bolster Web Dominance
2013-11-15T05:12:12Z,Rockets,Overcome,45 Points
2013-11-15T05:28:46Z,Boehner,Gives,Tearful Speech
2013-11-15T06:21:39Z,South Korea LNG Imports,Climb,19 Percent
2013-11-15T06:32:08Z,Singapore Home Sales,Fell in,October
2013-11-15T06:37:00Z,They,Seek to,Beat Inflation
2013-11-15T06:37:00Z,Yu’E Bao,Draws Chinese Investors,They Seek to Beat Inflation
2013-11-15T06:37:37Z,Western Australia,Faces New Senate Election,Ballots Lost
2013-11-15T06:58:41Z,Power Companies,Sink,Most in Philippines
2013-11-15T07:25:17Z,China Stocks,Surge on,Policy Optimism
2013-11-15T07:31:20Z,SABMiller ’s Mackay,Steps Back,Worsening
2013-11-15T07:45:15Z,NFL,Sees,China Growth
2013-11-15T08:00:00Z,Czech Central Bankers,Clashed,Minutes Show
2013-11-15T08:16:58Z,Tele2,Lures Hutchison as,Kinnevik Opens to Sale
2013-11-15T08:27:39Z,Twitter Traders,Get,New Tool
2013-11-15T08:30:57Z,Little,Changed Before,Industrial Data
2013-11-15T08:37:30Z,Nintendo,Buying Stake in,Web Company Dwango
2013-11-15T08:37:44Z,Caroline Kennedy,Brings Camelot Mystique to,Japan
2013-11-15T08:48:38Z,Zloty,Appreciates Day as,Yields
2013-11-15T09:00:00Z,10 Years,in,Third Quarter
2013-11-15T09:00:00Z,German Home Prices,Increased,Most in 10 Years
2013-11-15T09:15:40Z,Bonds,Set for,Weekly Gain
2013-11-15T09:15:40Z,German Bonds,Set Before,Euro-Area Inflation Data
2013-11-15T09:26:01Z,China ’s Money Rate Jumps,Drains,Funds
2013-11-15T09:26:01Z,PBOC,Drains,Funds
2013-11-15T09:27:28Z,Asian Stocks,Rise on,China Policy Optimism
2013-11-15T09:27:28Z,Stocks,Rise on,U.S. Stimulus
2013-11-15T09:50:34Z,Malaysia,Raises Palm Oil Export Tax Since,March
2013-11-15T10:00:00Z,Economic Growth,Accelerates Before,Tightening
2013-11-15T10:00:00Z,Growth,Accelerates Before,Tightening
2013-11-15T10:00:00Z,Malaysian Economic Growth,Accelerates Before,Fiscal Tightening
2013-11-15T10:00:00Z,Malaysian Growth,Accelerates Before,Fiscal Tightening
2013-11-15T10:07:15Z,Beijing,Joins,Stockholm
2013-11-15T10:07:15Z,Oslo,Stockholm in,Vying
2013-11-15T10:07:15Z,Stockholm,in,Vying
2013-11-15T10:24:49Z,JX Energy,Wins,Sales Rights
2013-11-15T10:52:48Z,Banker Sentenced,in,Vietnam Fraud Trial
2013-11-15T11:01:00Z,Losing Power,in,Europe
2013-11-15T11:01:23Z,U.K. Stocks,Rise,Second Day Before U.S. Industry Report
2013-11-15T11:13:51Z,74 Runs,in,His Final Cricket Match
2013-11-15T11:30:14Z,EU Backs,Spending,Plan
2013-11-15T11:30:14Z,Premier,Survives,Budget Vote
2013-11-15T11:30:14Z,Slovenian Premier,Survives,Budget Vote
2013-11-15T11:54:32Z,Etihad Tightens Gulf,Squeeze on,Lufthansa
2013-11-15T11:57:31Z,Pandora Gains,Relieves,Pressure
2013-11-15T12:13:53Z,Signs,in,European Markets
2013-11-15T12:13:53Z,Volkswagen,Sees,Signs of Stabilization in European Markets
2013-11-15T12:40:24Z,Terra Firma-Backed Infinis,Raises,$ 376 Million
2013-11-15T12:46:08Z,U.K. Parties,Erasing,Web Histories
2013-11-15T12:55:26Z,Health Insurance Industry Executives,Said,Meet With Obama
2013-11-15T13:00:00Z,Altus,Invest in,Commercial Solar Projects
2013-11-15T13:06:30Z,Pandora,Indicted by,Denmark
2013-11-15T13:15:25Z,44 %,in,Early December
2013-11-15T13:37:20Z,Billionaire Tepper,Gives,$ 67 Million
2013-11-15T13:51:49Z,Judge Rakoff,Wants,Someone
2013-11-15T13:55:14Z,WTI Crude,Set Since,1998
2013-11-15T14:06:31Z,Google,Goes,Solar
2013-11-15T14:08:14Z,Blackstone,Hires Beacham to,Lead Rental-Home Finance Unit
2013-11-15T14:13:18Z,Shale Revolution Spreads,With,Record Wells Outside U.S.
2013-11-15T14:30:41Z,Equinix,Say,IRS Resumes REIT Reviews
2013-11-15T14:42:50Z,Party,Unveils,Economic Policy
2013-11-15T14:46:36Z,Chevron Refinery Fire,in,Mississippi
2013-11-15T14:47:36Z,They,'ll Pay,You
2013-11-15T14:47:36Z,You,Live in,Switzerland
2013-11-15T14:58:26Z,National Bank,Agree on,Real Estate Unit Sale
2013-11-15T14:59:47Z,Blackstone,Said to,Face Final Irish Power Bid Deadline
2013-11-15T15:00:00Z,U.S. Farmland Values,May Ease by,Year-End
2013-11-15T15:00:15Z,Amber Grid,Jumps on,Completing Gas Terminal Link
2013-11-15T15:03:54Z,Berkshire Sells Glaxo,Shares in,Favor of DaVita
2013-11-15T15:03:54Z,Sanofi Shares,in,Favor of DaVita
2013-11-15T15:10:15Z,Cut World,to,Worst NPL Ratio
2013-11-15T15:10:15Z,Kazakh Central Banker,Vows to,Cut World ’s Worst NPL Ratio
2013-11-15T15:10:51Z,Bond Sales,in,U.S. Drop
2013-11-15T15:27:30Z,German SPD,Criticizes,German Export Power
2013-11-15T15:27:30Z,SPD,Criticizes German Export Power in,Merkel Slap
2013-11-15T15:36:55Z,Steag,Starts Coal-Fired Power Plant in,Germany
2013-11-15T15:47:49Z,Mexico Peso,Heads to,Weekly Gain
2013-11-15T15:49:32Z,Engine-Repair Unit,Employing,400
2013-11-15T15:49:32Z,Irish Engine-Repair Unit,Employing,400
2013-11-15T15:49:43Z,1.5 Billion Euros,in,Bonds
2013-11-15T15:51:17Z,MF Global,After,Collapse
2013-11-15T16:00:01Z,Hong Kong ’s Partial Re-Auction,Angers,Incumbents
2013-11-15T16:00:01Z,Hong Kong ’s Re-Auction,Angers,Incumbents
2013-11-15T16:00:14Z,Basketball Couple Candace Parker,Sell,Home
2013-11-15T16:00:14Z,Shelden Williams,Sell,Home
2013-11-15T16:01:21Z,Wintour ’s Book,Leads Guide to,Goings-On
2013-11-15T16:03:12Z,Properties,Get,Part
2013-11-15T16:03:15Z,Whitey Bulger,Beats,System Again
2013-11-15T16:03:44Z,Gold Analysts,Bullish on,Fed Stimulus Outlook
2013-11-15T16:06:41Z,Democrats,With,2014 Races
2013-11-15T16:14:18Z,Kenya Cases,in,Global Court
2013-11-15T16:14:18Z,UN Council,Halting,Kenya Cases
2013-11-15T16:15:47Z,EU,Spending,Plans of Euro-Area Nations
2013-11-15T16:39:40Z,British Airways Profitability,Boosts,IAG ’s Earnings Outlook
2013-11-15T16:40:48Z,Economists,Can Predict,Financial Crises
2013-11-15T16:40:50Z,We,'ve Solved,Too-Big-To-Fail
2013-11-15T16:42:50Z,Silicon Valley Nerds,Seek Revenge,Coding
2013-11-15T16:43:52Z,Pound,Rises,Weale Says
2013-11-15T16:43:52Z,Weale,Says,Economic Recovery Faster
2013-11-15T16:53:09Z,Deutsche Bank,Wins Kirch Case Over,2011 Annual Accounts
2013-11-15T16:56:58Z,J.C. Penney Investor Glenview,Joins,Hayman Stake
2013-11-15T16:57:24Z,European Stocks,Rise as,Stoxx 600
2013-11-15T16:57:24Z,European Stocks Rise,Climbs,Sixth Week
2013-11-15T16:57:24Z,Most European Stocks,Rise as,Stoxx 600
2013-11-15T16:57:24Z,Most European Stocks Rise,Climbs,Sixth Week
2013-11-15T17:00:10Z,Word,in,Qatar
2013-11-15T17:20:09Z,Will Machinists,Throw,Wrench
2013-11-15T17:20:33Z,Julius Baer Reports Drop,in,Margin Amid Merrill Transfer
2013-11-15T17:24:42Z,Arizona,Approves,Grid-Connection Fees
2013-11-15T17:36:17Z,Obama 's Apology,Was,Fudge
2013-11-15T17:40:15Z,China 's 50-Year Bond Auction,Draws Least Demand Since,2009
2013-11-15T17:40:15Z,China 's Bond Auction,Draws,Least Demand
2013-11-15T17:41:09Z,Credit-Card Issuers,Reject,Bets
2013-11-15T17:44:44Z,Total,Buys,Forties Crude
2013-11-15T18:02:52Z,AMR Bid,Meeting,Magic 104
2013-11-15T18:09:30Z,Glafcos Clerides,Dies at,94
2013-11-15T18:12:01Z,Cornell Lacrosse Alums,See,DeLuca ’s Firing
2013-11-15T18:17:31Z,UN Emission Units Plunge,in,Biggest Weekly Drop
2013-11-15T18:34:31Z,Early Female Trader,With,Smith Barney
2013-11-15T18:34:31Z,Sally Lloyd,Trader With,Smith Barney
2013-11-15T18:44:02Z,China ’s New Economic Reforms,Will Be,Enough
2013-11-15T18:56:25Z,$ 5 Billion,in,Japan
2013-11-15T19:00:52Z,Congress,Re-Enact,Ban
2013-11-15T19:00:52Z,Holder,Urges,Congress
2013-11-15T19:26:43Z,Obama,Avoid,New Iran Sanctions
2013-11-15T19:32:42Z,House,Passes Bill,Let
2013-11-15T19:32:42Z,People,Keep Health Plans in,2014
2013-11-15T19:33:50Z,Hammond,Gets,10 Years for Texas Intelligence Firm Hacking
2013-11-15T20:00:44Z,Billionaire Paulson,Sticks With,Gold Wager
2013-11-15T20:03:46Z,Serbia,Tied,1-1
2013-11-15T20:18:48Z,Alabama ’s Jefferson County,Starts,Billion Bond Sale
2013-11-15T20:22:18Z,Corpbanca Jumps,in,Chile
2013-11-15T20:24:59Z,Backstop Treasuries,in,Swap Trade
2013-11-15T20:24:59Z,CFTC,Passes,Collateral Rule
2013-11-15T20:28:12Z,Gulf Coast Gasoline,Strengthens After,Mississippi Refinery Fire
2013-11-15T20:34:45Z,WTI Falls Sixth Week,in,Longest Losing Streak
2013-11-15T21:02:05Z,Hong Kong,Is Punishing,Philippines
2013-11-15T21:07:56Z,Insurers Consumers,Understand Options Under,Law
2013-11-15T21:09:07Z,Raising $ 253 Million,in,Mom-Site IPO
2013-11-15T21:18:44Z,Lauder Granddaughters,Become,Billionaires
2013-11-15T21:20:35Z,Sony Channels Lou Reed,Seeking,Perfect PlayStation 4 Debut
2013-11-15T21:21:52Z,Canadian Stocks,Stimulus,Bets
2013-11-15T21:21:52Z,Stocks,Stimulus,Bets
2013-11-15T21:33:14Z,Canadian Imperial,Hires,Lauze
2013-11-15T21:33:14Z,Imperial,Hires,Lauze
2013-11-15T21:33:14Z,PSP,Hires,Lauze
2013-11-15T21:34:41Z,CONTRIBUTOR,IS MISSING,HEADLINE
2013-11-15T21:35:20Z,U.S. Stocks,Extend,Records Amid Factory Data
2013-11-15T21:35:37Z,David Tepper,With,$ 67 Million Gift
2013-11-15T21:46:23Z,Ackman,Takes Fannie Mae Stake,Berkowitz Plans Revamp
2013-11-15T21:47:44Z,Equinix,Say,IRS Resumes REIT Rulings
2013-11-15T21:56:20Z,Cut,in,U.S. EPA Change
2013-11-15T21:57:04Z,Company Credit Swaps,in,Three Weeks
2013-11-15T22:03:30Z,Berkshire,Adds Exxon Stake in,Biggest Stock Bet
2013-11-15T22:06:57Z,10-Week Low,From Gains,Yellen
2013-11-15T22:18:56Z,GE,Gets in,Stuff Business
2013-11-15T22:22:21Z,Men,Are,Where Men
2013-11-15T22:30:00Z,Economists,Say in,Range
2013-11-15T22:33:35Z,Spot Metallurgical Coal,in,U.S. Unchanged
2013-11-15T22:35:29Z,Partial IPO,in,2014
2013-11-15T22:42:20Z,Bakken Oil,Weakens as,North Dakota Reports Record Production
2013-11-15T22:53:09Z,Ethanol ’s Discount,Narrows on,Below-Average Supply
2013-11-15T22:57:14Z,Futures,Are,Changed
2013-11-15T23:00:01Z,German SPD,Faces at,Merkel Tie-Up
2013-11-15T23:00:01Z,SPD,Faces Down,Grassroots Revolt
2013-11-15T23:11:21Z,Judge,Is,Told
2013-11-16T00:00:01Z,FX Traders,Be Called For,Interviews
2013-11-16T00:01:00Z,EU,Soothes Aid Qualms,Agree
2013-11-16T00:06:09Z,Portugal World Cup Soccer Playoff,Win Over,Sweden
2013-11-16T00:07:53Z,Forbes Media,Sell,Company
2013-11-16T02:01:00Z,AB InBev,Selling,Aluminum Bud Light Bottles
2013-11-16T05:00:01Z,Fox,Wins Rights to,Simpsons ’ Reruns for New FXX Channel
2013-11-16T05:00:02Z,Mike McCormack,Dies at,83
2013-11-16T05:00:03Z,JPMorgan,Sets,Tentative Billion Accord
2013-11-16T05:01:00Z,CME Hack,Draws FBI Probe While,Renewing Market Structure Anxiety
2013-11-16T05:01:00Z,Goodlatte,Sees,Surveillance Restrictions Passing Congress
2013-11-16T05:01:00Z,James Bond Producer,Acquire,Rights
2013-11-16T05:01:00Z,Massachusetts Grants Provisional,OK to,Foxwoods-Backed Casino
2013-11-16T05:01:00Z,Microsoft Board,Refine CEO List,Meeting
2013-11-16T11:07:40Z,Credit Suisse,Sets After,Bond Job Cuts
2013-11-16T14:28:48Z,Philippine Typhoon Survivor Aid,Slowed by,Devastation
2013-11-16T14:28:48Z,Typhoon Survivor Aid,Slowed by,Devastation
2013-11-16T14:45:28Z,Brazil Court Orders Arrests,in,2005 Cash-for-Votes Probe
2013-11-21T00:46:01Z,Japan Cuts Emissions Goal,in,Setback
