2013-05-26T02:12:27Z,Froch,Avenge Loss to,Kessler
2013-05-26T03:39:32Z,Swan,Pick Up Slack as,Boom Peaks
2013-05-26T04:00:00Z,NHL,Reaches,Agreement for Sale of Coyotes
2013-05-26T04:00:01Z,Bruins,Knock Rangers Out of,NHL Playoffs
2013-05-26T04:00:01Z,Chicago,Extends,Series
2013-05-26T04:00:01Z,NCAA Men,in,Lacrosse Championship
2013-05-26T04:00:01Z,No. 1 Syracuse,Faces,Duke
2013-05-26T04:00:01Z,No. Syracuse,Faces,Duke
2013-05-26T04:40:44Z,Tate Sugars,Says,Refinery Closed
2013-05-26T05:01:36Z,Spurs Defeat Grizzlies 104-93,in,OT
2013-05-26T08:01:24Z,Israeli Vision,Fades as,Better Place Pulls Plug
2013-05-26T08:27:19Z,Japan,Give,Myanmar Development Loans
2013-05-26T09:28:48Z,Xi,Joins Li for,Slower Growth Rate
2013-05-26T10:41:25Z,Jordan Plans,in,2013
2013-05-26T10:58:17Z,Stockholm Weeklong Clashes,With,Police Subside
2013-05-26T11:12:13Z,4 Foreign Oil Workers Abducted,in,Bayelsa
2013-05-26T11:50:01Z,Mourinho,in,75 Million Deal
2013-05-26T12:14:56Z,Two U.K. Men,Endangering,Pakistan Airways Flight
2013-05-26T12:14:56Z,U.K. Men,Endangering,Pakistan Airways Flight
2013-05-26T13:15:43Z,Neymar,Joins,Messi ’s Barcelona
2013-05-26T13:32:05Z,OPEC Cut,Stabilize,Prices
2013-05-26T13:32:05Z,Saudi Arabia May,Make,OPEC Cut
2013-05-26T13:39:40Z,Dubai Stocks,Drop,Most
2013-05-26T14:01:00Z,Emerson,Sees Aussie Aiding Carmakers After,Ford Closure
2013-05-26T16:10:18Z,Cavendish,Takes,Points Event
2013-05-26T18:10:36Z,Italy ’s Manassero,Wins,Golf Tour ’s BMW PGA Championship
2013-05-26T18:10:42Z,Obama,Sees Sunset on,Sept. 11 War Powers
2013-05-26T18:26:25Z,England,Takes,Control of Cricket Test
2013-05-26T18:37:30Z,Economic Plan,Would Attract,$ 4
2013-05-26T18:37:30Z,Palestinian Economic Plan,Would Attract,$ 4
2013-05-26T18:37:30Z,Palestinian Plan,Would Attract,$ 4
2013-05-26T18:37:30Z,Plan,Would Attract,$ 4
2013-05-26T19:29:41Z,Colombia Signs Land-Use Agreement,With,Farc Rebels
2013-05-26T19:33:18Z,Venus Williams,Knocked by,Urszula Radwanska
2013-05-26T20:00:00Z,China,Builds EU Beachhead With,$ 5 Billion City
2013-05-26T21:00:00Z,Mehta Gala,With,Perlman Opens
2013-05-26T21:00:00Z,Record Japan Nickel Exports,Adding to,Glut
2013-05-26T21:00:00Z,Sumitomo Metal,Sees,Record Japan Nickel Exports
2013-05-26T21:00:01Z,Fischer,Splits Analysts,Israel Move
2013-05-26T21:00:01Z,Israel,Next Move After,Cut
2013-05-26T21:00:01Z,Stiglitz,Says to,Cut U.S.
2013-05-26T21:02:09Z,Nasrallah,Vows Victory in,Conflict
2013-05-26T21:02:09Z,Rockets,Hit,Lebanon
2013-05-26T22:00:00Z,Apple ’s Tax Dodge,Should Prompt Rethink in,Ireland
2013-05-26T22:00:00Z,Hungary Economic Sentiment Index,Jumps to,22-Month High
2013-05-26T22:00:00Z,Sexism,Stands in,Way
2013-05-26T22:01:01Z,France,From,CDC
2013-05-26T22:01:46Z,Pinot Blanc Pairs,With,Foie Gras
2013-05-26T23:33:10Z,Sundance,in,Back Talks With Investors After Hanlong Deal Failure
2013-05-26T23:33:10Z,Talks,With,Investors After Hanlong Deal Failure
2013-05-27T01:07:37Z,Father,After,Victory
2013-05-27T01:07:37Z,Rosberg,Wins,30 Years
2013-05-27T02:00:03Z,Celtic,Wins,Scottish Cup
2013-05-27T03:05:22Z,Hartley,Gets,11-Week Ban
2013-05-27T04:00:01Z,Graham,Urges,Special Counsel
2013-05-27T04:00:07Z,Fast Sequel,Tops,Weekend Films
2013-05-27T04:00:07Z,Sequel,Tops,Weekend Films
2013-05-27T04:01:00Z,Boo Weekley Ends Five-Year PGA Tour Drought,With,Win at Colonial
2013-05-27T04:28:06Z,India Cricket Head,Rejects Calls to,Quit
2013-05-27T05:10:31Z,China,Allow,Currency Conversion
2013-05-27T06:28:31Z,Congress Leaders,Die in,Rebel Ambush
2013-05-27T06:28:31Z,India,Vows,Fight
2013-05-27T07:25:54Z,Sweden Riots,Put Faces as,Stockholm Burns
2013-05-27T08:32:32Z,China ’s Li,Relying on,Merkel
2013-05-27T09:14:59Z,Land-Starved Singapore,Sell,Iskandar Property
2013-05-27T09:14:59Z,Singapore,Sell,Iskandar Property
2013-05-27T09:14:59Z,UEM,Taps,Singapore
2013-05-27T10:52:42Z,Li,Rejects,EU Duties
2013-05-27T10:52:42Z,Merkel,Avert,China Trade Row
2013-05-27T11:34:10Z,Slumping Stocks,Jolt,Abenomics
2013-05-27T14:23:58Z,Beat,in,Paris
2013-05-27T14:23:58Z,Nadal,Man at,Even Half Speed
2013-05-27T16:07:48Z,Inmobiliaria Colonial,Climbs,Stake Sale Looms
2013-05-27T22:36:42Z,It,May Slow Growth as,China Signals
2013-05-27T22:36:42Z,WTI,Losing,Streak
