2013-05-27T00:00:00Z,Wage Burden,in,Budget
2013-05-27T01:20:22Z,% Price Goal May,Be,Elusive
2013-05-27T01:20:22Z,2 % Price Goal May,Be,Elusive
2013-05-27T01:49:27Z,Office Demand,in,Perth
2013-05-27T01:49:27Z,Perth,Brisbane to,Slump
2013-05-27T01:51:06Z,Fifth Arrest,in,HKMEx Investigation
2013-05-27T01:51:06Z,Hong Kong Police,Make,Fifth Arrest in HKMEx Investigation
2013-05-27T02:11:02Z,Malaysian Bonds,Drop to,Cut Stimulus
2013-05-27T02:33:33Z,Copper,in,Shanghai Drops
2013-05-27T02:36:44Z,Companies,Pay,Taxes
2013-05-27T03:01:00Z,Sale,Fails as,Bids Miss Expectations
2013-05-27T03:22:59Z,Cadmium Scare,Boosts,Appeal of North China Rice
2013-05-27T03:28:49Z,Russia,Purchases as,Prices
2013-05-27T03:32:33Z,Zoomlion Bonds Fall,Halted After,Media Report
2013-05-27T04:00:09Z,Stocks,Rise to,Seven-Week High
2013-05-27T04:00:09Z,Vietnamese Stocks,Rise on,Economic Outlook
2013-05-27T04:20:53Z,Reliance,Surges on,Gas Discovery
2013-05-27T04:22:06Z,Sharks Force Game 7,in,NHL Playoff Series
2013-05-27T04:44:05Z,China Industrial-Profit Growth,Accelerates,Sales Increase
2013-05-27T04:45:20Z,Hong Kong Short Selling Turnover,Recorded,05/27/2013
2013-05-27T05:25:06Z,Philippine Stocks,Decline,Most in 11 Months
2013-05-27T05:25:06Z,Stocks,Decline,Most in 11 Months
2013-05-27T05:48:50Z,Zoomlion Bonds Fall,Halted After,Report
2013-05-27T06:06:02Z,Dollar Bond Spreads,in,Asia
2013-05-27T06:20:03Z,New Zealand,Be,Offered in Two Slices
2013-05-27T06:29:12Z,China Coal Falls,in,Almost Four Years on Manufacturing
2013-05-27T06:33:49Z,Stockholm,Sees,Ordinary Night
2013-05-27T06:48:39Z,Guangzhou Auto,Surges on,Policy Change
2013-05-27T06:56:03Z,S-Oil,Sell,Naphtha Cargo
2013-05-27T06:58:43Z,Gain First Day,in,Three
2013-05-27T07:15:24Z,Liepajas Metalurgs,Submits,Legal Protection Request
2013-05-27T07:34:54Z,Credit Suisse Asia Equity-Derivatives Directors,Leave,Bank
2013-05-27T07:34:54Z,Two Credit Suisse Asia Equity-Derivatives Directors,Leave,Bank
2013-05-27T07:36:51Z,Real Madrid,Off,Suarez Bid
2013-05-27T07:42:08Z,Won,Erases,Losses
2013-05-27T08:06:33Z,Stocks,Are,Changed
2013-05-27T08:06:33Z,Swiss Stocks,Are,Changed
2013-05-27T08:06:45Z,Peru,Ease,Pension Fund Foreign Limits
2013-05-27T08:06:45Z,Velarde,Says,Peru
2013-05-27T08:36:40Z,Norway Unemployment,Rises,Euro Crisis Weighs
2013-05-27T08:45:22Z,China Said,With,Reserves
2013-05-27T08:49:48Z,Serbia,Backs Kosovo Implementation Plan for,EU Date
2013-05-27T09:14:16Z,Asian Stocks,Drop,Yen Rises
2013-05-27T09:14:16Z,Stocks,Drop,Yen Rises Amid China Growth Concern
2013-05-27T09:14:16Z,Yen,Rises Amid,China Growth Concern
2013-05-27T09:23:20Z,Aer Lingus Stock,Climbs on,Pension Deficit-Cut Strategy
2013-05-27T09:24:39Z,Gudmundsson,Says,Iceland Needs New Strategy on Capital Controls
2013-05-27T09:50:29Z,Seadrill,Climbs on,Higher Dividend
2013-05-27T10:17:09Z,Japan Risks Yield Jump,Undermining,BOJ Easing
2013-05-27T10:23:06Z,Gold Advances,in,ETPs
2013-05-27T10:32:11Z,Negotiations Solution,in,East Congo
2013-05-27T10:32:11Z,Tanzania President,Says,Negotiations Only Solution in East Congo
2013-05-27T10:42:25Z,Vietnam ’s Bond Yields,Fall to,2007 Low
2013-05-27T10:42:38Z,EU Carbon,Fix to,One-Time
2013-05-27T10:42:38Z,Four Lawmakers,Propose,Limiting
2013-05-27T10:42:38Z,Lawmakers,Propose,Limiting
2013-05-27T10:56:03Z,Former Champion Li Na,Beats Medina in,French Open Opening Round
2013-05-27T11:28:20Z,Cumberland,Ebbing Inflation to,Slow Advance
2013-05-27T11:28:20Z,Slow Advance,in,Bond Yields
2013-05-27T11:36:54Z,Half-Century,Wait for,EU
2013-05-27T11:39:15Z,Pimco Favorite,Crushed by,Bernanke QE Unwind Talk
2013-05-27T11:54:36Z,Derivatives Traders,Targeted in,Iceland Currency Experiment
2013-05-27T12:01:37Z,StanChart,HSBC Sell,Singapore ’s First Dim Sum Bonds
2013-05-27T12:09:59Z,RenCap,Terminates,Analyst Coverage
2013-05-27T12:19:21Z,Coal India Profit,Beats Estimates on,Higher Demand
2013-05-27T12:20:12Z,Brazil Economists,Raise,2014 Interest Rate Forecast
2013-05-27T12:37:19Z,Apple ’s IPhone Distribution,Examined by,EU Regulator
2013-05-27T12:38:23Z,U.A.E. Energy Minister,Says,Crude Oil Prices
2013-05-27T12:58:48Z,Nedbank Considering Fixed-Income Funds,in,Mauritius
2013-05-27T13:00:30Z,Onassis Heir,on,Sale of Island
2013-05-27T13:06:18Z,Lufthansa,Strikes,Match Year on Air Dolomiti Walkout
2013-05-27T13:24:49Z,Wheat Drops,in,Paris
2013-05-27T13:37:56Z,Espirito,Raises,Price Estimate
2013-05-27T13:54:53Z,Club Med Management Plans Buy-Out,With,Largest Investors
2013-05-27T14:13:31Z,Beat Germany,to,Brands at French Open
2013-05-27T14:13:31Z,Rafael Nadal,Comes to,Beat Germany ’s Brands at French Open
2013-05-27T15:00:00Z,Africa Development Bank,Sees,Growth Rising
2013-05-27T15:00:00Z,Growth,Rising on,Oil
2013-05-27T15:10:23Z,Hotel Developer,Dies at,Age 94
2013-05-27T15:10:23Z,John Hammons,Dies at,Age 94
2013-05-27T15:10:23Z,Philanthropist,Dies at,Age 94
2013-05-27T15:14:29Z,Germany,as,Bunds Decline
2013-05-27T15:14:29Z,Italy Bonds Gain,With,Stocks
2013-05-27T15:14:29Z,Spain,Gain as,Germany ’s Bunds Decline
2013-05-27T15:27:43Z,MTS Drops,in,Week on MSCI 10/40 Wagers
2013-05-27T15:37:32Z,EU Lawmakers,Fix Likely,Survive
2013-05-27T15:43:26Z,Stocks Decline,Following,Week ’s Retreat
2013-05-27T15:43:26Z,Swiss Stocks Decline,Following,Week ’s Retreat
2013-05-27T15:56:20Z,Gain,in,Month
2013-05-27T15:57:39Z,Mexico Peso Volatility,Holds at,Nine-Month High
2013-05-27T16:00:00Z,Jan Morris,Twitching,Queen
2013-05-27T16:00:04Z,You,Should Take,Innovation Job
2013-05-27T16:32:50Z,Italy ’s PD Candidate,Leads in,Rome
2013-05-27T16:40:07Z,Daimler,Looks at,Streamlining Mercedes German Dealerships
2013-05-27T16:47:35Z,Grillo Expects Election Showdown,With,Berlusconi
2013-05-27T16:55:49Z,EU May,Easing,Portugal Targets
2013-05-27T17:04:29Z,African Union Summit,Backs,Return of ICC Cases
2013-05-27T17:13:13Z,Abril,’s Civita,Brazilian Billionaire-Publisher
2013-05-27T17:13:13Z,Abril ’s Civita,Dies at,Age 76
2013-05-27T17:21:11Z,Oi,Raise,Cash
2013-05-27T18:11:49Z,England,Needs,Four Wickets
2013-05-27T18:38:20Z,Third Oil,Find,Year
2013-05-27T19:12:31Z,Rio Mayor Paes,Roughing Up,Musician
2013-05-27T19:23:17Z,JetBlue Founder ’s Azul Files,With,Brazilian Regulator for IPO
2013-05-27T20:21:10Z,Valeant,Buys,Bausch
2013-05-27T20:47:35Z,Bank May,Provide,$ 1 Billion
2013-05-27T20:47:35Z,Brazilian Bank May,Provide,$ 1 Billion
2013-05-27T20:48:47Z,Kerry,Meets Russia Foreign Minister in,Push
2013-05-27T21:11:12Z,Failed Bid,in,Russia
2013-05-27T21:11:12Z,Fridman,Faces Africa Setback After,Failed Bid in Russia
2013-05-27T21:35:50Z,Chevron,Lends,Oil Venture
2013-05-27T22:00:01Z,Banks,Rebuked for,Spin Tactics
2013-05-27T22:00:06Z,Washington,Stalls,Food-Truck Lobby
2013-05-27T22:01:00Z,Economy,in,House Slump
2013-05-27T22:02:58Z,Australia,Tops,Leading Sweden
2013-05-27T22:30:59Z,He,Was Fired for,Airing Opposition Speech
2013-05-27T23:00:00Z,Chef,Switches to,Curry
2013-05-27T23:00:00Z,Curry,Whisky From,Hot Dogs
2013-05-27T23:00:00Z,Evil Animals Face Headless Nude,in,Haring Graffiti Show
2013-05-28T00:24:08Z,Phillips ’s Penalty Kick,Sends,Crystal Palace Into Premier League
2013-05-28T02:00:00Z,Senators,Say on,Alaska Base Need Inquiry
2013-05-28T04:29:10Z,Second Men,for,Lacrosse Title
2013-05-28T04:54:26Z,Growth,Bolsters,Shipping
2013-05-28T05:42:30Z,Dollar,Climbs,Home Data
2013-05-28T05:42:30Z,Yen,Halts,Gain
2013-05-28T05:57:30Z,Communist Insurgents,Assert,Resilience
2013-05-28T05:57:30Z,Indian Communist Insurgents,Assert,Resilience
2013-05-28T05:57:30Z,Indian Insurgents,Assert Resilience With,Ambush
2013-05-28T05:57:30Z,Insurgents,Assert,Resilience
2013-05-28T06:45:30Z,Automakers,Meeting,Million-Electric Goal
2013-05-28T06:45:30Z,German Automakers,Meeting,Million-Electric Goal
2013-05-28T07:45:24Z,Europe,Set to,Hurt Merkel
2013-05-28T09:18:28Z,Retail REIT,on,Dividend
2013-05-28T09:18:28Z,Singapore Press,Rises on,Retail REIT ’s Dividend
2013-05-28T09:51:20Z,Cut Swiss Watch Import Duties,in,Free Trade Pact
2013-05-28T09:51:40Z,Coordinate Its Policies,With,U.S.
2013-05-28T09:51:40Z,Wang,Tells,Donilon China
2013-05-28T10:20:30Z,Fischer ’s May Rate Cuts Signal Bank,Joins,Currency War
2013-05-28T11:09:54Z,Samsung,Indians as,Subsidies Fund Factories
2013-05-28T11:38:48Z,Li,Tells,Germany
2013-05-28T11:42:22Z,Volatility,Calmed Amid,Loss for Treasuries
2013-05-28T11:48:24Z,Ambani,Wins,Approvals
2013-05-28T11:48:24Z,Reliance,Turns,Bullish
2013-05-28T11:56:55Z,AirAsia,Enters,India
2013-05-28T12:14:59Z,WTI Crude,Halts,Four-Day Drop
2013-05-28T12:29:38Z,Nigerian Smartphone Boom,Challenges,Nokia Africa Dominance
2013-05-28T12:29:38Z,Smartphone Boom,Challenges,Nokia Africa Dominance
2013-05-28T12:51:28Z,Greek Economy Optimism Seen,in,Yield-Curve
2013-05-28T13:34:04Z,Austria ’s Model Apprenticeship Program,Loses,Its Luster
2013-05-28T13:55:08Z,Failed Bid,in,Russia
2013-05-28T13:55:08Z,Fridman,Faces Africa Setback After,Failed Bid in Russia
2013-05-28T14:12:18Z,EU,Allowing Arms Sales to,Syrian Rebels U.K. Pressure
2013-05-28T14:16:07Z,Rajoy,Sees Reprieve,Spanish Recession Evidence Mounts
2013-05-28T14:16:58Z,Valeant,Buy,Bausch
2013-05-28T14:43:01Z,Bulgaria,End Impasse With,Socialist-Led Cabinet
2013-05-28T14:47:18Z,Europe ’s Banks,Turn for,Salvation
2013-05-28T15:54:31Z,Ethiopia,Refuses,Cooperate
2013-05-28T16:00:04Z,Billionaire Swedes,Matching,Apple
