2013-02-16T00:38:46Z,Asian Stocks,Decline as,Japan ’s Topix Snaps Win Streak
2013-02-16T00:38:46Z,Japan,as,Topix Snaps Win Streak
2013-02-16T00:38:46Z,Stocks,Decline as,Japan ’s Topix Snaps Win Streak
2013-02-16T02:26:27Z,Express Scripts,Sues,E&Y Alleging Trade Secret Theft
2013-02-16T03:46:35Z,ID List,Probes Amid,Privacy Debate
2013-02-16T03:46:35Z,Webb,Stops,Hong Kong Probes Amid Privacy Debate
2013-02-16T05:00:27Z,Canadian Dollar,Weakens Amid,Commodity Decline
2013-02-16T05:00:27Z,Dollar,Weakens Amid,Commodity Decline
2013-02-16T05:00:27Z,Yen,Resumes Slide as,Finance Chiefs Fail to Single
2013-02-16T05:01:00Z,Congress Seen,Cuts to,Start
2013-02-16T05:01:00Z,Dom Perignon,Listed With,Petrus
2013-02-16T05:01:00Z,Ornellaia,Petrus ’s,at Sotheby
2013-02-16T05:01:01Z,Morgan Keegan,Buy,Back Suit
2013-02-16T05:01:01Z,Securities,in,SEC
2013-02-16T05:01:01Z,Toshiba,Pay Million in,Price-Fixing Suit
2013-02-16T06:14:03Z,U.K.,Action on,Tax Avoidance
2013-02-16T06:17:02Z,Perfect,Racing,Record
2013-02-16T06:19:05Z,North Korea,Celebrates,Kim ’s Birthday
2013-02-16T07:00:00Z,King,Says Inflation Above,2 %
2013-02-16T08:58:04Z,G-20 Disavow Targeting Exchange Rates,in,Strengthened Stance
2013-02-16T09:14:17Z,Air Arabia Full-Year Profit,Surges on,Demand for Discount Travel
2013-02-16T09:22:28Z,Magnitude-6 Quakes,Hit,Offshore
2013-02-16T11:25:35Z,Iberia,Finds Alternatives for,Passengers Affected by Strike
2013-02-16T11:25:35Z,Passengers,Affected by,Strike
2013-02-16T11:30:08Z,Russia,Blames,Him
2013-02-16T12:48:10Z,Kingdom,Stake in,China Online Retailer
2013-02-16T12:48:10Z,Stake,in,China Online Retailer
2013-02-16T13:39:39Z,Brazil,’s Batista,Veja
2013-02-16T14:01:33Z,Brazil Government,Considers,O Globo
2013-02-16T15:05:07Z,Peru,’s Threat,RPP
2013-02-16T15:11:36Z,Millwall,Beats,Luton 3-0
2013-02-16T15:32:23Z,China,Sees,Possibility of Deal
2013-02-16T16:43:09Z,G-20,Fight,Profit-Shifting
2013-02-16T17:03:08Z,Shiffrin,in,28 Years
2013-02-16T18:51:43Z,Strike,to Workers,Union
2013-02-16T20:00:00Z,G-20,Takes Harder Line on,Currencies
2013-02-16T20:26:24Z,Blackburn Upsets Arsenal 1-0,in,F.A. Cup
2013-02-16T20:26:24Z,Luton,as,Run Ends
2013-02-16T21:10:23Z,Messi Scores,300th,Goal
2013-02-16T21:12:33Z,GM,Unveils Chevy SS to,Leverage Nascar Series Involement
2013-02-16T23:00:00Z,Child ’s Pose,Wins,Top Award
2013-02-17T05:00:01Z,Li Daokui,Says,Government Spends
2013-02-17T05:00:01Z,Summers,Says,Tax-Law Uncertainty Weighing on Businesses
2013-02-17T05:01:00Z,NHL Rangers,Recall Chris Kreider After,Day
2013-02-17T18:30:01Z,India ’s Room,Is,Limited
2013-02-18T05:50:08Z,Billionaire Alwaleed,Buys,360buy Stake
2013-02-18T08:43:44Z,Singapore Protest,Exposes Voter Worries,About Immigration
