2013-04-28T02:14:53Z,Australia,Toughen,Worker Visa Laws Ahead
2013-04-28T04:00:01Z,Knicks,Seek Sweep Without,Suspended Guard Smith
2013-04-28T04:10:04Z,NFL Draft Ends,With,Teams Turning Attention to Quarterbacks
2013-04-28T05:16:33Z,Hafner,Drives in,Four
2013-04-28T06:57:28Z,Face Verdict,in,N. Korean Court
2013-04-28T09:07:53Z,Nigerian Fight,With,Militants
2013-04-28T10:40:01Z,IDB Holding 2020 Bond Yield Falls,Year on,Investment
2013-04-28T11:30:09Z,Beckham Richest,in,U.K. Sport
2013-04-28T11:30:09Z,U.K. Sport,in Richest,Sunday Times
2013-04-28T11:48:40Z,Rich Retirees,Should Pay,U.K. Ministers
2013-04-28T12:35:29Z,Syrian Rebels Battle Assad Forces,in,North
2013-04-28T12:48:52Z,Alcohol-Free Hotel Opens,in,Egypt Resort Town of Hurghada
2013-04-28T13:06:57Z,Rumford,Wins,Golf ’s Ballantine ’s Championship
2013-04-28T16:00:01Z,Piaget,Sees,China Sales Slowing
2013-04-28T16:00:01Z,Stronger Yuan,Boosts,Travel
2013-04-28T16:29:16Z,Rafael Nadal,Takes,Eighth Barcelona Title
2013-04-28T17:00:15Z,JPMorgan,’s Said,NYT
2013-04-28T17:11:25Z,Van Persie Scores,in,Arsenal-Man
2013-04-28T17:32:36Z,Jonny Wilkinson,Sends,Toulon Into Final
2013-04-28T18:31:11Z,Biggest Carmaker,Shifts,Focus
2013-04-28T18:31:11Z,Carmaker,Shifts Focus to,Shield Margins
2013-04-28T18:49:12Z,Avalanche Fire,Coach,Sacco
2013-04-28T18:49:12Z,Last-Place,Finish in,Division
2013-04-28T19:00:01Z,Billionaire Mansha,Says After,Poll
2013-04-28T20:24:44Z,Big,Approves,Football Alignments
2013-04-28T20:24:44Z,Big Ten,Approves,Football Alignments
2013-04-28T20:44:47Z,Celtics Beat Knicks,in,Overtime
2013-04-28T21:05:27Z,Samaras,Gets Backing for,Greek Job Cuts Ahead of Loan Approval
2013-04-28T22:00:00Z,Omega,Joins,Patek Philippe Seeking Growth
2013-04-28T22:00:01Z,Switzerland,Shorn of,Bankers Proves Industrial Juggernaut
2013-04-28T22:00:06Z,Fed,Broadens,Its Reach
2013-04-28T22:00:39Z,Web,Radicalizes,Muslims
2013-04-28T22:00:45Z,Brown-Vitter,Rearranges,Financial-Reform Battlefield
2013-04-28T22:03:11Z,Heat Win 88-77,in,First Round of NBA Playoffs
2013-04-28T22:14:49Z,Dollar,Holds Declines After,U.S. Growth Falls Short of Forecasts
2013-04-28T23:00:00Z,German Inflation,Slowed Since,2010
2013-04-28T23:00:00Z,Helen Mirren ’s Queen Triumphs,in,U.K. Olivier Awards
2013-04-28T23:00:00Z,Inflation,Slowed to,Level
2013-04-28T23:00:00Z,Ivan Lendl,Brings,150 Mucha Poster Girls Home
2013-04-28T23:00:00Z,London Pizza,Named,Beating Italian
2013-04-28T23:30:08Z,Juventus,Stays for,Title
2013-04-29T00:00:01Z,Iceland Party Ousted,Starts,Coalition Talks
2013-04-29T04:00:00Z,Lapses,in,Boston
2013-04-29T04:00:16Z,Breakthrough U.S. PGA Tour Victory,in,New Orleans
2013-04-29T04:00:16Z,Horschel,Gets,Breakthrough U.S. PGA Tour Victory
2013-04-29T05:08:02Z,Shoppers,Turn,Blind Eye
2013-04-29T06:48:22Z,Swiss Bank Pictet ’s Water Fund,Boosted by,Mideast Shortage
2013-04-29T07:53:04Z,Serbs,Selling on,Black Market Spurn EU Entry Sales Pitch
2013-04-29T09:29:47Z,London Homes,Sell as,Prices Rise
2013-04-29T09:32:16Z,VTB Group,Secures Investors for,Billion Share Sale Plan
2013-04-29T09:34:58Z,Letta Government Installation,Marred on,Police
2013-04-29T12:09:44Z,Danes,in,World Resist Credit
2013-04-29T12:48:34Z,Baidu Valuation Cut,in,Half
2013-04-29T12:57:11Z,Easy Money,Ebbing,Inflation
2013-04-29T12:57:11Z,Ebbing,Means,More Easy Money
2013-04-29T12:57:11Z,More Easy Money,Ebbing,Inflation
2013-04-29T13:49:09Z,Tech Stocks,Are in,Seven Years
2013-04-29T16:24:16Z,Abe,Uses,First Russian Visit
2013-04-29T16:45:37Z,Putin Purse Tightening,Hobbles,Medvedev
2013-04-29T17:51:23Z,Market,Shows,Austerity Mistaken
2013-04-29T18:05:17Z,Anshu Jain,Brings Deutsche Bank as,Client 's Man
2013-04-29T18:05:17Z,Client,as,Man
2013-04-29T20:13:36Z,Valeant Merger Talks,With,Actavis Said
2013-04-29T20:16:09Z,GM ’s China Bet,Mimics,Toyota ’s Bet
2013-04-29T20:24:10Z,Euro Gains,With,Italy Bonds
2013-04-29T21:36:22Z,Gain,Leads,Weekend Movies
2013-04-29T21:36:22Z,Pain,Leads,Weekend Movies
2013-04-29T22:45:42Z,Rue21 Seen,Targeted in,Billion LBO Spree
2013-04-30T00:41:32Z,Indonesia,From,Froth
2013-04-30T10:38:58Z,Building Owner,of,Assets
