2013-07-31T00:00:00Z,Spitzer,Playing Sheriff Again as,NYC Comptroller
2013-07-31T01:42:27Z,Bankrupt Detroit,Receives,U.S. Aid
2013-07-31T01:42:27Z,Detroit,Receives,Less U.S. Aid Than Colombia
2013-07-31T01:47:04Z,Won,Heads,Growth Picks
2013-07-31T02:00:00Z,National Payment Rollout,in,2013
2013-07-31T02:02:49Z,Taiwan ’s Economy,Grew,More-Than-Estimated Last Quarter
2013-07-31T02:19:01Z,$ 100 Million,Loan For,Projects
2013-07-31T02:22:18Z,Rupiah,Set for,Worst Month
2013-07-31T02:34:37Z,Bonds Fall,in,Month
2013-07-31T02:34:37Z,Thailand ’s Baht,Fall in,Month
2013-07-31T02:46:55Z,Ringgit Falls Most,Drop on,Fitch Outlook Cut
2013-07-31T02:49:55Z,Hutchison,for,ParknShop Chain
2013-07-31T02:52:16Z,Hong Kong Stocks,Swing,Ahead
2013-07-31T03:08:38Z,Rubber,Pares,Monthly Gain Ahead
2013-07-31T04:00:01Z,Using,Precedent of,Unprecedented Policy
2013-07-31T04:00:01Z,Walsh ’s Unconstrained,Wins in,Bond Rout
2013-07-31T04:00:31Z,Labor Board Republicans Seen Aiding Employers,in,Disputes
2013-07-31T04:01:00Z,American Homes 4 Rent Tests Housing REIT Market,With,IPO
2013-07-31T04:01:00Z,Crenn ’s Brilliant Squab Triumphs,in,S.F.
2013-07-31T04:01:00Z,Facebook,Draws,Young Viewers
2013-07-31T04:01:00Z,Mystical Rabbis,Shine in,N.Y.
2013-07-31T04:01:00Z,Rabbis,Shine in,N.Y.
2013-07-31T04:01:01Z,Las Vegas Sands,Toss,Million Verdict
2013-07-31T04:01:03Z,Economy,Grew,Quarter
2013-07-31T04:01:03Z,Slower Pace,in,Second
2013-07-31T04:18:23Z,Intuit,Settles Antitrust Suit Over,No-Hire Agreement
2013-07-31T04:19:31Z,Potential Partners,in,Indonesia Project
2013-07-31T04:45:25Z,Hong Kong Short Selling Turnover,Recorded,07/31/2013
2013-07-31T04:48:24Z,Red Sox Acquire Pitcher Peavy,in,3-Team Deal
2013-07-31T04:59:31Z,Rebar Climbs First Day,in,Five
2013-07-31T05:01:44Z,HeidelbergCement Profit,Beats,Estimates
2013-07-31T05:05:29Z,India ’s 10-Year Bond Yield,Surges Since,2009 in July
2013-07-31T05:05:29Z,India ’s Bond Yield,Surges by,Most
2013-07-31T05:18:02Z,Corn Seen,Sliding on,Bear Flag
2013-07-31T05:30:40Z,Ties,With,Japan Face Grim Test
2013-07-31T06:00:00Z,Germany ’s Retail Sales,Declined in,June
2013-07-31T06:04:13Z,Suez Environnement First-Half Profit,Rises Amid,Adverse Economy
2013-07-31T06:09:50Z,American Tobacco,Says,Profit Rose
2013-07-31T06:09:50Z,British American Tobacco,Says,Profit Rose
2013-07-31T06:09:50Z,British Tobacco,Says,Profit Rose
2013-07-31T06:09:50Z,Tobacco,Says,Profit Rose on Price Increases
2013-07-31T06:19:31Z,236 Million Rand,in,First Strut ’s Floating Bonds
2013-07-31T06:19:31Z,First Strut,in,Floating Bonds
2013-07-31T06:19:31Z,Sanlam,Invested,236 Million Rand
2013-07-31T06:22:33Z,Centrica ’s First-Half Profit,Rises on,Higher Gas Consumption
2013-07-31T06:32:31Z,St. James ’s Place Posts 53 Percent Jump,in,Profit on New Funds
2013-07-31T06:51:05Z,First Solar,Sees,Australian Project Decision
2013-07-31T06:51:55Z,Toshiba Profit,Misses,Estimates
2013-07-31T06:51:55Z,Toshiba Quarterly Profit,Misses,Estimates
2013-07-31T06:59:06Z,DP World,Says,First-Half Throughput Declines
2013-07-31T07:18:28Z,Customer Satisfaction,in,China
2013-07-31T07:18:28Z,Japanese Auto Brands Slide,in,Customer Satisfaction
2013-07-31T07:29:58Z,Cap Worst Monthly Run,in,Two Years
2013-07-31T07:39:40Z,Tullow,Switches,Exploration Focus
2013-07-31T07:40:04Z,Banker Najadi,Buried as,Malaysia Police Hunt Contract Killer
2013-07-31T07:51:21Z,Goldman,Likes,China Banks
2013-07-31T07:52:09Z,Suncorp,Says,Profit Declines Up to 34 %
2013-07-31T07:52:30Z,China Air Pollution Triple WHO Recommended Levels,in,First Half
2013-07-31T07:55:07Z,China Stocks Rise,Capping,Gain
2013-07-31T08:00:00Z,Italy Unemployment Rate,Remains Near,Record High
2013-07-31T08:01:06Z,DAX Index,Pares,Gain
2013-07-31T08:11:34Z,Norway Unemployment,Unexpectedly Drops in,May
2013-07-31T08:11:34Z,Norway Unemployment Drops,in,May
2013-07-31T08:28:20Z,Taylor Wimpey Profit,Rises on,Demand
2013-07-31T08:29:11Z,ICICI Bank First-Quarter Profit,Rises,25 %
2013-07-31T08:30:53Z,Hang Lung Profit,Beats,Estimates
2013-07-31T08:30:53Z,Hang Lung Underlying Profit,Beats Estimates on,Higher Rents
2013-07-31T08:32:20Z,Yes Bank Falls,in,Two Years
2013-07-31T08:33:02Z,Aer Lingus,Sticks to,2013 Forecast
2013-07-31T08:36:01Z,German Stocks,Are,Changed
2013-07-31T08:36:01Z,Stocks,Are Little Changed as,July Unemployment Declines
2013-07-31T08:55:03Z,EADS Earnings,Hit by,Currency Effect
2013-07-31T09:11:04Z,Taiwan Bond Yield,Rises in,July
2013-07-31T09:15:53Z,Diageo,Sees Spots,Emerging
2013-07-31T09:28:59Z,Paralyzed Men,Lose U.K. Appeal on,Right
2013-07-31T09:28:59Z,Two Paralyzed Men,Lose U.K. Appeal on,Right
2013-07-31T09:30:00Z,King Mallesons,Berwin to,Form
2013-07-31T09:34:07Z,Four People,Arrested in,FCA Insider-Trading Probe
2013-07-31T09:46:09Z,7 Weeks,Drops on,Fitch Cut
2013-07-31T09:46:09Z,Malaysia Stocks,Fall,Most in 7 Weeks
2013-07-31T09:47:06Z,Renewable Energy,Wins,Co-operative Bank Loan
2013-07-31T09:49:39Z,Tullow,in,Kenya
2013-07-31T09:54:25Z,Apple ’s Cook,Meets,China Mobile Chairman
2013-07-31T09:57:45Z,Madrid Subway Stations,Get,Corporate Sponsor
2013-07-31T10:06:25Z,Hong Kong Yuan Deposits,Snap Increase on,Cash
2013-07-31T10:07:56Z,Ukraine ’s Second-Quarter GDP,Shrinks,1.1 %
2013-07-31T10:11:07Z,Insurers,Used,Convicted Private Eyes
2013-07-31T10:18:38Z,Celltrion,Record on,AstraZeneca Takeover Bid Report
2013-07-31T10:19:23Z,F&C Asset Management Gains,in,London
2013-07-31T10:31:51Z,Euro-Area Inflation,Providing,ECB Leeway
2013-07-31T10:34:33Z,JSW Steel,Turns to,Loss
2013-07-31T10:35:24Z,Commodity-Linked Structured,Note,Sales Slump
2013-07-31T10:42:52Z,Bale,Is Million,Tottenham Tells
2013-07-31T10:42:52Z,Tottenham,Tells,Real
2013-07-31T10:45:03Z,AB InBev Profit Growth,Tops,Expectations on Better Brazil
2013-07-31T10:47:32Z,Lithuanian Gas Utility Dujos,Renegotiating,Gazprom Supply Deal
2013-07-31T10:55:29Z,Romania,Agrees on,EU4 Bln Precautionary Loan
2013-07-31T11:09:54Z,Rihanna,Wins,U.K. Case
2013-07-31T11:39:04Z,AstraZeneca,Eyes Anemia Drug as,Blockbuster
2013-07-31T11:39:37Z,Brewin Dolphin,Rises After,Commissions
2013-07-31T11:41:23Z,Invesco Profit,Rises,32 %
2013-07-31T11:41:23Z,Stock Markets,Help,Boost Assets
2013-07-31T11:45:00Z,German Jobless Rate,Holds in,July
2013-07-31T11:50:58Z,Airbus,Reflect,Aircraft Unit ’s Role
2013-07-31T11:52:16Z,Ex-Australia Cricket,Coach,Arthur Reaches Settlement
2013-07-31T11:57:01Z,Africa,of,Pannar Seed
2013-07-31T12:00:01Z,Banks ’ Role,Deserves,Scrutiny
2013-07-31T12:03:00Z,Iran Wheat Imports Seen,Sliding Amid,Increased Stockpiles
2013-07-31T12:04:52Z,African White Corn,Reaches,Highest Price
2013-07-31T12:04:52Z,South African White Corn,Reaches Highest Price in,Almost 2 Weeks
2013-07-31T12:04:52Z,White Corn,Reaches,Highest Price
2013-07-31T12:06:57Z,India,Hunts as,RBI Battles Rupee Fall
2013-07-31T12:07:04Z,Canadian Dollar,Strengthens Before,Gross Domestic Product Report
2013-07-31T12:07:04Z,Dollar,Strengthens Before,Gross Domestic Product Report
2013-07-31T12:20:02Z,Qatar Air ’s 787 Dreamliner Back,in,Service
2013-07-31T12:30:01Z,Economic Expansion,Has Been,More Irregular
2013-07-31T12:30:02Z,Companies,Added Workers in,July
2013-07-31T12:30:02Z,Employment Costs,in,U.S. Rose Above Forecast
2013-07-31T12:30:02Z,U.S. Rose Above Forecast,in,Second
2013-07-31T12:31:29Z,Bharti,Climbs,Most in Three Years
2013-07-31T12:32:11Z,737 Max Discussions Risk,Dragging,Beyond Year-End
2013-07-31T12:32:11Z,Ryanair-Boeing 737 Max Discussions Risk,Dragging,Beyond Year-End
2013-07-31T12:34:38Z,Dollar,Extends,Euro After Increase in GDP
2013-07-31T12:34:38Z,Gains Versus Yen,Euro After,Increase in GDP
2013-07-31T12:34:38Z,Increase,in,GDP
2013-07-31T12:40:07Z,Ebbing Market Risk,Gives,Fed
2013-07-31T12:44:53Z,China,With,Hisense
2013-07-31T12:44:53Z,Loewe,Jumps With,China 's Hisense
2013-07-31T12:46:25Z,Aussie,Tumbles,Least
2013-07-31T12:51:51Z,Analysts,See,Circle
2013-07-31T12:54:44Z,Forint,Set on,Rate Cut
2013-07-31T13:00:00Z,Five Pilot,Shows for,Kids in Web Video Push
2013-07-31T13:00:00Z,Kids,in,Web Video Push
2013-07-31T13:00:00Z,Pilot,Shows for,Kids in Web Video Push
2013-07-31T13:18:15Z,Inca de Varas Seeks,Permits for,$ 100 Million Chile Solar Project
2013-07-31T13:19:27Z,WTI,Set for,Month
2013-07-31T13:23:20Z,Delta CEO Seeks,Flights to,Close-In Tokyo Airport
2013-07-31T13:30:45Z,Maharashtra CD,of,Deals
2013-07-31T13:32:11Z,Claims Keita May Win,Vote,Outright
2013-07-31T13:34:50Z,Natural Gas,Rises for,Near-Normal U.S. Stockpile Gain
2013-07-31T13:39:34Z,Berkshire ’s MiTek Building Supply Unit,Buys,Benson Industries
2013-07-31T13:42:35Z,Micron Seeks Profit,in,Even Worst of Times With Elpida Deal
2013-07-31T13:57:18Z,Chicago Index Increases,in,Sign Manufacturing
2013-07-31T14:01:41Z,Bulgarian Parliament Passes Budget Revision,in,Final Vote
2013-07-31T14:02:45Z,Inequality Talk,Does,Nothing for Poor
2013-07-31T14:06:01Z,Cyprus,Meets,Aid Terms
2013-07-31T14:06:22Z,Ineos Producing Commercial-Scale Cellulosic Ethanol,in,Florida
2013-07-31T14:06:46Z,Report Supplies,Increased,Last Week
2013-07-31T14:09:01Z,Rival,Over,Report
2013-07-31T14:23:42Z,Alwaleed Unreliable,in,Case
2013-07-31T14:23:42Z,Case,in Unreliable,Judge
2013-07-31T14:28:38Z,Suez Environnement Expects Acquisitions,in,Europe Waste Industry
2013-07-31T14:30:03Z,Banks ’ Bad Loans,Reach,539.5 Billion Yuan
2013-07-31T14:30:03Z,Banks ’ Outstanding Bad Loans,Reach,539.5 Billion Yuan
2013-07-31T14:30:03Z,Chinese Banks ’ Bad Loans,Reach,539.5 Billion Yuan
2013-07-31T14:30:03Z,Chinese Banks ’ Outstanding Bad Loans,Reach,539.5 Billion Yuan
2013-07-31T14:32:32Z,July 26,for Report,Text
2013-07-31T14:37:20Z,ECF,Asks,Vietnam
2013-07-31T14:37:20Z,Vietnam,Look,Into Coffee Tax Dodge
2013-07-31T14:40:02Z,Dublin,in,Docklands
2013-07-31T14:40:02Z,Ireland Plans Ship Finance Center,in,Dublin ’s Docklands
2013-07-31T15:04:31Z,Germany,Boosts,Energy Research Funding
2013-07-31T15:11:09Z,Benitez,Died of,Heart Failure
2013-07-31T15:16:25Z,Dove,in,Feathers
2013-07-31T15:16:25Z,Hawk,in,Dove 's Feathers
2013-07-31T15:16:25Z,Yellen,Is,Hawk
2013-07-31T15:22:05Z,Platts,Says From,Regulation
2013-07-31T15:23:00Z,Brikor South Africa,Plummets,31 %
2013-07-31T15:26:28Z,Kerry 's Mideast Talks,Are,Delusional
2013-07-31T15:29:19Z,Czech Secret Service,Warns Against,Escalation of Ethnic Violence
2013-07-31T15:39:11Z,Japan Bonds,in,Strategy Reversal
2013-07-31T15:45:22Z,Fiat Industrial Profit,Rises on,U.S. Tractor Demand
2013-07-31T15:46:20Z,Zynga,Sues,Sex App
2013-07-31T15:48:21Z,Kerry,Arrives in,Pakistan
2013-07-31T15:48:21Z,Sharif,With,Administration
2013-07-31T15:48:21Z,Talks,With,Sharif ’s Administration
2013-07-31T15:53:43Z,BNP Paribas,Climbs,Capital Ratios
2013-07-31T15:55:55Z,Hugo Boss Second-Quarter Profit,Beats,Estimates on Stores
2013-07-31T16:00:00Z,China Brokerage Citic,Completes,CLSA Deal Minus Taiwan Business
2013-07-31T16:00:00Z,Stanley Ho ’s Shun Tak,Buys,Land
2013-07-31T16:00:04Z,Little,Changed After,U.S. GDP Report
2013-07-31T16:00:37Z,Loss,Widens After,$ 1.6 Billion ResCap Settlement
2013-07-31T16:02:52Z,Moneysupermarket Slumps,in,July
2013-07-31T16:03:03Z,Bund Yields,Reach,Three-Week High
2013-07-31T16:03:03Z,German Bund Yields,Reach Three-Week High,ECB Rate Meeting
2013-07-31T16:06:31Z,MasterCard Profit,Beats Estimates as,Card Spending Increases
2013-07-31T16:15:43Z,Fidelity 's Sweeney,Discusses,Audio
2013-07-31T16:17:39Z,Siena Prosecutors,in,Monte Paschi Probe
2013-07-31T16:24:00Z,Gerdau Rallies,Tops,Estimates
2013-07-31T16:27:12Z,Life,Is,Good
2013-07-31T16:29:12Z,MTA,Obtains Million With,Catastrophe Bonds
2013-07-31T16:35:05Z,Hapoalim ’s Leiderman,Tapped as,Next Bank of Israel
2013-07-31T16:35:43Z,Note Sales,Largest With,Add-On
2013-07-31T16:42:16Z,Downtown NYC Landlords Remake Offices,in,Shift From Banks
2013-07-31T16:50:03Z,Bayer Stock,Rises as,New Drugs Propel Revenue Increases
2013-07-31T16:54:28Z,BlackRock,Starts,Retirement Indexes
2013-07-31T16:54:28Z,Retirement Indexes,in,Retail Asset
2013-07-31T16:59:05Z,Heatwave Propels U.K. Grocery Sales,in,July
2013-07-31T17:01:44Z,U.S. Bond Yields,Reach,Almost 2-Year High
2013-07-31T17:15:27Z,$ 13 Million,in,Parts Overcharges
2013-07-31T17:15:27Z,Boeing,Refund,Million
2013-07-31T17:16:16Z,Glencore,Leading as,Goldman
2013-07-31T17:18:14Z,Sales,Surge in,Italy
2013-07-31T17:20:00Z,Google,Gets,TV
2013-07-31T17:32:54Z,Root,to Needed,Alexander
2013-07-31T17:34:04Z,Ex-Galleon Trader Drimal ’s Wife,Gets,Access
2013-07-31T17:39:20Z,U.S.,Declassifies,Court Order Allowing
2013-07-31T17:39:43Z,Canada ’s Economy Expands,in,May
2013-07-31T17:41:21Z,Goldman ’s Gary Cohn,Says,SAC Capital
2013-07-31T17:51:59Z,Huntsman,Says,Pigment Talks Include Creating New Company
2013-07-31T17:55:26Z,Colombia ’s Richest Man,Saves,Bank Debt
2013-07-31T18:09:04Z,Chinese Kids,Making,IPhones
2013-07-31T18:09:04Z,Kids,Making,IPhones
2013-07-31T18:17:13Z,EA,Loses,Bid
2013-07-31T18:28:36Z,Fugitive Former BTA Banker Ablyazov Detained,in,Southern France
2013-07-31T18:31:00Z,Slump Seen Brief,Seek,Expansion
2013-07-31T18:50:25Z,Sea Change,'s Scamming,Audio
2013-07-31T18:51:12Z,E-Rewards Backers,Seek,Buyer
2013-07-31T19:08:52Z,Credit Suisse,Is,Said
2013-07-31T19:08:52Z,Said,in,Talks Sell to Grosvenor
2013-07-31T19:14:52Z,Chile ’s IPSA Stock Index,Heads for,World ’s Biggest Monthly Drop
2013-07-31T19:14:52Z,World,for,Biggest Monthly Drop
2013-07-31T19:40:42Z,Fed Tapering,in,Six Weeks
2013-07-31T20:09:52Z,Allstate Profit,Rises on,Lower Costs From Disasters
2013-07-31T20:10:24Z,Economy,Expands Than,More Forecast
2013-07-31T20:12:47Z,EHealth,Wins,Approval
2013-07-31T20:16:37Z,Goldman Sachs,Offers Aluminum in,Queue
2013-07-31T20:19:21Z,Bond Funds,Attract Deposits in,Two Months
2013-07-31T20:22:12Z,RBI Caught,in,Vicious Circle
2013-07-31T20:22:12Z,Rupee,Fall as,RBI Caught in Vicious Circle
2013-07-31T20:26:47Z,Facebook,Tops IPO Price Since,May 2012
2013-07-31T20:33:39Z,IBM,Defends,Cloud-Computing Accounting Amid SEC Probe
2013-07-31T20:52:26Z,Obama Calls Summers Criticism Unfair,in,Capitol
2013-07-31T21:07:13Z,Fed,Cites,Inflation
2013-07-31T21:07:31Z,Guggenheim,Wins,Approval
2013-07-31T21:17:26Z,Fed,Sees,Risk
2013-07-31T21:22:00Z,U.S. Stocks,Erase,Rally
2013-07-31T21:22:43Z,Hulu Targets Binge Viewers,With,Full Original Series
2013-07-31T21:24:21Z,Ethanol,Jumps Versus Gasoline,Output Slips to Three-Month Low
2013-07-31T21:24:21Z,Output,Slips to,Three-Month Low
2013-07-31T21:25:48Z,Bernanke,Navigate,Crisis
2013-07-31T21:41:03Z,Deepwater Wind Top Bidder,in,First U.S. Wind-Power Lease Sale
2013-07-31T21:50:13Z,BRE Properties,Gets,Billion Investor Buyout Offer
2013-07-31T21:59:30Z,Madoff-Inspired Rules,Protect,Broker-Held Assets
2013-07-31T21:59:30Z,SEC,Adopts,Madoff-Inspired Rules
2013-07-31T22:00:01Z,Hollande,Seeking,$ Billion From Diesel
2013-07-31T22:00:01Z,Seeking,$ Billion From,Diesel
2013-07-31T22:00:11Z,BNP,Says at,End
2013-07-31T22:00:11Z,Deutsche Bank,Prepares,Cuts
2013-07-31T22:01:00Z,Rajoy,Faces,Dissent
2013-07-31T22:11:20Z,Detroit Property Owners,Can File,Tax Appeals
2013-07-31T22:23:39Z,Banks,Lose,Billions
2013-07-31T22:34:15Z,Arab Bank,Faces,January Trial
2013-07-31T23:00:00Z,Berthold Beitz,Dies at,99
2013-07-31T23:00:00Z,Clinton Campaign-in-Waiting,in,Super-PAC Surpasses Rivals
2013-07-31T23:00:00Z,Jobs,Help,Gauge Stimulus
2013-07-31T23:00:00Z,Peter Flanigan,Dies at,90
2013-07-31T23:00:00Z,SAC Seen,Avoiding,Billion Death Penalty
2013-07-31T23:01:00Z,Queen ’s Nuclear-War Message,Drafted in,1983 U.K. Exercise
2013-07-31T23:01:09Z,Growth,in,Local Advertising
2013-07-31T23:01:09Z,Yelp Revenue,Tops,Estimates Amid Growth in Local Advertising
2013-07-31T23:07:34Z,Kinross Gold,Takes,Writedown
2013-07-31T23:09:15Z,Pemex Bribery Suit,in,U.S.
2013-08-01T00:08:23Z,Nintendo,Aided With,Yen Masking Slump
2013-08-01T00:16:18Z,Panasonic Profit,Surges on,One-Time Pension Account Gain
2013-08-01T01:23:46Z,Sony Shares,Reject,IPO
2013-08-01T02:00:00Z,Hagel,Sees,Modernization Lull Versus Smaller U.S. Forces
2013-08-01T02:00:00Z,Syria ’s Assad,Agrees to,UN Chemical Weapons Investigation
2013-08-01T04:00:01Z,U.S. Senate,Confirms,ATF ’s First Director
2013-08-01T07:12:28Z,Telefonica,Unveils,Faster U.K. Wireless Plan
2013-08-01T07:31:46Z,Mugabe Will,Extend,Rule
2013-08-01T07:57:34Z,Hong Kong Police Make Third Arrest,in,China Metal Probe
2013-08-01T08:15:54Z,ANZ Opens 50-Ton Gold Vault,in,Singapore
2013-08-01T08:34:42Z,Abe Rally,Puts,Megabanks
2013-08-01T08:46:48Z,Europe,Should,Brace for Years of Merkel
2013-08-01T08:46:48Z,Meister,Says,Europe
2013-08-01T08:46:48Z,Should,Brace for,Years of Merkel
2013-08-01T09:55:32Z,DBS,Faces,Lag in Indonesia
2013-08-01T09:55:32Z,Five-Year Lag,in,Indonesia
2013-08-01T10:44:20Z,Tour de France,Turns as,Rescue From Doping Scandals
2013-08-01T11:10:49Z,Netflix Clones,Get,Head Start
2013-08-01T12:29:43Z,Egypt Authorities,Break Up,Sit-Ins
2013-08-01T12:31:20Z,Abe,Boosts,Exports
2013-08-01T12:31:20Z,Toyota Seen,With,Triple GM ’s Profit
2013-08-01T12:31:20Z,Triple GM,With,Profit
2013-08-01T12:38:59Z,Rajoy,Rejects,Early Vote
2013-08-01T12:59:42Z,Murder,Had Strut Untangling Deals,Bond Called In
2013-08-01T13:39:05Z,China Fracking Quake-Prone Province,Shows,Zeal
2013-08-01T13:41:07Z,Gilt Groupe CEO,Prove,Flash Sales
2013-08-01T14:02:37Z,CBS Profit Rises 11 %,Streaming,Deals
2013-08-01T14:28:38Z,Potash ’s $ 20 Billion Market,Transformed by,Uralkali
2013-08-01T14:28:38Z,Potash ’s $ Billion Market,Transformed by,Uralkali
2013-08-01T14:28:38Z,Potash ’s Billion Market,Transformed by,Uralkali
2013-08-01T14:35:02Z,Rohani Clout,in,Iran
2013-08-01T14:51:23Z,House,Strengthen,U.S. Sanctions
2013-08-01T15:10:17Z,Airbus Hunchback Beluga Plays Star Role,in,A350 Ramp-Up
2013-08-01T15:18:28Z,Czech Central Bank,Keeps Rates for,Sixth
2013-08-01T15:43:54Z,Belarus Bonds Pare Drop,Lifts,Yield
2013-08-01T16:15:47Z,Kerry,Says on,Visit
2013-08-01T17:57:53Z,DreamWorks Animation,Surges on,Gain
2013-08-01T18:29:20Z,Cox,Asks Court to,End Trust
2013-08-01T19:25:41Z,Burger Costs,Rising With,Beef Supply
2013-08-01T20:09:57Z,J.C. Penney,Says,CIT Funding
2013-08-01T20:20:57Z,Oprah,Touts,Butler
2013-08-01T20:22:18Z,Stocks,Extend Rally With,Metals
2013-08-07T20:37:34Z,BMC,Raises,$ 1.63 Billion Bonds
