2013-02-01T00:01:00Z,Blue Energy,Buys U.K. Wind Farms From,HgCapital
2013-02-01T00:01:00Z,Ghana,’s Bonds,More Taxes to Fund Deficit
2013-02-01T00:01:00Z,Ghana ’s Terkper Plans Bonds,Taxes to,Fund Deficit
2013-02-01T00:01:00Z,Roche ’s Avastin,Win NICE Backing for,Ovarian Use
2013-02-01T00:40:21Z,Iogen,Focusing on,Biofuels
2013-02-01T01:00:00Z,Bidder,Misses,Targets
2013-02-01T01:00:00Z,Christie,Pushes,Lottery
2013-02-01T01:36:40Z,Won,Set on,Yen
2013-02-01T01:55:16Z,Gillard ’s Labor Fundraising Tally,Lags Behind,Coalition Rivals
2013-02-01T01:56:55Z,Asia-Pacific Bond Risk,Decreases,Credit-Default Swaps Show
2013-02-01T02:24:25Z,Luxury Brands,Seek Out,Demand
2013-02-01T02:25:29Z,Equity Funds,’ Bonds,Citigroup
2013-02-01T02:28:34Z,Taiwan Dollar,Headed for,Week
2013-02-01T02:38:52Z,China Overnight Rate,Set for,Biggest Weekly Increase
2013-02-01T02:54:02Z,Delay Won Bond Sales,in,Slowest Start
2013-02-01T03:06:01Z,China Vehicle Population,Hits,240 Million
2013-02-01T03:07:44Z,Barclays Sells First Uridashi Notes,Tied to,Nvidia
2013-02-01T03:13:01Z,China Manufacturing,Expands for,Month
2013-02-01T03:13:01Z,Copper,Climbs,China Manufacturing Expands for Fourth Month
2013-02-01T03:16:17Z,Standard Chartered ’s Korea Unit Sells Notes,Tied to,Euro Swaps
2013-02-01T03:25:57Z,HSBC Sells First Notes,Tied to,Top Japan Bank
2013-02-01T03:29:19Z,SK Innovation Profit,Misses,Estimate
2013-02-01T03:30:00Z,Egypt ’s $ 1.5 Billion U.S. Aid,Questioned Amid,Crackdown
2013-02-01T03:30:00Z,Egypt ’s $ Billion U.S. Aid,Questioned Amid,Crackdown
2013-02-01T03:30:00Z,Egypt ’s Billion U.S. Aid,Questioned Amid,Crackdown
2013-02-01T03:44:13Z,Indonesia ’s Inflation,Accelerates on,Power Tariffs
2013-02-01T04:26:11Z,Thailand January Inflation,Slows on,Stronger Baht
2013-02-01T04:26:24Z,Crude Oil Imports,Increased in,January
2013-02-01T04:26:24Z,Oil Imports,Increased in,January
2013-02-01T04:26:29Z,Audi Opens Digital Showroom,in,Beijing
2013-02-01T04:31:00Z,Rebar,Climbs to,Seven-Month High
2013-02-01T04:33:37Z,India Bonds,Set as,RBI May Reduce Debt Buying
2013-02-01T04:45:19Z,Hong Kong Short Selling Turnover,Recorded,02/01/2013
2013-02-01T04:52:30Z,Pakistan,Sends,Police
2013-02-01T04:56:17Z,California,Turns,Corner With Upgrade
2013-02-01T04:56:17Z,Corner,With,Upgrade
2013-02-01T04:56:17Z,Pensions,Choke,Illinois
2013-02-01T05:00:00Z,U.S. Cattle Herd,Slumping to,61-Year Low Means Beef Rally
2013-02-01T05:00:02Z,Harvard ’s Birk Shuns Wall Street,in,Super Bowl
2013-02-01T05:00:03Z,Marsh,Sees,Weather
2013-02-01T05:00:03Z,McLennan,Sees,Finance Collision Course
2013-02-01T05:01:00Z,Duncan,Lauds,Progress of Race
2013-02-01T05:01:00Z,Endowment,Keep,Pace
2013-02-01T05:01:01Z,Allen Stanford Lawyer,Sued by,Receiver
2013-02-01T05:01:09Z,Payrolls,in,U.S.
2013-02-01T05:14:09Z,India ’s Rupee,Heads for,Weekly Advance
2013-02-01T05:19:26Z,Asian Corporate Dollar Bond Sales,Surge,Record
2013-02-01T05:19:26Z,Asian Dollar Bond Sales,Surge,Record
2013-02-01T05:19:26Z,Corporate Dollar Bond Sales,Surge,Record
2013-02-01T05:19:26Z,Dollar Bond Sales,Surge,Record
2013-02-01T05:26:56Z,Indonesian Stocks,Climb on,Bank Earnings
2013-02-01T05:26:56Z,Stocks,Climb to,Records
2013-02-01T06:05:48Z,Sharp,Narrows,Third-Quarter Loss
2013-02-01T06:15:31Z,$ 3.7 Billion Stake,in,Family Feud
2013-02-01T06:15:31Z,Samsung ’s Lee,Keeps,$ 3.7 Billion Stake in Family Feud
2013-02-01T06:19:55Z,Templeton,Says,U.S.
2013-02-01T06:42:17Z,12-Week Gain,for Heads,Weaker Yen
2013-02-01T06:53:47Z,66 Wind Turbines,in,South Africa
2013-02-01T07:00:00Z,Russia Manufacturing PMI,Rises Than,Forecast on New Orders
2013-02-01T07:03:29Z,10-Year Yield,Rises to,1.70 %
2013-02-01T07:15:26Z,Copper Gains,in,London
2013-02-01T07:16:07Z,Electrolux Profit,Misses,Estimates
2013-02-01T07:18:15Z,China ’s Manufacturing Sustained Expansion,in,January
2013-02-01T07:40:24Z,Swedish Manufacturing Slowdown,Stabilizes,Production Jumps
2013-02-01T07:43:26Z,Hong Kong Stocks,Pare Losses,China Manufacturing Grows
2013-02-01T08:01:26Z,Belgian Reactors Doel-3,Need,More Tests
2013-02-01T08:01:26Z,Reactors Doel-3,Need,More Tests
2013-02-01T08:01:39Z,Japan,Have,10.3 Percent of ESM Bonds
2013-02-01T08:19:28Z,Currency Forwards,With,Malaysia
2013-02-01T08:19:28Z,Indonesia,In,Talks on Currency Forwards With Malaysia
2013-02-01T08:19:28Z,Talks,In Indonesia,Singapore
2013-02-01T08:23:29Z,Bonds,Have Weekly Gains,Baht
2013-02-01T08:23:29Z,Growth Optimism,Boosts,Inflows
2013-02-01T08:23:55Z,Cabinet,Sees,2013 Growth
2013-02-01T08:23:55Z,Hungary PMI,Shows,Expansion
2013-02-01T08:35:39Z,Asian Currencies Decline,in,Week
2013-02-01T08:38:08Z,Boost Grain Buying,to China,Official
2013-02-01T08:38:08Z,Prices,Are,When Cheap
2013-02-01T08:57:32Z,2.68 Billion Euros,in,Goodwill Losses
2013-02-01T09:00:00Z,Italy Joblessness Rate,Holds in,More Than 13 Years
2013-02-01T09:00:00Z,South Africa ’s PMI,Rises in,January
2013-02-01T09:00:00Z,Weak Rand,Boosts,Exports
2013-02-01T09:02:11Z,Autogrill,Splitting,Travel Retail
2013-02-01T09:05:51Z,Vietnam ’s Two-Year Bonds,Have,Their Worst Week
2013-02-01T09:07:28Z,London Cab Maker,Rescued From,Administration
2013-02-01T09:07:37Z,Japan Tobacco,Raises Profit Forecast on,Yen
2013-02-01T09:15:06Z,Open,With,NATO
2013-02-01T09:15:06Z,Rasmussen,Urges,Russia
2013-02-01T09:15:06Z,Russia,Be,Open
2013-02-01T09:16:04Z,2012 Renewables Ranking,More M&A After,HSE Deal
2013-02-01T09:26:21Z,TeliaSonera,Bribed in,Uzbek Deal
2013-02-01T09:34:41Z,German Opposition,Stalls,Swiss Tax Treaty
2013-02-01T09:34:41Z,Opposition,Stalls,Swiss Tax Treaty
2013-02-01T09:45:51Z,PMI,Misses,Analyst Estimates
2013-02-01T09:45:51Z,U.K. Pound,Tumbles,Versus Euro
2013-02-01T09:53:44Z,Manufacturing Output,Expands for,1st Time
2013-02-01T09:53:44Z,Swiss Manufacturing Output,Expands for,1st Time
2013-02-01T09:56:58Z,Beijing,Sees,Long-Lost Blue Skies
2013-02-01T10:00:00Z,Euro-Area Unemployment Rate,Unexpectedly Holds Steady at,11.7 %
2013-02-01T10:05:16Z,De Maiziere,Says,Germany Will Work on Drones
2013-02-01T10:05:16Z,Germany Will Work,With,France
2013-02-01T10:19:55Z,India ’s Sensex,Has,Week in 2 Months
2013-02-01T10:19:55Z,Worst Week,in,2 Months on Valuation
2013-02-01T10:21:49Z,Hollande,in,Paris
2013-02-01T10:30:12Z,Wind Farm,in,Southern Chile
2013-02-01T10:52:53Z,Best Stock Pickers,Trawl Frontier Markets,U.S. Funds Lose
2013-02-01T10:52:53Z,Stock Pickers,Trawl Frontier Markets,U.S. Funds Lose
2013-02-01T10:54:33Z,U.K. Manufacturing,Grows in,Sign
2013-02-01T10:54:43Z,Apple Overtakes Samsung,With,34 % of U.S. Mobile Market
2013-02-01T10:54:49Z,Junk,to Cut,External Risks
2013-02-01T10:54:49Z,by Moody,’s Cut,External Risks
2013-02-01T11:00:03Z,Copper,Set in,Four
2013-02-01T11:05:21Z,Bharti Profit,Misses Estimates,Finance Costs Increase
2013-02-01T11:06:41Z,Aston Martin,in,Barn
2013-02-01T11:21:29Z,Nigerian Statistics Office Delays,Rebased,GDP Data
2013-02-01T11:21:29Z,Statistics Office Delays,Rebased,GDP Data
2013-02-01T11:32:27Z,Kenya Shilling,Snaps,Two-Day Rally
2013-02-01T11:36:27Z,Euro-Area Inflation,Slowed in,January
2013-02-01T11:37:11Z,Yen,Boosts,Earnings
2013-02-01T11:37:32Z,Companies,Test,Bond Waters
2013-02-01T11:37:32Z,Greek Companies,Test Bond Waters,Exit Risks Fade
2013-02-01T11:42:16Z,Russian Rocket,With,U.S. Satellite Crashes Into Pacific Ocean
2013-02-01T11:52:50Z,Daimler,Takes Stake in,China Carmaking Partner
2013-02-01T12:00:00Z,Kingsman,Sees,Sugar Surplus
2013-02-01T12:03:13Z,National Oilwell Profit,Rises on,Deepwater Gear Orders
2013-02-01T12:13:34Z,Dangote Cement,Reopens,Nigeria ’s Gboko Plant
2013-02-01T12:30:12Z,Treasuries,Drop for,First Time
2013-02-01T12:32:13Z,Orban,Helps Matolcsy Bid With,Hungary MNB Delay
2013-02-01T12:34:01Z,Bad,in,Swedish About-Face
2013-02-01T12:34:01Z,Banks Told Too Capital,Is Bad in,Swedish About-Face
2013-02-01T12:34:01Z,Banks Told Too Much Capital,Is Bad in,Swedish About-Face
2013-02-01T12:39:52Z,Fed Funds,Open Within,Target Range
2013-02-01T12:43:39Z,Theolia CEO,Vows at,Debt-Strapped Breeze Two
2013-02-01T12:43:48Z,Suez Environnement Unit,Wins,Million
2013-02-01T12:58:51Z,Panama Canal Trade Means Boom,in,U.S. Gas
2013-02-01T13:00:16Z,Debate,Is,Positive
2013-02-01T13:00:16Z,U.K. Debate,Is,Move
2013-02-01T13:03:35Z,Cameron,Has,Confidence Amid Plot Reports
2013-02-01T13:03:35Z,Full Confidence,in,Osborne
2013-02-01T13:07:33Z,Carbon Swings,Hit,Year High
2013-02-01T13:24:13Z,MetLife,Buys Provida for,$ 2B Expand
2013-02-01T13:25:09Z,CEO Ackroyd,After,Death
2013-02-01T13:28:17Z,U.K. Disappointed,Rejects,Falklands Talks
2013-02-01T13:30:00Z,Nanos Poll,Finds,Canada Consumer Confidence Rose
2013-02-01T13:32:45Z,Treasuries,Erases Loss,U.S. Jobless Rate Unexectedly Rises
2013-02-01T13:39:21Z,EADS Defense Unit,Adds Cyber-Protection Jobs as,Weapon Sales Sag
2013-02-01T13:41:29Z,Impresa,Says,SIC Television Audience Share Rose
2013-02-01T13:41:29Z,SIC Television Audience Share Rose,in,January
2013-02-01T13:56:27Z,15 Months,in,News Corp
2013-02-01T13:56:27Z,London Cop,Gets,15 Months in News Corp
2013-02-01T14:03:29Z,Europe Gasoline,Rise to,Three-Month Highs
2013-02-01T14:04:53Z,Nordic Power Price,Climbs After,Carbon Emissions Erase Losses
2013-02-01T14:04:53Z,Power Price,Climbs After,Carbon Emissions Erase Losses
2013-02-01T14:10:57Z,Itau BBA,Reduces,Hold
2013-02-01T14:10:57Z,Valid,Tumbles Toward,Six-Week Low
2013-02-01T14:19:53Z,Ex-BP Trader,Accuses,Company of Manipulating Gas Prices
2013-02-01T14:21:31Z,China,’s Regrets,Xinhua
2013-02-01T14:29:27Z,Suez Canal Seen,Kept Open by,Army
2013-02-01T14:32:20Z,1st Week,in,5
2013-02-01T14:37:03Z,MTN,Bribe for,Report
2013-02-01T14:37:16Z,Tata Motors Indian Vehicle Sales,Drop,Most
2013-02-01T14:37:54Z,EU,Weighs,2014 Start Date
2013-02-01T14:38:45Z,Capital,Appoints,Centerview ’s Crawford
2013-02-01T14:38:45Z,Capital One,Appoints,Centerview ’s Crawford
2013-02-01T14:50:39Z,Jump,in,Junior Bank Debt Risk
2013-02-01T14:50:39Z,SNS Reaal Nationalization,Triggers,Jump
2013-02-01T14:52:30Z,Credit Suisse,Said to,Edge Back
2013-02-01T14:52:52Z,Orix Said Last Bidder,in,Talks for Rabobank ’s Robeco Unit
2013-02-01T14:52:52Z,Rabobank,for,Robeco Unit
2013-02-01T14:52:59Z,Career,in,February 2011
2013-02-01T14:52:59Z,Edward Koch,Discusses,Career in February 2011
2013-02-01T14:52:59Z,Life,Career in,February 2011
2013-02-01T14:55:53Z,U.S. Michigan Consumer Sentiment Index Rose,in,January
2013-02-01T14:57:35Z,Gunmen,in,Bekaa
2013-02-01T14:57:35Z,Six Lebanese Soldiers,Killed in,Clash
2013-02-01T14:57:35Z,Six Soldiers,Killed With,Gunmen Bekaa
2013-02-01T15:00:00Z,Construction Spending,Rises Than,More Forecast on U.S. Housing
2013-02-01T15:00:00Z,Japan Olympic Committee,Widens,Probe
2013-02-01T15:00:00Z,Mitsubishi UFJ,Leads Japan Megabanks Profit Surge on,Stock Rally
2013-02-01T15:01:52Z,Fed ’s Dudley,Sees,Improving Economy Helping U.S.
2013-02-01T15:09:11Z,Ghana Oil,Rises to,Record High
2013-02-01T15:13:37Z,Nomura ’s Dalban,in,Exit Talks
2013-02-01T15:16:47Z,Santander,Misses Rebound on,Late Loans
2013-02-01T15:17:09Z,Nuclear Output,Hits Since,August
2013-02-01T15:17:09Z,Output,Hits on,Turkey Point
2013-02-01T15:17:25Z,Business,on Report,Text
2013-02-01T15:22:38Z,U.K. Water Company Pennon ’s Unit,Wins,Waste Treatment Contract
2013-02-01T15:25:12Z,Prince Muqrin,Is Named,Second Deputy Prime Minister
2013-02-01T15:25:12Z,Saudi Prince Muqrin,Is Named,Second Deputy Prime Minister
2013-02-01T15:27:16Z,Brent,Gain in,Europe
2013-02-01T15:27:16Z,Gasoil Gain,in,Europe
2013-02-01T15:27:57Z,Cameron,Rebuked by,Statistics Chief
2013-02-01T15:32:32Z,AB InBev May,Sell,Brewery
2013-02-01T15:32:32Z,Brewery,End,U.S. Modelo Suit
2013-02-01T15:36:49Z,Employment History,Got,Lot
2013-02-01T15:37:54Z,Inflation,Becoming,Trend
2013-02-01T15:37:54Z,Mexico Policy Makers,Say,Inflation Becoming
2013-02-01T15:37:54Z,Slower Inflation,Becoming,Trend
2013-02-01T15:38:51Z,Goodwill,Is,Bad News for U.S. Assets
2013-02-01T15:39:57Z,Employers,Ignoring,Congress
2013-02-01T15:40:00Z,$ 400 Million Al Dahra Investment,in,Food Production
2013-02-01T15:40:00Z,Serbia,Sees,$ 400 Million Al Dahra Investment in Food Production
2013-02-01T15:48:46Z,Manufacturing,in,U.S.
2013-02-01T15:48:58Z,Real Reason Republicans,Should,Fear Immigration
2013-02-01T15:48:58Z,Reason Republicans,Should,Fear Immigration
2013-02-01T15:50:35Z,Bridge Collapse,Kill,9 People
2013-02-01T15:56:51Z,TeliaSonera Chief Nyberg,Quits After,Uzbek Bribery Report
2013-02-01T15:59:35Z,Bunge,Take,Control of European Biodiesel Units
2013-02-01T16:00:00Z,Panel Sales Rise,in,Japan
2013-02-01T16:00:01Z,Taiwan New Premier,Must,Overhaul Pension
2013-02-01T16:00:34Z,Europe Bank Dollar Funding Costs,Drop on,U.S. Investor Appetite
2013-02-01T16:13:23Z,European 2014 Coal Rises,Heads for,Second Straight Weekly Gain
2013-02-01T16:14:49Z,EdKoch,Proudest of,Jews
2013-02-01T16:17:31Z,Policewoman,Arrested in,Probe Into U.K. Minister Pleb
2013-02-01T16:20:04Z,Lira,Keeps Gains After,Embassy Blast as PMI Buoys Rate Outlook
2013-02-01T16:21:09Z,Seat Pagine Bonds,Extend,Drop
2013-02-01T16:23:06Z,It,Took,Personal Data
2013-02-01T16:23:06Z,Path,Settles With,FTC
2013-02-01T16:24:16Z,Ruble,Headed for,Weekly Gain
2013-02-01T16:24:46Z,Fraud,Propelled,U.S. Industrial Revolution
2013-02-01T16:24:46Z,Piracy,Propelled,U.S. Industrial Revolution
2013-02-01T16:24:54Z,Soybeans,Gain as,Dry Weather May Reduce Argentina Output
2013-02-01T16:24:54Z,Wheat,Rises as,U.S. Drought Curbs Production Outlook
2013-02-01T16:34:24Z,Biggest Rally,in,7 Weeks
2013-02-01T16:50:54Z,EON Employee Vote,Paves,Way for Strikes
2013-02-01T16:53:10Z,Starbucks ’ Culver,Sees,Hundreds of Vietnam Cafes
2013-02-01T16:55:19Z,Stocks,Rise on,U.S. Factory
2013-02-01T16:55:19Z,Swiss Stocks,Rise on,U.S. Factory
2013-02-01T16:59:03Z,Sinopec Said,in,Talks Buy
2013-02-01T17:08:15Z,Magnit,Surges to,Record High
2013-02-01T17:08:15Z,Russia Stocks,Climb,Day
2013-02-01T17:17:45Z,Peru,Yields Fall as,Investors Use Weaker Sol to Boost Holdings
2013-02-01T17:21:30Z,Akfen,Recovers From,Slump
2013-02-01T17:25:35Z,Spanish Stocks,Drop as,Regulator Lifts Short-Selling Ban
2013-02-01T17:25:35Z,Stocks,Drop as,Regulator Lifts Short-Selling Ban
2013-02-01T17:30:39Z,BP,Buys,Russian Urals Crude
2013-02-01T17:32:42Z,Guatemala Coffee Institute,Declares,Emergency
2013-02-01T17:35:14Z,Brazil ’s Aneel,Approves,Jirau Hydro Dam
2013-02-01T17:42:51Z,EU Carbon,Has Record Gain,Germany Considers
2013-02-01T17:58:06Z,Nomura,Says,Colombia
2013-02-01T18:04:00Z,EnCap,Exceeds Target With,Billion for Energy Fund
2013-02-01T18:08:45Z,Copper Trade,Most Bullish in,15 Months on Recovery
2013-02-01T18:13:45Z,Gold,Head for,Weekly Gains
2013-02-01T18:19:39Z,Norbord,Rises After,Upgrade on U.S. Housing Recovery
2013-02-01T18:23:13Z,Delta Attendant Jobs,Give,1-in-110 Odds
2013-02-01T18:26:35Z,Face Levy,With,First System
2013-02-01T18:31:06Z,Toronto Offices,Passing NYC on,Funding
2013-02-01T18:43:42Z,Brazil,Posted,Record $ 4 Billion Trade Deficit
2013-02-01T18:44:11Z,Cheapest Solar Power,Less Than,Coal
2013-02-01T18:58:08Z,Columbia,From,Last Spaceflight
2013-02-01T18:59:24Z,SEC Group,Urges,Creation for Small Companies
2013-02-01T19:04:07Z,Buyers,See,Gains
2013-02-01T19:04:07Z,Muni Buyers,See,Gains
2013-02-01T19:04:07Z,Spoiled Buyers,See,Smaller Gains
2013-02-01T19:04:07Z,Spoiled Muni Buyers,See,Smaller Gains
2013-02-01T19:06:13Z,Boeing 787 Woes Stump Investigators,Prolonging,Grounding
2013-02-01T19:13:55Z,Energy Chief,Defends,U.S. Green-Energy Loans
2013-02-01T19:21:37Z,Exxon,Begin,Quarter
2013-02-01T19:28:04Z,Gulf Oils,Strengthen,WTI Weakens
2013-02-01T19:28:04Z,WTI,Weakens Against,Brent
2013-02-01T19:29:43Z,Gold,Rise on,U.S. Economic
2013-02-01T19:31:47Z,Brash New York Mayor,in,1980s Boom
2013-02-01T19:31:47Z,Edward Koch,Mayor in,1980s Boom
2013-02-01T19:33:16Z,Lyondell Lightening Crude,With,Long Eye on Canada
2013-02-01T19:36:27Z,Expansion,in,U.S. Crop Insurance
2013-02-01T19:36:27Z,Validus CEO,Pushes,Expansion in U.S. Crop Insurance
2013-02-01T19:39:06Z,EIA,Says,Data
2013-02-01T19:44:54Z,Yankees ’ Rodriguez,Was,Injected
2013-02-01T19:46:12Z,Brazil,Elects,Senate Leader Facing Surpreme Court Probe
2013-02-01T20:00:58Z,LME ’s Only Woman Trader,Join,Hong Kong Exchanges
2013-02-01T20:00:58Z,LME ’s Woman Trader,Join,Hong Kong Exchanges
2013-02-01T20:05:31Z,Corbett,Faces,Prosecutor Examining Sandusky Case
2013-02-01T20:06:49Z,NBC News President Steve Capus,Steps Down After,Two Decades
2013-02-01T20:11:43Z,Orange County Choppers Founder,Puts,Unit
2013-02-01T20:12:33Z,Griswold Booth,Empty at,NYSE
2013-02-01T20:13:21Z,Iran,Is,Expanding Aid
2013-02-01T20:16:21Z,Bovespa,Rises as,Manufacturing Data Boost Growth Outlook
2013-02-01T20:23:00Z,U.S. Funds,Reaping Record Deposits as,Markets Rise
2013-02-01T20:23:00Z,U.S. Mutual Funds,Reaping,Record Deposits
2013-02-01T20:28:55Z,Len Blavatnik,of,Suit
2013-02-01T20:30:44Z,Vale Fourth-Quarter Iron-Ore Output,Beats,Estimates
2013-02-01T20:38:03Z,Oil,Completes,Longest Run
2013-02-01T20:53:26Z,Financial Firms,Priced,Die
2013-02-01T20:56:53Z,Oil Rigs,in,U.S. Gain to Six-Week High
2013-02-01T21:05:16Z,Merck,Says,2013 Profit Will Decline
2013-02-01T21:11:48Z,Petrobras,Finds Oil in,Amazon Block
2013-02-01T21:15:52Z,AIG ’s United Guaranty,Loses,Appeal
2013-02-01T21:17:48Z,Netflix ’s Hastings,Says,Viewer Data Underpins Programming
2013-02-01T21:21:32Z,Steelmaker,in,Default
2013-02-01T21:22:19Z,Republican Senators Remain,Opposed to,Cordray Nomination
2013-02-01T21:22:21Z,Chicago Diesel,Reaches,Seven-Week High
2013-02-01T21:22:31Z,Ethanol,Weakens Against,Gasoline on Ample Supply
2013-02-01T21:23:41Z,Insurer ’s Profit,Beats,Estimates
2013-02-01T21:24:34Z,Tellabs,Tumbles to,Lowest
2013-02-01T21:26:04Z,Profit,Beats,Estimates
2013-02-01T21:26:51Z,Cheap U.S. Oil,Lifts,Refining
2013-02-01T21:26:51Z,U.S. Oil,Lifts,Refining
2013-02-01T21:30:03Z,Profit,Beats,Estimates
2013-02-01T21:34:29Z,CGI,Has,$ 1.1 Billion
2013-02-01T21:34:44Z,Imperial,Boosts,Kearl Oil-Sands Costs
2013-02-01T21:36:19Z,Chevron Fourth-Quarter Profit,Hits Record,Refining Surges
2013-02-01T21:41:07Z,Leap Wireless Climbs,Raises Rating to,Buy
2013-02-01T21:42:55Z,Dow,Climbs Above,Commodities Gain
2013-02-01T21:43:29Z,New BlackBerry Phone,Gets,EBay Bids
2013-02-01T21:46:49Z,Fast,Says,Canada-EU Nearing Comprehensive Trade Agreement
2013-02-01T22:04:27Z,Rothstein ’s Wife,Hiding Jewelry From,IRS
2013-02-01T22:04:57Z,Credit Suisse Put Garbage Mortgages,in,Bonds
2013-02-01T22:09:10Z,Credit Swaps,Expands as,Hiring Rises
2013-02-01T22:09:10Z,Manufacturing,Expands as,Hiring Rises
2013-02-01T22:13:19Z,Canadian Dollar,Weakens,Versus Major Counterparts
2013-02-01T22:13:19Z,Dollar,Weakens,Versus Major Counterparts
2013-02-01T22:13:35Z,Treasury Yields,Reach,Nine-Month Highs
2013-02-01T22:17:45Z,GSCI Index,Rises for,Eighth Straight Week
2013-02-01T22:37:43Z,Provida Plunges,in,Santiago on MetLife ’s
2013-02-01T22:43:31Z,NFL Films Cosell,Win,Super Bowl
2013-02-01T23:01:00Z,Early Luxury,Outselling,BMW
2013-02-01T23:01:00Z,Luxury,Outselling,BMW
2013-02-01T23:01:13Z,SNS,Nationalized in,Netherlands
2013-02-01T23:20:18Z,California Man Pleads Guilty,in,80
2013-02-01T23:35:22Z,Ag Processing,Idles,Ethanol Mill
2013-02-02T00:01:00Z,$ 7.4 Billion,Ping,Stake
2013-02-02T00:01:00Z,$ Billion,Ping Stake to,Thai Billionaire
2013-02-02T00:01:00Z,Billion,Ping Stake to,Thai Billionaire
2013-02-02T00:54:04Z,Berkowitz,Adds,Junk Debt
2013-02-02T01:24:23Z,IRS,Loses Bid for,Power
2013-02-02T05:00:01Z,Fed ’s Bullard,Cutting QE Pace,Data Stay Strong
2013-02-02T05:00:02Z,Sony,Prepping,PlayStation 4
2013-02-02T05:00:45Z,NFL Films ’ Cosell Picks Ravens,in,Super Bowl
2013-02-02T05:01:00Z,Critics,Want,More Exemptions From U.S. Birth-Control Rule
2013-02-02T05:01:00Z,Drunk Mobs,Wrecked,Capital
2013-02-02T05:01:00Z,Google,Rises,Record on Growth Prospects
2013-02-02T05:01:00Z,Kassay,Turns,Acrylic Into Gold
2013-02-02T05:01:00Z,Year,at,End
2013-02-02T05:01:01Z,2008,Shows,CEO ’s Challenges
2013-02-02T05:01:01Z,Facebook,Sues,Profile Technology Over Use
2013-02-02T05:01:01Z,NBA Union Chief Billy Hunter,Leave by,Players
2013-02-02T05:01:10Z,Toyota,Gains as,Autos Fuel Growth
2013-02-02T05:04:28Z,Davis Cup Tennis Lead,U.S. Up,2-0
2013-02-02T05:04:28Z,Djokovic,Helps to,Davis Cup Tennis Lead
2013-02-02T16:43:35Z,Argentina,Is,First Nation Censured by IMF for Economic Data
2013-02-05T08:38:03Z,Manufacturing,Stabilizes,Production Jumps
2013-02-05T08:38:03Z,Nordic Manufacturing,Stabilizes,Production Jumps
