2013-01-19T00:07:14Z,Dark Pool Disclosures,Are,Subject
2013-01-19T00:07:14Z,Pool Disclosures,Are Subject by,Finra
2013-01-19T00:29:37Z,JPMorgan,Gives Zames Million in,Stock
2013-01-19T00:30:22Z,Egypt Updating Economy Plan,Secure,Loan
2013-01-19T00:30:22Z,IMF,Says,Egypt Updating Economy Plan
2013-01-19T01:16:53Z,U.S. Energy Department,Defends,Nuclear-Waste Fee
2013-01-19T02:01:41Z,San Francisco Led California Employment Growth,in,2012
2013-01-19T02:24:21Z,Burned Evidence,Adds,Obstacle
2013-01-19T02:24:21Z,Defect,in,787 Elusive
2013-01-19T02:24:21Z,Evidence,Adds,Obstacle
2013-01-19T05:00:01Z,Williams,Leads,Brooklyn Nets
2013-01-19T05:01:00Z,Petrus 1982 Features,With,Romanee-Conti 1999 at Acker
2013-01-19T05:01:01Z,BP Spill Settlement Approval,Appealed by,Opt-Out Victims
2013-01-19T05:24:55Z,Notre Dame ’s Te’o,Denies,Participation
2013-01-19T05:24:55Z,Participation,in,Dead Girlfriend Hoax
2013-01-19T08:46:32Z,Pollution,in,Beijing Soars
2013-01-19T09:25:29Z,Sabic Fourth-Quarter Increases,Missing,Estimates
2013-01-19T09:25:29Z,Sabic Fourth-Quarter Net Increases,Missing,Estimates
2013-01-19T13:19:49Z,Heathrow Airport,Schedule by,Tomorrow
2013-01-19T14:55:15Z,India ’s Congress Party,Appoints,Rahul Gandhi
2013-01-19T14:56:16Z,Deutsche Bank Will Continue,Investing in,Farm Commodities
2013-01-19T15:41:30Z,Billionaire Abilio Diniz,Buys Stake in,BRF
2013-01-19T15:57:35Z,Azeri Police Clash,With,Shopkeepers Protesting Rent Increases
2013-01-19T17:10:02Z,Egypt Pardons 379 Protesters,Involved in,Post-Mubarak Violence
2013-01-19T17:10:02Z,Egypt Pardons Protesters,Involved in,Post-Mubarak Violence
2013-01-19T17:26:00Z,Axtel,Says,Majority of Bondholders Approve of Debt Restructuring
2013-01-19T17:31:25Z,Almarai Net Income,Beats,Estimates
2013-01-19T17:31:25Z,Estimates,Driven by,Revenue Growth
2013-01-19T17:48:30Z,Perelman,of,Popeye
2013-01-19T18:30:01Z,India,in,Congress
2013-01-19T18:30:01Z,No. 2,in,India ’s Congress
2013-01-19T18:30:01Z,Rahul Gandhi,Named,No. 2
2013-01-19T19:27:00Z,Developing Nations,Need,$ 83 Billion
2013-01-19T19:27:00Z,Nations,Need,Billion Year
2013-01-19T20:13:37Z,Liverpool Routs Norwich,in,Premier League
2013-01-19T20:34:04Z,Montpellier,Secures,Place in Heineken Cup Rugby Quarterfinals
2013-01-19T20:34:04Z,Place,in,Heineken Cup Rugby Quarterfinals
2013-01-19T22:52:52Z,Obama,Condemns Terrorist Attack in,Algeria
2013-01-19T23:04:54Z,Its Three Crude Export Terminals,in,Gulf
2013-01-19T23:04:54Z,Pemex,Reopens,Its Three Crude Export Terminals in Gulf
2013-01-20T05:01:09Z,Earl Weaver,Dies on,Cruise
2013-01-20T06:07:48Z,Rangers,Lose,NHL Season Starts
2013-01-20T12:16:43Z,Eyewitnesses,Recall,Suicide Belts
2013-01-21T00:00:00Z,Acid Attack,Adds to,Porn
2013-01-21T02:05:36Z,Beijing Smog Rules,Would Shut,Factories
