2013-03-30T00:10:08Z,Asian Currencies,Have,Week
2013-03-30T00:10:08Z,Currencies,Have Week in,Two Months
2013-03-30T01:30:48Z,Louisville,Beats,Advances
2013-03-30T01:30:48Z,Oregon,Advances to,NCAA Midwest Regional Final
2013-03-30T02:16:49Z,Louisville,Advance to,NCAA Tournament Regional Finals
2013-03-30T02:38:14Z,Michigan,Advance to,NCAA Tournament Regional Finals
2013-03-30T03:06:29Z,Version,in,China
2013-03-30T04:00:01Z,$ 167 Million Deal,With,Giants
2013-03-30T04:00:01Z,Birinyi,Says,Mining
2013-03-30T04:00:01Z,Buy Mining,Shares as,Bull Ages
2013-03-30T04:00:01Z,Cohen Confidant Steinberg,Crossed,Paths
2013-03-30T04:00:01Z,Rory McIlroy,Makes,Weekend Cut
2013-03-30T04:00:01Z,Tournament,Prior to,Masters
2013-03-30T04:17:09Z,Duke,Beats,Advance
2013-03-30T04:17:09Z,Michigan State 71-61,Advance to,NCAA Regional Finals
2013-03-30T05:08:54Z,Knicks Win Seventh Straight,Game Since,Run Ended
2013-03-30T05:45:37Z,Face Florida,in,Regional Final
2013-03-30T05:45:37Z,Michigan,Wins in,Overtime
2013-03-30T06:39:52Z,Landslide,in,Tibet Traps 83 Miners
2013-03-30T07:26:28Z,Gillard May,Seek,Reports
2013-03-30T11:38:20Z,State,With,South Korea
2013-03-30T12:19:45Z,Third Day,in,Hospital
2013-03-30T12:21:10Z,Afghanistan ’s Karzai,Discuss,Taliban Office
2013-03-30T12:42:35Z,Sabic,Leads,Saudi Arabian Shares Down First Time
2013-03-30T13:33:53Z,Atletico Madrid,’s Falcao,Daily Star
2013-03-30T13:33:53Z,Chelsea,Leads,Race for Atletico Madrid ’s Falcao
2013-03-30T14:15:04Z,Jockey JT McNamara Paralyzed,in,Cheltenham Fall
2013-03-30T14:34:12Z,Telegraph Further U.K. Defense,Cuts,Concern
2013-03-30T14:34:12Z,Telegraph U.K. Defense,Cuts,Concern
2013-03-30T14:36:30Z,North Korea,Declares,War
2013-03-30T15:02:19Z,Napolitano,Find,Compromise Creating Italy Government
2013-03-30T16:05:38Z,Argentina One-Sixth Bond Offer,Seen as,Nose
2013-03-30T16:26:42Z,3 Bodies,Found in,Brazil Iron Port Collapse
2013-03-30T16:26:42Z,Anglo American,Says,3 Bodies
2013-03-30T19:56:40Z,Kenya Supreme Court,Upholds,Kenyatta ’s Presidential Vote Win
2013-03-30T21:15:15Z,Indonesia Leader,Takes,Support Fades
2013-03-30T21:46:31Z,Serena Williams,Beats,Sharapova
2013-03-30T22:05:58Z,Sunderland Manager O’Neill,Fired With,Club Battling Relegation
2013-03-30T22:12:56Z,Bayern Munich,Nears,Bundesliga Title With 9-2 Rout of Hamburg
2013-03-31T04:00:01Z,Alford Signs,With,UCLA Basketball
2013-03-31T04:00:01Z,Contract,With,New Mexico
2013-03-31T04:01:00Z,NHL,for,First Perfect Month
2013-03-31T04:01:00Z,Penguins,Go for,NHL ’s Perfect Month
2013-03-31T04:18:42Z,Wichita State,Are First,Syracuse
2013-03-31T06:31:33Z,Israel,Starts,Tamar Gas Production
2013-03-31T14:31:02Z,Napolitano Names Advisers,in,Renewed Push for Italy Deal
2013-04-02T07:41:35Z,Bank,May Lose on,Deposits
