2013-11-05T00:00:00Z,Cartoon Dancers Cavort,in,Klee ’s Art Playground at Tate
2013-11-05T00:00:00Z,Classics,in,Rep Open
2013-11-05T00:00:00Z,Klee,in,Art Playground at Tate
2013-11-05T00:00:00Z,World ’s Richest,Add Billion as,Global Markets Surge
2013-11-05T00:01:00Z,Djokovic,End Tennis Season With,Fourth Straight Title
2013-11-05T00:01:00Z,Pritzker Billionaire Brothers,Turn From,Family Feuding
2013-11-05T00:01:00Z,Property Boom,Feeds,Spending
2013-11-05T00:01:00Z,Rieussec Sauternes,Holds Gains as,Trading Volume Increases
2013-11-05T00:01:00Z,Rieussec ’09 Sauternes,Holds Gains as,Trading Volume Increases
2013-11-05T00:01:00Z,U.K. Outlook,Raised by,Niesr
2013-11-05T00:08:06Z,Japanese Stocks,Rise After,Holiday
2013-11-05T00:08:06Z,Stocks,Rise After,Holiday
2013-11-05T00:13:30Z,Black Box Sales,in,Korea
2013-11-05T00:13:30Z,Fueling Surge,in,Black Box Sales
2013-11-05T00:29:39Z,New Zealand,Attacking,Boost
2013-11-05T00:57:26Z,Horse-Meat Plant Inspection,Halted by,U.S. Appeals Court
2013-11-05T01:11:46Z,U.S. Treasury,’s Brainard,Official
2013-11-05T01:32:32Z,777X,Wing in,Washington
2013-11-05T01:32:32Z,Boeing,in,Union Talks
2013-11-05T01:32:32Z,Build Wing,in,Washington
2013-11-05T02:05:54Z,Indian Nifty Futures Swing,Climb to,Diwali Record
2013-11-05T02:05:54Z,Nifty Futures Swing,Climb to,Diwali Record
2013-11-05T02:21:58Z,China Repo Rate,Slips for,Fourth Day
2013-11-05T02:21:58Z,PBOC,Injects,Funds
2013-11-05T02:22:03Z,Cameron LNG Export Rulings Seen,in,Coming Months
2013-11-05T02:22:03Z,U.S. Freeport,Seen in,Coming Months
2013-11-05T02:41:16Z,U.S. Treasury,’s Brainard,Official
2013-11-05T02:55:53Z,Taiwan Five-Year Bonds,Snap Three-Day Decline,Inflation Slows
2013-11-05T03:36:35Z,First Time,in,Four Days
2013-11-05T04:30:00Z,Europe,of,Recovery
2013-11-05T04:30:00Z,Reports,Are,Greatly Exaggerated
2013-11-05T04:45:19Z,Hong Kong Short Selling Turnover,Recorded,11/05/2013
2013-11-05T05:00:00Z,Google,Lets,Remodelers Charge for Lessons
2013-11-05T05:00:00Z,Lemon Zesters,Charge for,Lessons
2013-11-05T05:00:00Z,Liriano,Wins in,NL
2013-11-05T05:00:00Z,Red Sox,Give,Three Free Agents Million Qualifying
2013-11-05T05:00:01Z,Gibson Dunn,Cravath on,Tri Pointe Deal
2013-11-05T05:00:01Z,Twitter ’s Feuding Founders,Put Social Network,Shame
2013-11-05T05:01:00Z,Chief Executives ’ Confidence,in,U.S. Declines to One-Year Low
2013-11-05T05:01:00Z,Freemans,Feeds,Stars
2013-11-05T05:01:00Z,Hockney,’s Yosemite,Cubist Movies at De Young
2013-11-05T05:01:00Z,Hockney ’s Big iPad Yosemite,Movies at,De Young
2013-11-05T05:01:00Z,Localities,Seek,Approval
2013-11-05T05:01:00Z,Marijuana Vote,Weighs,25 % Tax
2013-11-05T05:01:00Z,Schorsch Shakes,With,Biggest REIT Deal
2013-11-05T05:01:00Z,Twitter IPO,More Expensive Than,Facebook
2013-11-05T05:01:01Z,Cooper Trial,in,$ 2.5 Billion Apollo Tyres Deal
2013-11-05T05:01:01Z,Nokia,Secret ’s,Victoria
2013-11-05T05:03:19Z,Japan,Calls,South Korean Focus
2013-11-05T05:05:16Z,Japanese Venture,Starts Generating Power at,Largest Solar Plant
2013-11-05T05:05:16Z,Venture,Starts Generating Power at,Largest Solar Plant
2013-11-05T05:49:26Z,Aussie Falls,Says,Uncomfortably High
2013-11-05T06:30:00Z,Lada Maker,Appoints Ex-GM Manager to,Run Russian Company
2013-11-05T06:32:50Z,Hong Kong,Gives,Philippines Deadline
2013-11-05T06:49:10Z,JGBs,Declared,Dead by Mizuho
2013-11-05T06:49:10Z,Kuroda,Hides,Risks
2013-11-05T07:06:05Z,Doosan Infracore,Slumps on,Global Share Sale Report
2013-11-05T07:15:38Z,Bonds,Fall for,Fourth Day on Outflows
2013-11-05T07:15:38Z,Korean Bonds,Fall for,Day on Outflows
2013-11-05T07:15:38Z,South Korean Bonds,Fall for,Fourth Day on Outflows
2013-11-05T07:17:36Z,Symrise Pledges,in,Top Profit League
2013-11-05T07:52:15Z,Airline,Amid,Strategic Review
2013-11-05T07:55:32Z,China ’s Stocks,Advance as,Agriculture
2013-11-05T08:07:55Z,BMW,Fall on,DAX
2013-11-05T08:17:41Z,Property,Stokes,3-Times Bond Gains
2013-11-05T08:17:41Z,Saudi Property,Stokes,3-Times Bond Gains
2013-11-05T08:20:35Z,Itochu Seeks Record Annual Profit,Rising,Ore Sales
2013-11-05T08:20:35Z,Itochu Seeks Record Profit,Rising,Ore Sales
2013-11-05T08:32:54Z,Stocks,Rebound as,Novartis Gains
2013-11-05T08:32:54Z,Swiss Stocks,Rebound as,Novartis Gains
2013-11-05T08:34:18Z,Barca,for,Roberto
2013-11-05T08:34:18Z,Liverpool,Bids for,Barca ’s Roberto
2013-11-05T09:00:00Z,Failure,Keeping,Dirty Plants Operating
2013-11-05T09:22:06Z,Rand,Extends,Worst Currency Slide
2013-11-05T09:30:00Z,Consumers,Drive,Commission Forecasts
2013-11-05T09:30:00Z,Hollande,Reverse,Competitiveness Slide
2013-11-05T09:30:00Z,Nordic Consumers,Drive,Expansion
2013-11-05T09:32:22Z,Japan Watchdog,Begins Megabank Probe Amid,Crime Loan Scandal
2013-11-05T09:59:36Z,Royal DSM,Keeps Alive,Margin Target
2013-11-05T10:06:43Z,German Rent-Control Blueprint,Agreed in,Merkel Coalition Talks
2013-11-05T10:11:29Z,Australia,From,Port Hedland
2013-11-05T10:11:29Z,Iron Exports,Reach,Record From Australia ’s Port Hedland
2013-11-05T10:21:03Z,Micex,Fluctuates as,Surgut Climbs
2013-11-05T10:21:03Z,Surgut Climbs,Drops on,MSCI Wagers
2013-11-05T10:44:10Z,Smartphone Circuits,Lift,Profit
2013-11-05T10:47:30Z,Romania,Reaches Agreement on,Million Loan Tranche
2013-11-05T10:48:37Z,Heidelberger Druck,Surges on,Fuji Partnership
2013-11-05T10:59:49Z,Decline,in,Clothing Sales
2013-11-05T11:00:39Z,EU Nations,Urged to,Overhaul Energy Markets State Support
2013-11-05T11:19:10Z,Robus Capital,Starts,European High-Yield Corporate Bond Fund
2013-11-05T11:22:04Z,U.K. Services Growth,Accelerates to,Fastest
2013-11-05T11:28:15Z,UOB Third-Quarter Profit,Beats Estimates on,Interest
2013-11-05T11:28:45Z,India ’s Mars Probe,Lifts,Off in Race to Planet
2013-11-05T11:35:54Z,Miliband,Says,Cost Living
2013-11-05T11:46:34Z,Elections,Pose,Test
2013-11-05T11:47:26Z,U.K. Stocks,Drop,Euro-Area Growth Forecast Lowered
2013-11-05T11:52:35Z,O’Neill,Keane ’,in Advanced Talks Coach
2013-11-05T11:54:20Z,Hong Kong Developer,Wins,Approval for London City Hotel
2013-11-05T11:58:26Z,WestJet Third-Quarter Profit,Beats,Estimates
2013-11-05T12:18:37Z,Tesco,Joins,AT&T Selling Euro Bonds
2013-11-05T12:20:08Z,Chile ’s Economy,Contracted by,Most
2013-11-05T12:21:11Z,Informant,With,Tips on Cohen
2013-11-05T12:21:11Z,SAC Case,Began,Rajaratnam
2013-11-05T12:22:03Z,NWR,Plummets,Most in Six Weeks
2013-11-05T12:24:19Z,Dahdaleh,Paid Million to,U.K. SFO
2013-11-05T12:26:59Z,African White Corn,Climbs,Highest
2013-11-05T12:26:59Z,South African White Corn,Highest in,More Than 7 Months
2013-11-05T12:26:59Z,White Corn,Climbs,Highest in More Than 7 Months
2013-11-05T12:28:37Z,Meet Uncle Sam,Partner in,Crime
2013-11-05T12:28:37Z,Your Partner,in,Crime
2013-11-05T12:35:04Z,EU,Floats,Probe
2013-11-05T12:36:35Z,Deficit,Reach,Limit
2013-11-05T12:59:41Z,First Bonds,in,Euros
2013-11-05T12:59:41Z,Turkey,Hires Banks for,First Bonds in Euros
2013-11-05T13:00:17Z,Fed Funds,Open Within,Target Range
2013-11-05T13:03:33Z,BMW,Sees,i3 Spending
2013-11-05T13:09:45Z,Record Bond,Approved for,Biggest City
2013-11-05T13:22:40Z,Melco Crown Profit,Misses,Estimate
2013-11-05T13:23:57Z,U.K.,Urges,Water Firms
2013-11-05T13:30:00Z,Sun Life,Extends,Million Loan for British Columbia Mall
2013-11-05T13:34:29Z,Eskom,Reduces,Coal Purchases
2013-11-05T13:35:17Z,Iran Culture Minister,Wants,Social Media Ban Lifted
2013-11-05T13:35:32Z,Michelin Italy,Adds,Three Dual-Stars
2013-11-05T13:46:02Z,$ 160 Million Solar Photovoltaic Project,in,Chile
2013-11-05T14:09:40Z,Nazi-Seized Art,in,Very Good Condition
2013-11-05T14:13:06Z,Mozambique ’s Chissano,End,Poaching
2013-11-05T14:22:28Z,ASUR,Says,Airport Passenger Traffic Rose
2013-11-05T14:22:28Z,Airport Passenger Traffic Rose,in,Oct
2013-11-05T14:30:00Z,Brazil Soybean Planting,Progresses,Argentina Needs Rain
2013-11-05T14:50:12Z,ArcelorMittal South Africa,Reach,Iron-Ore Pact
2013-11-05T14:53:24Z,Force-Placed Insurance,Curbed by,Regulator
2013-11-05T14:54:36Z,Americans,Are,World Cup Ticket Buyers
2013-11-05T14:54:47Z,Fertilizer Prices,Remain,Challenging
2013-11-05T14:54:47Z,Mosaic,Says,Fertilizer Prices
2013-11-05T15:01:00Z,Renault-Nissan,Expands Mitsubishi Cooperation on,Vehicles
2013-11-05T15:12:59Z,Nazi-Seized Stash,Includes,Chagall
2013-11-05T15:24:03Z,Congress,Catch Up to,Courts
2013-11-05T15:24:03Z,Patent Tug-of-War,Prompts,Congress
2013-11-05T15:31:40Z,NFL Player,With,Elite College Degree Became Bullying Target
2013-11-05T15:34:17Z,Congo ’s M23,Says,Rebellion Over After Government Victories
2013-11-05T15:34:27Z,Forecast,Misses,Estimates
2013-11-05T15:34:27Z,Tenet Sinks,Misses,Estimates
2013-11-05T15:36:08Z,Safaricom First-Half Profit,Surges,Data Share
2013-11-05T15:36:33Z,Volume,Surges on,Power Rate Rise
2013-11-05T15:37:25Z,Economic Model,Wins,Backing
2013-11-05T15:37:25Z,German Economic Model,Wins Backing in,Merkel Coalition Talks
2013-11-05T15:37:25Z,German Model,Wins Backing in,Merkel Coalition Talks
2013-11-05T15:37:25Z,Model,Wins,Backing
2013-11-05T15:42:11Z,Liquidity Drought,Allayed in,Fed-Fueled Trading
2013-11-05T16:08:16Z,Lesotho Water Minister,Dismissed,Charged
2013-11-05T16:16:34Z,Environmental Activist,Save,Burma
2013-11-05T16:20:52Z,Talk,With,Fortress on Spinoff Hedge Fund
2013-11-05T16:24:18Z,Men,at,Tennis Finals in London
2013-11-05T16:24:18Z,Men ’s Tennis Finals,in,London
2013-11-05T16:24:18Z,Rafael Nadal,Beats David Ferrer at,Men ’s Tennis Finals
2013-11-05T16:45:38Z,Cardio3,Surges for,Mesoblast
2013-11-05T16:48:36Z,Acid,Pushes,Down Shares
2013-11-05T16:55:29Z,EU,Reduces,Growth Forecast
2013-11-05T16:55:31Z,Homeownership Rate,Climbs From,Lowest Level
2013-11-05T17:06:10Z,Germany Calls,In,U.K. Ambassador Over Embassy Spying Allegations
2013-11-05T17:10:16Z,Alberta Coal Mine,Spills,Contaminated Waters Into River
2013-11-05T17:27:19Z,European Stocks,Drop as,RSA Fall
2013-11-05T17:27:19Z,Stocks,Drop as,BMW
2013-11-05T17:27:55Z,Gamesa,Provides,210 Megawatts
2013-11-05T17:29:09Z,Dollar Bottom Detected,Flows Since,2009
2013-11-05T17:37:50Z,Windstorms,Push,Profitability Below Target
2013-11-05T17:48:44Z,EU Carbon,Rises as,Germany Said
2013-11-05T17:50:48Z,Banks,Need KPMG Reports to,Double Assets
2013-11-05T17:50:48Z,Private Banks,Need KPMG Reports to,Double Assets
2013-11-05T17:50:48Z,Swiss Banks,Need KPMG Reports to,Assets
2013-11-05T17:50:48Z,Swiss Private Banks,Need KPMG Reports to,Double Assets
2013-11-05T17:52:42Z,UBS,Hires,Maellare
2013-11-05T17:58:49Z,Gay Maine Candidate ’s Coming,Help Topple LePage Out,May
2013-11-05T18:02:46Z,Calgon Carbon,Swings,Carbon Demand
2013-11-05T18:15:00Z,Fed ’s Lacker,Says,Widening U.S. Inequality
2013-11-05T18:25:10Z,FAA Rules,Make,Pilot Training Real
2013-11-05T18:25:10Z,Pilot Training,More Real to,Limit Crashes
2013-11-05T18:41:21Z,Chris Christie Thinks Newt Gingrich,Is,Worst Person
2013-11-05T18:45:04Z,Army Plans,Kill,Dhlakama
2013-11-05T18:45:04Z,Mozambique ’s Renamo,Says,Army Plans
2013-11-05T18:49:15Z,Guggenheim,Hires,Wishengrad From Barclays
2013-11-05T18:53:24Z,It,'s Summer for,ETFs
2013-11-05T18:54:24Z,Washington Agency,Is,Fined
2013-11-05T18:57:02Z,Pre-World Cup Soccer Conference,in,Brazil Cancelled
2013-11-05T18:59:34Z,U.S. Broadcast Television Ratings,Ended,Nov. 3
2013-11-05T19:01:01Z,Glut,Expands,Record China Hoard
2013-11-05T19:08:31Z,U.S. Television Prime-Time Ratings,Ended,Nov. 3
2013-11-05T19:23:17Z,Texas,Hires,Patterson
2013-11-05T19:27:59Z,Services Expansion,Spurs,Taper Bets
2013-11-05T19:50:00Z,Texas,Hires,Patterson
2013-11-05T19:52:54Z,Fund Tender Offer,in,U.S.
2013-11-05T20:05:08Z,More Divestments,in,Turnaround Bid
2013-11-05T20:08:18Z,U.K.,Says,Green Subsidies Remain Intact
2013-11-05T20:13:33Z,China ’s Richest Man,Buys Million Picasso at,Auction
2013-11-05T20:13:40Z,Tenaska Solar Project,in,California
2013-11-05T20:27:11Z,U.S. Northeast Gasoline,Snaps,Rally
2013-11-05T20:30:11Z,Troika,of,Economic Forecasts
2013-11-05T20:33:53Z,Velti,Wins,Approval
2013-11-05T20:42:40Z,Brazil Real,Tumbles on,Concern Government Lax
2013-11-05T20:42:59Z,Ethanol ’s Discount,Expands Amid,Ample Corn Supplies
2013-11-05T20:50:05Z,YPF Profit,Rises on,Production
2013-11-05T20:50:05Z,YPF Quarterly Profit,Rises to,1.4 Billion Pesos
2013-11-05T20:53:09Z,Peru,Boosts,Intervention
2013-11-05T21:00:01Z,Drop,in,Prices
2013-11-05T21:00:01Z,Rwanda,Lowers Outlook After,Drop in Prices
2013-11-05T21:14:18Z,Endo Health,Buy,Paladin Labs
2013-11-05T21:19:50Z,DirecTV,Tops,Profit
2013-11-05T21:21:05Z,Charter Loss,Narrows as,Company Gains Internet Customers
2013-11-05T21:23:14Z,Mosaic,Says Fertilizer Prices to,Rise on China
2013-11-05T21:34:07Z,Crude Volatility,Rises,Oil Futures Sink to Five-Month Low
2013-11-05T21:34:07Z,Oil Futures,Sink to,Five-Month Low
2013-11-05T21:34:07Z,Volatility,Rises,Oil Futures Sink to Five-Month Low
2013-11-05T21:36:33Z,Bernanke Giving Homebuyers Second Chance,With,Pledge
2013-11-05T21:36:35Z,Surprise Services Pickup,Shows,Overcoming Shutdown
2013-11-05T21:37:17Z,Google ’s 8th Ranked Lobbying Machine,Takes on,Spy Debate
2013-11-05T21:37:17Z,Google ’s Ranked Lobbying Machine,Takes on,Spy Debate
2013-11-05T21:37:39Z,Argentine Stocks,Rise to,Boost Reserves
2013-11-05T21:37:39Z,Stocks,Rise to,Boost Reserves
2013-11-05T21:40:19Z,$ 13 Billion,With,Breakup
2013-11-05T21:48:06Z,Frequency Traders,Are,Little Too Slow
2013-11-05T21:48:06Z,High Frequency Traders,Are,Little Too Slow
2013-11-05T21:49:42Z,MF Global Trustee,Can Distribute,100 % of Customer Funds
2013-11-05T21:49:42Z,MF Trustee,Can Distribute,100 %
2013-11-05T21:50:29Z,TransCanada Profit,Rises on,Higher Electricity Prices
2013-11-05T21:52:22Z,Nation Revenue,Beats Estimates on,Summer Concert Attendance
2013-11-05T21:53:08Z,WTI Crude,Tumbles on,Supply Outlook
2013-11-05T21:53:19Z,She,Does Jump Off,Roof
2013-11-05T21:53:22Z,Brazil,as,Real Slumps
2013-11-05T21:55:35Z,3D Systems Shares,Record on,Takeover Speculation
2013-11-05T22:00:57Z,Democrats,Seek Support for,Bills to Offset Obamacare Woes
2013-11-05T22:09:15Z,Green Plains,Buying,Two Plants
2013-11-05T22:11:04Z,BlackBerry Comeback,Vanishing,Cash
2013-11-05T22:12:40Z,U.S. 10-Year Yields,Reach,2-Week
2013-11-05T22:15:46Z,Canadian Currency,Weakens as,Crude Oil Falls
2013-11-05T22:15:46Z,Currency,Weakens as,Crude Oil Falls
2013-11-05T22:20:06Z,Commodities,Head for,Longest Slump
2013-11-05T22:37:17Z,BTG ’s Profit,Misses Estimates as,Principal Investments Fall
2013-11-05T22:37:25Z,CBA First-Quarter Profit,Rises on,Lower Bad Debt Charges
2013-11-05T22:40:16Z,Djokovic,Defeats,Six-Time ATP Champion Federer in Opening Round
2013-11-05T22:40:16Z,Six-Time ATP Champion Federer,in,Opening Round
2013-11-05T22:45:11Z,Cohen ’s Dream,Dies,SAC Pleads Guilty
2013-11-05T22:47:15Z,Stay,in,Job
2013-11-05T22:47:20Z,Kiwi,Climbs to,One-Week High
2013-11-05T22:57:00Z,U.S. Cable Television Ratings,Ended,Nov. 3
2013-11-05T23:16:45Z,Mexico Parties,Seek Oil License Contracts in,Bill
2013-11-05T23:19:00Z,Sturm Ruger Quarterly Sales,Jump,45 %
2013-11-05T23:19:00Z,Sturm Ruger Sales,Jump,45 %
2013-11-05T23:48:46Z,Trucker,for,Refinancing
2013-11-06T00:00:30Z,Roy Keane,Coach,Ireland Soccer Team
2013-11-06T00:00:43Z,Kimberly Mounts,Dies at,48
2013-11-06T00:08:54Z,Manchester City,Joins,Bayern
2013-11-06T00:48:29Z,Illinois Senate,Gives,Approval
2013-11-06T01:09:00Z,HTC Sales Forecast,Misses,Estimates on Weak Phone Demand
2013-11-06T02:50:51Z,New Zealand Jobs Growth,Adds to,Case
2013-11-06T02:52:28Z,Djokovic,Winning Opening Match at,ATP Tour Finals
2013-11-06T04:30:13Z,CEO,Quits After,Loss
2013-11-06T05:00:00Z,18 Seasons,in,NHL
2013-11-06T05:00:00Z,All-Star Center Jason Arnott,Retires After,18 Seasons
2013-11-06T05:01:00Z,CFTC,Vote on,New Limits
2013-11-06T05:01:00Z,Testosterone Drugs,Raise Heart Risk in,Billion Market
2013-11-06T05:01:00Z,Vitter ’s Demands,Hold Up,Compounding-Pharmacy Bill
2013-11-06T05:01:01Z,Ex-Madoff Workers,Embarrass,SEC
2013-11-06T06:08:42Z,Inflation,Slowing to,Target
2013-11-06T06:08:42Z,Kenya Central Bank Governor,Sees,Inflation Slowing
2013-11-06T07:02:11Z,Buyers,Adapt to,Rules
2013-11-06T07:02:11Z,Tin Cargoes,Climb,Buyers Adapt
2013-11-06T07:09:37Z,Bubble Trouble Seen Brewing,in,Australia Home Prices
2013-11-06T07:14:07Z,China Security Chief,Urges,Terror Fight
2013-11-06T07:14:07Z,Terror Fight,in,Nighttime Visits
2013-11-06T08:59:15Z,Croatia May,Turn,Debt Grows
2013-11-06T08:59:15Z,Debt,Grows,Risky
2013-11-06T09:02:34Z,Perth Mint Advance,in,October
2013-11-06T11:28:29Z,Liberty Global Loss,Widens as,Investments Suffer
2013-11-06T11:28:29Z,Liberty Global Quarterly Loss,Widens as,Investments Suffer
2013-11-06T11:37:42Z,U.S. List,Helps in,Munich Cache
2013-11-06T11:40:10Z,Steinmetz ’s BSGR,Queried on,Payments to Guinea Officials
2013-11-06T11:42:56Z,Greek,Strikes,Transport After Return of Troika
2013-11-06T11:42:56Z,Halt Government,Transport After,Return of Troika
2013-11-06T13:03:10Z,ArcelorMittal S. Africa,Rises on,Deal
2013-11-06T14:24:31Z,OMX,Buy,Exchange Stake
2013-11-06T14:50:31Z,Boeing Seeks Labor Peace,in,Deal
2013-11-06T17:03:18Z,BlackRock,Study by,Regulators
2013-11-06T17:48:33Z,Accord,Would End,Supreme Court Housing-Bias Case
2013-11-06T17:48:33Z,Proposed Accord,Would End,Supreme Court Housing-Bias Case
2013-11-06T21:19:17Z,Dow Average,Rises,Record
2013-11-06T21:35:49Z,Charlie Trotter,Dies at,54
2013-11-14T07:46:59Z,Suwaidi,Says,U.A.E.
