2013-11-03T00:01:00Z,U.K. Lawmakers,Criticize,Police
2013-11-03T03:32:37Z,L.A. Airport Shooting Suspect,Charged by,U.S.
2013-11-03T04:00:01Z,Obama Stumps,With,as Much to Gain
2013-11-03T04:01:07Z,Growth,Slowed,Prior
2013-11-03T04:02:09Z,Mucho Macho Man,Wins,North America ’s Richest Horse Race
2013-11-03T04:30:05Z,Sumatra Volcano Eruption,Prompts,Indonesia
2013-11-03T04:48:22Z,Most,Read in,October
2013-11-03T04:51:59Z,Ohio State,Extends Win Streak With,56-0 Rout of Purdue
2013-11-03T10:30:15Z,It,Faces,Sanctions
2013-11-03T11:31:51Z,China,Removes,Xinjiang Military Chief From Local Party Top Post
2013-11-03T13:00:01Z,ANZ Bank CEO,Says,U.S. Fed Tapers
2013-11-03T13:41:19Z,Italy,Beats,Russia
2013-11-03T14:19:43Z,EBay,Apologizes for,Listing of Items
2013-11-03T14:24:35Z,Higher Leverage Ratio,Could,Mean End
2013-11-03T14:24:35Z,Higher Swiss Leverage Ratio,Could,Mean End of Universal Bank
2013-11-03T14:24:35Z,Leverage Ratio,Could,Mean End of Universal Bank
2013-11-03T14:24:35Z,Swiss Leverage Ratio,Could,Mean End
2013-11-03T14:26:26Z,Schumer,Gives Clinton Early Endorsement,Support Coalesces
2013-11-03T14:34:18Z,Kerry,Says,Improved Egypt Ties Depend
2013-11-03T15:12:31Z,India ’s Sensex,Climbs,Record as Autos Gain
2013-11-03T15:31:28Z,World Champion Sebastian Vettel,Wins,Abu Dhabi Grand Prix
2013-11-03T16:38:51Z,Daimler,Says,Probe
2013-11-03T16:56:48Z,Geoffrey Mutai,Jeptoo of,Kenya Win New York Marathon
2013-11-03T17:36:43Z,Ferrer,Win,Paris Masters Title
2013-11-03T18:04:23Z,Rogers,Say,Feinstein
2013-11-03T18:40:00Z,India,Launch Mars Orbiter in,Space Race
2013-11-03T20:52:17Z,CIA Drone Strike,Kills Pakistan Taliban Head Before,Talks
2013-11-03T20:57:09Z,Obama Stumps,With,as Much to Gain
2013-11-03T21:52:18Z,Mutai,Marathon After,Year of Sandy
2013-11-03T22:00:00Z,Mitsubishi,Expands Into Asian Condos as,Commodity Profits Slow
2013-11-03T22:00:00Z,U.S.,Says,Japan Signing Liability Pact
2013-11-03T22:32:21Z,NQ Mobile Sales,Search,Leads
2013-11-03T22:44:37Z,CN Rail Train Carrying Sulfur Dioxide Derails,in,Alberta
2013-11-03T23:00:00Z,Dueling Russian Poets,Keep,Putin
2013-11-03T23:00:01Z,It,Looks Like,Bank
2013-11-03T23:01:00Z,World Bank,Sees,Ways
2013-11-03T23:09:18Z,Vettel Ties Schumacher ’s F-1 Win Streak,With,Abu Dhabi Victory
2013-11-03T23:23:46Z,Toronto Mayor Ford,Apologizes,Demands Video Release
2013-11-04T00:00:00Z,Cardiff,Beats,Swansea
2013-11-04T02:04:45Z,Johnson Follows Woods,With,PGA Titles
2013-11-04T05:00:07Z,Ender,’,Game
2013-11-04T05:00:30Z,Brad Ausmus,Hired After,Leyland ’s Retirement
2013-11-04T05:00:30Z,Leyland,After,Retirement
2013-11-04T05:09:55Z,Owners,Seek Up in,IPO
2013-11-04T06:04:24Z,Aussie Dollar,Advance After,Retail Sales Beat Estimates
2013-11-04T06:42:37Z,Westpac Second-Half Profit,Rises on,Lower Bad-Debt Charge
2013-11-04T07:49:43Z,Coconut Crisis,Looms as,Postwar Palm Trees Age
2013-11-04T08:34:44Z,Asian Stocks,Fall After,Fisher Speech on Fed Policy
2013-11-04T08:34:44Z,Stocks,Fall After,Fisher Speech on Fed Policy
2013-11-04T10:33:03Z,Mao Playbook,in,Power Play Ahead of Plenum
2013-11-04T10:33:03Z,Xi,Borrows From,Mao Playbook in Power Play Ahead of Plenum
2013-11-04T11:05:30Z,U.K. Outlook,Raised,Construction Strengthens
2013-11-04T12:41:46Z,Mugabe,Makes,Zimbabwe ’s Tobacco Farmers Land Grab Winners
2013-11-04T12:48:13Z,Scandinavia,Splits Over,Common Bank Rulebook
2013-11-04T18:01:59Z,He,’s President,Refusing
2013-11-04T21:17:22Z,Cheaper Chickens,Seen in,Record Corn
2013-11-04T21:17:22Z,Chickens,Seen in,Record Corn
2013-11-04T21:24:43Z,Treasuries Advance,With,S&P 500
2013-11-04T21:45:36Z,Muddy Waters Seen Right,Wrong on,Cash
