2013-02-05T00:00:00Z,Disco Party,Takes With,Dazzling Light Show
2013-02-05T00:00:00Z,Israel Temple Discovery,Shows,Ancient Border
2013-02-05T00:00:00Z,Zinc,May Rise to,17-Month High
2013-02-05T00:01:00Z,U.K.,Promote,Defense Industry
2013-02-05T00:01:00Z,U.K. Economy,Faces,Risk of Prolonged Stagnation
2013-02-05T01:00:00Z,Online Tuition,Helps,UT-Arlington Offset State Budget Cut
2013-02-05T01:01:00Z,High-Yield,in,California
2013-02-05T01:20:09Z,Inflation,Quickened to,Three-Month High
2013-02-05T01:20:09Z,Philippine Inflation,Quickened to,Three-Month High
2013-02-05T02:03:06Z,Taiwan ’s Inflation,Slowed in,January
2013-02-05T02:20:06Z,Funds,Debt on,Yen Slump
2013-02-05T02:20:06Z,Global Funds,Sell,Stocks
2013-02-05T02:20:06Z,Stocks,Debt on,Yen Slump
2013-02-05T02:25:10Z,Airport Concession,in,April
2013-02-05T02:35:46Z,CNPC ’s Oman Crude Output Increases,in,2012
2013-02-05T02:40:26Z,Rupiah Forwards,Snap,Five-Day Gain
2013-02-05T02:41:11Z,America,of,Hedge-Fund Clients Boost Leverage
2013-02-05T02:41:11Z,Bank,in,Asia
2013-02-05T02:50:10Z,Cheaper Power Servers,Expand,Emerging
2013-02-05T02:50:10Z,IBM,Adds,Cheaper Power Servers
2013-02-05T04:00:00Z,African,Firms for,Oil Hunt Partnerships
2013-02-05T04:00:00Z,Zambia,Attracts,Saudi Firms for Oil Hunt Partnerships
2013-02-05T04:10:50Z,China,Park in,Kuantan
2013-02-05T04:10:50Z,Malaysia Plan $ 3.4 Billion Industrial Park,in,Kuantan
2013-02-05T04:15:14Z,China Web Competition,Saps,Growth
2013-02-05T04:45:16Z,Hong Kong Short Selling Turnover,Recorded,02/05/2013
2013-02-05T04:58:47Z,Dollar May Approach 94 Yen,With,Upward Bias
2013-02-05T05:00:01Z,Politician,Fondles,Writer in Grim Detroit Autopsy
2013-02-05T05:00:01Z,Proposition 30 Means More Californians Stay,in,Local Jail
2013-02-05T05:00:01Z,Writer,in,Grim Detroit Autopsy
2013-02-05T05:00:03Z,New York,Missing,SUVs
2013-02-05T05:00:03Z,Tahoes,Taken,New York Leads
2013-02-05T05:01:00Z,Hemispherx,Win U.S. Approval for,Fatigue
2013-02-05T05:01:00Z,NWT,Shipping,Alberta Oil North
2013-02-05T05:01:00Z,Yale Suing Former Students,Shows Crisis in,Loans
2013-02-05T05:15:50Z,Former Cy Young Winner Brandon Webb,Retires From,Baseball
2013-02-05T05:19:43Z,Indian Service-Industry Growth,Reaches,PMI
2013-02-05T05:19:43Z,Service-Industry Growth,Reaches,PMI
2013-02-05T06:01:00Z,Washington Tops Los Angeles,in,Traffic Gridlock
2013-02-05T06:19:23Z,RBA,Sees,Scope
2013-02-05T07:00:00Z,Swiss Exports Decline,in,December
2013-02-05T07:03:23Z,Indonesia ’s Economy,Grows in,Over Two Years
2013-02-05T07:18:33Z,Carlton,Says,Investors
2013-02-05T07:18:33Z,Investors,Spend Billion in,Iberia
2013-02-05T07:33:23Z,Transaction,With,Liberty Global
2013-02-05T07:33:23Z,Virgin Media,in,Talks for Transaction With Liberty Global
2013-02-05T07:40:13Z,10-Year Yield,Climbs to,4.50 %
2013-02-05T07:40:13Z,Italian 10-Year Yield,Climbs to,4.50 %
2013-02-05T07:40:13Z,Italian Yield,Climbs to,4.50 %
2013-02-05T07:40:13Z,Yield,Climbs to,4.50 %
2013-02-05T07:54:41Z,Ahmadinejad,Heads to,Summit Spat
2013-02-05T07:56:08Z,Cadillac Sales Fall,in,China
2013-02-05T07:56:08Z,GM Posts Record Month,in,January
2013-02-05T08:04:14Z,$ 200 Million Investment,in,New Romanian Stations
2013-02-05T08:14:54Z,ARM,Beats,Estimates on Chip Demand
2013-02-05T08:23:57Z,China ’s Stocks Rise,Led by,Property Companies
2013-02-05T08:30:05Z,CEO,Says,Profit Guaranteed
2013-02-05T08:30:05Z,EDF May End U.K. Nuclear Plan,Says,Profit Guaranteed
2013-02-05T08:30:05Z,EDF May End U.K. Plan,Says,Profit Guaranteed
2013-02-05T08:36:35Z,Eight Weeks,in,Tender
2013-02-05T08:37:48Z,10-Year Yield,Rises,2 Basis Points
2013-02-05T08:37:48Z,Yield,Rises,2 Basis Points
2013-02-05T08:38:24Z,10-Year Bonds,Leaving,Yield
2013-02-05T08:38:24Z,Bonds,Leaving,Yield
2013-02-05T08:38:24Z,Italian 10-Year Bonds,Leaving Yield at,4.47 %
2013-02-05T08:38:24Z,Italian Bonds,Erase,Decline
2013-02-05T08:41:11Z,Forecast,Misses,Estimates
2013-02-05T08:41:11Z,HTC,Tumbles by,Limit
2013-02-05T08:43:43Z,Sberbank Said,in,Kazakhstan
2013-02-05T08:51:27Z,Ruble,Weakens Day as,Europe Woes Mount
2013-02-05T08:55:57Z,$ 400 Million,in,Africa Energy Assets
2013-02-05T09:00:00Z,German Machinery Orders,Rebound on,Euro-Area Demand
2013-02-05T09:00:00Z,Machinery Orders,Rebound in,December
2013-02-05T09:06:10Z,Neste Oil Slumps,Misses,Estimates
2013-02-05T09:06:10Z,Profit,Misses,Estimates
2013-02-05T09:06:33Z,Yuan,Snaps Two-Day Decline as,Export Growth Seen Accelerating
2013-02-05T09:17:17Z,Mizuho,Build,Solar-Power Plant
2013-02-05T09:36:06Z,China Southern,Leads Airlines Lower as,Airports Raise Fee
2013-02-05T09:48:29Z,Rio Tinto,Is in,Mozambique Talks on New Coal Transportation Plan
2013-02-05T09:53:16Z,Asia,Leads Rout as,Drop
2013-02-05T09:53:16Z,Rout,in,New Dollar Bonds
2013-02-05T09:54:35Z,Conditions,in,South Africa
2013-02-05T09:54:35Z,Nestle,Faces,Conditions
2013-02-05T10:00:00Z,Euro-Area Retail Sales,Decreased Than,More Forecast
2013-02-05T10:00:00Z,Italy ’s Inflation Rate Drops,in,January
2013-02-05T10:06:40Z,PLDT,Rises to,High
2013-02-05T10:07:07Z,Pig Prices,Climb in,EU Southern Countries
2013-02-05T10:14:29Z,Yield,Rises,2 Basis Points
2013-02-05T10:23:35Z,Water Bills,in,England
2013-02-05T10:30:12Z,Tele2 Shares,Drop After,Earnings Miss Estimates
2013-02-05T10:32:36Z,Italian Notes,Rise Amid,Bets Berlusconi Concern Overdone
2013-02-05T10:32:36Z,Notes,Rise Amid,Bets Berlusconi Concern Overdone
2013-02-05T10:34:26Z,China,Renews,Consumer Protection
2013-02-05T10:43:42Z,Palm Oil,Snaps,Rally
2013-02-05T10:48:02Z,Chinatrust Commercial Bank,in,Taiwan
2013-02-05T10:50:45Z,Asian Stocks,Fall From,18-Month High on Europe
2013-02-05T10:50:45Z,Stocks,Fall From,18-Month High on Europe
2013-02-05T11:01:35Z,Right,Contest,Tax-Break Ban
2013-02-05T11:06:25Z,Emirates Airline,Sponsor,Formula 1 for 5 Years
2013-02-05T11:12:15Z,7th,Meeting on,Inflation
2013-02-05T11:12:15Z,Romania,Holds,Main Rate
2013-02-05T11:19:37Z,TMUCB,Wins,Water-Upgrade Contract in Romania ’s Braila County
2013-02-05T11:19:37Z,Water-Upgrade Contract,in,Romania ’s Braila County
2013-02-05T11:26:23Z,Pound,Declines,0.3 %
2013-02-05T11:38:39Z,Nottingham Forest Manager McLeish,Leaves,Soccer Club
2013-02-05T11:40:27Z,Asia Pulp,Halts,Clearing
2013-02-05T11:40:27Z,Chile Economy,Grew in,December
2013-02-05T11:40:27Z,Paper,Halts Clearing in,Indonesian Natural Forests
2013-02-05T12:02:54Z,Touaregs Seen Holding Key,in,Mali
2013-02-05T12:09:44Z,Niger,Give,More Funds
2013-02-05T12:09:44Z,Talks,With,Areva for Uranium Mines
2013-02-05T12:11:38Z,Fed Funds Projected,Open at,0.15 ICAP Says
2013-02-05T12:20:27Z,Goldman,Turns,Negative as Earnings Peak Seen
2013-02-05T12:29:20Z,It,Seeks,Creditor Protection
2013-02-05T12:29:20Z,Seat Pagine Bonds,Fall,Record
2013-02-05T12:40:51Z,Italy ’s Berlusconi,Narrows Gap With,Bersani
2013-02-05T12:46:37Z,Wells Fargo Targets Mideast Wealth Funds,in,Dubai Expansion
2013-02-05T12:49:40Z,IRC,Seeks Million Bank Loans to,Complete Mine Expansion
2013-02-05T12:50:34Z,Brazil,’s Petrobras,Valor
2013-02-05T12:50:34Z,Ethanol Fuel,More,29 %
2013-02-05T13:00:00Z,Bayer,Deal With,Portola for Xarelto Antidote
2013-02-05T13:00:00Z,J&J Sign Partner Deal,With,Portola for Xarelto Antidote
2013-02-05T13:00:44Z,Egypt Court,Lifts Assets Freeze on,Mubarak-Era Officials
2013-02-05T13:06:07Z,Indian Stocks,Retreat on,Europe Debt Concerns
2013-02-05T13:06:07Z,Stocks,Retreat for,Fourth Day
2013-02-05T13:09:16Z,Siemens Tackles U.S. Skills Gap,with,Apprenticeships
2013-02-05T13:19:23Z,REIT,Push by,Pensions
2013-02-05T13:23:46Z,Kenya Shilling,Weakens for,Third Day
2013-02-05T13:25:13Z,Fed ’s Duke,Says,Small Banks Poised for Rise
2013-02-05T13:25:13Z,Rise,in,Profits
2013-02-05T13:29:50Z,Kotak Mahindra Bank,Acquires,Barclays ’s India Loan Portfolio
2013-02-05T13:30:00Z,0.7 % Last Year,Led by,Durum
2013-02-05T13:30:00Z,0.7 % Year,Led by,Durum
2013-02-05T13:30:00Z,Canadian Wheat Stockpiles,Declined,0.7 % Last Year Led
2013-02-05T13:30:00Z,Last Year,Led by,Durum
2013-02-05T13:30:00Z,Wheat Stockpiles,Declined,0.7 % Year Led
2013-02-05T13:30:00Z,Year,Led by,Durum
2013-02-05T13:32:44Z,Citigroup,Hires,JPMorgan ’s Palacio
2013-02-05T13:34:46Z,Iron Ore Seen,Poised for,Bear Market
2013-02-05T13:39:05Z,Ex-Kuwaiti Lawmakers,Get,Jail Sentences
2013-02-05T13:58:23Z,VTB,Says,Billionaire Abramovich ’s Son Interning
2013-02-05T13:59:28Z,Slovenia Pensioner Party,Leaves,Premier Jansa 's Coalition
2013-02-05T14:00:00Z,Treasury,Resumes,Sales of State Securities
2013-02-05T14:04:31Z,Banks,Repay,Loans
2013-02-05T14:04:31Z,ECB Balance Sheet,Shrinks to,Low
2013-02-05T14:05:24Z,Snow,Disrupts,China Travelers Before Lunar New Year Holidays
2013-02-05T14:07:19Z,Teekay,Fills,Iran Void
2013-02-05T14:10:53Z,He,’s Feeling,Great After Tumor Removal
2013-02-05T14:11:06Z,U.K.,Enact,Leveson Rules
2013-02-05T14:12:18Z,ETH Bioenergia,Invests,$ 653 Million
2013-02-05T14:18:55Z,Next-Quarter Power,Rises After,Carbon
2013-02-05T14:18:55Z,Nordic Next-Quarter Power,Rises After,Carbon
2013-02-05T14:26:13Z,Northern Region Cement Triples,in,Trading Debut
2013-02-05T14:30:00Z,Oil World,Sees,Rebound
2013-02-05T14:31:44Z,Homes,Sell in,Two Weeks With Supply for Spring Buyers
2013-02-05T14:31:44Z,Two Weeks,With,Low Supply for Spring Buyers
2013-02-05T14:41:57Z,March,by IMF,Vuckovic
2013-02-05T14:45:03Z,San Bernardino Pension Fund,Investing With,U.K. Cairn Capital
2013-02-05T14:45:03Z,U.K.,With,Cairn Capital
2013-02-05T14:45:06Z,Mali ’s Mines Minister,Says,Gold Production Unaffected
2013-02-05T14:45:07Z,Nigeria ’s Naira,Climbs,Day
2013-02-05T14:45:07Z,Oil Companies,Sell,Dollars
2013-02-05T14:48:05Z,Angry Tory Lawmakers,Turn Over,Gay Marriage
2013-02-05T14:49:43Z,Game-Show Host Barker,Joins Rabbis on,NRA ’s List
2013-02-05T14:49:43Z,NRA,on,List of Gun Foes
2013-02-05T15:01:01Z,Toyota Suppliers,Say,Yen Drop Means
2013-02-05T15:06:31Z,Russia,Hires Goldman as,Corporate Broker
2013-02-05T15:10:35Z,Business,on Report,Text
2013-02-05T15:13:15Z,Rift,Stalls,Media Rules
2013-02-05T15:15:55Z,Nuclear Output,Rises as,Entergy Boosts Power
2013-02-05T15:15:55Z,Output,Rises at,Pilgrim 1
2013-02-05T15:18:07Z,Lundin CEO,Sees,Potential
2013-02-05T15:22:00Z,Analyst,Buy McGraw-Hill Stock After,Lawsuit Plunge
2013-02-05T15:30:00Z,Russia,of,Paris Hilton
2013-02-05T15:38:58Z,Canadian Stocks,Rise as,BlackBerry Rally
2013-02-05T15:38:58Z,Stocks,Rise as,Energy Shares
2013-02-05T15:40:34Z,Enel,Meets,2012 Targets
2013-02-05T15:44:40Z,Hearts Owner Romanov ’s Ukio Bankas,Plummets as,Fate
2013-02-05T15:45:27Z,Automatic,Spending,Cuts
2013-02-05T15:46:35Z,Hollande,Sparring With,Germany
2013-02-05T15:49:38Z,Fed ’s Duke,Says,Stronger Housing Market
2013-02-05T15:49:38Z,Stronger Housing Market,Spur,Growth
2013-02-05T15:54:00Z,House Leaders Weigh U.S.,Spending,Bill Below
2013-02-05T15:56:25Z,Council,Approves,Mediafax
2013-02-05T15:56:25Z,Romanian Council,Approves,CFR Marfa Sale
2013-02-05T15:58:17Z,Pound,Depreciates Vs Dollar to,Lowest Level
2013-02-05T15:58:21Z,Billions,in,Offshore Tax Avoidance
2013-02-05T15:59:24Z,Egypt Foreign Reserves Drop,in,Over 15
2013-02-05T16:00:00Z,Australia ’s Fox Creek,Beats,Bordeaux
2013-02-05T16:00:21Z,Serbia,Raises,Benchmark Rate
2013-02-05T16:14:24Z,Austria,Has,Billion at Risk Through Bank Assistance
2013-02-05T16:15:34Z,Leu,Weakens Day After,Central Bank Lifts Repo Cap
2013-02-05T16:15:34Z,Romanian Leu,Weakens Day After,Central Bank Lifts Repo Cap
2013-02-05T16:32:34Z,E-Star,Plunges,Day on Creditor Deal Failure
2013-02-05T16:43:37Z,Fewer Troops,Available for,Overseas Service
2013-02-05T16:43:37Z,Troops,Available for,Overseas Service
2013-02-05T16:46:25Z,Iran ’s Ahmadinejad,Draws,Criticism From Egypt Religious Leaders
2013-02-05T16:51:16Z,Government May Forecast,Increased,Stockpiles
2013-02-05T16:53:24Z,Stocks,in,Switzerland Advance
2013-02-05T17:01:09Z,San Francisco,Upgraded by,by Moody
2013-02-05T17:06:38Z,Cocoa,Leads Advance as,Kansas Wheat Falls
2013-02-05T17:10:55Z,Emerging-Market Bond Sales,Reach Record Billion in,January
2013-02-05T17:24:23Z,Overseas Shipholding,Wins,Approval of $ 25 Million Loans
2013-02-05T17:24:23Z,Shipholding,Wins,Approval
2013-02-05T17:30:08Z,Mexico,Says Since,2006
2013-02-05T17:32:49Z,Xylem,Acquires,U.K. Wastewater Services Company
2013-02-05T17:36:05Z,Egypt,for,Mursi
2013-02-05T17:36:05Z,Landmark Visit,Is,Test
2013-02-05T17:41:22Z,Deutsche Boerse Cuts Dividend,Jobs to,Shore
2013-02-05T17:43:17Z,Hollande ’s Popularity,Rises on,Mali Battle
2013-02-05T17:46:05Z,Euro,Test,Yen High
2013-02-05T17:54:01Z,KPN Debt Risk,Tumbles Since,Most 2007 on Capital Raising Plan
2013-02-05T18:04:51Z,Vinci,Predicts,Flat Business
2013-02-05T18:05:28Z,Proft,Misses,Analysts ’ Estimates
2013-02-05T18:08:14Z,ECB,Reduces,Balance Sheet
2013-02-05T18:09:52Z,May,Pay,Down Foreign Debt
2013-02-05T18:10:31Z,IFC,Raises Size on,Demand
2013-02-05T18:18:54Z,Barclays,Sets,$ 1.6 Billion
2013-02-05T18:19:09Z,Opposition,Is,Nuts
2013-02-05T18:34:22Z,U.S. Solar Will Eclipse Wind,Says,Duke Energy
2013-02-05T18:46:06Z,Pennsylvania ’s Corbett,Close,Gap
2013-02-05T18:46:27Z,Dell Board,Said,Have Considered
2013-02-05T19:01:02Z,Lakers ’ World Peace,Punching,Opponent
2013-02-05T19:01:22Z,Goldman Republican Lobbyist Malan,Departing for,Rio Tinto
2013-02-05T19:04:59Z,Vonn Injured,in,Crash
2013-02-05T19:13:23Z,Whole-Milk Powder,Rises to,Fonterra
2013-02-05T19:16:04Z,Nickel Declines,in,London
2013-02-05T19:24:43Z,U.S.,Backs,Opposition ’s Offer
2013-02-05T19:45:54Z,CEO,Over,Role
2013-02-05T19:45:54Z,Dell Buyout,Is,Seen Triggering Lawsuits Over CEO ’s Role
2013-02-05T19:51:10Z,IPhone Owner,Open,Name
2013-02-05T20:29:51Z,Silver Lake ’s Ties,Help,Firm Land LBO Role
2013-02-05T20:30:00Z,Canada,Toughens Anti-Bribery Laws for,Foreign Payments
2013-02-05T20:33:12Z,United Technologies,Agrees on,F-35s
2013-02-05T20:38:27Z,Stock Ticks Focus,Meeting for,Firms
2013-02-05T20:45:13Z,Allergan,Says Judge Erred,Allowing
2013-02-05T20:53:17Z,Dell ’s Drop Mirrors Descent,in,Mobile World
2013-02-05T20:56:10Z,Localiza Jumps,in,Sao Paulo
2013-02-05T21:04:03Z,IBM Sells Floating Debt Below Libor,in,$ 2 Billion Bond Offering
2013-02-05T21:06:35Z,New York Gasoline,Weakens on,Restart of Delta Trainer FCC
2013-02-05T21:07:03Z,Protalix,Hires,Citigroup
2013-02-05T21:10:31Z,HCA Profit Outlook,Reflects,Rise in Unpaid Hospital Bills
2013-02-05T21:10:31Z,Rise,in,Unpaid Hospital Bills
2013-02-05T21:10:40Z,Consumer Reports,Says,Ford
2013-02-05T21:15:01Z,UPS,Adds,5 Health-Care Shipping Centers
2013-02-05T21:15:04Z,Jury,in,Exxon Case Told MTBE
2013-02-05T21:15:38Z,Chile Peso,Strengthens as,Data Show Faster-Than-Forecast Growth
2013-02-05T21:15:55Z,French Refinery,Gets,Two Serious Bids
2013-02-05T21:15:55Z,Petroplus French Refinery,Gets,Two Serious Bids
2013-02-05T21:15:55Z,Petroplus Refinery,Gets,Two Bids
2013-02-05T21:15:55Z,Refinery,Gets,Two Bids
2013-02-05T21:18:33Z,Profit,Tops,Estimates
2013-02-05T21:18:33Z,Quarterly Profit,Tops,Estimates
2013-02-05T21:21:55Z,Ethanol,Weakens Against,Gasoline on Falling Corn Prices
2013-02-05T21:26:53Z,Natural Gas Futures,Climb as,Colder Weather
2013-02-05T21:28:49Z,CBO,in,Rosy Deficit Report
2013-02-05T21:28:49Z,Hidden Thorns,in,CBO 's Rosy Deficit Report
2013-02-05T21:28:55Z,Stocks,Rebound With,Oil
2013-02-05T21:29:06Z,Corn,Has Longest Slump in,Four Weeks
2013-02-05T21:29:19Z,Europe Deal Talk,Stokes,Cable Company Values
2013-02-05T21:30:29Z,ADM Earnings,Exceed,Estimates on Record Soybean Capacity
2013-02-05T21:30:58Z,Billionaire Grainger,Emerges as,Shares Surge
2013-02-05T21:32:50Z,Anadarko Profit,Exceeds,Estimates
2013-02-05T21:33:10Z,New Zealand Dollar,Rises Against,Dollar
2013-02-05T21:35:12Z,Heavy Canada Oil,Strengthens to,High on Eastern Lines
2013-02-05T21:42:44Z,NII,Plummets as,Revenue Forecast Falls Short of Estimates
2013-02-05T21:42:56Z,BlackBerry Z10,Gets Record Orders in,Canada
2013-02-05T21:46:48Z,Malone ’s Liberty Global,in,Talks With Virgin Media
2013-02-05T21:46:48Z,Talks,With,Virgin Media
2013-02-05T21:49:52Z,U.S. Treasury,Expects Million From,Citigroup Notes
2013-02-05T21:55:53Z,H&R REIT,Combine for,Primaris Takeover Bid
2013-02-05T21:55:53Z,KingSett,Combine for,Primaris Takeover Bid
2013-02-05T22:00:00Z,Glencore,Demands for,Higher Dividends
2013-02-05T22:00:00Z,South Africa,Faces Tax Dilemma,Mining Industry Costs Soar
2013-02-05T22:01:02Z,Obama,’s Eroding,CBO Projects
2013-02-05T22:01:54Z,Boost Grain,Sales to,U.S.
2013-02-05T22:07:50Z,$ 2.25 Billion,in,Two-Part Dollar Bonds
2013-02-05T22:07:50Z,Imperial Tobacco,Raises,$ 2.25 Billion in Two-Part Dollar Bonds
2013-02-05T22:12:34Z,BP Earnings,Decline as,Oil Production Drops
2013-02-05T22:12:34Z,BP Fourth-Quarter Earnings,Decline as,Oil Production Drops
2013-02-05T22:19:05Z,Tesoro Seen,Cutting,Rates
2013-02-05T22:19:07Z,Aflac Profit,Rises,8 %
2013-02-05T22:19:07Z,Aflac Quarterly Profit,Rises,8 %
2013-02-05T22:22:25Z,Emerging-Market Stocks,Drop,Most
2013-02-05T22:26:05Z,Holder,Cites,Conduct by McGraw-Hill
2013-02-05T22:27:09Z,Genworth Profit,Rises,17 %
2013-02-05T22:27:09Z,McInerney,Takes,Over as CEO
2013-02-05T22:36:54Z,Dell,Agrees to,Buyout
2013-02-05T22:36:54Z,U.S. Stocks,Rebound,Dell Agrees
2013-02-05T22:42:14Z,Cantor 's Best Policy,Is,Politics
2013-02-05T22:42:14Z,Cantor 's Policy,Is,Politics
2013-02-05T22:46:55Z,Dell Discount,Is Shot at,Success
2013-02-05T23:00:01Z,Banks,Can Withstand,Swedish Housing Price Slump
2013-02-05T23:00:01Z,UBS Bonus Plan,Gives,Bankers Incentives
2013-02-05T23:00:01Z,Vonn Expected,in,Olympics
2013-02-05T23:00:05Z,Monte Paschi Seen Revealing Losses,Masked by,Derivatives
2013-02-05T23:05:45Z,Lumber,Has,Four-Session Rally
2013-02-05T23:12:12Z,Eaton CEO,Says,China GDP Report Overstates Growth Rate
2013-02-05T23:14:47Z,GSCI Rise,Led by,Natural Gas
2013-02-05T23:30:06Z,Bishops,Owe,Obama
2013-02-05T23:31:36Z,It,Hates,Most
2013-02-05T23:45:30Z,Krugman,Sees,Japan ’s Shrinking Population
2013-02-05T23:45:58Z,Congress,by,Inertia
2013-02-05T23:56:18Z,Default,in,10 Months
2013-02-06T00:00:00Z,Assault,Under Internet,Regulator
2013-02-06T00:00:00Z,California Bus,Had,Previous Brake Issues
2013-02-06T00:00:00Z,Picasso ’s Portrait,in,190
2013-02-06T00:01:00Z,Occupy Libor Furor,Prompted,Change
2013-02-06T00:01:09Z,Cameron,Splitting,Tories
2013-02-06T00:14:06Z,Traffic,Slowed as,Snowfall Hits City
2013-02-06T00:45:43Z,Dell Deal May Herald LBO Rebound,in,2013
2013-02-06T00:54:02Z,Weaker Yen,Revives,Japan Inc
2013-02-06T01:56:20Z,China,Approves,Income Plan
2013-02-06T02:04:05Z,Take-Two Interactive Sales,Views on,NBA2K
2013-02-06T02:41:13Z,Deals,in,China
2013-02-06T02:59:55Z,Philippines May,Find,Peso Relief on Imports Gain
2013-02-06T04:07:08Z,Danger Seen,in,Pension Fund Cuts on Abe Inflation
2013-02-06T04:56:11Z,China ’s Tobacco Battle,Buying,Double Happiness
2013-02-06T05:00:01Z,Issa,Says Prosecutors to,House Panel on Swartz Case
2013-02-06T05:01:00Z,Dell,Taken,Private
2013-02-06T05:01:00Z,Dell Buyers,Swallow,Stricter Terms
2013-02-06T05:01:00Z,Disney Profit,Beats,Views
2013-02-06T05:01:00Z,PC Slump,Hastens,$ 24
2013-02-06T05:01:01Z,Lance Armstrong,Continues,Virtual Strava Races
2013-02-06T05:01:01Z,Some,Seek,Ban
2013-02-06T07:53:27Z,China ’s January Data Gap,Vexes,Economists
2013-02-06T08:03:38Z,Abe,Calls,China Radar Targeting of Japan Vessel Provocative
2013-02-06T09:11:53Z,DBS Profit,Misses Estimates,Lending Profitability Narrows
2013-02-06T09:18:11Z,Shirakawa,Accelerates,BOJ Exit
2013-02-06T09:20:50Z,Putin,Frets,Economy
2013-02-06T09:21:42Z,China Gold Imports,Climb,Record
2013-02-06T10:48:29Z,Puri,Chases,Growth for HDFC Bank
2013-02-06T11:22:54Z,Coffee Exports,Drop,Europe Demand Slows
2013-02-06T13:59:41Z,Basel Seen Rotten,in,Denmark
2013-02-06T14:04:39Z,Carmakers,Use Aluminum Over Steel in,Boost
2013-02-06T14:28:29Z,U.S.,Bolsters,Sanctions
2013-02-06T15:13:14Z,Hollande Discovers Schroeder,With,U-Turn on Car Sector Cuts
2013-02-06T16:23:16Z,New York,Hires,Geologist
2013-02-06T16:26:39Z,Deficit,Getting,Makeover
2013-02-06T16:51:23Z,RBS,Manipulating,Libor Rate
2013-02-06T21:55:01Z,It,Cuts,Costs
2013-02-06T21:55:01Z,Zynga,Tops,Sales Estimates
2013-02-07T08:35:39Z,Singer,Damps Koruna-Sale Expectation With,Czech Zero Rate
