2013-10-21T01:10:59Z,Asiasons,Leads Advance as,Exchange Lifts Curbs
2013-10-21T01:24:28Z,Xi,Sets,Unit
2013-10-21T02:11:54Z,Ringgit,Leads,Asia ’s Losses
2013-10-21T02:24:04Z,Father,Led,Firm
2013-10-21T02:24:04Z,Peter Levy,Dies at,77
2013-10-21T02:57:15Z,China One-Year Bond Yield,Climbs,Most
2013-10-21T03:06:55Z,Rebar,Extends Weekly Drop,China Fixed Asset Investment Slows
2013-10-21T03:21:10Z,Defeated America,to,Cup Team
2013-10-21T03:21:10Z,N.Z. Government,Throws Lifeline to,Defeated America ’s Cup Team
2013-10-21T03:21:30Z,JPMorgan,Hires,Kekke
2013-10-21T03:29:15Z,Mitsui Group,Wins Contract for,Wind Power Line Project
2013-10-21T03:55:52Z,Huishang Bank,Starts,Marketing Billion Hong Kong IPO
2013-10-21T04:00:00Z,Former Washington Football,Coach,Don James
2013-10-21T04:00:01Z,Cruz,Is,Unapologetic
2013-10-21T04:00:01Z,Kennedy ’s Tainted Camelot,Inspires,Assassination Porn
2013-10-21T04:00:01Z,Republicans,Criticize,Shutdown
2013-10-21T04:00:01Z,SAC Defections,Accelerate as,Cohen Approaches Settlement
2013-10-21T04:00:22Z,Nine-Month Low,in,Lundberg Survey
2013-10-21T04:00:30Z,No. 1,With,FSU Ahead of Oregon
2013-10-21T04:00:30Z,Webb Simpson,Wins,PGA Tour ’s Second Event of Season
2013-10-21T04:01:00Z,Hears Riff,in,Movie Score
2013-10-21T04:01:00Z,Olafur Arnalds Demands Quiet,Riff in,Movie Score
2013-10-21T04:01:01Z,Detroit Fee Examiner,Gets,Paid to Second-Guess Bills
2013-10-21T04:01:03Z,Luxury Stocks,Lose Favor,Confidence Holds
2013-10-21T04:10:52Z,Japan ’s Export Growth,Slows for,Abe
2013-10-21T04:44:45Z,India,’s Drops,Inflow Concerns
2013-10-21T04:45:00Z,Catholic Hospital Group,Heads for,$ 8 Billion
2013-10-21T04:45:18Z,Hong Kong Short Selling Turnover,Recorded,10/21/2013
2013-10-21T04:49:02Z,Booker,Puts,Gays Among N.J. Legal Spouses
2013-10-21T05:00:07Z,Spreads,Reach,One-Month Low
2013-10-21T05:14:27Z,Airbus Targets Doubling Japan Market Share,in,Boeing Challenge
2013-10-21T05:20:41Z,JPMorgan $ 13 Billion Accord,Would Join,Largest U.S. Pacts
2013-10-21T05:20:41Z,JPMorgan $ Billion Accord,Would Join,U.S. Pacts
2013-10-21T05:20:41Z,JPMorgan Billion Accord,Would Join,U.S. Pacts
2013-10-21T06:09:13Z,Aussie,Snaps,8-Day Gain
2013-10-21T06:31:40Z,Starbucks,Draws,Criticism From China State TV
2013-10-21T06:34:13Z,David Jones CEO Zahra,Quits for,Personal Reasons Amid Weak Sales
2013-10-21T06:54:29Z,Yellen Countdown,Eases,Carney Burden
2013-10-21T07:12:38Z,Copper Advances,in,London
2013-10-21T07:13:15Z,Rubber,Snaps,Three-Day Losing Streak
2013-10-21T07:13:15Z,Weaker Yen,Boosts,Appeal
2013-10-21T07:16:56Z,Topix,Rises on,Earnings Optimism
2013-10-21T07:35:06Z,China Gamblers,Lured From,Macau Seen Reviving Queensland
2013-10-21T07:41:54Z,DAX,After,Record High
2013-10-21T07:41:54Z,Little,Changed After,DAX ’s Record High
2013-10-21T07:55:49Z,Trades Little,Changed,Gain
2013-10-21T07:57:45Z,GT Capital,Rises,Group Declines
2013-10-21T08:00:00Z,ECB,Use Rule for,Bank Exams
2013-10-21T08:08:24Z,China,Stocks,Rise Most in Week as Cabinet Spurs Tech
2013-10-21T08:08:34Z,Bradesco Net Income,Declining,Bad Loans Provisions
2013-10-21T08:20:10Z,Sales,Exceed,$ 8.2 Billion
2013-10-21T08:24:13Z,Balfour Beatty,Wins,$ 104 Million Crossrail Electricity Contract
2013-10-21T08:38:44Z,Tata Solar,Builds,Plant for Jindal Aluminium
2013-10-21T08:44:14Z,Glorious Property,Halts,Trading
2013-10-21T08:44:14Z,Property,Halts,Trading
2013-10-21T09:01:33Z,Ex-UBS Wealth Management Chief Weil,Arrested in,Italy
2013-10-21T09:01:33Z,Fugitive Ex-UBS Wealth Management Chief Weil,Arrested in,Italy
2013-10-21T09:02:26Z,Desasters,in,Germany
2013-10-21T09:02:26Z,Munich Re Demands,Rates on,Desasters in Germany
2013-10-21T09:11:22Z,Cotton Output,in,India Seen
2013-10-21T09:16:52Z,Funds,Net Buyers of,Won Forwards
2013-10-21T09:16:52Z,Global Funds,Buyers of,Bank
2013-10-21T09:16:52Z,Won Forwards,Bank of,Korea
2013-10-21T09:24:49Z,Central Bank,Sets,Record Fixing
2013-10-21T09:34:44Z,Woori Finance,Gets,Preliminary Bids
2013-10-21T09:37:44Z,Draghi,Opposes,Haircuts
2013-10-21T09:41:32Z,Legoland Operator Merlin Entertainments Plans IPO,in,London
2013-10-21T09:41:43Z,VTB,Overlooked on,Price Estimate Gap
2013-10-21T09:53:46Z,Thai Stocks,Tumble,Worldwide
2013-10-21T10:00:00Z,Bundesbank,Says,Growth Probably Slowed in Quarter
2013-10-21T10:00:00Z,Growth,Probably Slowed in,Third Quarter
2013-10-21T10:04:00Z,It,Revises,2012 Gap
2013-10-21T10:12:15Z,Blatter Roadshow,Arrives in,Caribbean
2013-10-21T10:12:15Z,FIFA Grants Seen,Wasted,Blatter Roadshow Arrives in Caribbean
2013-10-21T10:14:54Z,Philips Profit,Beats,Estimates
2013-10-21T10:17:13Z,Housing Development Finance ’s Profit,Rises on,Lending
2013-10-21T10:27:29Z,Thames Sewer Plan May,Be,Triple Industry Average
2013-10-21T10:33:26Z,Bank Rossii,Snaps,100 Days
2013-10-21T10:53:45Z,Kazuhiko Kasai,Dies at,76
2013-10-21T10:55:21Z,Congress Seen,Coming Up,Short in Talks on Code Rewrite
2013-10-21T11:01:55Z,Insurance Researcher Limra,Starts,Institute
2013-10-21T11:05:06Z,Review Santos,Projects for,Water Impacts
2013-10-21T11:09:56Z,Akzo Cost Savings,Propel,Profit
2013-10-21T11:09:56Z,Rivals,Look at,Europe
2013-10-21T11:27:05Z,Homes,in,German Cities
2013-10-21T11:44:19Z,Scene,in,D.C.
2013-10-21T11:58:49Z,German Retailer Douglas,in,Discussions on Buying Nocibe
2013-10-21T12:04:05Z,Fed Funds,Open Within,Target Range
2013-10-21T12:04:15Z,Dr. Brendan Reilly,Says,Audio
2013-10-21T12:08:57Z,EDF,Build,U.K. ’s First Nuclear Plant
2013-10-21T12:09:03Z,Hedge Funds Cut Brent Net-Longs,in,Seven
2013-10-21T12:11:17Z,$ 544.7 Million,in,Depositary Receipt Sale
2013-10-21T12:30:00Z,Canadian Wholesale Sales Rise,in,Two Years
2013-10-21T12:43:49Z,$ 1.2 Billion Valuation,in,IPO
2013-10-21T12:46:01Z,Terra Firma,Joins,Blackstone
2013-10-21T12:49:02Z,Russia Liberalized LNG Exports,Move Closer After,Putin Orders
2013-10-21T12:50:55Z,Indian Stocks,Rise as,Asian Paints Gain
2013-10-21T12:50:55Z,Most Indian Stocks,Rise as,Larsen
2013-10-21T12:55:51Z,9 %,in,2014
2013-10-21T13:11:21Z,Arteris,Lacking,Profit
2013-10-21T13:17:42Z,Saudi Aramco,Buys,Canadian Solar Panels for Power Plant
2013-10-21T13:33:27Z,Sweden,in,European Playoff
2013-10-21T13:44:10Z,Natural Gas,Fluctuates as,Stockpile Gains Seen Above Average
2013-10-21T13:45:22Z,ETFs,Churning,Record Cash
2013-10-21T13:49:59Z,LinkedIn Hacking Suit,Goes With,Internet Focus
2013-10-21T13:54:32Z,Germany,’s Reliance,BDEW
2013-10-21T13:54:32Z,Last,to Reliance,BDEW
2013-10-21T14:11:18Z,Gasoline Futures,Fluctuate Before,Government Inventory Report
2013-10-21T14:12:39Z,Army,Protect,First Pre-Salt Oil Sale
2013-10-21T14:12:39Z,Brazil,Sends,Army
2013-10-21T14:20:29Z,Arab Bank,Gets,U.S. Supreme Court Query
2013-10-21T14:22:36Z,Fed ’s Evans,Says,Government Shutdown Will
2013-10-21T14:25:11Z,Buyout Firms,Raise Record Loans for,Companies
2013-10-21T14:30:09Z,South Africa White Corn,Reaches 7-Week High on,Insufficient Rain
2013-10-21T14:32:21Z,HBO,in,Paid U.S. Subscribers
2013-10-21T14:34:57Z,Oct. 11,for Report,Text
2013-10-21T14:42:53Z,Magnetar,Goes,Ohio Town
2013-10-21T14:49:39Z,DB,for,Tilney
2013-10-21T15:02:51Z,Junk Yields Decline,in,Europe
2013-10-21T15:08:54Z,Animal Spirits,Revived as,Tea Party Delays Taper
2013-10-21T15:10:17Z,Areva,Secures,U.K. Reactor Order Worth
2013-10-21T15:14:31Z,FirstRand,Sees,Expansion
2013-10-21T15:22:37Z,Female Suicide Bomber Blamed,Kills,Six
2013-10-21T15:22:37Z,Suicide Bomber Blamed,Kills,Six
2013-10-21T15:35:04Z,Out Season,With,Torn Knee Ligament
2013-10-21T15:37:54Z,U.K. Gilts Fall First Time,in,Three Days
2013-10-21T15:44:29Z,September U.S. Retail Sales Data,Rescheduled for,Oct. 29
2013-10-21T15:52:54Z,Actelion,Winning,Approval of Lung Medicine
2013-10-21T15:54:07Z,Interview Employees,in,Rates Probe
2013-10-21T15:55:28Z,Snowden,Inspires,Russia
2013-10-21T16:04:30Z,Leyland,Retires as,Manager
2013-10-21T16:04:30Z,MLB,of,Tigers
2013-10-21T16:06:57Z,European Stocks,Rise as,Philips
2013-10-21T16:06:57Z,Stocks,Rise for,Eighth Day
2013-10-21T16:09:15Z,Euro Calm Lures Investors,Shaken by,U.S. Disruptions
2013-10-21T16:18:23Z,Wind,May Generate,18 %
2013-10-21T16:24:00Z,EU Leaders May,Call for,Rapid Deal on Bank Stress-Test Backstops
2013-10-21T16:39:59Z,Israel,With,National Water Company
2013-10-21T16:39:59Z,Xylem,in,Development Pact
2013-10-21T16:40:21Z,BlackRock,Add,Jets
2013-10-21T16:45:41Z,U.S. Treasury,Seeks,Chief Risk Officer
2013-10-21T16:47:55Z,Glut,Fix,Progress Seen Hampered by German Talks
2013-10-21T16:47:55Z,Progress Seen,Hampered by,Talks
2013-10-21T16:56:38Z,Biggest Drop,in,Emerging Markets
2013-10-21T17:04:45Z,New Products,Help,Boost Profit
2013-10-21T17:04:45Z,SAP,Relieves,Investors
2013-10-21T17:18:58Z,Federal Housing Chief,Holds Banks to,Account
2013-10-21T17:23:28Z,Ex-JPMorgan Executive Macris,Challenges,London Whale Report
2013-10-21T17:30:42Z,JPMorgan,Is,Too Big Whine
2013-10-21T17:41:14Z,Breathing,in,China
2013-10-21T17:42:45Z,Obamacare,End Delays,Deadline Talk Grows
2013-10-21T17:44:06Z,Demand,Damped by,U.S. Shutdown
2013-10-21T17:44:06Z,Treasury Bill Auction,Shows,Demand Damped by U.S. Shutdown
2013-10-21T17:47:36Z,$ 137 Million,in,Privacy Law
2013-10-21T17:47:36Z,EU Panel,Backs,Fines
2013-10-21T17:52:19Z,NFL Titans Owner Bud Adams,Dies at,90
2013-10-21T18:00:00Z,Ai Weiwei,Snubbed to,Tate Modern
2013-10-21T18:00:00Z,Facebook Woos Media Companies,With,Tool to Post Stories
2013-10-21T18:00:00Z,Shanghai,at,Answer
2013-10-21T18:03:58Z,Petrobras Group,Wins,Brazil ’s Biggest Prospect
2013-10-21T18:06:31Z,ICA,Tumbles as,BofA Lowers Rating
2013-10-21T18:15:44Z,PFR Gold Fund Fell 16 Percent,in,September
2013-10-21T18:16:07Z,BBM,Out Ready,Android
2013-10-21T18:16:07Z,Roll,to Ready,Android
2013-10-21T18:17:22Z,Grambling Football,Is,Latest Crack
2013-10-21T18:17:22Z,Latest Crack,in,NCAA 's Shaky Wall
2013-10-21T18:17:22Z,NCAA,in,Shaky Wall
2013-10-21T18:19:51Z,Gold Gains,in,Four Days on Stimulus Bets
2013-10-21T18:24:42Z,22 More People,in,Libor Probe
2013-10-21T18:24:42Z,U.K. Prosecutor,Investigating,22 People in Libor Probe
2013-10-21T18:24:45Z,Coffee,Tumbles to,Lowest
2013-10-21T18:46:00Z,GM Bankruptcy Judge,Approves Settlement in,Fund Deal
2013-10-21T18:46:00Z,Old GM Bankruptcy Judge,Approves,Settlement
2013-10-21T18:57:21Z,Summers,Turn,Down Request
2013-10-21T19:00:00Z,Stress,Have,Effect on Brain
2013-10-21T19:04:05Z,Crude Oil Volatility,Rises,Futures Slide
2013-10-21T19:04:05Z,Oil Volatility,Rises,Futures Slide
2013-10-21T19:10:19Z,Mozambique ’s Renamo,Says,Peace Deal Over After Attack
2013-10-21T19:22:37Z,Canada,Loosen,Takeover Rules
2013-10-21T19:22:37Z,Harper,Says,Canada
2013-10-21T19:47:15Z,NSA Spying Report,in,Monde
2013-10-21T19:49:05Z,China 's Real Estate Bubble,Hits,Manhattan
2013-10-21T19:53:51Z,Gol Rallies,Reduced,Taxes
2013-10-21T19:57:16Z,Toronto Home Sales Lowest,in,Decade
2013-10-21T19:57:17Z,Apollo Tyres Case Judge,Denies,Dismissal
2013-10-21T20:00:01Z,Islamist Threat,Unmasks Emirates Policy Shift,Immunity Fades
2013-10-21T20:00:01Z,Threat,Unmasks,Emirates Policy Shift
2013-10-21T20:01:18Z,Chicago Gasoline,Slumps to,Low on Supplies
2013-10-21T20:20:55Z,Maple Leaf Foods,Considers,Selling Canada Bread Stake
2013-10-21T20:22:32Z,New York Times Columnist Pogue,Leaving for,Yahoo Tech Site
2013-10-21T20:23:29Z,Toyota Unit Issues Five-Year Senior Notes,in,1.5
2013-10-21T20:24:56Z,ICE ’s Sprecher,Sees,Continuing Role for Humans
2013-10-21T20:28:19Z,McDonald ’s Revenue,Trails,Estimates on U.S. Gains
2013-10-21T20:29:24Z,Caesars,Says,Grand Jury Probes Possible Bank Law Violations
2013-10-21T20:33:31Z,West Texas Sour,Weakens to,Low Amid Refinery Maintenance
2013-10-21T20:33:47Z,BSO,’s Model,Fall Season
2013-10-21T20:39:21Z,Borgata Casino Value,Is,Cut by Billion
2013-10-21T20:39:21Z,Cut,in,Tax Court Ruling
2013-10-21T20:41:28Z,BlackBerry,Search for,Bidders Depends on Patent Stockpile
2013-10-21T20:42:23Z,Canada,Stocks,Rise as Materials Producers Rally on Growth Bets
2013-10-21T20:45:54Z,Wayne,Are Out,Out Year
2013-10-21T20:46:21Z,Tellabs,Agrees by,Marlin Equity
2013-10-21T20:48:03Z,U.S. Stocks,Changed Before,Jobs Data
2013-10-21T20:49:59Z,Thain ’s CIT,Reinstates Dividend at,10 Cents
2013-10-21T20:51:41Z,Hollywood,Pushes for,Fox ’s Dunn
2013-10-21T20:56:30Z,Profit Drop,Widens,Discount
2013-10-21T20:58:13Z,Jamie Dimon ’s Cameos,in,Fannie-Freddie Lawsuit
2013-10-21T21:00:01Z,Jerusalem Mayor Barkat Seeks New Term,in,Race Arabs
2013-10-21T21:00:17Z,Autos,Replace China Rice Paddies at,GM Tracks
2013-10-21T21:04:48Z,Juncker,Without,CSV
2013-10-21T21:04:48Z,Luxembourg,Could Get,Three-Way Coalition Without Juncker ’s CSV
2013-10-21T21:06:48Z,Canada Dollar,Snaps,Gain
2013-10-21T21:10:49Z,Ethanol Gains,With,Stockpiles at Record Seasonal Low
2013-10-21T21:11:10Z,Treasuries,Snap,3-Day Advance
2013-10-21T21:15:39Z,Citigroup Issues $ 2 Billion,in,Bonds
2013-10-21T21:15:39Z,Credit Swaps,in,U.S. Rise
2013-10-21T21:20:48Z,Obamacare,in,Death Spiral
2013-10-21T22:00:01Z,EU,Is,Damned
2013-10-21T22:04:44Z,Lady Gaga,Settles,Ex-Assistant ’s Suit
2013-10-21T22:06:02Z,New Zealand Wine Exports,Increased to,Record
2013-10-21T22:15:53Z,Gravity,Leads for,Third Week
2013-10-21T22:21:12Z,Colombia,Lifting,Auto Part Curbs
2013-10-21T22:53:18Z,7.5 % Stake,in,QEP Resources
2013-10-21T22:53:18Z,Jana Partners,Has,Stake in QEP Resources
2013-10-21T22:55:06Z,VMware ’s Third-Quarter Profit,Exceeds,Estimates
2013-10-21T23:00:00Z,Lawrence Klein,Dies at,93
2013-10-21T23:00:00Z,Male Bard,Begins,Previews
2013-10-21T23:00:00Z,Mourinho,Is Charged With,Improper Conduct
2013-10-21T23:01:00Z,Scorpio Orders,Dominate in,Tanker Bets
2013-10-21T23:15:39Z,Health-Care False Claims Cases,Reap,Report
2013-10-21T23:57:49Z,Fulham,Beats,Crystal Palace 4-1
2013-10-21T23:57:49Z,Kasami Volley,Sparks,Comeback
2013-10-22T04:00:00Z,Argentina Rugby,Coach,Phelan Resigns
2013-10-22T04:00:03Z,6.9 %,in,Loss Reserves
2013-10-22T04:01:00Z,Boost Liquidity,With,New Financing
2013-10-22T04:01:01Z,Ex-Jefferies Executive,Toss,TARP Charges
2013-10-22T04:01:01Z,Jets,Add Quarterback Garrard as,Backup
2013-10-22T04:01:06Z,Redskins ’ Meriweather,Receives,Two-Game NFL Ban for Illegal
2013-10-22T04:41:45Z,Luxury Rents Fall,in,Hong Kong
2013-10-22T04:56:16Z,Peugeot,Wins,Union Nod
2013-10-22T05:20:52Z,China TV,Probing,Starbucks
2013-10-22T05:35:09Z,Billionaire Developer Buying Land,Shows,RBA Cuts Work
2013-10-22T07:39:14Z,Dassault Sells High-Ceiling Comfort,With,$ 45 Million Jet
2013-10-22T10:11:52Z,Colleges,Save Gobs in,Great Tray
2013-10-22T10:48:31Z,Dollar,Holds,Advance
2013-10-22T11:53:59Z,$ 50 Billion Games,Gives,Bosco Chance
2013-10-22T11:53:59Z,$ Billion Games,Gives Bosco Chance to,Chase Armani
2013-10-22T11:53:59Z,Billion Games,Gives,Bosco Chance
2013-10-22T11:53:59Z,Russian $ 50 Billion Games,Gives Bosco Chance to,Chase Armani
2013-10-22T11:53:59Z,Russian $ Billion Games,Gives,Bosco Chance
2013-10-22T11:53:59Z,Russian Billion Games,Gives Bosco Chance to,Chase Armani
2013-10-22T14:45:23Z,Poor Sleep Linked,in,Study of Brain
2013-10-22T16:05:46Z,BHP Billiton,Raises Iron Ore Output Forecast After,Increase
2013-10-22T16:11:25Z,Said,Withdraw,Network Spinoff Proposal
2013-10-22T20:01:09Z,U.S. Banks,Say Proposal to,Harmful
2013-10-22T20:07:35Z,Stocks Gain,With,Treasuries
2013-10-22T20:17:24Z,J.C. Penney,Pares,Returns Shares
2013-10-22T20:23:13Z,Carlos Slim,Gets Million Payday on,Cigarette Dividend
2013-10-24T06:45:26Z,Smartwatches,Pose Threat to,Swiss Industry
