2013-01-23T00:00:00Z,Andrew Solomon Charms Katie Couric,With,Special Kids
2013-01-23T00:00:00Z,Montmartre Show,Evokes,Belle Epoque
2013-01-23T00:00:00Z,Traders,Feasted on,Ox Tongue
2013-01-23T00:00:00Z,Wilde,in,Fat Suit
2013-01-23T00:00:00Z,Wine,in,Rich Luebeck Port
2013-01-23T00:00:01Z,Nextant ’s Restored Business Aircraft May,Get,European Boost
2013-01-23T00:01:00Z,Crash Taking Toll,in,Ireland
2013-01-23T00:01:00Z,Pierre Fabre Drug,Win,NICE Backing
2013-01-23T00:01:00Z,Suicide,Turns Focus on,Crash Taking Toll in Ireland
2013-01-23T00:04:55Z,Israel TV Star Lapid Defies Critics,With,Election Surge
2013-01-23T00:44:17Z,Cheapest Infrastructure Stock Seen,in,Bid War
2013-01-23T01:35:42Z,Wenzhou Bad Loan Ratio Declines,Ending,17-Month Rising Streak
2013-01-23T01:52:13Z,BASF,Terminates,Agreement
2013-01-23T02:00:00Z,World Cup Connection,Helps,Mills Beat Bovespa
2013-01-23T02:00:02Z,Ringgit,Rises From,Two-Week Low
2013-01-23T04:45:17Z,Hong Kong Short Selling Turnover,Recorded,01/23/2013
2013-01-23T04:51:11Z,Palm Oil Drops First Time,in,Four Days on China Demand Concerns
2013-01-23T05:00:00Z,Singapore Inflation,Narrowing,Scope
2013-01-23T05:00:01Z,Obama ’s Gay-Rights Words Raise Advocate,Hopes in,Court
2013-01-23T05:00:01Z,VIX May,Be,Too High
2013-01-23T05:00:35Z,May,Be,Formality
2013-01-23T05:00:58Z,Armstrong Interview,Viewed by,More Than 28 Million
2013-01-23T05:01:00Z,Canada,of,Tightening Bias
2013-01-23T05:01:00Z,Carney Seen,Keeping,Bank
2013-01-23T05:01:00Z,Chocolate Busts,in,Roxy Club
2013-01-23T05:01:00Z,Keeping,Bank of,Canada ’s Tightening Bias
2013-01-23T05:01:00Z,Peace,Music at,Spots
2013-01-23T05:01:01Z,Dell ’s Hawaii Resort,Nears Loan Workout,Demand Climbs
2013-01-23T05:01:01Z,Verizon,Wins,Ruling
2013-01-23T05:08:07Z,BBC Broadcaster Hall,Charged Indecent Assault With,Rape
2013-01-23T05:11:54Z,Kansas,Remains,Unbeaten
2013-01-23T05:21:14Z,Dow Chemical,Faces,Trial
2013-01-23T05:21:14Z,Trial,in,Urethane Price-Fixing Case
2013-01-23T05:32:27Z,Further Deals,in,Australia
2013-01-23T05:32:27Z,Trafigura Unit Puma Energy,Considers,Deals in Australia
2013-01-23T05:44:54Z,Tanaka ’s Gold Buying,Exceeds,Sales for 8th Year
2013-01-23T06:00:21Z,Australia ’s Inflation,Expands,RBA Rate-Cut Scope
2013-01-23T06:00:21Z,Australia ’s Slower Inflation,Expands,RBA Scope
2013-01-23T06:23:42Z,Post Longest Losing Streak,in,Two Months
2013-01-23T06:51:16Z,BHP,Says,Alumina
2013-01-23T06:55:01Z,China Railway ’s Dollar-Bond Debut Compets,With,Developers
2013-01-23T07:01:21Z,Korean Won Falls,Warns on,Gains
2013-01-23T07:02:42Z,Oltchim,for,Insolvency
2013-01-23T07:07:32Z,Unilever Quarterly Sales Growth,Exceeds,Analysts ’ Estimates
2013-01-23T07:07:32Z,Unilever Sales Growth,Exceeds,Analysts ’ Estimates
2013-01-23T07:12:45Z,Insurer Multi,Has,3-Day Drop
2013-01-23T07:20:05Z,Lithuania Suspends Baltic LNG-Link Tender,in,Procurement Probe
2013-01-23T07:20:48Z,Poland,Seeks,$ 90 Million
2013-01-23T07:20:48Z,Property Group,From,Share Sale
2013-01-23T07:24:25Z,Petronas Plans Chemicals Venture,With,Evonik
2013-01-23T08:02:36Z,Japan,Raises,Economic View
2013-01-23T08:10:30Z,Holmen Seeks Expansion,in,Emerging Markets
2013-01-23T08:10:56Z,Importers,Buy,Dollars
2013-01-23T08:10:56Z,Rupiah Forwards,Snap,Three-Day Advance
2013-01-23T08:11:17Z,Taiwan ’s December Industrial Output,Climbs,Estimated
2013-01-23T08:27:08Z,Close Brothers Expects,in,First Half
2013-01-23T08:27:59Z,Handelsbanken,Proposes,Industrivaerden ’s Chief
2013-01-23T08:34:28Z,Rio Unit,Says,Needs Unconditional Gas Supply Pact
2013-01-23T08:36:17Z,Monti ’s Hold,Challenged by,Sicily Anti-Mafia Prosecutor
2013-01-23T08:39:11Z,Thai Exports,Climb for,Fourth Month
2013-01-23T09:00:00Z,Inflation Rate,Eases,Slowest in Almost Three Years
2013-01-23T09:00:00Z,Malaysian Inflation Rate,Slowest in,Almost Three Years
2013-01-23T09:00:04Z,Bosch Plans,Spending Cuts After,Currencies Rescue Sales
2013-01-23T09:02:12Z,African Equity Firm Ethos,Raises,$ 800 Million Fund
2013-01-23T09:02:12Z,African Private Equity Firm Ethos,Raises,Million Fund
2013-01-23T09:02:12Z,Equity Firm Ethos,Raises,$ 800 Million Fund
2013-01-23T09:02:12Z,Private Equity Firm Ethos,Raises,Million Fund
2013-01-23T09:02:12Z,South African Equity Firm Ethos,Raises,Million Fund
2013-01-23T09:02:12Z,South African Private Equity Firm Ethos,Raises,Million Fund
2013-01-23T09:10:06Z,African Inflation,Accelerates,Food Prices Climb
2013-01-23T09:10:06Z,Inflation,Accelerates,Food Prices Climb
2013-01-23T09:10:06Z,South African Inflation,Accelerates,Food Prices Climb
2013-01-23T09:24:23Z,18 Hunters,in,Northeast
2013-01-23T09:24:23Z,Nigeria Islamists,Kill,18 Hunters
2013-01-23T09:24:23Z,Suspected Nigeria Islamists,Kill,18 Hunters in Northeast
2013-01-23T09:25:55Z,Clicks Sales,Jump,12 %
2013-01-23T09:25:55Z,Consumer,Spending,Muted
2013-01-23T09:30:15Z,Russia December Industrial Output,Probably Grew,2 Percent
2013-01-23T09:38:12Z,$ 27 Million Biomass Plant,With,Slovak Grafobal
2013-01-23T09:44:03Z,U.K. Pound,Strengthens,0.2 %
2013-01-23T09:47:23Z,Iran ’s Bahmani,Rejects,Court Ruling
2013-01-23T09:47:44Z,BOE,Cites Pound in,8-1 Stimulus Vote
2013-01-23T09:49:14Z,Nespresso,Enters West Coast With,Shop Opening in San Francisco
2013-01-23T09:49:14Z,Shop Opening,in,San Francisco
2013-01-23T09:51:10Z,Eurasia Drilling,Sees,2013 Revenue
2013-01-23T09:53:30Z,Output,Trails,Estimates
2013-01-23T09:53:30Z,Taiwan Dollar,Touches,Low
2013-01-23T10:01:47Z,Nippon Steel,Consider,Valemax Shipments
2013-01-23T10:06:04Z,Nordic Power,Retreats on,Milder Weather Forecast
2013-01-23T10:06:04Z,Power,Retreats on,Milder Weather Forecast
2013-01-23T10:06:24Z,Lloyd,Vote on,EU
2013-01-23T10:06:24Z,Standard Chartered Favor U.K.,Vote on,EU
2013-01-23T10:07:00Z,Bristol Drug,Wins,Nod
2013-01-23T10:07:00Z,Pfizer,Wins,NICE Nod for Irregular Heartbeats
2013-01-23T10:12:44Z,Oakland,Hires,Former NYC Police Boss
2013-01-23T10:21:41Z,Portuguese Retail Group,Expects Consumer Spending in,2013
2013-01-23T10:24:50Z,Asian Stocks,Fall on,Yen
2013-01-23T10:24:50Z,Stocks,Fall on,Yen
2013-01-23T10:25:36Z,CNPC Oil,Rises,2.8 %
2013-01-23T10:45:00Z,Portugal ’s ENVC Shipyard,Faces EU Probe Over,Government Aid
2013-01-23T10:46:49Z,Government,Said to,Estimate Lower Food-Grain Production
2013-01-23T10:46:49Z,Indian Government,Said to,Estimate Lower Food-Grain Production
2013-01-23T11:00:01Z,Factory Confidence Drops,Heightening,Recession Risk
2013-01-23T11:00:01Z,French Factory Confidence Drops,Heightening,Recession Risk
2013-01-23T11:00:23Z,Flybe,in,Reorganization Restore
2013-01-23T11:00:54Z,Earnings,Flout,Skeptics
2013-01-23T11:24:29Z,Usiminas,do,Sol
2013-01-23T11:30:30Z,Maynilad,in,2013
2013-01-23T11:45:46Z,Turkey,for,First Lira Bond Sale
2013-01-23T11:46:36Z,Decision,Expected by,Summer
2013-01-23T11:46:36Z,LVMH-Hermes Decision,Expected by,Summer
2013-01-23T11:46:36Z,Rameix,Says,Decision Expected by Summer
2013-01-23T11:47:13Z,Structured Finance Ratings,Getting,ESMA Review
2013-01-23T11:55:11Z,Copasa Board,Approves,$ 514 Million
2013-01-23T11:57:48Z,U.K. Jobless Claims,Unexpectedly Fall to,1 1/2
2013-01-23T12:00:00Z,U.S. MBA Mortgage Applications Index,Increased,Week
2013-01-23T12:04:46Z,Dimon,Backs Shadow Banking as,Necessary Service Providers
2013-01-23T12:09:22Z,Nile Island Residents,Appeal Against,Egypt Army Land Grab
2013-01-23T12:18:35Z,Federer,Beats,Tsonga
2013-01-23T12:20:54Z,Fed Funds,Open Within,Target Range
2013-01-23T12:23:43Z,France ’s Le Foll,Sees Need for,Stricter Commodity-Future Rules
2013-01-23T12:36:05Z,Iran,Buy,Water
2013-01-23T12:36:05Z,May,Buy Water From,Neighbors
2013-01-23T12:42:17Z,Romanian Utility Ecoaqua,Awaits,Bids
2013-01-23T12:42:17Z,Utility Ecoaqua,Awaits,Bids for Water Upgrades
2013-01-23T12:45:44Z,Prudential,Loses,U.K. Top Court Case Over Tax Advice
2013-01-23T12:46:30Z,Spain ’s Lost Generation,Spends,Salad Days
2013-01-23T12:47:21Z,BP,Join,Tanap Gas Pipeline Project
2013-01-23T13:01:07Z,Brazil Posts Record Current Account Deficit,in,December
2013-01-23T13:01:21Z,BNP,Says,Investor Anxiety Over MNB Chief Choice Overblown
2013-01-23T13:07:49Z,First Gulf,Jumps on,Dividend Bet
2013-01-23T13:11:16Z,Cameron,Promises,Referendum
2013-01-23T13:17:24Z,France ’s Seine Ports,Handled Oil Products in,2012
2013-01-23T13:20:15Z,Netanyahu Weakened,in,Israeli Election
2013-01-23T13:29:03Z,Inflation,Bolsters,View Rates Will Rise
2013-01-23T13:29:16Z,ATP,Seeks Court Permission to,Auction Deepwater Properties
2013-01-23T13:30:07Z,Nestle CEO Bulcke,Sees,Refreshing Winds ’ Boosting U.S. Economy
2013-01-23T13:30:53Z,10 Indians,Others With,Oil Theft
2013-01-23T13:30:53Z,12 Others,With,Oil Theft
2013-01-23T13:34:05Z,Stephens,Oust,Her Idol Williams
2013-01-23T13:40:05Z,Renewable Energy,Buy,Spanish Wind Turbines
2013-01-23T13:41:57Z,Omada Capital,Buy,Defunct Snoras Bankas Assets
2013-01-23T13:44:24Z,$ 1.4 Billion,After Future,Losses
2013-01-23T13:53:50Z,Gergiev,Named,Chief Conductor
2013-01-23T13:57:52Z,Sales Growth,Tops,Expectations
2013-01-23T13:57:52Z,Unilever,Hits,Record
2013-01-23T13:59:20Z,Brazil Sugar-Cane Forecast,Raised on,Rain
2013-01-23T14:01:18Z,Canadian Dollar,Fluctuates Before,Central Bank Update
2013-01-23T14:01:18Z,Dollar,Fluctuates Before,Central Bank Update
2013-01-23T14:02:02Z,Buyers,Grab,2013 Euro Bond
2013-01-23T14:21:44Z,Copper,May Rise on,Moving Averages
2013-01-23T14:22:04Z,Stephens Ousts Williams,in,Australia
2013-01-23T14:26:04Z,He,Briefly Lied,Girlfriend
2013-01-23T14:26:16Z,Blackstone Teams,With,Ex-Iberdrola Team
2013-01-23T14:30:00Z,$ 10 Billion,in,City
2013-01-23T14:30:00Z,Credit Agricole Unit,Invested,Billion
2013-01-23T14:33:01Z,FedEx,UPS on,Federal Shipping
2013-01-23T14:38:48Z,Acciona,Starts,its First Wind Farm in Croatia
2013-01-23T14:38:48Z,its First Wind Farm,in,Croatia
2013-01-23T14:46:12Z,Sweden Curbs Demand,in,Czech Government Bond Auction
2013-01-23T14:52:00Z,Microsoft Risks,Straining PC Partners With,Dell Investment
2013-01-23T14:54:33Z,IIF ’s Dallara,Says,Part
2013-01-23T14:54:33Z,Russia Needs,Be Part of,Cyprus Aid
2013-01-23T14:57:28Z,Etisalat CEO,Weighs Financing for,Billion Vivendi Maroc Stake
2013-01-23T14:57:44Z,Nakheel May,Refinance Bonds After,Earnings
2013-01-23T14:58:14Z,Wal-Mart Readies Fresh-Food Fight,With,Target
2013-01-23T15:00:46Z,Rails Grappling,With,Coal Slump
2013-01-23T15:06:35Z,Rose 5.6 %,in,12 Months
2013-01-23T15:10:16Z,RBS,Changing,Money-Market Funds
2013-01-23T15:19:30Z,U.K. Stocks,Rise Since,2008
2013-01-23T15:20:11Z,New York Protecting Defaulters,Stalls,Rebound
2013-01-23T15:24:01Z,Gasoline,Jumps to,12-Week High
2013-01-23T15:37:25Z,Dollar,Trades at,1.3283 in New York
2013-01-23T15:37:25Z,Euro,Weakens Against,Dollar
2013-01-23T15:38:11Z,Cohen Travels,in,Resilient Dynamism
2013-01-23T15:40:39Z,Prudential,Loses,U.K. Top Court Case Over Tax Advice
2013-01-23T15:40:58Z,Amtrak Service,Suspended Between,NYC
2013-01-23T15:51:34Z,CAL Bank Ghana,Rises to,4-Year High
2013-01-23T15:52:05Z,Duke,Completes Power Storage System at,Wind Farm
2013-01-23T15:53:05Z,Hillary Clinton,Pays,Final 2008 Bill
2013-01-23T16:00:00Z,Volkswagen,Switches On,Its Largest Solar-Energy Complex
2013-01-23T16:00:01Z,New China Billionaire,Unveiled After,Wison Sells Shares
2013-01-23T16:02:19Z,Jaguar Land Rover Earnings Growth,Stalls on,SUV
2013-01-23T16:02:42Z,Rate Cuts,Spur,Demand
2013-01-23T16:02:42Z,Turkey Bond Yields,Decline to,Month-Low
2013-01-23T16:09:02Z,Chile Billionaires,Propel,CSAV
2013-01-23T16:10:08Z,Israel Stocks,Gain to,Tackle Economy
2013-01-23T16:10:34Z,Gorman Path,Gets,Mixed Review
2013-01-23T16:11:48Z,Dividend Increase,Focus on,Integration
2013-01-23T16:11:48Z,SAP CFO Brandt,Sees,Focus on Integration
2013-01-23T16:14:41Z,Czech,Jumps,Rise
2013-01-23T16:17:23Z,Congress,Fulfill,Climate Pledge
2013-01-23T16:17:23Z,Obama,Could Bypass,Congress
2013-01-23T16:18:39Z,Kenya ’s Shilling,Halts Decline as,Central Bank Sells Dollars
2013-01-23T16:22:39Z,Wall Street,’s Shrink,McKinsey
2013-01-23T16:28:06Z,Cowboys ’ Ratliff,Is Arrested on,Suspected DWI
2013-01-23T16:31:12Z,Wheat,Rises,1930s Dust Bowl Era Persists
2013-01-23T16:33:49Z,Canada,Remain,Vigilant on Household Debt
2013-01-23T16:33:49Z,Carney,Says,Canada
2013-01-23T16:37:49Z,Ex-Xinhua Finance CEO Bush Signs Plea Deal,With,U.S.
2013-01-23T16:40:08Z,Davos Finance Chiefs Urge U.K.,in,EU for Economy
2013-01-23T16:40:25Z,Bain ’s Pagliuca,Says,LBO Good
2013-01-23T16:43:38Z,Saudi Aramco,’s Count,Analyst
2013-01-23T16:53:46Z,Paul Ryan,Comes,Swinging
2013-01-23T16:54:39Z,RWE May,Close,Down Unprofitable Gas Power Plants
2013-01-23T17:01:43Z,Sean Lennon,Say On,New York Shale Gas
2013-01-23T17:01:43Z,Yoko Ono,Say On,New York Shale Gas
2013-01-23T17:06:36Z,Standard Bank Names Coupland,Heads of,Commodities
2013-01-23T17:09:46Z,Afren,Surges on,Kenya Drill Optimism
2013-01-23T17:14:36Z,Alitalia,Loses,Court Challenge
2013-01-23T17:15:00Z,IMF ’s Lagarde,Defining,Year
2013-01-23T17:21:30Z,Gross,Says,New Currency ETF
2013-01-23T17:21:30Z,New Currency ETF,Seek,Emerging Market Gains
2013-01-23T17:22:31Z,Chilean Peso,Holds Within,0.1 Percent of Four-Month High
2013-01-23T17:22:31Z,Peso,Holds Within,0.1 Percent of High
2013-01-23T17:23:51Z,Google Vision,Opposes,AT&T
2013-01-23T17:23:51Z,U.S.,Sell,Spectrum
2013-01-23T17:25:02Z,Waterfund Signs Agreement,With,IBM
2013-01-23T17:26:49Z,Equities,Climb as,Power Grid Stocks
2013-01-23T17:26:49Z,Russian Equities,Climb as,Power Grid Stocks
2013-01-23T17:27:21Z,Debt-Limit Vote,in,House Refocuses Republican Cuts Plan
2013-01-23T17:39:23Z,Novorossiysk,Resumes,Loadings
2013-01-23T17:47:19Z,Rabobank,Doping,Admissions of Cyclists
2013-01-23T17:48:28Z,Dell Bondholder Submission Seen,in,Debt Curve
2013-01-23T17:52:57Z,Swartz Suicide Propels Facebook,Search for,Danger Signs
2013-01-23T17:53:19Z,Monti Confident U.K. Citizens,Would Vote to,Stay
2013-01-23T17:54:14Z,CFTC Whistle-Blower Chief,Rejoins,SEC Enforcement Unit
2013-01-23T18:00:00Z,World,of,Data
2013-01-23T18:02:53Z,Morgan Stanley,Invest in,eleni Commodities Company
2013-01-23T18:05:01Z,Government Workers Lead Drop,in,U.S. Union Rate
2013-01-23T18:05:38Z,Suzlon,Sees,225 Megawatts
2013-01-23T18:07:28Z,Education Holdings,Wins,Interim-Financing Court Approval
2013-01-23T18:10:22Z,Athens Airport Posts 10 % Drop,in,2012 Passenger Traffic
2013-01-23T18:11:56Z,SSE Chief Marchant,Quits After,Renewables
2013-01-23T18:12:08Z,Republicans,Did Create,Budget Monster
2013-01-23T18:14:52Z,EU Carbon,Has,Record Drop
2013-01-23T18:30:01Z,Rape Report Rebukes Delhi Police,Government Over,Apathy
2013-01-23T18:35:22Z,Table,in,Next Fiscal Go-Round
2013-01-23T18:35:22Z,Taxes,Are On,Table
2013-01-23T18:44:19Z,New Orleans Hornets,Name to,Pelicans
2013-01-23T18:47:44Z,Metropoulos Plans,With,Apollo
2013-01-23T18:49:40Z,U.K.,in,EU
2013-01-23T18:55:04Z,Canada Economy,Have,Fiscal Impact
2013-01-23T18:55:04Z,Harper,Slowing,Canada Economy
2013-01-23T19:04:59Z,Treasury,Receives,Mixed Advice
2013-01-23T19:08:58Z,$ 30 Million,in,OneRoof ’s Solar Financing Business
2013-01-23T19:08:58Z,OneRoof,in,Solar Financing Business
2013-01-23T19:28:56Z,S&P 500 Index,Poised,Drop
2013-01-23T19:28:56Z,S&P Index,Poised,Drop
2013-01-23T19:55:45Z,Revenue,Beats,Estimates
2013-01-23T20:05:16Z,Brazil Oil Auction,Raise Up,Billion
2013-01-23T20:05:16Z,Rousseff,Expands,Brazil Oil Auction
2013-01-23T20:10:00Z,Russian Web Giants ’ Expansion Plans,Threatened by,Google
2013-01-23T20:10:00Z,Web Giants ’ Expansion Plans,Threatened by,Google
2013-01-23T20:17:57Z,GE,Settles,FHFA Suit
2013-01-23T20:20:37Z,$ 30 Billion,to Exports,Andina
2013-01-23T20:20:37Z,Peru Mining Exports,in,2013
2013-01-23T20:20:37Z,Rise,to Exports,Andina
2013-01-23T20:21:48Z,Gulf Gasoline,Slumps as,Refineries End Maintenance
2013-01-23T20:24:35Z,Capacity,Boosts Brent Premium to,WTI
2013-01-23T20:24:35Z,Reduced Capacity,Boosts Brent Premium to,WTI
2013-01-23T20:49:34Z,Light Louisiana Sweet,Strengthens on,Seaway Capacity Constraints
2013-01-23T20:49:34Z,Louisiana Sweet,Strengthens on,Seaway Capacity Constraints
2013-01-23T20:50:22Z,J&J Study,Predicted,37 %
2013-01-23T20:59:38Z,Ormat,Sees,$ 230 Million Charge
2013-01-23T21:00:00Z,Amazon,Gives,Users Time Capsule
2013-01-23T21:02:03Z,Allergan Will,Buy,Map Pharmaceuticals
2013-01-23T21:07:17Z,Cisco,Buy,Israel ’s Intucell
2013-01-23T21:07:21Z,Second-Quarter Profit,Trails,Estimates
2013-01-23T21:07:58Z,Google,Says,Requests in Second Half of 2012
2013-01-23T21:07:58Z,Requests,in,Second Half of 2012
2013-01-23T21:09:13Z,WellPoint Profit,Beats,Estimates
2013-01-23T21:10:54Z,United Technologies,Tops,Estimates
2013-01-23T21:12:44Z,Dollar Menu,Drives,U.S. Sales
2013-01-23T21:14:18Z,$ 2.2 Billion,in,Bonds
2013-01-23T21:16:35Z,CEO,to,Companies
2013-01-23T21:16:35Z,SandRidge,Has Paid,$ 9.5 Million
2013-01-23T21:20:14Z,Trulia,Surges,Record
2013-01-23T21:20:32Z,Leon Black Follows Denham,in,Buyout Firm Mine Push
2013-01-23T21:23:46Z,Profit,Beats,Analysts ’ Estimates
2013-01-23T21:23:58Z,K-Swiss,Sued Over,Million E.Land Deal
2013-01-23T21:24:00Z,Ex-NFL Player Junior Seau ’s Family,Sues,League Over Death
2013-01-23T21:25:51Z,Aurizon,Explores,Deals
2013-01-23T21:28:47Z,Monsanto,Offers,Brazilian Farmers Royalty-Free Soybeans
2013-01-23T21:28:51Z,Nortel,Wins,Approval for Settlement
2013-01-23T21:28:57Z,Safeway,Climbs on,Speculation
2013-01-23T21:30:41Z,Ethanol ’s Discount,Widens on,Import Speculation
2013-01-23T21:32:53Z,54 % Increase,in,Orders
2013-01-23T21:32:53Z,KB Home,Climbs,54 % Increase
2013-01-23T21:36:02Z,Profit,Tops,Estimates
2013-01-23T21:36:37Z,N.Y.,Was on,Record
2013-01-23T21:38:20Z,UBS Chairman Weber,Sees,Sluggish Recovery
2013-01-23T21:40:15Z,Lew,Meets With,Republican Senators
2013-01-23T21:42:26Z,NYC Judge Told Big-Soda Ban,Is,Unfair
2013-01-23T21:44:08Z,Holders Raising,in,Share Sale
2013-01-23T21:46:41Z,Novartis,Draws,U.S. Investigation Into Sales
2013-01-23T21:54:54Z,Perion,Plunges Since,Most 2011 on Google Deal Concerns
2013-01-23T22:01:00Z,Apps,Lure,Chinese
2013-01-23T22:01:00Z,Line-Cutting Apps,Lure,Chinese
2013-01-23T22:01:28Z,Crude Options Volatility,Rises as,Futures Fall
2013-01-23T22:01:28Z,Options Volatility,Rises as,Futures Fall Most in Month
2013-01-23T22:02:52Z,Nabors ' Largest Shareholder,Says in,Talks on Performance
2013-01-23T22:03:22Z,Aussie Dollar,Weakens on,Outlook
2013-01-23T22:03:23Z,Mideast-North Africa Adviser,Leaving,White House Team
2013-01-23T22:04:20Z,Earnings,Exceed,Estimates
2013-01-23T22:04:20Z,Quarterly Earnings,Exceed,Estimates
2013-01-23T22:05:21Z,Credit Suisse ’s Latin America Banker,Leaving for,Fund
2013-01-23T22:05:21Z,Credit Suisse ’s Top Latin America Banker,Leaving for,Fund
2013-01-23T22:08:38Z,STW,Buys,Stake
2013-01-23T22:09:03Z,Emerging Stocks,Slip on,IMF Growth Outlook
2013-01-23T22:09:03Z,Stocks,Slip on,China Economy
2013-01-23T22:12:37Z,Treasuries,Pare,Gains
2013-01-23T22:27:27Z,Rousseff,Says,Bigger
2013-01-23T22:28:33Z,Deloitte,Wins,Dismissal of Suit
2013-01-23T22:28:33Z,Touche,Wins,Dismissal
2013-01-23T22:34:37Z,Amgen,Tops,Profit Estimates
2013-01-23T22:53:47Z,Foxconn International,Sees,2012 Loss
2013-01-23T22:58:40Z,Fixed,of Billion,Floating-Rate Bonds
2013-01-23T23:00:01Z,Weber,Joins,Dimon
2013-01-23T23:01:00Z,Fracking Ban,Stalls,Conventional Oil
2013-01-23T23:01:00Z,French Fracking Ban,Stalls,Oil
2013-01-23T23:01:00Z,Novartis,From,Investors
2013-01-23T23:01:00Z,Vasella Quitting,Wins,Cheers
2013-01-23T23:01:52Z,Deals,Bank of,Italy
2013-01-23T23:01:52Z,Monte Paschi,Hid Documents on,Bank of Italy
2013-01-23T23:03:10Z,Pemex,Snaps,Mexico ’s Bond Sale Drought
2013-01-23T23:14:51Z,Credit Swaps,Climb as,Apple Posts No Growth
2013-01-23T23:30:11Z,Fed,Stop,Worrying Zero
2013-01-23T23:30:34Z,CIA Agent,Goes to,Prison
2013-01-23T23:30:34Z,White House,Keeps Secrets,CIA Agent Goes
2013-01-23T23:31:00Z,Manti Te’o,Joins,Notre Dame ’s Long Tradition
2013-01-24T00:00:06Z,Swansea,Beats,Chelsea
2013-01-24T00:01:00Z,Lowest,at Support,Survey
2013-01-24T00:01:00Z,Second-Half Surge Lifts Arsenal,in,Premier League
2013-01-24T00:05:41Z,South Korea,Grows,Won Strengthens
2013-01-24T00:07:00Z,Kodak,Wins Approval for,Million Bankruptcy Financing
2013-01-24T00:21:04Z,Tom Clausen,Dies at,89
2013-01-24T00:30:15Z,Appeal,in,Jobs Funding Case
2013-01-24T00:30:15Z,Ohio Supreme Court,Accepts,Appeal in Jobs Funding Case
2013-01-24T02:45:28Z,Toyota Motor Credit,Offers,1.75 Billion Euros
2013-01-24T04:30:09Z,Nakao,Defends,Policy Weakening Yen
2013-01-24T05:00:01Z,25 % Stake,in,Hedge Fund Nephila Capital
2013-01-24T05:00:01Z,KKR,Buy,25 % Stake in Hedge Fund Nephila Capital
2013-01-24T05:00:06Z,Phil Mickelson,Says,Tax Comments
2013-01-24T05:00:36Z,NBA,as,Most Valuable Team
2013-01-24T05:00:59Z,Former New York Jets,Goes to,NFL Raiders
2013-01-24T05:01:00Z,America Movil,Opening for,Telmex TV
2013-01-24T05:01:01Z,Kashkari Departure,Adds to,Pimco ’s Equity Unit Hurdles
2013-01-24T05:01:01Z,Lance Armstrong,Peddling Fiction as,Memoir
2013-01-24T05:01:01Z,Pimco,to,Equity Unit Hurdles
2013-01-24T05:01:01Z,Symantec ’s New CEO Bennett,Is,Said
2013-01-24T05:37:10Z,Samsung,Gets Review in,U.S. Trade Fight
2013-01-24T05:46:08Z,Partisan,Divide on,Benghazi
2013-01-24T06:06:23Z,Fujifilm,Enters,Japan Power Market
2013-01-24T06:06:23Z,Japan Power Market,Sell,Excess Output
2013-01-24T06:08:50Z,Decade,on,Cheapest Vessels
2013-01-24T06:13:39Z,Newcrest Second-Quarter Production Falls,Lags,Estimates
2013-01-24T07:58:08Z,Peso Beating Rupee,Threatens,Call Center Growth
2013-01-24T08:17:05Z,Obama-Netanyahu Odd Couple,Testing,U.S.-Israel Ties
2013-01-24T09:17:28Z,Beijing,in Smog,VW
2013-01-24T09:17:28Z,Smog,Fueling,Auto Sales
2013-01-24T09:17:28Z,Toxic Smog,Fueling Auto Sales for,GM
2013-01-24T11:24:07Z,Jaguar Land Rover Profit,Stalls on,Cheaper Evoque Model
2013-01-24T11:53:07Z,China,Tracks,Errol Flynn
2013-01-24T14:37:16Z,Portugal Sells Five-Year Bonds,in,Two Years
2013-01-24T15:12:28Z,Manpower,Sees,French Labor-Deal Boon Matching Skills
2013-01-24T15:25:10Z,EFG-Hermes,Says,QInvest Takeover
2013-01-24T15:50:18Z,Deals,Bank of,Italy
2013-01-24T15:50:18Z,Monte Paschi,Hid Documents on,Bank of Italy
2013-01-24T16:49:36Z,Mafia Victim ’s Son,Holds,Key
2013-01-24T19:36:45Z,Panetta Advances Obama,by,Goals
2013-01-24T19:36:45Z,Women Warriors,Move by,Panetta Advances Obama ’s Goals
2013-01-24T21:04:57Z,Delphi,Weighs,Bolt-On Acquisitions
2013-01-24T21:09:24Z,Airbus,Boeing on,Jet Purchase
2013-01-24T21:09:24Z,Talk,With,Airbus
2013-01-24T22:12:47Z,Most U.S. Stocks,Rise as,Earnings
2013-01-24T22:12:47Z,U.S. Stocks,Rise as,Earnings
