2013-05-24T00:44:46Z,Newcrest,Wins,Reprieve on New South Wales License
2013-05-24T01:27:01Z,She,Pushes,Medicaid
2013-05-24T01:35:32Z,Asian Bond Risk,Retreats From,Swap Prices Show
2013-05-24T01:35:32Z,Bond Risk,Retreats From,Swap Prices Show
2013-05-24T01:45:04Z,Korean Won,Set on,Fed
2013-05-24T01:45:04Z,Won,Set for,Third Weekly Drop
2013-05-24T01:52:27Z,Rubber Rebounds,Paring,Weekly Loss
2013-05-24T02:24:49Z,China Money Rate Drops First Time,in,Two Weeks
2013-05-24T02:59:52Z,Bonds,Set for,Week
2013-05-24T02:59:52Z,Indonesian Bonds,Set Since,August
2013-05-24T03:14:31Z,Counters,Weak,Demand
2013-05-24T03:14:49Z,Issa,as,Pit-Bull Prober
2013-05-24T04:00:00Z,Heat ’s LeBron James Tops All-NBA First Team,Joins,Kobe Bryant
2013-05-24T04:00:01Z,Holder,Starved of,U.S. Justice Deputies
2013-05-24T04:00:05Z,Obama Bully Pulpit,Bullied With,Congress Probes Obscuring Agenda
2013-05-24T04:01:00Z,Christie Jersey Shore Rebound,Belied as,Marinas Struggle
2013-05-24T04:01:00Z,Cuomo Long Island Power Solution,Penalizes,Bonds
2013-05-24T04:01:00Z,SeaWorld Opens Ice Palace,With,Blackstone Money
2013-05-24T04:01:04Z,Soldiers,Turn Entrepreneurs Military as,One Million Exit
2013-05-24T04:01:32Z,Durable Goods Orders,in,April
2013-05-24T04:27:15Z,Oil,Displaces,Debt
2013-05-24T04:27:15Z,Olive Oil,Displaces Debt at,Heart of European Bottleneck
2013-05-24T04:45:23Z,Hong Kong Short Selling Turnover,Recorded,05/24/2013
2013-05-24T04:57:44Z,Peso,Set for,Worst Week
2013-05-24T04:57:44Z,Philippine Peso,Set for,Week
2013-05-24T05:05:47Z,State Department,Releases,Keystone Pipeline Comments
2013-05-24T05:16:19Z,Indian Rupee,Set for,Weekly Drop
2013-05-24T05:16:19Z,Rupee,Set for,Weekly Drop
2013-05-24T05:21:13Z,Wockhardt,Has,Biggest 2-Day Drop on U.S. Restrictions
2013-05-24T05:43:35Z,Rangers Defeat Bruins,in,Overtime
2013-05-24T05:47:20Z,Asia ’s Benchmark Equity Index,Swings as,Australia Banks Decline
2013-05-24T06:27:51Z,Stockholm Police,Seek Reinforcements After,Fifth Night of Riots
2013-05-24T06:34:09Z,Tongaat Full-Year Profit,Misses,Estimates on Sugar Prices
2013-05-24T06:40:21Z,Abe ’s Constitutional Pledge,in,Japan
2013-05-24T06:40:21Z,LDP,Alters,Abe ’s Constitutional Pledge
2013-05-24T07:01:37Z,3i,Buy,Barclays Infrastructure Funds Division
2013-05-24T07:21:37Z,Leaders,Agree on,Debt Ceiling
2013-05-24T07:21:37Z,Slovenian Leaders,Agree as,Bond Yields
2013-05-24T07:26:24Z,Confidence,Slumps,Unemployment Weighs
2013-05-24T07:26:24Z,Swedish Confidence,Unexpectedly Slumps,Unemployment Weighs
2013-05-24T07:28:36Z,China ’s Stocks Rise,in,Month
2013-05-24T07:32:34Z,Barnier,Says,EU Stress Tests on Banks
2013-05-24T07:54:12Z,Abe,Goes to,Myanmar
2013-05-24T08:11:04Z,10-Year Bunds,Erase,Advance
2013-05-24T08:11:04Z,Bunds,Leaving Yield at,1.45 %
2013-05-24T08:11:04Z,German 10-Year Bunds,Leaving Yield at,1.45 %
2013-05-24T08:11:04Z,German Bunds,Leaving Yield at,1.45 %
2013-05-24T08:14:57Z,Consumer Confidence,Unexpectedly Dropped in,May
2013-05-24T08:14:57Z,Italian Consumer Confidence,Unexpectedly Dropped in,May
2013-05-24T08:28:53Z,Night,Promotion of,Drinking
2013-05-24T08:28:53Z,Turkey,Bans Retail Alcohol Sales at,Promotion
2013-05-24T08:29:04Z,Kmart,Ceased Production After,Cracks Found
2013-05-24T08:33:48Z,Euro,Strengthens After,German Confidence Report
2013-05-24T08:39:24Z,Yuan,Rises to,High on Record Fixing
2013-05-24T08:40:06Z,Niger,Intensify,Fight Against Militants
2013-05-24T08:47:58Z,Taiwan Dollar Forwards Complete Best Week,in,Month
2013-05-24T08:55:45Z,EU Agriculture Trade,Was,12.6 Billion Euros Last Year
2013-05-24T08:55:45Z,EU Agriculture Trade Surplus,Was,12.6 Billion Euros Last Year
2013-05-24T08:56:27Z,Russia,Approves Subsidy Program to,Boost Renewable-Energy Output
2013-05-24T09:01:08Z,Australia,Lures Billion Bet on,Coal Rebound
2013-05-24T09:38:39Z,Germany ’s 10-Year Bunds,Erase,Decline
2013-05-24T09:47:11Z,Bosch ’s Aleo Solar,Holds Acquisition Talks With,Potential Buyers
2013-05-24T09:59:42Z,Merkel ’s Airbus Jets,Get Protection,Growing
2013-05-24T10:00:00Z,Employee Stock Ownership Plans Seen,Threatened by,Reform
2013-05-24T10:01:55Z,Morgan Stanley,Be,Banks
2013-05-24T10:01:55Z,Nomura,Said,Lead Banks for Suntory IPO
2013-05-24T10:15:38Z,Nadal Draws Brands,Tatishvili at,French Open
2013-05-24T10:17:53Z,Clients Bond Dominance,Is,Assured
2013-05-24T10:28:16Z,IEA,Warns,Merkel
2013-05-24T10:28:16Z,Merkel,Reduce,Cost
2013-05-24T10:30:06Z,German Ifo Sentiment,Rises for,First Time
2013-05-24T10:30:06Z,Ifo Sentiment,Rises for,First Time
2013-05-24T10:39:07Z,U.K. Lamaker ’s Wife Bercow,Loses,Case Over Pedophile Comment
2013-05-24T10:40:22Z,South Africa ’s Ruling ANC,Draws Battle Lines With,AMCU Union
2013-05-24T10:49:07Z,JPMorgan,Is,Hired
2013-05-24T10:56:36Z,Fed Funds Projected,Open at,0.08 ICAP Says
2013-05-24T11:00:00Z,Paul Trailing Clinton,in,Iowa Voter Survey
2013-05-24T11:00:00Z,Rubio,Joins,Paul Trailing Clinton
2013-05-24T11:02:43Z,Bond Sales Slow,Stimulus,Speculation
2013-05-24T11:02:43Z,Corporate Bond Sales Slow,in,Europe
2013-05-24T11:05:07Z,China,Vows Deeper Reform in,2013
2013-05-24T11:05:07Z,Li,Sustain,Growth
2013-05-24T11:17:02Z,Goldman,Selling,WTI Oil
2013-05-24T11:17:02Z,WTI Oil,Brent for,December 2014
2013-05-24T11:18:19Z,HSBC,Says,Countries Act on Rules
2013-05-24T11:23:14Z,Raiffeisen Chief Stepic,Offers,Quit After Offshore Probe
2013-05-24T11:31:28Z,Global Majority,Faces,Water Shortage
2013-05-24T11:31:28Z,Majority,Faces,Severe Water Shortage
2013-05-24T11:33:30Z,British Airways Jet,Evacuated at,Heathrow
2013-05-24T11:48:25Z,Lawmakers,Criticize,Nighttime Alcohol Store Ban
2013-05-24T11:54:09Z,Zurich Insurance Seeks China,Expansion on,Growth Bets
2013-05-24T11:56:10Z,Energy,Wins Investec Loan for,U.K. Onshore Wind Farm
2013-05-24T11:56:10Z,Good Energy,Wins,Investec Loan
2013-05-24T12:00:00Z,Retail-Sales Growth,Slowed to,4.1 %
2013-05-24T12:00:00Z,Russian Retail-Sales Growth,Unexpectedly Slowed to,4.1 %
2013-05-24T12:07:18Z,Kerry,Says,Israel
2013-05-24T12:14:13Z,U.S. Corporate Credit Swaps,Climb Before,Goods Report
2013-05-24T12:18:17Z,Wockhardt Drug Filings Seen,Delayed After,U.S. FDA Alert
2013-05-24T12:22:31Z,Crystal Palace,Faces Watford in,Playoff Worth
2013-05-24T12:29:50Z,Heat,Moving as,June
2013-05-24T12:44:34Z,$ 10 Billion Nuclear Project,Splits,Cabinet Parties
2013-05-24T12:44:34Z,$ Billion Nuclear Project,Splits,Cabinet Parties
2013-05-24T12:44:34Z,Billion Nuclear Project,Splits,Cabinet Parties
2013-05-24T12:44:34Z,Czech $ 10 Billion Nuclear Project,Splits,Cabinet Parties
2013-05-24T12:44:34Z,Czech $ Billion Nuclear Project,Splits,Cabinet Parties
2013-05-24T12:44:34Z,Czech Billion Nuclear Project,Splits,Cabinet Parties
2013-05-24T12:44:44Z,First TD Buyback,in,6 Years
2013-05-24T12:45:37Z,InterOil,in,Talks With Exxon on Natural Gas Fields
2013-05-24T12:45:37Z,Talks,With,Exxon on Natural Gas Fields
2013-05-24T12:46:13Z,Merkel,Defuse,EU-China Solar Spat
2013-05-24T12:46:13Z,Talks,With,Li
2013-05-24T12:53:05Z,Kenya Airways,Starts Marketing Billion Loan With,Afreximbank
2013-05-24T13:00:00Z,ECB,Says,Central Banks Pushed
2013-05-24T13:08:50Z,Air Liquide,Sees,China Investment Pickup
2013-05-24T13:08:50Z,It,Signs,Major Deal
2013-05-24T13:12:19Z,WTI,Heads for,Biggest Weekly Decline
2013-05-24T13:12:23Z,British Airways Parent,Offers,Million
2013-05-24T13:53:16Z,Samruk-Energy,Wins Wind-Power Loan From,Kazakh Development Bank
2013-05-24T13:55:33Z,SAP Cloud Chief Dalgaard,Leaving as,Part
2013-05-24T13:57:56Z,Two Men,Arrested at,Stansted
2013-05-24T14:03:08Z,Gasoline,Slips to,Fall After Memorial Day
2013-05-24T14:03:55Z,Probe Ex CFO,to,India Deals
2013-05-24T14:03:55Z,Vestas Calls,in,Fraud Squad
2013-05-24T14:07:45Z,IRS Safeguards Toothless,in,Tea Party Nonprofit Cases
2013-05-24T14:12:51Z,Iran Dispute,Shows,Hurdles
2013-05-24T14:18:04Z,Serbia Seeks,Revised Budget by,End-June
2013-05-24T14:22:01Z,Dealers,Absorbing Junk Bonds as,ETF Demand Drops
2013-05-24T14:29:50Z,EU,Weighs,Curbs on Banks ’ Use
2013-05-24T14:33:19Z,IDB Bondholders,Wrest,Control From Businessman Dankner
2013-05-24T14:36:32Z,Otokar,Climbs,Record on Saudi Interest Report
2013-05-24T14:36:50Z,Company Bond Sales,in,U.S.
2013-05-24T14:36:50Z,Glencore,Leads Company Bond Sales as,Issuance Falls
2013-05-24T14:37:08Z,BofA,Seek,Buyers for N.Y.
2013-05-24T14:48:41Z,Vedanta ’s Konkola Copper Mines Unit,in,Zambia
2013-05-24T14:58:26Z,Colin Powell,Feted by,Italy Sons
2013-05-24T14:59:12Z,China,Urges,Crisis Resolution
2013-05-24T14:59:12Z,Li,Praises,German-led Recovery
2013-05-24T15:12:32Z,Bankia,for,Florida Unit
2013-05-24T15:15:13Z,Day,Is,Rained
2013-05-24T15:15:13Z,Opening Day,Is,Rained Out
2013-05-24T15:15:23Z,Police Make Fifth Arrest,in,Woolwich Murder Case
2013-05-24T15:26:08Z,ITV News Twitter Account,Infiltrated With,Messages
2013-05-24T15:34:40Z,Interview,With,Tim Kane
2013-05-24T15:38:15Z,South African White Corn,in,3 Weeks
2013-05-24T15:47:04Z,Newtown Schools,Get,Million
2013-05-24T15:50:07Z,Bayern Fan,Gets,Champions League Ticket
2013-05-24T15:50:33Z,Investors,Consider,Fed
2013-05-24T15:50:33Z,U.K. Stocks,Drop for,Day
2013-05-24T15:52:19Z,Stay,in,Hong Kong
2013-05-24T15:54:49Z,European Stocks,Fall for,Second Day
2013-05-24T15:54:49Z,Stocks,Fall for,Day
2013-05-24T15:57:57Z,Swiss Stocks,Little Changed After,2.8 % Decline Yesterday
2013-05-24T16:04:19Z,Treasuries Rise,in,Two Months
2013-05-24T16:08:01Z,Gasoil Ship Rates Jump,in,Europe
2013-05-24T16:14:20Z,California,Fudges Math on,Obamacare
2013-05-24T16:14:33Z,Odebrecht,Wins,Million Brazil Water Deal
2013-05-24T16:20:12Z,Chief Swiss Negotiator,in,U.S. Tax Dispute Resigns
2013-05-24T16:20:18Z,Moutinho,Rodriguez to,Monaco
2013-05-24T16:21:03Z,Energy,on Tax,BayWa
2013-05-24T16:25:51Z,Bonds,Extend Slump to,Second Day
2013-05-24T16:25:51Z,Spanish Bonds,Extend Slump,Debt Tumbles
2013-05-24T16:44:25Z,HKMEx ’s Cheung,Quits,Hong Kong Public Service Posts
2013-05-24T17:03:38Z,Pakistan Airlines Plane,Intercepted by,Fighters
2013-05-24T17:04:26Z,Looting Followed China,of,Boxer Rebellion
2013-05-24T17:14:01Z,Harvard ’s Faust,Sets,Principles for Fundraising Campaign
2013-05-24T17:23:51Z,Ex-Cerberus Managing Director,Settles Suit Against,Firm
2013-05-24T17:34:34Z,Duke Street,in,Talks Sell to France ’s Tikehau
2013-05-24T17:34:34Z,France,to,Tikehau
2013-05-24T17:36:03Z,They,Must Uphold,High Standards
2013-05-24T17:42:51Z,Dallas Cowboy Brent,Remains Free in,Crash Case
2013-05-24T17:48:33Z,Afghan Taliban Guerrillas,Kill,One
2013-05-24T18:13:59Z,Treasuries Advance,Renew,Demand
2013-05-24T18:50:55Z,Senate,Went After,Wall Street
2013-05-24T18:52:35Z,Bridge Collapse,in,Washington State
2013-05-24T18:53:23Z,Futures,Are,Little Changed
2013-05-24T18:59:38Z,Harvard Faculty,Wants,Involvement
2013-05-24T18:59:38Z,Involvement,in,EdX Online Venture
2013-05-24T19:19:25Z,Conservatives,Muzzled by,Liberals
2013-05-24T19:22:06Z,SAP,End,Talks
2013-05-24T19:23:28Z,Gleacher,Fires,COO John Griff
2013-05-24T19:48:48Z,Ibovespa,Heads on,Homebuilders
2013-05-24T20:01:32Z,Obama,Sees Sunset on,Sept. 11 War Powers
2013-05-24T20:06:50Z,California,Rejects Tax on,Ammunition
2013-05-24T20:09:21Z,News Corp. ’s Publishing Unit,Gets,$ 500 Million Buyback Fund
2013-05-24T20:15:17Z,NYC,Fight With,$ 1.4 Billion JFK Terminal
2013-05-24T20:20:15Z,Balchunas,in,2013 ’s `
2013-05-24T20:20:15Z,Rock Star,’ ETF,Audio
2013-05-24T20:20:59Z,Barrick,Assesses,Impact of Chile Resolution on Andes Mine
2013-05-24T20:21:26Z,Berkshire ’s Witmer,Joining,Buffett ’s Board
2013-05-24T20:31:10Z,Wal-Mart Plasters Stores,With,Green Dots
2013-05-24T20:31:24Z,Pentagon Awards Biofuel Contracts,in,Obama Renewable Energy
2013-05-24T20:34:47Z,Valeant Jump,Offsets Slumps in,Oil
2013-05-24T20:39:48Z,Ethanol,Tumbles,Most in More Than Week Against Gasoline on Corn
2013-05-24T20:42:25Z,Commodities,Extend,Slump
2013-05-24T20:42:25Z,U.S. Stocks,Pare,Losses
2013-05-24T20:46:42Z,Goldman Sachs Buyback Orders,Reach,Highest Level
2013-05-24T20:48:33Z,Niko,Surges,Most in 17 Years
2013-05-24T20:55:02Z,Most U.S. Stocks,Fall as,Investors Weigh Data
2013-05-24T20:55:02Z,U.S. Stocks,Fall as,Stimulus
2013-05-24T20:56:44Z,Chile,to,BCI
2013-05-24T21:03:17Z,Lampert,Loses Million,Sears Stock Plunges
2013-05-24T21:10:09Z,Futures Traders,Increase,Bets
2013-05-24T21:12:50Z,$ 33.5 Million,in,Misbranding Case
2013-05-24T21:12:50Z,Bausch Unit,Pays,$ 33.5 Million
2013-05-24T21:14:47Z,Campus,in,Lower Manhattan
2013-05-24T21:22:51Z,Canadian Dollar Falls,Outpaced,Economy
2013-05-24T21:22:51Z,Dollar Falls,Outpaced,Economy
2013-05-24T21:34:37Z,Energy Fuels,Buy,Strathmore
2013-05-24T21:49:06Z,Emerging Stocks,Drop as,Commodity Producers Tumble
2013-05-24T21:49:06Z,Most Emerging Stocks,Drop as,Commodity Producers Tumble
2013-05-24T22:00:00Z,Money Market Funds,Win,Delay of EU Reserve Rules
2013-05-24T22:00:01Z,Too-Big-to-Fail Banks,in,Denmark
2013-05-24T22:12:59Z,Charges,in,Sarkozy-Ally Case
2013-05-24T22:12:59Z,Lagarde,Avoids,Charges in Sarkozy-Ally Case
2013-05-24T22:13:22Z,Tudor ’s Jones,Apologizes for,Remarks on Female Traders
2013-05-24T22:13:55Z,Scenes,in,Payments
2013-05-24T22:21:47Z,Berkshire ’s Weschler,Holds,$ 150 Million
2013-05-24T23:00:00Z,Latour ’82 Cases,With,Petrus Magnum Top Sotheby ’s Auction
2013-05-24T23:00:00Z,Petrus Magnum Top Sotheby,With,Auction
2013-05-24T23:00:01Z,European Stocks,Stimulus,Signs
2013-05-24T23:00:01Z,Stocks,Stimulus,Signs
2013-05-25T04:00:01Z,P&G,Recalling,Ex-CEO
2013-05-25T04:00:09Z,Holder,Involved in,Move
2013-05-25T04:01:00Z,Bids Heat,as KKR,Silver Lake Vie for Hulu With Yahoo
2013-05-25T04:01:00Z,I-5 Bridge Collapse,Shows Bridge Repair Needs Across,U.S
2013-05-25T04:01:00Z,KKR,Vie With,Yahoo
2013-05-25T04:01:00Z,Met Director,Decries,Detroit Bid
2013-05-25T04:01:00Z,Silver Lake Vie,With,Yahoo
2013-05-25T04:01:01Z,Arizona Sheriff,Violated,Judge Rules
2013-05-25T04:01:01Z,Latinos,’ Rights,Judge Rules
2013-05-25T12:15:56Z,Neymar May,Be,Europe-Bound
2013-05-25T12:15:56Z,Santos,Accepts,Two Offers
2013-05-25T16:14:32Z,Down,Print,Division
2013-05-26T22:00:55Z,India,Offers,Wary Embrace
2013-05-27T13:43:09Z,Threefold Return,in,Bausch Transaction
2013-05-27T13:43:09Z,Warburg,Would Get,Return
2013-05-27T23:00:01Z,U.K. Police,Make Arrest in,Probe of Murdered Soldier
2013-05-28T13:47:03Z,Israel 's Map App Waze,Is Grabbing,Attention of Google
