2013-06-11T01:30:00Z,U.S. Seen,Moving Closer,Move on Arming Rebels
2013-06-11T01:46:57Z,Bond Risk Increases,in,Asia
2013-06-11T01:47:41Z,Mining Services Providers Face,Crunch,HFZ ’s Hobart
2013-06-11T01:55:46Z,Gillard,Faces,Danger Zone
2013-06-11T01:55:46Z,Rudd,Hits,Risky Seats
2013-06-11T02:07:41Z,China Stocks,in,Hong Kong
2013-06-11T02:23:30Z,In-Vitro Clinic Virtus Health,Rises,8.5 %
2013-06-11T02:32:32Z,Copper,Climbs in,Five
2013-06-11T02:50:13Z,Peso Falls Past 43,Dollar in,Year
2013-06-11T02:50:13Z,Philippine Peso Falls Past 43,Dollar for,First Time
2013-06-11T02:50:13Z,Philippine Peso Falls Past 43 Dollar,in,Year
2013-06-11T03:20:23Z,6 Months,in,Match-Fixing Case
2013-06-11T04:00:00Z,Missouri Lawyer,Brings Nuisance Claims to,Fracking Arena
2013-06-11T04:00:01Z,39 % Drop,in,Latchkey Kids
2013-06-11T04:00:01Z,Census,Sees,Drop in Latchkey Kids
2013-06-11T04:00:01Z,Fewer Home,Alone Sees,39 % Drop in Latchkey Kids
2013-06-11T04:00:01Z,Home,Alone Sees,Drop
2013-06-11T04:01:00Z,City,Confronts,Bankruptcy
2013-06-11T04:01:00Z,Data Scientists,Sought for,Century
2013-06-11T04:01:00Z,Desalitech,Gets,Liberation Capital Investment
2013-06-11T04:01:00Z,Gehry Models,in,Uptown Galleries
2013-06-11T04:01:00Z,Matos,Models in,Uptown Galleries
2013-06-11T04:01:00Z,Quickie N.J. Senate Race,Shapes Up,Challengers Emerge
2013-06-11T04:01:00Z,Wall Street Stylists,Pursue,U.K. Tax Dodgers
2013-06-11T04:45:22Z,Hong Kong Short Selling Turnover,Recorded,06/11/2013
2013-06-11T06:23:01Z,Funds,Sell,Shares
2013-06-11T06:23:01Z,Global Funds,Sell,Shares
2013-06-11T06:24:00Z,Biggest Gain,in,Two Years
2013-06-11T07:00:00Z,Iceland Nasdaq OMX Exchange,Starts,Three Bond Indexes in Kronur
2013-06-11T07:00:00Z,Nordea,Raises,Outlook
2013-06-11T07:00:00Z,Sweden,for,Economy
2013-06-11T07:00:00Z,Three Bond Indexes,in,Kronur
2013-06-11T07:09:48Z,Iran ’s Aref,Quits Presidency Race to,Focus Reform Vote
2013-06-11T07:24:51Z,Fund,to Able,CEO
2013-06-11T07:30:33Z,Richemont,Retreat as,Nobel Gains
2013-06-11T07:48:05Z,German Stocks,Snapping,Two Days
2013-06-11T07:48:05Z,Stocks,Snapping,Two Days
2013-06-11T07:48:45Z,10-Year Yields,Climb,Highest Since April 8
2013-06-11T07:48:45Z,Portuguese 10-Year Yields,Climb,Highest
2013-06-11T07:48:45Z,Portuguese Yields,Climb,Highest
2013-06-11T07:48:45Z,Yields,Climb Highest to,6.57 %
2013-06-11T08:00:34Z,Ireland,for,Bord Gais Unit
2013-06-11T08:01:08Z,Boost Gains,in,Stocks
2013-06-11T08:04:12Z,Ringgit,in,Biggest Two-Day Drop
2013-06-11T08:05:39Z,Mitsui Fudosan,Drop After,BOJ Meeting
2013-06-11T08:06:04Z,Hungary Inflation Rate,Rises Less in,May
2013-06-11T08:13:24Z,SoftBank,Raises,Sprint Bid
2013-06-11T08:15:53Z,Bank,Extends,Drop
2013-06-11T08:15:53Z,Fitch,Cites,Risks
2013-06-11T08:38:58Z,Dung,Passes Confidence Vote,Vietnam ’s Growth Stagnates
2013-06-11T08:56:18Z,Iron Ore Seen,Rebounding as,China Restocks
2013-06-11T08:56:18Z,Year,in,Second Half
2013-06-11T08:59:26Z,Philippine Stocks,Plunge,Most Since Sept. 2011 on Jobs
2013-06-11T08:59:26Z,Stocks,Plunge,Most
2013-06-11T09:02:26Z,Poland,Holds,Difficult European Commission Talks on LOT Aid
2013-06-11T09:03:45Z,Kuwait Petroleum,Offers Full-Range Naphtha in,July
2013-06-11T09:06:05Z,Crisis,Saves,Germany
2013-06-11T09:23:48Z,Crude Supply,Rises on,Output
2013-06-11T09:23:48Z,Supply,Rises in,Survey
2013-06-11T09:24:02Z,Syria,Widens Offensive to,Aleppo
2013-06-11T09:34:36Z,Forint,Hits,6-Week Low as Yields Jump
2013-06-11T10:07:32Z,Thai Stocks,Drop,Most
2013-06-11T10:13:40Z,Egypt,From,Opposition
2013-06-11T10:13:40Z,Mursi ’s Ethiopia Dam Stance,Draws,Fire From Egypt ’s Opposition
2013-06-11T10:16:22Z,Corporate Credit Risk,Rises on,BOJ Decision
2013-06-11T10:18:25Z,Billionaire Tan May,Sell,His Stake in Philippine Airlines
2013-06-11T10:18:25Z,His Stake,in,Philippine Airlines
2013-06-11T10:19:55Z,U.K. Industrial Output,Increased in,April
2013-06-11T10:30:14Z,Dubai Economy,Expands,Hotels
2013-06-11T10:30:40Z,Crude-Tanker Seen,Swelling,Second Week
2013-06-11T10:30:40Z,Crude-Tanker Surplus Seen,Swelling,Week in Persian Gulf
2013-06-11T10:30:40Z,Second Week,in,Persian Gulf
2013-06-11T10:33:52Z,Apple,for,iTunes Radio
2013-06-11T10:33:52Z,Rest,Have,Wait for Apple 's iTunes Radio
2013-06-11T10:40:06Z,Ocado,Jumps,Record
2013-06-11T10:40:06Z,Sellers,Close,Positions
2013-06-11T10:40:06Z,Short Sellers,Close,Positions
2013-06-11T10:46:39Z,Fed Funds Projected,Open at,0.08 ICAP Says
2013-06-11T10:48:28Z,GDF Suez Wind Project,in,South Africa
2013-06-11T10:57:53Z,Fortum,Buys,Plans Investment
2013-06-11T11:10:18Z,It,Was,Fired by Lloyds for Complaint
2013-06-11T11:15:00Z,Damages,in,EU Plan
2013-06-11T11:24:13Z,Britvic,Casts Doubt After,Clearance
2013-06-11T11:27:55Z,SAP,Tergets Middle East Business Amid,Expansion Plans
2013-06-11T11:28:13Z,Brookfield Property,Buy,Warehouse Developer
2013-06-11T11:30:00Z,Small-Business Optimism,in,U.S.
2013-06-11T11:40:54Z,Asian Shares,Fall Across,Region
2013-06-11T11:40:54Z,Shares,Fall Across,Region on Central Bank Policies
2013-06-11T11:42:30Z,Croatia,Joins Greece,Push
2013-06-11T11:43:30Z,3.7 %,in,May
2013-06-11T11:47:03Z,VTB Trumps Baring Vostok,in,Russia Buyouts
2013-06-11T12:00:36Z,Gazit-Globe Drops,in,Tel Aviv
2013-06-11T12:01:56Z,Henry Cecil,Dies at,Age 70
2013-06-11T12:03:10Z,Swiss Committee,Recommends,Rejection
2013-06-11T12:14:30Z,U.K.,Fights,EU Power
2013-06-11T12:20:52Z,Canadian Dollar Falls First Time,in,Four Days
2013-06-11T12:31:17Z,HSBC,StanChart for,Sukuk
2013-06-11T12:31:17Z,Saudi Civil Aviation,Hires,StanChart for Sukuk
2013-06-11T12:45:00Z,Isabel Benham,Dies at,103
2013-06-11T12:45:28Z,Confidence,in,U.K. Probe
2013-06-11T12:45:28Z,Wife,Loses,Confidence
2013-06-11T12:46:28Z,NY,on,Governors Island
2013-06-11T12:59:15Z,Producer Obst,Says,Audio
2013-06-11T13:11:24Z,Afghanistan,at,Supreme Court
2013-06-11T13:11:24Z,Explosion,Kills,Wounds Civilians
2013-06-11T13:22:54Z,Kapsch,Says in,July
2013-06-11T13:30:00Z,South American Soybean Exports,Said at,Record High
2013-06-11T13:34:27Z,Wheeler ’s Peashooter,Finds,Its Mark
2013-06-11T13:41:38Z,Marketo,Vows,Independence
2013-06-11T13:50:21Z,Insurers Shares,Beating Banks by,Most
2013-06-11T13:59:38Z,Canada Dollar,Erases,Decline Versus U.S. Peer
2013-06-11T13:59:38Z,Decline Versus U.S. Peer,in,Toronto Trading
2013-06-11T14:03:15Z,Canadian Stocks,Fall as,Gold Slumps
2013-06-11T14:03:15Z,Stocks,Fall After,BOJ Policy Unchanged
2013-06-11T14:04:19Z,Lions,Shut Out,Combined Country 64-0 on Tour
2013-06-11T14:12:37Z,Weaker Rand,Boosts,Earnings
2013-06-11T14:16:12Z,Police Arrest Six,in,London Protests
2013-06-11T14:22:18Z,Malaga,Loses,Appeal
2013-06-11T14:30:00Z,Operations,in,West Africa
2013-06-11T14:41:27Z,Morocco,Says,Subsidy Cuts Dependent on Commodity Prices
2013-06-11T14:47:33Z,Iran Wheat Buying Seen,Prompted by,Elections
2013-06-11T14:58:17Z,Obama Calls Immigration Driving Force,in,Economy
2013-06-11T15:00:19Z,Companies,Stop,Growing
2013-06-11T15:00:19Z,Successful Companies,Stop,Growing
2013-06-11T15:05:31Z,Computer-Bound Teenager,in,Maryland
2013-06-11T15:05:31Z,NSA Leaker,Was,Computer-Bound Teenager
2013-06-11T15:05:31Z,Shy,Teenager in,Maryland
2013-06-11T15:05:34Z,Axis,Hires,Morgan Stanley ’s Bautista
2013-06-11T15:05:34Z,Morgan Stanley ’s Bautista,in,Capital Markets
2013-06-11T15:07:15Z,Energy Exchange,Approves,New Carbon-Market Subsidiary
2013-06-11T15:07:15Z,European Energy Exchange,Approves,New Carbon-Market Subsidiary
2013-06-11T15:13:03Z,One-Time Costs,Tied to,Company Review
2013-06-11T15:14:08Z,Yale Entries,Thank,Schlosstein
2013-06-11T15:20:59Z,Pimco,Sees Chance in,Five Years
2013-06-11T15:21:43Z,EQT,Weighs,Exit
2013-06-11T15:29:09Z,Warren Resources Postpones Bond Sale,With,Yields at 9-Month High
2013-06-11T15:30:17Z,Deutsche Bank ’s Jain Courts Super-Rich,in,Money Manager Race
2013-06-11T15:33:02Z,Ex-Citadel Credit Chief Boas,Cancels,Hedge Fund Plans
2013-06-11T15:36:11Z,Dow,Recovers From,153-Point Slide
2013-06-11T15:36:11Z,Little,Changed,Dow Recovers
2013-06-11T15:45:25Z,Found Guilty,in,Florida
2013-06-11T15:46:41Z,Ghana ’s Cedi,Weakens,Record as Gold Prices Wane
2013-06-11T15:47:51Z,Bonds,Slide After,BOJ
2013-06-11T15:47:51Z,European Bonds,Slide After,Draghi Damp Central-Bank Bets
2013-06-11T15:49:10Z,Turkey Stocks,Reach,2013 Low as Protests Trigger Bank Tightening
2013-06-11T15:49:34Z,Kuroda ’s April-Was-Enough Message,Faces,Investors Wanting More
2013-06-11T15:49:34Z,Kuroda ’s Message,Faces,Investors
2013-06-11T15:50:20Z,Polish Cabinet,Approves,2014 Budget Outline
2013-06-11T15:51:20Z,Bear Flags,Wave as,Currency Routs Mean
2013-06-11T15:51:30Z,Goldman Loan,Is,Backed
2013-06-11T15:57:11Z,U.K. Stocks,Tumble on,BOJ
2013-06-11T16:02:49Z,Exide,Wins Loan Approval,Operate in Bankruptcy
2013-06-11T16:07:54Z,OptionsXpress Buy-Writes,Left,Judge Rules
2013-06-11T16:15:05Z,Independent Scotland,Should Share U.K. Welfare in,Transition
2013-06-11T16:16:56Z,1st Day,in,3
2013-06-11T16:20:29Z,Fonciere des Regions,Adds,Homes
2013-06-11T16:24:44Z,BAE,Sees,South Korea Typhoon Choice
2013-06-11T16:24:44Z,South Korea Typhoon Choice,Leading,Other Bids
2013-06-11T16:28:40Z,Royal Bank,Sued Over,CDOs
2013-06-11T16:29:31Z,Boeing,Raises Jet Demand Forecast by,3.8 %
2013-06-11T16:43:08Z,U.S.,Lowers,2013 Gasoline Demand Forecast
2013-06-11T16:50:41Z,Glencore Said,With,Rio
2013-06-11T17:02:50Z,Big-Soda Limits,Be,Reinstated
2013-06-11T17:05:34Z,House Panel,Adds Million for,8 United Technologies Choppers
2013-06-11T17:05:44Z,Odontoprev Rallies,in,Sao Paulo
2013-06-11T17:08:42Z,EU,Challenges,Air-Traffic Controllers
2013-06-11T17:08:42Z,EU Challenges,With,Price Cut
2013-06-11T17:15:44Z,JPMorgan Analysts,Cite,Annuity Risk
2013-06-11T17:28:36Z,13 Percent,in,May
2013-06-11T17:37:18Z,2.21 %,in,New York
2013-06-11T17:39:24Z,U.S. Cable Television Ratings,Ended,June 9
2013-06-11T17:40:44Z,U.S. Broadcast Television Ratings,Ended,June 9
2013-06-11T17:41:48Z,Republicans,Have,Death Wish
2013-06-11T17:42:31Z,U.S. Television Prime-Time Ratings,Ended,June 9
2013-06-11T17:49:11Z,CBOE,Pay,$ 6 Million
2013-06-11T17:50:30Z,Obama Plan B Letter,Gets Mixed Praise From,Health Groups
2013-06-11T17:52:16Z,Flights,Hampered on,Controller Strike EU Role
2013-06-11T17:52:16Z,French Flights,Hampered on,Controller Strike EU Role
2013-06-11T18:02:56Z,U.S. Solar Installations,Climb,33 % Led by California
2013-06-11T18:04:11Z,Capriles,Starts,Internet TV Show
2013-06-11T18:04:47Z,Wells Fargo Sells,Tied Since,January 2011
2013-06-11T18:07:41Z,Sebastian Vettel,Extend Red Bull Contract Through,2015
2013-06-11T18:11:42Z,Tebow,Take,Three
2013-06-11T18:15:18Z,Borealis Group,Abandons,$ 8.3 Billion Bid for Severn Trent
2013-06-11T18:20:46Z,Investors,Approve,Breakup Plan
2013-06-11T18:27:21Z,Dollar,Weakens in,Risk Appetite
2013-06-11T18:27:21Z,Treasuries,Climb,Dollar Weakens Amid Drop
2013-06-11T18:28:19Z,Bradshaw,Back Agrees With,Colts
2013-06-11T18:29:37Z,Natural Gas Production,in,2013
2013-06-11T18:30:00Z,Minorities Experience Racial Bias,in,Housing Market
2013-06-11T18:32:05Z,Dollar General,Sued Over,Use
2013-06-11T18:51:15Z,New Jersey Voter Groups,Challenging,Election
2013-06-11T19:03:42Z,Christie,Endorsed by,N.J. Democratic Leader DiVincenzo
2013-06-11T19:09:58Z,Edward Snowden,Is Dating,Manti Te'o 's Girlfriend
2013-06-11T19:15:42Z,Chicago Gasoline,Extends Exxon Joliet on,Supply
2013-06-11T19:18:23Z,Brown,Strikes,Deal on California Budget
2013-06-11T19:20:56Z,Third-Quarter U.S. Power Demand,Slumps on,Mild Weather
2013-06-11T19:20:56Z,U.S. Power Demand,Slumps in,Report
2013-06-11T19:29:23Z,Chevron CEO,Says,Industry
2013-06-11T19:29:23Z,Deal,With,Fracking Concern
2013-06-11T19:32:18Z,Army,Say,East Coast Missile Defense Site
2013-06-11T19:32:18Z,Pentagon,Say,East Coast Missile Defense Site
2013-06-11T19:43:21Z,Ewing,Joins,Jordan ’s Bobcats
2013-06-11T19:47:40Z,U.S. Surveillance Leak,Spawns,Congress Probe
2013-06-11T20:04:05Z,Forest,Adds,Icahn Director
2013-06-11T20:04:07Z,Google,Buys Waze in,Push
2013-06-11T20:08:20Z,Questcor,Acquiring Rights to,Novartis Drug
2013-06-11T20:08:51Z,Big Citigroup Loss,Hides in,Plain Sight
2013-06-11T20:08:51Z,Citigroup Loss,Hides in,Plain Sight
2013-06-11T20:18:25Z,GM ’s Cadillac,Selects Interpublic Unit as,New Ad Agency
2013-06-11T20:20:21Z,LDK Solar,Restructure,$ 240 Million
2013-06-11T20:21:06Z,UnitedHealth,Switches,Leaders
2013-06-11T20:22:37Z,China,Leads,Economies ’ Oil Use
2013-06-11T20:23:11Z,Marfrig,Sees,Brazil Steak Diners Spurring Growth
2013-06-11T20:25:09Z,Dole Food Chairman,Makes,Million Bid
2013-06-11T20:34:27Z,PlayStation 4 Console,Taking on,Microsoft
2013-06-11T20:34:27Z,PlayStation Console,Taking on,Microsoft
2013-06-11T20:34:39Z,Booz Allen U.S. Contracts,Seen With,Secrets
2013-06-11T20:36:48Z,BOJ,Leaves,Stimulus Unchanged
2013-06-11T20:39:42Z,Rand Paul,Can Take On,NSA
2013-06-11T20:42:49Z,We,Were,About Stuff
2013-06-11T20:45:52Z,Penn West Breakup Seen,Returning,Billion
2013-06-11T20:46:46Z,NE Opco,Wins,Approval
2013-06-11T20:47:54Z,Prudential Financial,Authorizes,Billion Buyback
2013-06-11T20:48:07Z,Brazil Ranked Lowest,in,G-20
2013-06-11T20:48:07Z,G-20,in Lowest,ICC
2013-06-11T20:49:06Z,$ 7 Billion,Hit on,Dollar Gain
2013-06-11T20:49:06Z,$ Billion,Hit on,Dollar Gain
2013-06-11T20:49:06Z,Billion,Hit on,Dollar Gain
2013-06-11T20:49:09Z,Canaccord,Hires Ex-UBS Banker Hedley for,U.S. Technology Group
2013-06-11T20:50:32Z,Diamond Foods Names New Finance Chief,Restates,Results
2013-06-11T20:58:38Z,Berkshire ’s Eastwood Builds Staff,Takes On,AIG
2013-06-11T21:00:01Z,India,Stocks Beat BRIC Peers by,Most
2013-06-11T21:00:04Z,Obama,Hosts,Peru ’s Humala
2013-06-11T21:00:15Z,Senate Panel,Approves,Removing Commanders ’ Prosecution Power
2013-06-11T21:10:38Z,U.S. Long Bonds,Climb as,Yields
2013-06-11T21:14:28Z,Canada Dollar,Rises,Outlooks Diverge
2013-06-11T21:18:41Z,Bloomberg,Proposes,Billion NYC Flood Plan
2013-06-11T21:22:00Z,UAE,Emerging by,MSCI
2013-06-11T21:26:11Z,Ball Back,in,Dish ’s Court
2013-06-11T21:26:11Z,Dish,in,Court
2013-06-11T21:26:11Z,SoftBank ’s Bid,Puts,Ball Back in Dish ’s Court
2013-06-11T21:26:11Z,SoftBank ’s Increased Bid,Puts,Ball Back in Dish ’s Court
2013-06-11T21:27:36Z,San Francisco Spot Gasoline Premium,Surges in,8 Months
2013-06-11T21:32:48Z,MSCI,in,World First
2013-06-11T21:33:35Z,Medicare,Pays,Million Year Too Much for Lab Tests
2013-06-11T21:36:35Z,We,Are Making,Our Movies Basically for Russia
2013-06-11T21:47:55Z,Prudential Financial,Promotes,Blount
2013-06-11T22:00:00Z,Mobile Phones,Can Improve,Health Care
2013-06-11T22:00:00Z,U.S.,Is Land of,Free
2013-06-11T22:00:06Z,Merkel,Enforces Silence to,Blunt Anti-Euro Party Election Risk
2013-06-11T22:00:36Z,Retirement Will,Kill,You
2013-06-11T22:09:49Z,Mexico Bonds,Rise as,Investors Lured to Higher Yields
2013-06-11T22:16:58Z,Stocks,Drop as,Asian Futures Decline
2013-06-11T22:40:56Z,City,Over,Health Inspections
2013-06-11T22:40:56Z,N.Y. Restaurants,Sue Over,City ’s Health Inspections
2013-06-11T22:46:33Z,New York Beats California,in,Sprint
2013-06-11T22:51:12Z,Pimco Cut Total Return Fund Muni Allocation,in,May
2013-06-11T23:00:00Z,Copper MACD Measure Signals,Drop to,2010 Low
2013-06-11T23:00:00Z,DiCaprio,Browses as,Million Calder Sells
2013-06-11T23:00:00Z,London,Goes at,Summer Ball
2013-06-11T23:00:00Z,Taylor Swift,Jives,London Goes
2013-06-11T23:00:01Z,Italy,Set,Cease
2013-06-11T23:00:27Z,Pimco Cut Treasuries Holdings,in,May
2013-06-11T23:01:00Z,Mozambique,Sell Stake in,Rovuma Gas Block
2013-06-11T23:01:00Z,Unprecedented Wage,Squeeze Since,2008
2013-06-11T23:01:00Z,Wage,Squeeze Since,2008
2013-06-11T23:10:53Z,Bernanke,Can Avoid,Meltdown in Bond Market
2013-06-11T23:10:53Z,Meltdown,in,Bond Market
2013-06-11T23:11:02Z,Asia Stock Futures Drop,Keeps,Policy Unchanged
2013-06-11T23:30:47Z,Electric-Car Maker Coda,Wins,Approval
2013-06-11T23:38:10Z,Brookfield,Offers,Five Australia East Coast Hotels
2013-06-12T01:13:31Z,Hewlett-Packard,Unveils,Data-Analysis Tools
2013-06-12T01:24:00Z,Dish-Sprint Talks,Said,Falter in Part Over Breakup Fee
2013-06-12T04:00:01Z,Blackstone Starting Mutual Fund,in,Push
2013-06-12T04:00:01Z,Schwarzman,Says,Blackstone Starting Mutual Fund in Push
2013-06-12T04:00:01Z,Secrecy,as,Weak Link
2013-06-12T04:01:00Z,Orwell ’s 1984,Soars After,NSA Surveillance Reports
2013-06-12T04:01:00Z,Yahoo ’s Mayer Auctions Lunch,Meeting for,School Donation
2013-06-12T04:01:01Z,ACLU,Sues,U.S. Government
2013-06-12T04:01:01Z,Chinese National,Gets,12 Years
2013-06-12T04:01:01Z,Rambus,Says,SK Hynix Licensing Accord Ends Litigation
2013-06-12T04:01:01Z,Suntech Power,Sued by,Investor Trondheim
2013-06-12T04:45:55Z,Phillies ’ Brown,Finds Fastballs,Jersey Sales Jump
2013-06-12T07:18:11Z,North Korea,Calls Off,Talks
2013-06-12T07:51:13Z,Diageo Facing Raki Trouble,in,Turkey
2013-06-12T08:08:10Z,ABB Investors,Seek,CEO
2013-06-12T08:21:43Z,Gas,Adds Energy to,Israeli Diplomacy Dominated by Conflicts
2013-06-12T09:57:44Z,Lufthansa ’s Brussels Air,Feels,Turkish Squeeze in Africa
2013-06-12T09:57:44Z,Turkish Squeeze,in,Africa
2013-06-12T10:00:31Z,Ex-President Rafsanjani,Joins Khatami in,Iran
2013-06-12T10:48:20Z,Tel Aviv,Loses,MSCI Europe Index Bid
2013-06-12T10:54:31Z,Greece First,Developed,Market Cut
2013-06-12T10:55:22Z,Gold Premium,Dropping on,Central Bank Sales
2013-06-12T11:16:23Z,Airbus,Sets A350 Flight Date,Boeing Rivalry Sharpens
2013-06-12T13:24:59Z,Jiroemon Kimura,Man in,Recorded History
2013-06-12T13:24:59Z,Oldest Man,in,Recorded History
2013-06-12T13:36:13Z,$ 4 Billion Lupus Market,With,Laquinimod Test
2013-06-12T14:38:25Z,Occidental Split,Foreshadows,$ 100 Billion Breakup Wave
2013-06-12T15:25:16Z,Border Towers,Keep Stimulus at,Home
2013-06-12T15:39:17Z,Facebook,Disclose,Security Request Data
2013-06-12T16:18:15Z,Pandora,Buys Radio Station,Qualify
2013-06-12T16:48:17Z,More Border Control,in,Immigration Bill
2013-06-12T16:48:17Z,Republicans,Seek,More Border Control in Immigration Bill
2013-06-12T18:06:28Z,Traders,Rig Currency Rates to,Profit
2013-06-12T18:59:57Z,Telefonica Grapples,With,Colombian Government
2013-06-12T19:00:01Z,Power Woe,Hurts,Growth
2013-06-12T20:55:55Z,Bloodbath,Roils,Funds
2013-06-12T20:55:55Z,Metacapital,in,Worst Slide
2013-06-13T04:01:00Z,Health Management,Hires Advisers as,Investor Seeks Talks
