2013-06-02T02:47:59Z,Bruins Beat Penguins 3-0,in,NHL Eastern Conference Finals
2013-06-02T02:57:00Z,China Southern,Gets,First Dreamliner
2013-06-02T04:00:01Z,Seven-Time NBA All-Star Grant Hill,Retires After,19 Seasons
2013-06-02T04:01:00Z,Kuchar,Has,Lead
2013-06-02T04:01:08Z,Employment,Probably Grew at,Steady Pace
2013-06-02T04:12:29Z,Mike Napoli,Hits Grand Slam in,Red Sox ’s 11-1 Rout
2013-06-02T04:12:29Z,Red Sox,in,11-1 Rout of Yankees
2013-06-02T05:24:44Z,Pacers Top Heat 91-77,in,NBA Playoffs
2013-06-02T07:18:50Z,Angry,With,Banks
2013-06-02T08:53:03Z,Czech Rainfall Threatens Prague,With,Flooding
2013-06-02T09:43:32Z,U.A.E.,Candidates for,MSCI Upgrade
2013-06-02T10:26:25Z,Signs,in,U.K. Economy
2013-06-02T11:30:00Z,Bayer,Slows,Rare Thyroid Tumor
2013-06-02T11:30:00Z,Vinegar Screening,Saves,Lives
2013-06-02T11:34:48Z,Ferrer Sweeps Past Anderson,in,Fourth Round Match
2013-06-02T11:35:34Z,Hezbollah,With Clash,Arabiya Reports
2013-06-02T11:35:34Z,Syrian Rebels Clash,With,Hezbollah in Lebanon
2013-06-02T12:27:58Z,Hagel,Cites,Navy ’s Newest Warship
2013-06-02T12:39:10Z,Mourinho,Rejoin,Real Madrid President
2013-06-02T13:42:40Z,Airbus Powers,in,Preparation for Debut Flight
2013-06-02T13:54:05Z,Drop,in,Oil Sales
2013-06-02T13:54:05Z,Nigeria Seeks Advantage,in,Drop to U.S.
2013-06-02T14:00:01Z,Echo,Take on,Packer
2013-06-02T15:00:48Z,He,Will Fight for,It
2013-06-02T15:00:48Z,Obama,Gets,Terror Policy
2013-06-02T15:18:33Z,Egyptian Court,Allows,Shura
2013-06-02T15:19:24Z,Labour,Suspends,Peers Accused of Breaching U.K. Parliament Rules
2013-06-02T15:29:35Z,Head,Declares,Rule
2013-06-02T15:29:35Z,Libya,of,Cyrenaica
2013-06-02T15:47:16Z,Barclays Cooperating,in,Probe of Liberty Reserve Case
2013-06-02T16:00:01Z,PetroChina,Drives,Slump
2013-06-02T16:27:01Z,Finnish Golfer Mikko Ilonen,Wins,Nordea Masters
2013-06-02T16:27:01Z,Golfer Mikko Ilonen,Wins Nordea Masters by,Three Shots
2013-06-02T16:35:06Z,JAL Dreamliner Grounded,Says After,Sensor Glitch
2013-06-02T16:35:06Z,Kyodo News,Says After,Sensor Glitch
2013-06-02T17:30:59Z,New Zealand,Clinch,One-Day Series
2013-06-02T17:48:44Z,Sensor Fault,in,Battery Box
2013-06-02T18:00:00Z,Bernanke,Offers,10 Suggestions
2013-06-02T18:22:27Z,Guptill,Leads New Zealand to,Cricket Series Win Over England
2013-06-02T18:31:00Z,Cricket President,Steps Aside Until,End of IPL Probe
2013-06-02T18:31:00Z,Indian Cricket President,Steps Until,End
2013-06-02T19:23:34Z,German Soldiers,Help People in,Two States
2013-06-02T19:23:34Z,Soldiers,Help People in,Two States
2013-06-02T20:00:00Z,Seoul ’s Defector Girl Boxer Stars,in,Rare Triumph
2013-06-02T21:00:00Z,Israel ’s Dankner,in,Last-Ditch Debt Fight
2013-06-02T21:14:27Z,Congress,Curb,Obama 's Powers
2013-06-02T22:00:00Z,Merkel Seeks Debt-Crisis,Victories Before,Campaign
2013-06-02T22:00:00Z,No,Wins In,EU-China Solar Panel Slapdown
2013-06-02T22:00:00Z,No One,Wins In,EU-China Solar Panel Slapdown
2013-06-02T22:00:01Z,Junk Slap,Provokes,Finnish Bondholder Uproar
2013-06-02T22:01:00Z,Bribes,Were Paid on,Iranian Gas Contracts
2013-06-02T22:01:00Z,Climate Envoys,Urged on,Failure of Global Target
2013-06-02T22:01:00Z,Kion,Set to,Start German IPOs
2013-06-02T22:01:00Z,Springer Science Said,Set to,Start German IPOs
2013-06-02T22:04:06Z,Coming Cool War,With,China
2013-06-02T22:56:48Z,Federer,Escapes,Serena Williams Eases
2013-06-02T22:56:48Z,Serena Williams,Eases to,Last Eight
2013-06-02T23:00:00Z,Biennale,Goes,Green
2013-06-02T23:00:00Z,Vatican,Recycles,Venice Sinks
2013-06-02T23:00:01Z,ZEW ’s Fuest,Sees Japan-Style Stagnation,ECB Tools Exhausted
2013-06-02T23:01:00Z,King,Urges,Carney
2013-06-02T23:09:53Z,Client Cash,Gone by,2014
2013-06-02T23:09:53Z,Most Client Cash,Gone by,2014
2013-06-02T23:09:53Z,SAC Insiders,Said,See
2013-06-02T23:36:23Z,Europe,France on,Overcapacity
2013-06-02T23:36:23Z,Refinery,Halts in,France
2013-06-03T01:02:47Z,China,Spurns,Arbitration
2013-06-03T01:02:47Z,U.S.,Joins Japan on,Sea Stance
2013-06-03T04:00:14Z,Kuchar,Join Woods as,PGA Tour Champion
2013-06-03T04:01:02Z,Carlyle,Sets,Record
2013-06-03T04:21:50Z,U.S. Men ’s Soccer Team,Beats,Germany 4-3
2013-06-03T04:24:19Z,Stocks,Reach,Highs
2013-06-03T05:03:19Z,Bankers,in,H.K. Boxing Ring
2013-06-03T05:03:19Z,Hedge Fund Fight,Puts,Women
2013-06-03T05:03:19Z,Women,Bankers in,H.K. Boxing Ring
2013-06-03T07:12:26Z,Banks Battle Telcos,in,South African Townships
2013-06-03T07:15:41Z,Roche ’s Avastin Drug,Add Time in,Brain Cancer Study
2013-06-03T08:49:16Z,U.K. Lawmakers Rebuke Cameron,in,Favor of Early Carbon Goal
2013-06-03T09:03:26Z,China Nuclear Stockpile,Grows as,India Matches Pakistan Rise
2013-06-03T09:20:56Z,Singapore Air,Buys Planes,Take
2013-06-03T10:28:18Z,Payoff,in,U.S. Gas
2013-06-03T10:28:18Z,Reliance,Sees,Payoff in U.S. Gas
2013-06-03T11:53:34Z,Sweden,to,Economy
2013-06-03T12:29:31Z,LVMH,Counts On,Lipstick
2013-06-03T13:03:08Z,Drugs,Go,Hit to Dud in Two Years in Hepatitis Race
2013-06-03T13:03:08Z,Two Years,in,Hepatitis Race
2013-06-03T16:25:16Z,Putin Dividend,Push Flops at,4-Year High
2013-06-03T17:11:30Z,Issa,Sees,Washington IRS Connection
2013-06-03T17:11:30Z,Washington IRS Connection,in,Employee Interview
2013-06-03T21:01:16Z,U.S. Stocks,Gain,Dollar Index Weakens
2013-06-03T21:01:16Z,U.S. Stocks Gain,With,Commodities
2013-06-03T22:00:21Z,Fast Sequel,Tops,Weekend Movies Again
2013-06-03T22:00:21Z,Sequel,Tops,Speeds by Smiths
2013-06-03T22:00:21Z,Weekend Movies Again,Speeds by,Smiths
2013-06-04T07:02:22Z,Erdogan,Predicts,Early End
