2013-03-15T00:00:00Z,Conflict Zone,Says,Ex-U.S. Official
2013-03-15T00:00:00Z,Warhol,’s Elvis,Flamenco
2013-03-15T00:00:01Z,Fine Art Fixer,Avert,Catastrophe
2013-03-15T00:01:00Z,U.K. Lawmakers,Call to,to Bear Down
2013-03-15T00:34:02Z,Japan ’s Energy Board,Dropping,Members
2013-03-15T00:44:55Z,Hulic,Expediting Billion REIT IPO as,Market Rallies
2013-03-15T01:48:20Z,Cuomo Nears Deal,With,Lawmakers on $ 136 Billion Budget
2013-03-15T01:50:20Z,Bond Risk Declines,in,Australia
2013-03-15T02:11:11Z,Morgan Stanley,Can,Can Sued Over Misselling
2013-03-15T02:19:53Z,Rebar,Pares,Fourth Weekly Drop
2013-03-15T02:22:40Z,Rubber,Recovers on,Yen
2013-03-15T02:38:08Z,Euro Swap-Tied,Note,Sales Surge in South Korea as Yields Decline
2013-03-15T02:38:08Z,Sales,Surge in,South Korea
2013-03-15T02:40:34Z,China Money Rate,Climbs to,2-Week High on Minsheng Debt Sale
2013-03-15T02:47:36Z,China Premier,With,Growth Model
2013-03-15T02:47:36Z,Li,Takes,Mantle
2013-03-15T02:53:12Z,Zinc,Set in,Five
2013-03-15T03:00:01Z,Chile,Keeps,5 % Key Rate
2013-03-15T03:01:00Z,Brazil Miracle Architect,Emerges as,Ally
2013-03-15T03:01:00Z,Rousseff,of,Rate Cuts
2013-03-15T03:07:29Z,Worst New Zealand Drought,in,30 Years
2013-03-15T03:11:32Z,Soybeans Advance,in,Four Days
2013-03-15T03:32:07Z,China Skyscraper Builder,Enters Australia on,Million Deal
2013-03-15T04:00:00Z,California,Raises Yield on,20-Year Bond
2013-03-15T04:00:01Z,Paraguay,Grow,10 %
2013-03-15T04:00:01Z,Prodi,Says Europe Hurt Amid,High Euro
2013-03-15T04:00:01Z,Wine Vies,With,Infant Food
2013-03-15T04:00:03Z,JPMorgan ’s Macris,Was,Paid
2013-03-15T04:01:00Z,Canada ’s Mulcair,Says,Oil Companies
2013-03-15T04:01:00Z,St. Pat,’s Crawl,Hardbody
2013-03-15T04:19:34Z,Indonesian Stocks,Snap Three-Day Drop as,Astra
2013-03-15T04:19:34Z,Stocks,Snap Three-Day Drop as,Telkom Advance
2013-03-15T04:28:48Z,Weekly Decline,in,Asian Currencies
2013-03-15T04:28:48Z,Won,Leads,Weekly Decline
2013-03-15T04:35:42Z,Loss,Has,U.S. Risking World Baseball Classic Exit
2013-03-15T04:36:59Z,Yen Drop Seen,Calls on,Japanese Notes
2013-03-15T04:36:59Z,Yen Drop Seen Calls,Skewing,Swaps
2013-03-15T04:36:59Z,Yen Drop Seen Triggering Calls,Skewing,Swaps
2013-03-15T04:45:16Z,Hong Kong Short Selling Turnover,Recorded,03/15/2013
2013-03-15T04:45:57Z,Industry Consolidation,in,China Ending
2013-03-15T04:45:57Z,JinkoSolar,Sees Industry Consolidation,Year
2013-03-15T04:52:59Z,Indian Rupee,Strengthens,Most
2013-03-15T04:52:59Z,Rupee,Strengthens,Most
2013-03-15T05:02:51Z,$ 2.1 Billion,in,Thai IPO
2013-03-15T05:02:51Z,BTS Group ’s Sky Train Fund,Seeks,$ 2.1 Billion
2013-03-15T05:07:20Z,Hard Court,in,Earliest Matchup
2013-03-15T05:07:20Z,Nadal,Beats Federer on,Hard Court in Earliest Matchup
2013-03-15T05:23:26Z,Singapore ’s February Home Sales,Decline to,14-Month Low
2013-03-15T05:29:30Z,Softbank,From,Station
2013-03-15T06:21:22Z,Pittsburgh,Reach,Big East Semifinal Game
2013-03-15T06:21:22Z,Syracuse,Tops,Pittsburgh
2013-03-15T06:51:45Z,Japanese Stocks,Rise on,BOJ Nominees
2013-03-15T06:51:45Z,Stocks,Rise on,U.S. Jobless Claims
2013-03-15T07:07:35Z,Supreme People,of,Court
2013-03-15T07:07:35Z,Zhou Qiang,Picked as,Head of China ’s Supreme People ’s Court
2013-03-15T07:26:53Z,Korean Won Posts Biggest Weekly Decline,in,Six
2013-03-15T07:29:29Z,UAE Port Fujairah,Anchoring in,Adjacent Waters
2013-03-15T07:36:10Z,Japan Reflationists Score,Biggest Win as,Kuroda Confirmed
2013-03-15T07:36:33Z,Advance,With,Yields Declining to 4.62 %
2013-03-15T07:37:47Z,Banks,Starting,Electronic Structured Note Platforms
2013-03-15T07:37:47Z,SocGen,Joins,Banks
2013-03-15T07:42:41Z,Lindt Profit,Misses,Estimates
2013-03-15T07:59:49Z,BOJ Will Never,Reach,Inflation Goal
2013-03-15T08:00:00Z,Russian Oil Duties,in,April
2013-03-15T08:34:59Z,Indonesia Yield Curve Steepest,in,8 Months on Inflation Concern
2013-03-15T08:41:56Z,Tinkler,Living Off,Allowance
2013-03-15T08:44:27Z,China,’s Rises,Paring Weekly Loss
2013-03-15T08:46:06Z,Solar Energy,in,Nine Months
2013-03-15T08:59:56Z,Maersk Stock,Rises as,China Container-Shipping Rates Jump
2013-03-15T09:00:00Z,Fall,in,March
2013-03-15T09:00:00Z,Lithuania Forecasts Inflation Rate,Will,Fall to 1.6 % in March
2013-03-15T09:40:10Z,Tokyo Steel,Widens Loss Outlook on,Impairment Charge
2013-03-15T10:04:31Z,LBOs,Imperil,Billion of U.S. Company Bonds
2013-03-15T10:11:03Z,Synthomer Profit,Beats,Estimates
2013-03-15T10:13:43Z,Kenyan Shilling,Pares,Post-Election Rally
2013-03-15T10:13:43Z,Shilling,Pares,Post-Election Rally
2013-03-15T10:14:03Z,Euro-Area Inflation,Slows on,Telecommunications Costs
2013-03-15T10:17:15Z,Italian 10-Year Bonds Advance,With,Yield Dropping to 4.63 %
2013-03-15T10:17:50Z,Sri Lanka ’s GDP Growth,Exceeds,Estimates on Spending
2013-03-15T10:19:04Z,Exillon,Rises on,Increase
2013-03-15T10:19:04Z,Increase,in,Russia Oil Reserves
2013-03-15T10:22:43Z,Hainan,Leads,Airline Gains on Peak Travel Demand
2013-03-15T10:22:57Z,Brent Spreads,Hit,8-Month Low
2013-03-15T10:31:13Z,Mortgage Lender,Alleges,Breach
2013-03-15T10:31:58Z,Meth Labs Found,in,West Africa
2013-03-15T10:43:12Z,Stocks,Are,Changed
2013-03-15T10:43:12Z,Swiss Stocks,Are,Changed
2013-03-15T10:44:27Z,Ex-UBS De Ville,Joins,Cantor ’s Asset-Backed Bond Unit
2013-03-15T10:47:09Z,Bonds,Poised for,Weekly Decline
2013-03-15T10:47:09Z,Spanish Bonds,Poised on,Bets Rally Excessive
2013-03-15T10:52:34Z,Old Mutual,Hires,Fund Manager Richard Buxton
2013-03-15T10:58:04Z,PGE,Leads Utilities Up on,Investment Plans Review
2013-03-15T10:58:40Z,Malaysia,Keeps,Palm Export Tax Unchanged
2013-03-15T11:05:10Z,Banks,Repay,EU6 .8 Billion
2013-03-15T11:05:10Z,ECB,Says,Banks
2013-03-15T11:14:25Z,Carlye,Adds,Three Executives
2013-03-15T11:15:02Z,China,Curb,Emissions
2013-03-15T11:16:09Z,2nd Day,Fall as,Inflation
2013-03-15T11:16:09Z,Zloty,Weakens,Bond Yields Fall
2013-03-15T11:16:56Z,Austerity Measures,in,Europe
2013-03-15T11:33:48Z,Higher Reserves,Spur,Cash
2013-03-15T11:33:48Z,Reserves,Spur,Cash
2013-03-15T11:39:49Z,Fed Funds,Open Within,Target Range
2013-03-15T11:47:33Z,European Leaders,Loosen,Austerity Demands
2013-03-15T11:47:33Z,Leaders,Loosen,Austerity Demands
2013-03-15T12:00:01Z,Inflation,Stays Below Target Mid-Point for,Fifth Month
2013-03-15T12:00:01Z,Israeli Inflation,Stays Below Target Mid-Point for,Fifth Month
2013-03-15T12:05:07Z,Aramco Seen Booking,Take,Crude
2013-03-15T12:05:07Z,Saudi Aramco Seen Booking,Take,Crude
2013-03-15T12:10:10Z,ABB CEO,Awarded,Million
2013-03-15T12:24:36Z,Greek Terna Mulls Gas-Fired Thermal Plant,in,Serbia
2013-03-15T12:26:29Z,Romania Leu,Set Since,July
2013-03-15T12:27:23Z,UEFA,Says,Player Trading Funds Risk Soccer Match Manipulation
2013-03-15T12:30:00Z,Canadian Household Debt-to-Income Ratio,Record,165 %
2013-03-15T12:30:00Z,Factories,in,March
2013-03-15T12:30:00Z,Household Debt-to-Income Ratio,Record,165 %
2013-03-15T12:30:00Z,U.S. Corn,Forecast at,Allendale
2013-03-15T12:37:07Z,Tourism Gains,May Ease,Recession
2013-03-15T12:49:06Z,Consumer Prices,in,U.S. Increase on Jump
2013-03-15T12:49:06Z,Jump,in,Gasoline Cost
2013-03-15T12:58:02Z,Half,Lose,Power
2013-03-15T12:58:02Z,Local Power,in,Detroit Takeover
2013-03-15T13:00:03Z,JPMorgan,Pay Fueled Risk Amid,London Whale Loss
2013-03-15T13:03:18Z,Floating Power Plant Operator,Sues,Pakistan
2013-03-15T13:03:18Z,Power Plant Operator,Sues Pakistan as,Ships Stay Idle
2013-03-15T13:03:57Z,Baltics,Solve,Dispute Over Cross-Border Power Flows in Nord Pool
2013-03-15T13:03:57Z,Cross-Border Power Flows,in,Nord Pool
2013-03-15T13:04:36Z,Schroder,Gets,$ 200 Million Canada Life Loan
2013-03-15T13:27:26Z,Profit,Exceeds,Estimates
2013-03-15T13:27:30Z,Russia Central Bank ’s GDP View,Dims as,Rates Kept
2013-03-15T13:37:16Z,Abe,Says,Preparing
2013-03-15T13:37:16Z,Seoul Summit,With,China
2013-03-15T13:38:34Z,BMO Cuts CEO Downe,Pay,6.8 %
2013-03-15T13:45:43Z,Stifel,Acquire Fixed-Income Group From,Knight
2013-03-15T13:50:05Z,Grain Crop Forecast,Raised to,89 Million Tons
2013-03-15T13:50:05Z,Russian Grain Crop Forecast,Raised to,89 Million Tons
2013-03-15T13:51:47Z,Mexico Peso,Set as,S&P Spurs Rally
2013-03-15T13:53:50Z,Patriots,Add,Ex-Jets Kickoff Return Specialist Leon Washington
2013-03-15T13:59:53Z,Consolidated Water Profit,Rises,52 %
2013-03-15T14:00:24Z,Kobe Bryant,Was,Fouled
2013-03-15T14:00:41Z,Clarus,Hires Ex-Canaccord Genuity Analyst Ofir for,Technology
2013-03-15T14:01:37Z,U.S. Treasury,Seeks,Position Reports
2013-03-15T14:04:21Z,Bondholder Losses,in,Cyprus Aid Package
2013-03-15T14:04:21Z,Juncker,Warns Against,Bondholder Losses
2013-03-15T14:05:16Z,Republican Senator Portman,Now Backs,Same-Sex Marriage
2013-03-15T14:05:54Z,Juventus,in,Champions League
2013-03-15T14:11:01Z,Treasuries Rise First Time,in,3 Days
2013-03-15T14:15:50Z,Consumer Sentiment,in,U.S. Falls to Lowest Point
2013-03-15T14:17:09Z,ACLU,Wins Reversal on,CIA Drone Information Bid
2013-03-15T14:32:25Z,Airbus,Wins,$ 9.3 Billion Turkish Airlines Deal for A320 Jets
2013-03-15T14:40:58Z,U.S. Stocks,Fall as,Pound Gains on BOE
2013-03-15T14:40:59Z,Treasuries Rise First Time,in,3 Days
2013-03-15T14:52:14Z,Juventus,in,Champions League Quarterfinals
2013-03-15T14:52:19Z,We,Should Rip Banks in,Two
2013-03-15T14:56:40Z,New York Jets,Sign,Former Raiders
2013-03-15T15:00:45Z,Your,Self-Assumptions,Challenge
2013-03-15T15:05:05Z,United Technologies CEO,Sees,Profit Intact
2013-03-15T15:06:41Z,India ’s Sugar Production,Raised by,Association
2013-03-15T15:11:15Z,Naira,Snaps,Five-Day Decline
2013-03-15T15:11:54Z,European Stocks,Decline as,EU Leaders Meet
2013-03-15T15:11:54Z,Stocks,Decline as,EU Leaders Meet
2013-03-15T15:20:31Z,6.2 %,in,January
2013-03-15T15:22:15Z,Bond Tax Exemption Seen,Proposals for,Curbs
2013-03-15T15:22:15Z,Municipal Bond Tax Exemption Seen,Proposals for,Curbs
2013-03-15T15:25:36Z,Cradle,Offers,Kenyans Three Centuries
2013-03-15T15:25:53Z,Nasdaq,Expands Amid,Energy Derivatives Overhaul
2013-03-15T15:27:24Z,Angola Minister,Says,Oil Will Stay
2013-03-15T15:36:08Z,$ 3 Billion Cost,Cuts,Steel Recovers
2013-03-15T15:36:08Z,$ Billion Cost,Cuts,Steel Recovers
2013-03-15T15:36:08Z,Billion Cost,Cuts,Steel Recovers
2013-03-15T15:36:41Z,Bear Stearns Class Certification Overturned,in,Sterling Case
2013-03-15T15:41:30Z,Tight End Keller Signs,With,Dolphins
2013-03-15T15:42:41Z,Cocoa Sellers,Seek,Higher Premium
2013-03-15T15:46:20Z,Romania ’s Currency,Heads for,Weekly Decline
2013-03-15T15:48:26Z,Italian Parliament,Faces,Gridlock
2013-03-15T15:48:26Z,Parliament,Faces,Gridlock
2013-03-15T15:50:13Z,Ford,Settles,Genk Plan
2013-03-15T15:53:10Z,U.S. 10-Year Note Shortage,Eases as,Treasury Seeks Holding Data
2013-03-15T15:53:10Z,U.S. Note Shortage,Eases as,Treasury Seeks Holding Data
2013-03-15T15:53:27Z,Risk Remark,Was,Error
2013-03-15T15:53:50Z,JPMorgan ’s Bacon,Says,Onus
2013-03-15T15:56:50Z,RenCap,Retain,Staff
2013-03-15T15:59:32Z,Chile Peso,Reached Highest in,20 Years
2013-03-15T16:00:00Z,Fed,Remits,$ 88.4 Billion
2013-03-15T16:00:00Z,IMF,Urges Forceful Action to,Repair EU Bank System
2013-03-15T16:00:00Z,Treasury,in,Audited Financial Report
2013-03-15T16:10:02Z,Menendez,Welcomes,Review
2013-03-15T16:11:18Z,Egyptians March,in,Port Said
2013-03-15T16:12:36Z,Lower Income,to Cuts,Funds
2013-03-15T16:16:29Z,Apple Flaws,Identified in,China State TV Program
2013-03-15T16:23:29Z,Bayer,Sues Glenmark for,Rosacea Drug Finacea
2013-03-15T16:23:31Z,Ally Financial,Obtains Billion Credit Line for,Auto Assets
2013-03-15T16:24:32Z,Gamesa,Wins,Iberdrola Contracts
2013-03-15T16:33:19Z,Bovespa Index,Set as,Earnings Miss Sinks MRV
2013-03-15T16:35:10Z,Demand,Slows on,Treasuries
2013-03-15T16:35:10Z,Foreign Demand,Slows on,Treasuries
2013-03-15T16:35:36Z,Canada,Stocks,Rise
2013-03-15T16:36:44Z,Empire State Building Holders,Supporting,IPO
2013-03-15T16:40:51Z,Eagles,Training,Camp
2013-03-15T16:40:57Z,Bond Sales,Reach,Billion
2013-03-15T16:40:57Z,Corporate Bond Sales,Reach,$ 34 Billion
2013-03-15T16:50:24Z,FTSE,Retreats From,Five-Year High
2013-03-15T16:50:24Z,FTSE 100,Retreats From,Five-Year High
2013-03-15T16:53:10Z,Vehicle Fuel Economy,Has U.S. Gain Since,1975
2013-03-15T16:57:15Z,Nickel Financing,Hoovering Up,Supplies
2013-03-15T17:02:55Z,Gambling Commission,Looking at,Soccer Betting
2013-03-15T17:05:58Z,Exillon,Jumps in,Russian Oil Reserves
2013-03-15T17:11:13Z,Repsol May,Consider Shale Asset Swap as,YPF Compensation
2013-03-15T17:15:25Z,Natural Gas,Rises to,High
2013-03-15T17:20:34Z,Rio,Retrieve,Executive Bonuses
2013-03-15T17:20:48Z,Carrillo Huettel,Sued for,Fraud
2013-03-15T18:09:00Z,Hercules Offshore Wins Court Ruling,in,Say Pay
2013-03-15T18:13:46Z,Carbon,Has Weekly Fall Amid,Surplus Debate
2013-03-15T18:21:21Z,Chicago Gas,Reaches,High
2013-03-15T18:21:21Z,Plant Work,Dims,Supply
2013-03-15T18:24:11Z,Surprise Drop,in,U.S. Consumer Confidence
2013-03-15T18:28:53Z,Quebec,Sees,Spring Decision
2013-03-15T18:32:22Z,Anji Reddy,Founder of,Dr. Reddy ’s Laboratories
2013-03-15T18:32:22Z,Dr. Reddy,of,Laboratories
2013-03-15T18:49:35Z,Gold,Rises on,Physical Metal Demand
2013-03-15T18:54:13Z,Cotton,Jumps to,11-Month High
2013-03-15T19:02:30Z,Horse-Slaughter Plant ’s Lawyer,Says,Opening Three Weeks Away
2013-03-15T19:08:08Z,Natural Gas May Gain,Boosts,Fuel Use
2013-03-15T19:18:01Z,NYC Police,Seek,Man
2013-03-15T19:27:27Z,Detroit Outlook,Raised,Emergency Manager Named
2013-03-15T19:31:22Z,SAC Hedge Fund Unit ’s Horvath,Tipped,Two People
2013-03-15T19:33:41Z,Cincinnati Parking Privatization Opponents,Seek,Vote
2013-03-15T19:34:58Z,Manhattan,at,Whitman
2013-03-15T19:35:34Z,Great-West Awarded Loney,in,2012
2013-03-15T19:44:28Z,El-Erian,Say,Fed Central Banks
2013-03-15T19:44:28Z,Fed Central Banks,Ease,Policy
2013-03-15T19:44:28Z,Fed Forced Central Banks,Ease,Policy
2013-03-15T19:46:03Z,House Bill,Would Route Keystone Pipeline Around,Obama
2013-03-15T19:50:47Z,CEO Carrion,Picked as,New York Fed Board Director
2013-03-15T19:55:19Z,ICE Cocoa-Rule Shift,Widens May-July Spread to,Most
2013-03-15T20:01:10Z,BRICs,Abandoned by,Locals
2013-03-15T20:02:32Z,Jets,Add,Cut Club-Level Ticket Prices
2013-03-15T20:04:32Z,Water Losses,in,India Cut
2013-03-15T20:04:55Z,Natural Gas,Rises to,High
2013-03-15T20:09:02Z,U.S. Stocks,Fall on,Consumer Confidence Data
2013-03-15T20:15:58Z,Vivendi,Halts Sale After,Unsatisfactory Bids
2013-03-15T20:23:00Z,North Dakota,Passes,Earliest U.S. Abortion Limit
2013-03-15T20:23:55Z,Maryland Execution Ban,Passes as,States End Killings
2013-03-15T20:26:05Z,JPMorgan,Sees,Home Prices
2013-03-15T20:29:07Z,Yankees ’ Sabathia,Allows,Two Runs
2013-03-15T20:30:11Z,New York Times,Reorganizes,Staff Into Three New Groups
2013-03-15T20:32:33Z,Gasoline Advances,Narrowing,Weekly Loss
2013-03-15T20:32:41Z,SandRidge ’s Grubb,Keeps Basketball Floor Seats After,Termination
2013-03-15T20:34:16Z,Gas Rigs,in,U.S. Surge
2013-03-15T20:36:52Z,Geo,Drop on,Mexico ’s IPC Benchmark
2013-03-15T20:36:52Z,Mexico,on,IPC Benchmark
2013-03-15T20:37:07Z,ACLU Suit,Revived by,Appeals Court
2013-03-15T20:39:36Z,J.C. Penney,Loses,Caribou Coffee Cafes
2013-03-15T20:39:42Z,787 Flights,Resuming in,Weeks Battery
2013-03-15T20:39:42Z,Boeing,Sees,787 Flights
2013-03-15T20:41:02Z,Rosetta,Buys,Permian Land
2013-03-15T20:42:51Z,CFR Falls,in,Chile
2013-03-15T20:55:36Z,Deutsche Bank Suspends Exchange-Traded,Note Issuance Until,April
2013-03-15T20:56:38Z,Latvia,Raised to,Baa2
2013-03-15T21:00:49Z,Cotton Prices,Jump,Highest in 11 Months
2013-03-15T21:06:30Z,Ethanol,Slips,Versus Gasoline
2013-03-15T21:09:44Z,Oppenheimer,Sues,Canadian Imperial
2013-03-15T21:15:01Z,Treasuries Gain,in,Three Days
2013-03-15T21:34:52Z,Dow Average,Snaps,Rally
2013-03-15T21:40:06Z,N.Y. Synagogue Terror Plotter Ferhani,Gets,10-Year Term
2013-03-15T21:53:13Z,Facebook,Appoints,Mike Schroepfer
2013-03-15T21:58:04Z,Gates,Chases,Slim
2013-03-15T21:58:04Z,World ’s Wealthiest,Lose,Billion
2013-03-15T22:01:00Z,Former TV Talk Show Host,Gets,Finance Portfolio
2013-03-15T22:13:16Z,Pentagon,Clears Sierra Nevada-Embraer Work After,Protest
2013-03-15T22:19:40Z,THX,Sues,Apple
2013-03-15T22:35:24Z,Asian Stocks,Advance for,Week
2013-03-15T22:35:24Z,Fourth Week,for Advance,BOJ
2013-03-15T22:35:24Z,Stocks,Advance on,U.S. Jobs
2013-03-15T22:53:37Z,Texas,Challenges,Permit Ban Protecting Endangered Cranes
2013-03-15T23:01:00Z,Euro Ministers,Push After,Merkel Demand
2013-03-15T23:51:55Z,Drones,of Use,Transcript
2013-03-15T23:51:55Z,McCarthy,Urges,Subpoena on Obama Use
2013-03-16T00:00:01Z,European Stocks,Gain for,Fourth Week
2013-03-16T00:00:01Z,Stocks,Gain for,Fourth Week
2013-03-16T02:30:00Z,Jeb Bush,Says,Republicans
2013-03-16T04:00:01Z,Faster Change,in,Cuba Post-Chavez
2013-03-16T04:00:01Z,Gain,in,Week
2013-03-16T04:00:01Z,House,Should,Subpoena Documents on Drones
2013-03-16T04:00:01Z,Kissinger,Sees Hope for,Mideast Peace
2013-03-16T04:00:01Z,McCarthy,Says,House
2013-03-16T04:00:01Z,Yoani Sanchez,Sees,Faster Change
2013-03-16T04:00:03Z,Buffett,Reaps,$ 102 Million
2013-03-16T04:01:00Z,Beacon Sheds Crummy Image,With,Galleries
2013-03-16T04:01:00Z,Boeing Boosted CEO,Pay,20 %
2013-03-16T04:01:00Z,NYU Faculty Votes No Confidence,in,Sexton
2013-03-16T04:01:00Z,Sigourney Weaver,Kills on,Broadway
2013-03-16T04:01:00Z,Smut Laws Jump,Started,Porn Biz
2013-03-16T04:01:01Z,AB Inbev,Judge for,More Time
2013-03-16T04:01:01Z,AMR CEO Horton ’s $ 20 Million Severance,Draws,Objection
2013-03-16T04:01:01Z,AMR CEO Horton ’s $ Million Severance,Draws,Objection
2013-03-16T04:01:01Z,AMR CEO Horton ’s Million Severance,Draws,Objection
2013-03-16T04:01:01Z,BP,Halt,Gulf Oil-Spill Settlement Payments
2013-03-16T04:01:04Z,Mets ’ David Wright,Is Out,Opening Day Status Uncertain
2013-03-16T04:01:15Z,Senate JPMorgan Report,Gives,SEC Road Map
2013-03-16T05:03:42Z,Ford Cuts,Falling,Short of Targets
2013-03-16T13:59:17Z,Portman ’s Support,Marriage,Political Evolution
2013-03-16T17:04:31Z,Zimbabweans,Vote on,New Constitution
