2013-03-08T00:00:00Z,Draghi Signals Economy,Must Worsen for,ECB
2013-03-08T00:00:00Z,Filthy Rich Ca Guarantee Love,in,Wry
2013-03-08T00:00:01Z,Draghi,With,Bernanke Vision
2013-03-08T00:01:00Z,Osborne Budget Cuts,Spending,Watchdog
2013-03-08T00:04:36Z,Toll,Buys Land,Build for Homebuyers
2013-03-08T00:10:31Z,Canada,Appoints,Sonia L’Heureux
2013-03-08T00:15:00Z,Austrian Banks,Rated on,Bad-Debt Charges
2013-03-08T00:15:00Z,Banks,Rated ’s,Moody
2013-03-08T01:01:00Z,Borrowers,Skirting,Voters Face Bond-Sale Crackdown
2013-03-08T01:51:05Z,2011 Lows,in,Australia
2013-03-08T01:51:05Z,Swaps Show Bond Risk,Falling to,2011 Lows Australia
2013-03-08T02:21:07Z,India,’s Swing,Losses on U.S. Data
2013-03-08T02:21:07Z,India ’s Nifty Futures Swing,Losses on,U.S. Data
2013-03-08T02:25:00Z,Sri Lanka,Holds,Rates
2013-03-08T02:35:37Z,Taiwan 10-Year Yield,Reaches Eight-Month High on,Growth Outlook
2013-03-08T02:39:58Z,Fourth Quarter,in,Boost
2013-03-08T02:39:58Z,Japan,Returned in,Fourth Quarter in Boost
2013-03-08T02:46:13Z,Hong Kong,Expects Air Pollution Over,Next Couple Days
2013-03-08T02:56:40Z,Rubber,Set,Yen Weakens
2013-03-08T02:56:40Z,Yen,Weakens to,Lowest
2013-03-08T03:00:00Z,3i Group,Agrees to,Purchase Brazil Eyeglass Seller Oticas
2013-03-08T03:00:49Z,Rebar Trades,in,Two Months as Output Increases
2013-03-08T03:12:22Z,Japan,’s Bonds,Survey
2013-03-08T03:22:04Z,Dow Jones Record-Setting Rally May,Be Near,Top
2013-03-08T03:23:40Z,$ 275 Million IPO,in,Hong Kong
2013-03-08T03:38:33Z,Mapletree REIT,Is Prepared for,Further Hong Kong Dollar Weakness
2013-03-08T04:13:32Z,Palm Oil,Set for,Weekly Gain
2013-03-08T04:14:13Z,Volatility,Rises as,Flows Imperiled
2013-03-08T04:45:16Z,Hong Kong Short Selling Turnover,Recorded,03/08/2013
2013-03-08T05:00:00Z,Courts,Keep,Bankers ’ Hours
2013-03-08T05:00:00Z,Outrage,Shows,Mistrust
2013-03-08T05:00:00Z,Republican Outrage,Shows,Mistrust of Cuts
2013-03-08T05:00:00Z,Sequestration,Hits,Law
2013-03-08T05:00:01Z,Noma 's Co-Owner Thinks Bolivian Food,Is,Big Thing
2013-03-08T05:00:01Z,Obama,Faces,Bipartisan Pressure
2013-03-08T05:00:07Z,Icahn Unbound,Takes,Activism
2013-03-08T05:00:47Z,Rangers Beat Islanders 2-1,in,Overtime on Marian Gaborik Goal
2013-03-08T05:01:00Z,Gadget Makers,Seeking Twitter Fame Flock to,Texas
2013-03-08T05:01:00Z,Lauper,’s Boots,Deftones
2013-03-08T05:01:00Z,U.S. Commercial-Property Prices Seen,Rising Near,Peak
2013-03-08T05:01:01Z,Apple Ca Duck Giving Documents,in,Privacy Lawsuit
2013-03-08T05:01:07Z,Senate ’s Brown,Sees,Support for U.S. Bank Capital
2013-03-08T05:52:09Z,Standard Chartered,Leads Rise in,Note Sales
2013-03-08T06:01:54Z,Aussie Falls,Exceeds,Forecasts
2013-03-08T06:23:01Z,U.S. Researcher,on,Singapore Death
2013-03-08T06:43:02Z,Won,Fall After,North Korea Nuclear Threat
2013-03-08T07:18:06Z,Rwanda ’s Kagame,Pursues Investors With,Debut International Bond
2013-03-08T07:19:32Z,Copper,Set in,Four
2013-03-08T07:30:00Z,Factory Sentiment,Rises on,Global Demand
2013-03-08T07:30:00Z,French Factory Sentiment,Rises on,Global Demand
2013-03-08T07:44:27Z,China ’s Chen,Warns as,Yen Slumps
2013-03-08T07:52:59Z,Shipment Data,After Decline,Capping Weekly Loss
2013-03-08T07:56:49Z,Pound,Set for,Weekly Drop Versus Dollar
2013-03-08T08:00:46Z,Anwar,Predicts,Minimum 10-Seat Majority
2013-03-08T08:01:59Z,Kenyan Shilling,Gain as,Presidential Vote Result
2013-03-08T08:06:10Z,GM Dealer,Apologize After,Death
2013-03-08T08:08:34Z,Hungary ’s Recession,Deepens on,Agriculture Output
2013-03-08T08:08:37Z,China ’s Export Surge,Helps,New Leaders Sustain Rebound
2013-03-08T08:12:57Z,South Africa,Body in,Talks
2013-03-08T08:12:57Z,Sugar Body,in,Talks
2013-03-08T08:21:48Z,China,Drives,Record Solar Growth Becoming
2013-03-08T08:29:56Z,Hanergy,Sees,Thin-Film Solar Gaining Market Share
2013-03-08T08:48:04Z,Bonds,Set for,Week
2013-03-08T08:48:04Z,Philippine Bonds,Set for,Best Week
2013-03-08T08:53:49Z,10-Year Bonds,Leaving,Yield
2013-03-08T08:53:49Z,Bonds,Leaving,Yield
2013-03-08T08:53:49Z,Spanish 10-Year Bonds,Leaving,Yield
2013-03-08T08:53:49Z,Spanish Bonds,Erase,Gains
2013-03-08T09:00:00Z,Lithuanian Inflation Slowest,in,29 Months
2013-03-08T09:02:10Z,Vueling,Says,British Airways Owner ’s Bid Too Low
2013-03-08T09:10:15Z,Euro,Percent to,87.10 Pence
2013-03-08T09:15:07Z,Hong Kong Stocks,Rise to,U.S.
2013-03-08T09:15:08Z,Iceland Economy,Grew,0.5 % Quarter
2013-03-08T09:21:31Z,Xstrata ’s Davis,Said to,Plan Mine Fund
2013-03-08T09:25:48Z,DNB,Raises Norway Lending Rates to,Counter Tougher Capital Rules
2013-03-08T09:33:28Z,$ 11.3 Billion,in,Inflation-Linked Debt
2013-03-08T09:33:28Z,Households,Owe,$ 11.3 Billion
2013-03-08T09:33:28Z,Icelandic Households,Owe,$ 11.3 Billion in Inflation-Linked Debt
2013-03-08T09:35:55Z,China ’s Chen,Expresses,Concern
2013-03-08T09:35:55Z,Japan ’s Nakao,Defends,Easing
2013-03-08T09:37:17Z,Pakistan Telecom,Leads,Declines
2013-03-08T10:44:25Z,Goldman,Raises Forecast for,Commodities
2013-03-08T10:48:16Z,Bond Defaulter Suzlon,Hires Banks for,Sale of Notes
2013-03-08T10:50:49Z,Spain 10-Year Yield Drops,Lowest Since,November 2010
2013-03-08T11:01:20Z,Tin Exports,in,Three Months
2013-03-08T11:18:31Z,Roubini,Say on,Austerity
2013-03-08T11:23:03Z,Lagarde,Says,IMF Open Minded on Irish Exit Bailout Concessions
2013-03-08T11:24:10Z,Chilean Prices,Increased,Less-Than-Forecast 0.1 %
2013-03-08T11:24:10Z,Prices,Increased,Less-Than-Forecast 0.1 %
2013-03-08T11:29:38Z,May,Pay,Higher Dividend
2013-03-08T11:41:01Z,Colombian Workers,Accept,Wage Offer
2013-03-08T11:41:01Z,Workers,Accept,Wage Offer
2013-03-08T11:48:45Z,Britam,Surges,Record
2013-03-08T11:57:59Z,Evil Pope Raped Pilgrims,in,St. Peter ’s Basilica
2013-03-08T11:57:59Z,St. Peter,in,Basilica
2013-03-08T11:59:52Z,Best Week,in,Two Months on Inflow Optimism
2013-03-08T11:59:52Z,India ’s Rupee,Has,Week in Two Months
2013-03-08T12:05:56Z,Regional,Divide in,Oil-Bill Debate
2013-03-08T12:09:06Z,Treasuries,Head for,Weekly Decline
2013-03-08T12:15:16Z,Oliver Dobbs,Joins,BlueCrest
2013-03-08T12:16:10Z,Fed Funds Projected,Open at,0.16 ICAP Says
2013-03-08T12:21:39Z,Coffee,Capped,Brazil Delivery Starts
2013-03-08T12:34:04Z,Czechs,Seek,4G Terms
2013-03-08T12:35:58Z,Fitch,Raises,Thailand Credit Rating
2013-03-08T12:48:30Z,Berlin Airport,Gets,New Chief
2013-03-08T12:48:30Z,Troubled Berlin Airport,Gets New Chief,Prestige Project Slips
2013-03-08T13:01:45Z,Windreich Office,Raided on,Suspicion of Balance Sheet Fraud
2013-03-08T13:17:17Z,Canadian Dollar,Fluctuates Before,Unemployment-Rate Reports
2013-03-08T13:17:17Z,Dollar,Fluctuates Before,Unemployment-Rate Reports
2013-03-08T13:19:54Z,PSG ’s $ 164 Million,in,Miscellaneous Income
2013-03-08T13:20:43Z,Asha Deal,Boosts,Sale Options
2013-03-08T13:37:54Z,Hunger,by Penalty,Cannata
2013-03-08T13:51:47Z,Naira,Eases as,Central Bank T-Bill Payouts Boost Dollar Demand
2013-03-08T13:58:52Z,ECB Rate Cut,Favored by,Kaasik Says
2013-03-08T14:01:02Z,BMW,Regains,Sales Lead From Audi
2013-03-08T14:01:02Z,Sales,Lead From,Audi
2013-03-08T14:02:45Z,Diarrhea,Hits,Eatery
2013-03-08T14:23:43Z,Bill Clinton,Urges,Supreme Court
2013-03-08T14:24:50Z,Siauliu Bankas Rallies,in,Five Years
2013-03-08T14:32:30Z,Bullard,Sees Fed Continuing Bond Buying as,Inflation Stable
2013-03-08T14:33:20Z,Exelon,on,Clinton 1 Reactor Trip
2013-03-08T14:34:40Z,Lawyers,Seek Delay to,Sex Trial
2013-03-08T14:43:47Z,Civilian Contractor Shot Dead,in,Eastern Afghanistan
2013-03-08T14:43:47Z,ISAF,Says,Civilian Contractor Shot Dead in Eastern Afghanistan
2013-03-08T14:57:07Z,Barclays CEO,Paid,Million
2013-03-08T15:06:48Z,U.S. Stocks,Pare Gain After,Jobs Data Pushed S&P 500 Near Record
2013-03-08T15:13:58Z,Lukoil Billionaire Fedun,Sees,Damage Countered
2013-03-08T15:14:56Z,Marcus,Decline Against,Dollar Overdone
2013-03-08T15:18:48Z,Wholesale Inventories,in,U.S. Increase
2013-03-08T15:27:08Z,Corporate Bond Sales Decline,in,U.S.
2013-03-08T15:33:15Z,Election,Hovers Near,Runoff Cutoff
2013-03-08T15:33:15Z,Kenya ’s Kenyatta,Leads,Hovers Near Runoff Cutoff
2013-03-08T15:33:24Z,Jobs-Data Analysis,in,Age of Social Media
2013-03-08T15:34:00Z,Gross,Whipsawed as,Colombia Giveth
2013-03-08T15:34:49Z,Renault,Gets,Third Union ’s Backing
2013-03-08T15:35:22Z,Czechs,Cancel 4G Auction as,Excessive Bids
2013-03-08T15:37:38Z,Soybeans,Gain as,USDA Report
2013-03-08T15:38:30Z,Unilever CEO Polman,Gets,6 Million Pounds
2013-03-08T15:43:10Z,Interview,with,Antonio Bandeira
2013-03-08T15:44:09Z,Krueger,Says,Jobs Growth
2013-03-08T15:45:20Z,Court,Extends Detention by,Three Months
2013-03-08T15:45:20Z,Serbia,for,Richest Man
2013-03-08T15:48:38Z,Ex-BOE Deputy Governor Gieve,Expects Changes to,Inflation Remit
2013-03-08T15:51:39Z,Congo ’s Katanga Province,in,Humanitarian Crisis
2013-03-08T16:00:01Z,China,Agreement to,$ 48 Billion
2013-03-08T16:00:01Z,China Gold Imports,in,Four Months
2013-03-08T16:01:47Z,Schrager,Says,Miami Condo Demand Surging
2013-03-08T16:04:07Z,EU,Is,Urged
2013-03-08T16:04:07Z,Mechanism,Protect,Basic Values
2013-03-08T16:08:10Z,HTC,Wins,Dismissal of First Two German Nokia Patent Suits
2013-03-08T16:10:29Z,Offshore Cash Hoard,Expands at,Companies
2013-03-08T16:11:37Z,Argentine Court,Finds Ex-President Menem Guilty on,Arms Charges
2013-03-08T16:11:37Z,Court,Finds Ex-President Menem Guilty on,Arms Charges
2013-03-08T16:31:08Z,U.K. Public Officials Plead Guilty,in,News Corp
2013-03-08T16:48:12Z,Brent Crude,Leads,Decline
2013-03-08T16:56:24Z,Accused Colorado Shooter,Loses,Challenge
2013-03-08T16:58:20Z,Bumi Resources Directors,Resign as,Bakries Plan London Exit
2013-03-08T17:00:08Z,Demand,Rises in,Asia
2013-03-08T17:00:08Z,Reduced Crop,in,Argentina
2013-03-08T17:00:08Z,U.S. Wheat-Supply Estimate,Raised as,Export Forecast Declines
2013-03-08T17:00:08Z,World Cotton-Surplus Estimate,Lowered,Demand Rises in Asia
2013-03-08T17:01:50Z,Zachodni,Sparks,Talk of Stokrotka Sale
2013-03-08T17:05:37Z,ThyssenKrupp Chairman,Quits as,Company Breaks
2013-03-08T17:08:25Z,Rapid-American Files Bankruptcy,Citing,Asbestos Liability
2013-03-08T17:15:02Z,OTP Bank,Rises,Day
2013-03-08T17:15:52Z,EU Approval,Take,Sole Control
2013-03-08T17:15:52Z,Rosneft,Wins,EU Approval
2013-03-08T17:16:38Z,Talks,in,Tanzania Telecom
2013-03-08T17:19:19Z,Local Sales,Come to,Stop
2013-03-08T17:19:19Z,Sales,Come to,Stop
2013-03-08T17:22:09Z,Cameco,Says,Chairman Zaleschuk
2013-03-08T17:22:09Z,Chairman Zaleschuk,Step Down at,Annual
2013-03-08T17:26:43Z,Syniverse,Gets,EU Objections Over Mach Phone-Services Deal
2013-03-08T17:27:54Z,Copper Traders,Diverge From,Hedge Funds
2013-03-08T17:28:35Z,Big East,Reaches Exit Agreement With,Seven Basketball Schools
2013-03-08T17:29:31Z,Swansea,Coach,Michael Laudrup Signs Extension
2013-03-08T17:34:45Z,Brazil,Puts Up,Funds
2013-03-08T17:40:50Z,Crude Volatility,Slips as,Futures Trade in Narrow Range
2013-03-08T17:40:50Z,Futures Trade,in,Narrow Range
2013-03-08T17:40:50Z,Volatility,Slips as,Futures Trade
2013-03-08T17:40:56Z,Inmet,in,Constructive Discussions Sell
2013-03-08T17:41:58Z,Barclays,Considers Auditor Change With,PwC
2013-03-08T17:46:39Z,Safran Cut Currency Hedging,in,Fourth Quarter
2013-03-08T17:47:10Z,Senior Solution,Slumps After,Pricing Shares
2013-03-08T17:47:10Z,Solution,Slumps After,Pricing Shares
2013-03-08T17:49:06Z,Gulf Coast Gasoline,Weakens as,Valero Finishes Turnaround
2013-03-08T17:53:24Z,Troll Exports,Said to,Rise
2013-03-08T17:57:40Z,Italy ’s Rating Cut,May Deepen,Slump
2013-03-08T18:07:20Z,RBS,Paid,95 Bankers More Than 1 Million Pounds
2013-03-08T18:12:59Z,FDIC Funds,Cover,IndyMac Liability
2013-03-08T18:12:59Z,MBIA,Get,FDIC Funds
2013-03-08T18:22:37Z,Mexico,Cuts Key Rate Since,2009
2013-03-08T18:25:14Z,Bank,Raises Forecast in,Home Prices
2013-03-08T18:26:32Z,Nikkei,Recovers Lehman Losses as,Yen ’s Tumble Fuels Advance
2013-03-08T18:26:32Z,Nikkei 225,Recovers,Lehman Losses
2013-03-08T18:26:32Z,Yen,as,Tumble Fuels Advance
2013-03-08T18:30:00Z,Clegg,Says,Liberal Democrats Handled Sex-Harassment Claims
2013-03-08T18:36:21Z,RBC,Hire,Oplinger
2013-03-08T18:46:21Z,Copper,Slips as,China Imports Decline
2013-03-08T19:25:12Z,Brazil,in,BR Towers
2013-03-08T19:25:12Z,GIC Said Purchasing Stake,in,Brazil ’s BR Towers
2013-03-08T19:26:23Z,Chavez State Funeral,Draws,Ahmadinejad
2013-03-08T19:26:23Z,Tearful Chavez State Funeral,Draws,Ahmadinejad
2013-03-08T19:28:00Z,Gross,Raises U.S. Economic Growth Forecast to,3 %
2013-03-08T19:30:14Z,2012 Revenue Fell,in,Output
2013-03-08T19:30:14Z,Gabon ’s Comilog,Says,2012 Revenue Fell in Output
2013-03-08T19:30:53Z,Housing Rebound,Is,Providing Bigger Boost to U.S. Labor Market
2013-03-08T19:33:01Z,Colombia,Cites,Inflation Risk in Rate Cut
2013-03-08T19:33:01Z,Risk,in,Rate Cut
2013-03-08T19:42:58Z,Brent Output Increase,Narrows Spread to,WTI
2013-03-08T19:49:29Z,CBOE,NYSE To,Trade Russell Index Equity Options
2013-03-08T19:55:36Z,Billionaire,Helps,Billionaire
2013-03-08T20:00:10Z,Nortel U.K. Retirees,Lose,Bid
2013-03-08T20:02:30Z,U.S. Jobless Rate,Remains Above,Fed Target
2013-03-08T20:05:51Z,Colombia Peso Posts,in,2013
2013-03-08T20:08:42Z,Canada Heavy Oil,Jumps,Most
2013-03-08T20:16:24Z,WTI Oil,Rises in,Month
2013-03-08T20:35:09Z,Urbi Bonds Tumble,Have,Missed Loan Payment
2013-03-08T21:05:29Z,NextEra,Hires,Suntech ’s Beebe
2013-03-08T21:14:46Z,MetLife,Leads Insurer Rally,Rates Climb on Jobs Report
2013-03-08T21:14:46Z,Rates,Climb on,Jobs Report
2013-03-08T21:15:40Z,Oz,Test With,Updated Classic
2013-03-08T21:16:56Z,777 Upgrade,Urged by,Airlines
2013-03-08T21:16:56Z,Boeing,Nears,777 Upgrade Urged by Airlines
2013-03-08T21:18:50Z,Buffett,Adds,Eagle Capital ’s Witmer
2013-03-08T21:19:04Z,TripAdvisor,Rises Amid,Advertising Bidding War
2013-03-08T21:19:22Z,Ethanol,Trails Gasoline,Record
2013-03-08T21:20:36Z,Gas Rigs,Drop as,Drilling Declines
2013-03-08T21:21:37Z,Spinoff,Starts With,Billion
2013-03-08T21:22:06Z,Tesla,Repay,U.S. Loans
2013-03-08T21:27:52Z,Gold Shuns M&A,Avoid,Barrick ’s Plight
2013-03-08T21:40:18Z,S&P,Climbs After,Employment Report
2013-03-08T21:40:18Z,S&P 500,Climbs After,Employment Report
2013-03-08T21:48:19Z,Rupee,Sees Asia Gain on,Korean Threat
2013-03-08T21:49:45Z,Wells Fargo,Hits,Buffett Stake
2013-03-08T21:57:51Z,SNC Forecast,Trails,Estimates
2013-03-08T22:00:22Z,Geo,Slump on,Loan Plan Skepticism
2013-03-08T22:04:51Z,CFTC ’s Berkovitz,Steps,Down as Top Swaps Regulations Lawyer
2013-03-08T22:05:43Z,MetLife,Leaving,Citi
2013-03-08T22:08:27Z,Dollar,Hits,2009 High Versus Yen
2013-03-08T22:08:27Z,U.S. Jobs Gain,Tops,Forecast
2013-03-08T22:10:39Z,Barclays ’s Cox,Stepping,Down
2013-03-08T22:15:44Z,Treasury Yields,Rise to,High
2013-03-08T22:29:10Z,Scotiabank,Raises,Waugh ’s Pay
2013-03-08T22:31:13Z,Canadian Stocks,Rise as,Jobs Reports Bolster Energy
2013-03-08T22:31:13Z,Stocks,Rise as,Jobs Reports Bolster Energy
2013-03-08T22:40:52Z,Dow,Hits,All-Time High
2013-03-08T22:40:52Z,World ’s Richest,Add,Billion
2013-03-08T22:48:49Z,Corning,Pays,$ 5.65 Million
2013-03-08T22:51:56Z,Goldman,’s Energy,Bank Stocks
2013-03-08T22:57:16Z,Treasury Yields,Jump With,Dollar on Jobs
2013-03-08T23:00:00Z,ThyssenKrupp Chairman Exit Unshackles CEO,in,Push for New Start
2013-03-08T23:00:01Z,Cardinals,Set for,Start of Vote
2013-03-08T23:09:30Z,Foods,Genetically Modified,Food Labels
2013-03-08T23:09:30Z,Whole Foods,Genetically Modified,Food Labels
2013-03-08T23:13:05Z,SandRidge Investors Win Injunction,in,Proxy Fight Case
2013-03-08T23:14:07Z,Chesapeake,Sues BNY Mellon Over,Billion
2013-03-08T23:22:07Z,Fed,Sees,JPMorgan Overvaluing Capital Strength
2013-03-08T23:27:53Z,California,Considering,25 Projects
2013-03-08T23:28:28Z,Goldman Request,Drop,Independent Chairman Proposal
2013-03-08T23:28:28Z,SEC,Denies,Goldman Request
2013-03-08T23:32:02Z,Apple CEO Tim Cook May Testify,in,E-Books Antitrust Suit
2013-03-08T23:47:47Z,Japan,Recovers,Lehman Losses
2013-03-09T00:00:01Z,European Stocks,Post Weekly Rally in,Two Months
2013-03-09T00:00:01Z,European Stocks Post,in,Two Months
2013-03-09T00:00:01Z,Stocks,Post,Weekly Rally
2013-03-09T00:20:04Z,Apple,Loses Bid to,Dismiss Data Collection Privacy Suit
2013-03-09T02:00:00Z,Women Crusaders,Absent at,Awards Event Highlight Perils
2013-03-09T03:00:00Z,Rousseff,Eliminates Brazil Federal Food Taxes to,Stem Inflation
2013-03-09T05:00:01Z,Bernanke,Saying,Jobs Show Stimulus Gains
2013-03-09T05:00:01Z,Labor Secretary Said,Be,Justice ’s Perez
2013-03-09T05:00:01Z,Storm,Heading to,Sea
2013-03-09T05:00:22Z,White House,Said,Expect
2013-03-09T05:00:58Z,Job Gains,Ease,Urgency
2013-03-09T05:01:00Z,Accord,With,States Over Street View
2013-03-09T05:01:00Z,Korean-American Bank Hanmi ’s Talks,Said,Stall
2013-03-09T05:01:00Z,Pope Raped Pilgrims,in,St. Peter ’s Basilica
2013-03-09T05:01:00Z,St. Peter,in,Basilica
2013-03-09T05:01:01Z,Bin Laden Son-In-Law,Appears on,Terror Charge
2013-03-09T05:34:41Z,Woods,Leads After,36 Holes
2013-03-09T15:40:55Z,Hagel ’s Afghan Visit,Rocked by,Suicide Bomb Attacks
2013-03-10T16:00:01Z,Smartphones,Lift Tech Stocks in,ETF Jump
2013-03-11T00:39:03Z,Malaysia,for,Hwang-DBS
2013-03-11T14:36:48Z,Fugitive Fund Manager Stuffed Underwear,With,Cash
