2013-01-06T00:36:34Z,McChrystal Memoir,Cites,Friction
2013-01-06T01:30:51Z,NFL,of,AFC Playoffs
2013-01-06T01:30:51Z,Texans Top Bengals 19-13,in,1st Round of NFL ’s AFC Playoffs
2013-01-06T04:08:16Z,NFL,of,NFC Playoffs
2013-01-06T04:08:16Z,Packers Defeat Vikings 24-10,in,Round One of NFL ’s NFC Playoffs
2013-01-06T04:08:29Z,Australia,Provides,Aid
2013-01-06T05:00:00Z,Christie,Stands by,Comeback
2013-01-06T05:00:01Z,Anthony,Scores,40 Points
2013-01-06T05:00:01Z,College Football,in,Compass Bowl
2013-01-06T05:00:01Z,I,’ll Have,Wise Dan Vie for Horse of Year
2013-01-06T05:00:01Z,Mississippi Routs Pittsburgh,in,College Football ’s Compass Bowl
2013-01-06T05:00:01Z,No. 5 Notre Dame,Defeats,Top-Ranked Connecticut Women
2013-01-06T05:00:01Z,No. Notre Dame,Defeats,Top-Ranked Connecticut Women
2013-01-06T05:00:46Z,National Football League Playoff,Schedule,Results
2013-01-06T05:01:04Z,Trade Gap,in,U.S.
2013-01-06T05:36:35Z,Duke,Gets Win in,80-62 Victory
2013-01-06T05:36:35Z,Undefeated Duke,Wake,Forest
2013-01-06T05:40:04Z,Texans,Win to,Advance
2013-01-06T08:31:48Z,HSBC U.A.E. Purchasing Index,Climbs to,19-Month High
2013-01-06T08:48:46Z,30 Miles,in,Recovery Plan
2013-01-06T09:02:20Z,SodaStream Surge,Extending to,JPMorgan U.S.
2013-01-06T09:51:49Z,China,Starts,Xinhua
2013-01-06T11:27:36Z,Millionaire,’s Navy,Times
2013-01-06T12:33:21Z,Egypt,Closes,Ports
2013-01-06T12:33:21Z,Ports,in,Suez
2013-01-06T12:52:31Z,90 %,by Costs,Times
2013-01-06T12:52:31Z,Barclays Cuts IT Costs,With,Internal Cloud
2013-01-06T12:52:31Z,Internal Cloud,With Costs,Times
2013-01-06T13:57:25Z,Interview,With,Alan Auerbach
2013-01-06T14:16:03Z,Lloyds Annual Bonuses,Capped for,Fourth Time
2013-01-06T14:16:03Z,Lloyds Bonuses,Capped for,Time
2013-01-06T14:44:39Z,Murray,Retains,Brisbane Tennis Title
2013-01-06T14:51:40Z,Cameron,Says,Year
2013-01-06T15:01:01Z,Japan Sushi Chain,Pays Record Million at,Auction
2013-01-06T15:05:22Z,Hirscher,Wins Slalom to,Overall World Cup Ski Standings
2013-01-06T15:22:23Z,2-2 Tie,in,F.A. Cup
2013-01-06T15:22:23Z,Arsenal,Set,Swansea
2013-01-06T15:47:00Z,Gunmen,Kill,7 During Mosque Prayers in Nigerian Villages
2013-01-06T15:47:00Z,Mosque Prayers,in,Nigerian Villages
2013-01-06T15:48:12Z,Depardieu Dines,With,Putin
2013-01-06T16:00:01Z,H1N1 Virus,in,Chinese Capital
2013-01-06T16:00:01Z,Solars Drive Steepest Jump,in,3 Months
2013-01-06T16:00:01Z,Two Women,Die From,H1N1 Virus
2013-01-06T16:00:01Z,Women,Die From,H1N1 Virus
2013-01-06T16:00:03Z,Maersk Wants Hong Kong,Fight,Smog
2013-01-06T16:16:53Z,Hagel,Would,Face Questions
2013-01-06T16:29:24Z,Brief Locals,to Shell,Coast Guard
2013-01-06T16:30:01Z,Chinatown Bus Crackdown,Makes,Winners
2013-01-06T17:29:20Z,Rockets,Suspend,White
2013-01-06T18:06:44Z,Banks,Said,Ask For 30-Day Delay
2013-01-06T18:15:51Z,Ten-Man Real Madrid,Beats,Sociedad 4-3
2013-01-06T18:18:11Z,Interview,with,Michael Woodford
2013-01-06T20:01:32Z,Comcast NBC Delays Biggest TV,Avoid,Repeats
2013-01-06T20:01:32Z,Comcast NBC Delays TV,Avoid,Repeats
2013-01-06T22:00:00Z,Syria ’s Assad,Offers,Reforms
2013-01-06T22:01:00Z,Libya Crackdown,Makes,Benghazi Ghost Town
2013-01-06T22:01:00Z,Police,Fight,Gunmen
2013-01-06T22:01:00Z,Romania Will,Keep,Rates Steady
2013-01-06T23:01:00Z,Taxes,in,Weekend Media Barrage
2013-01-06T23:30:08Z,NCAA Plays Risky Head Game,in,Notre Dame-Alabama Showdown
2013-01-06T23:30:20Z,Obama,Should Shed,Light
2013-01-06T23:31:41Z,Big-Bank Regulator,Targets,Guy
2013-01-06T23:34:02Z,Barcelona,Wins,4-0
2013-01-07T00:01:00Z,Liverpool,Wins in,Cup
2013-01-07T01:47:04Z,Forecaster,Sees,Aussie Below
2013-01-07T01:47:04Z,Top Forecaster,Sees,Aussie Below
2013-01-07T05:00:01Z,McConnell,Takes,Taxes Off Table in Debt Limit Negotiations
2013-01-07T05:00:01Z,Table,in,Debt Limit Negotiations
2013-01-07T05:00:07Z,No. 1 Film,in,Receipts
2013-01-07T05:00:07Z,Texas Chainsaw 3D,Is,No. 1 Film
2013-01-07T05:01:00Z,PGA Tour Opener,Has,Play Canceled Again
2013-01-07T05:01:00Z,Players ’ Union,Reaching,Settlement
2013-01-07T05:01:00Z,Ravens,Reach Second Round,Seahawks
2013-01-07T08:20:21Z,Alliance CEO,Says Without,Reform
2013-01-07T08:20:21Z,China Stock Rally May End,Says Without,Reform
2013-01-07T09:18:27Z,Wilmar Stock Slump May,Extend on,Trading Concern
2013-01-07T09:54:00Z,Draghi Seeks Extended Calm,in,2013
2013-01-07T10:58:39Z,May,Lure,Reliance
2013-01-07T13:01:28Z,Barclays,Asked by,by Cap Zimbabwe Rates
2013-01-07T13:32:29Z,Banks,Said,Ask for 30-Day Delay on U.A.E. Mortgage Caps
2013-01-07T13:42:07Z,Morgan Stanley,Sees,Supply Recovery
2013-01-07T14:16:54Z,BASF ’s Pronova Deal,Faces Opposition From,Shareholders
2013-01-07T16:23:21Z,Banks,Win,4-Year Delay
2013-01-07T19:16:37Z,Bulls,Add for,First Time
2013-01-07T21:10:30Z,Coffee Deal Wave,Sparks,Krispy Kreme-to-Jamba Appetite
2013-01-07T21:35:59Z,Dollar,Weakens,Yen Gains
2013-01-07T21:35:59Z,Stocks,Slip Before,Earnings
