2006-11-08T01:03:00Z,US stocks,rise on,view election
2006-11-08T01:03:00Z,US stocks rise,will bring,gridlock
2006-11-08T01:32:00Z,Wynn profit,lags,analysts ' view
2006-11-08T01:55:00Z,its company,UPDATE,2-Slim 's America Movil
2006-11-08T01:55:00Z,its holding company,UPDATE,2-Slim 's America Movil
2006-11-08T02:17:00Z,IBM,seeks,growth from deals
2006-11-08T03:10:00Z,Google CEO,denies,rumor
2006-11-08T06:03:00Z,IEA,sees,risks to investment
2006-11-08T06:03:00Z,higher oil price,risks to,investment
2006-11-08T08:16:00Z,Isuzu,seeking,GM exit
2006-11-08T08:25:00Z,OPEC,implement,cuts-delegate
2006-11-08T08:36:00Z,EADS,awaits,customer decisions on A380 freighter
2006-11-08T09:16:00Z,South Korea,picks,Boeing
2006-11-08T10:42:00Z,Medco,strike deal with,Caremark
2006-11-08T11:29:00Z,ExpressJet earnings,slip on,expenses
2006-11-08T12:13:00Z,Home loan demand,rises,refinancing
2006-11-08T12:36:00Z,VW reformer 's future,in,doubt
2006-11-08T12:41:00Z,Airbus A380 woes,push,EADS
2006-11-08T13:51:00Z,Delphi delays,filing,report
2006-11-08T15:15:00Z,Microsoft,sees,gamers online as key
2006-11-08T15:15:00Z,gamers,online as,key to growth
2006-11-08T16:27:00Z,Democrat win,hurt,defense stocks
2006-11-08T18:12:00Z,Big oil companies,target in,new U.S. Congress
2006-11-08T18:12:00Z,Big oil companies target,in,new U.S. Congress
2006-11-08T18:12:00Z,oil companies,target in,new U.S. Congress
2006-11-08T18:25:00Z,Dynegy posts loss,misses,estimate
2006-11-08T18:59:00Z,Cablevision loss,narrows,subscribers grow
2006-11-08T19:50:00Z,Wal-Mart shares,drop,Democrats win
2006-11-08T20:08:00Z,U.S. defense stocks,take,hit after election results
2006-11-08T20:41:00Z,LA billionaires,make,bid for Tribune
2006-11-08T20:44:00Z,GM,raises,auto prices
2006-11-08T21:36:00Z,News Corp. profit,rises on,TV networks
2006-11-08T21:36:00Z,News Corp. quarterly profit,rises on,TV networks
2006-11-08T21:51:00Z,24-25 pct rise,in,fiscal Q2 revenue
2006-11-08T21:51:00Z,Cisco,sees,24-25 pct rise in fiscal Q2 revenue
2006-11-08T22:09:00Z,Microsoft,selling Vista at,retail January 30
2006-11-08T22:59:00Z,U.S. judge,OKs,currency fee settlement
