2006-11-14T03:34:00Z,Berkshire,cuts,Ameriprise stake
2006-11-14T07:56:00Z,VW brand chief,considers,resigning
2006-11-14T10:31:00Z,Individual investors,booming,China shares
2006-11-14T10:31:00Z,investors,booming,China shares
2006-11-14T12:11:00Z,Vodafone,pleases as,earnings top forecasts
2006-11-14T14:02:00Z,APEC business leaders,urge,vast trade zone
2006-11-14T14:52:00Z,Wall St,seen up,data
2006-11-14T16:10:00Z,Home Depot,cuts outlook amid,housing downturn
2006-11-14T16:45:00Z,Internet ad revenue,rises to,$ 4.2 billion in 3rd quarter
2006-11-14T16:57:00Z,Target,beats,forecasts
2006-11-14T18:18:00Z,Ford,restates,results
2006-11-14T20:05:00Z,Two bids,submitted for,Clear Channel
2006-11-14T20:42:00Z,Wal-Mart,cuts,toy prices
2006-11-14T20:49:00Z,Automakers,say,need action
2006-11-14T22:57:00Z,U.S. government,sues,former Cendant vice chairman
2006-11-14T23:01:00Z,Dow Jones,closes at,high
2006-11-14T23:45:00Z,Buffett 's Berkshire,adds to,to Lowe
2006-11-15T05:24:00Z,Google,closes,YouTube deal
2006-11-15T05:39:00Z,Timberland,may put up,itself
