2006-11-23T03:01:00Z,Boyd,could,could next casino bid target
2006-11-23T05:22:00Z,Sentiment data,spurs,worries
2006-11-23T11:49:00Z,Air France,in,tentative merger talks
2006-11-23T11:51:00Z,Lone Star,drops KEB sale deal to,Kookmin
2006-11-23T12:57:00Z,European shares,fall as,energy
2006-11-23T12:57:00Z,shares,fall as,energy
2006-11-23T14:35:00Z,Microsoft,files,documents
2006-11-23T15:42:00Z,Gold,steadies,far record
2006-11-23T15:42:00Z,MasterCard,rebuked,hearing
2006-11-23T17:48:00Z,Asian shares,gain as,Dell earnings boost techs
2006-11-23T17:48:00Z,shares,gain as,Dell earnings boost techs
2006-11-23T19:06:00Z,French film producer,sues,Google France
2006-11-23T19:06:00Z,film producer,sues,Google France
2006-11-23T19:27:00Z,Bayer,sells Starck to,Carlyle
2006-11-23T20:08:00Z,Euronext,sets,NYSE merger vote
2006-11-24T05:40:00Z,Chilean Mapuches,with,Microsoft
