2006-11-04T02:03:00Z,Stocks,fall on,oil 's gain
2006-11-04T03:16:00Z,London Stock Exchange,wants,tie-up with TSE
2006-11-04T03:16:00Z,tie-up,with,TSE
2006-11-04T03:40:00Z,U.S. airlines,raise,fares
2006-11-04T03:40:00Z,fares,in,domestic markets
2006-11-04T03:50:00Z,elections,Will bring back,stock bulls
2006-11-04T11:40:00Z,E.ON,on,Endesa bid
2006-11-04T11:40:00Z,Spain,drops,conditions on E.ON 's Endesa bid
2006-11-04T16:20:00Z,PartyGaming,in,talks buy
2006-11-04T18:02:00Z,Buyout firm KKR,made,friendly bid
