2006-11-01T02:48:00Z,Changes,in,trust policy
2006-11-01T02:48:00Z,Flaherty,go ahead as,trusts
2006-11-01T02:48:00Z,Trust moves,could rattle,taxes
2006-11-01T02:48:00Z,income trusts,in,Canada
2006-11-01T02:50:00Z,Canada,stuns,market
2006-11-01T03:42:00Z,Krispy Kreme posts,settles,suit
2006-11-01T03:48:00Z,Appeals court,stays,tobacco racketeering ruling
2006-11-01T06:33:00Z,Mattel 's Barbie,with,cosmetics
2006-11-01T12:16:00Z,world 's lightest notebook PC,in,Dec
2006-11-01T14:47:00Z,Apple,pushes,Oricon
2006-11-01T15:13:00Z,U.S. Sept home sales index,falls,1.1 pct
2006-11-01T15:13:00Z,U.S. Sept pending home sales index,falls,1.1 pct
2006-11-01T15:50:00Z,Manufacturing sector growth,slows in,October
2006-11-01T15:53:00Z,AT&T,expands,Homezone service
2006-11-01T17:18:00Z,survey,finds,Happy days
2006-11-01T18:26:00Z,4-Cigna earnings rise,shares after,'07 forecast
2006-11-01T21:36:00Z,U.S. business,ending,trade benefits
2006-11-01T21:46:00Z,tech shares,lead slide on,weak data
2006-11-01T21:47:00Z,Manufacturing,sputters as,housing slump spreads
2006-11-01T23:07:00Z,Chrysler,loses,ground
2006-11-01T23:12:00Z,Time Warner profit,rises on,cable
2006-11-01T23:34:00Z,analyst estimates,UPDATE,operating profit
2006-11-01T23:37:00Z,Income trust shock waves,sink,Toronto stocks
2006-11-01T23:43:00Z,Vodafone,denies,report of tie-up talks
2006-11-01T23:43:00Z,tie-up talks,with,Altimo
2006-11-01T23:46:00Z,CVS income,rises,12.5 pct
2006-11-01T23:46:00Z,CVS net income,rises,12.5 pct
2006-11-02T05:41:00Z,CVS,in,talks on merger
