2007-05-01T00:39:00Z,Australia 's Healthscope,take over,Symbion
2007-05-01T01:53:00Z,Oracle,asks,court
2007-05-01T01:53:00Z,SAP,preserve,documents
2007-05-01T01:56:00Z,Group,accuses Wal-Mart of,anti-union tactics
2007-05-01T02:38:00Z,SEC,says,settlement reached with executive
2007-05-01T02:38:00Z,settlement,reached with,ex-Tyco executive
2007-05-01T03:35:00Z,Merck 's generics unit,gets,four final bids
2007-05-01T10:35:00Z,Firmer start,seen amid,results
2007-05-01T10:35:00Z,start,seen for,Wall St
2007-05-01T10:47:00Z,Medco Health posts,rise in,profit
2007-05-01T11:09:00Z,Emerson profit,rises,14 percent
2007-05-01T12:02:00Z,Comcast,sees,cable revenue
2007-05-01T13:08:00Z,University aid office,rated,lenders
2007-05-01T13:23:00Z,ABN,asks RBS for,more details as legal battle brews
2007-05-01T14:16:00Z,U.S. manufacturing sector rebounds,in,April
2007-05-01T14:18:00Z,Motorola,tried,work on board member
2007-05-01T14:35:00Z,U.S. March home sales index,falls,4.9 pct
2007-05-01T14:35:00Z,U.S. March pending home sales index,falls,4.9 pct
2007-05-01T15:50:00Z,April sales fall,in,N.America
2007-05-01T15:50:00Z,Porsche,says,April sales fall in N.America
2007-05-01T17:13:00Z,Ford U.S. April sales,fall,13 pct
2007-05-01T17:21:00Z,Media stocks,jump on,News Corp. 's Dow Jones bid
2007-05-01T17:21:00Z,News Corp.,on,Dow Jones bid
2007-05-01T17:58:00Z,Icahn,takes,aim
2007-05-01T17:58:00Z,Motorola,at,Zander
2007-05-01T19:09:00Z,BP 's Browne,quits over,gay affair
2007-05-01T19:09:00Z,gay affair,with,Canadian
2007-05-01T19:35:00Z,Flamboyant Murdoch,has built,media empire
2007-05-01T19:47:00Z,Dow Jones options trading,jumps before,Murdoch bid
2007-05-01T20:24:00Z,Joost,strikes,Sony program deals
2007-05-01T20:32:00Z,Dow,notches,fresh record on mergers
2007-05-01T20:55:00Z,Bolivia energy,take,effect
2007-05-01T20:55:00Z,Inflation,roars in,April
2007-05-01T20:55:00Z,Venezuela,seizes,operations
2007-05-01T21:13:00Z,Dow Jones bid,could,could threat to CNBC
2007-05-01T21:20:00Z,Schwab,says,pace
2007-05-01T21:24:00Z,Liberia,relaunches diamond trade after,embargo ends
2007-05-01T21:37:00Z,Vonage,asks for,retrial
2007-05-01T21:49:00Z,Fitch,S&P may change,their Dow Jones ratings
2007-05-01T21:50:00Z,Nexen Inc,sells,$ 1.5 billion in 2 parts
2007-05-01T21:51:00Z,MetLife,posts,higher net beats estimates
2007-05-01T21:59:00Z,Disney,unveils,networking
2007-05-01T22:20:00Z,Virgin Mobile files,with,U.S. regulators
2007-05-01T22:39:00Z,Investors,see,Dow Jones bid likely
2007-05-01T23:04:00Z,Drugmakers,face,$ 140 bln patent loss
2007-05-01T23:26:00Z,Dolans,in,talks take
2007-05-01T23:50:00Z,Bancroft family,in,hands
2007-05-01T23:50:00Z,Dow Jones future,rests in,Bancroft family 's hands
2007-05-01T23:50:00Z,News Corp.,makes,$ 5 billion bid for Dow Jones
2007-05-02T04:04:00Z,UAW,readying,counter-offer on Delphi
2007-05-02T04:10:00Z,Consumers,buy,Audis in April
2007-05-02T04:10:00Z,VWs,more Audis in,April
2007-05-02T04:10:00Z,fewer VWs,Audis in,April
2007-05-02T04:10:00Z,more Audis,in,April
2007-05-02T04:24:00Z,P&G,sees,pressure
2007-05-02T04:27:00Z,11 pct,in,April
