2007-07-01T18:28:00Z,coal,divides,corporations
2007-07-01T19:12:00Z,DTE Energy,unit in,deal on power projects
2007-07-01T19:12:00Z,GE unit,in,deal on power projects
2007-07-01T20:11:00Z,Mideast funds,target,Land Rover
2007-07-01T20:11:00Z,funds,target,Jaguar
2007-07-01T22:10:00Z,IBM,launches,nuclear expertise centre
2007-07-01T22:10:00Z,nuclear expertise centre,in,France
2007-07-01T22:15:00Z,Media,seeks,Carlyle bids
2007-07-01T22:15:00Z,Virgin Media,seeks,Carlyle bids
2007-07-01T23:30:00Z,Wesfarmers,shares on,trading halt
2007-07-01T23:48:00Z,Macquarie funds,buy Tower in,$ 1.4 bln deal
2007-07-02T04:21:00Z,U.S. airline unions,showing,signs
2007-07-02T04:21:00Z,showing,signs of,revival
