2007-04-29T07:52:00Z,Pirelli,sells banks to,Telefonica
2007-04-29T14:08:00Z,earnings,may offset,jobs
2007-04-29T14:29:00Z,Big U.S. miners,becoming,conscious
2007-04-29T14:29:00Z,U.S. miners,becoming,conscious
2007-04-29T18:23:00Z,Wealthy housing markets,shrug off,subprime woes
2007-04-29T18:23:00Z,housing markets,shrug off,subprime woes
