2007-07-26T09:22:00Z,Jim Rogers,cautiously bullish on,China stocks
2007-07-26T10:01:00Z,Shell profit,jumps,refining shines
2007-07-26T10:32:00Z,Buffett 's Berkshire,buys,small stake in Kraft
2007-07-26T10:32:00Z,small stake,in,Kraft
2007-07-26T10:58:00Z,Newell Rubbermaid profit,rises on,cost savings
2007-07-26T11:04:00Z,Blackstone,has sold,Equity Office property
2007-07-26T12:16:00Z,AstraZeneca ups job cuts,in,savings drive
2007-07-26T12:29:00Z,Shell,finds,new oilfield
2007-07-26T13:00:00Z,ICE profit,rises on,futures volume growth
2007-07-26T13:28:00Z,CORRECTION,set for,slide
2007-07-26T13:28:00Z,Wall St,set for,slide on oil
2007-07-26T13:48:00Z,Bristol-Myers profit,rises on,newer drugs
2007-07-26T14:32:00Z,June newspaper ads,dip,49-yr
2007-07-26T14:32:00Z,June newspaper help-wanted ads,dip,49-yr
2007-07-26T15:39:00Z,Wendy,'s profit,shares
2007-07-26T15:53:00Z,GlobalSantaFe,break,new deal ground
2007-07-26T15:55:00Z,3M posts,raises,forecast
2007-07-26T17:09:00Z,Wells Fargo,shuts,mortgage unit
2007-07-26T17:43:00Z,KKR,should pull,its IPO
2007-07-26T18:13:00Z,Niger,bars,head
2007-07-26T19:18:00Z,New investor wave,buys after,early kinks
2007-07-26T19:18:00Z,investor wave,buys after,kinks
2007-07-26T19:42:00Z,Bank,dismiss,ABN AMRO lawsuit
2007-07-26T19:50:00Z,HSBC,braces for,$ 9 billion
2007-07-26T19:59:00Z,Chrysler,using,lifetime warranty
2007-07-26T20:05:00Z,Treasury 's Paulson,plays down,market volatility
2007-07-26T21:26:00Z,EU,says,issues charges
2007-07-26T21:35:00Z,Things,go from,bad
2007-07-26T21:46:00Z,Microsoft CEO,defends,move
2007-07-26T21:48:00Z,Things,go from,bad
2007-07-26T21:51:00Z,U.S. credit market,sells off on,financings
2007-07-26T22:27:00Z,Amgen net profit rises,meets,goal
2007-07-26T22:27:00Z,Amgen profit rises,meets,goal
2007-07-26T23:48:00Z,Wall St indexes,sell off credit fears on,housing
2007-07-27T04:12:00Z,Wal-Mart apparel,faces,back-to-school test
2007-07-27T04:19:00Z,Things,go from,bad
2007-07-27T04:54:00Z,Number,in,U.S.
