2007-10-07T14:18:00Z,stocks,rally,alive
2007-10-07T15:24:00Z,KPMG case,go to,trial
2007-10-07T15:24:00Z,KPMG tax-shelter case,set,go to trial
2007-10-07T15:35:00Z,Greenspan,says,U.S. growth slowing
2007-10-07T17:42:00Z,N.Rock,stay,independent
2007-10-07T21:41:00Z,Australia,of,Tenix Group plan sale
2007-10-07T22:43:00Z,SAP,buy Business Objects for,4.8 bln euro
2007-10-08T04:05:00Z,Cargill,recalls,beef patties
