2007-04-14T05:45:00Z,Stocks ' gains,hinge on,earnings
2007-04-14T11:40:00Z,Daimler CEO,keep,Chrysler stake
2007-04-14T16:53:00Z,Stocks,climb on,higher profit forecasts
2007-04-14T17:38:00Z,Egypt cenbank,rejects,UAE bid for bank
2007-04-14T21:41:00Z,Brown,says,rule
2007-04-14T21:41:00Z,Wolfowitz fate,overshadows,finance chiefs ' meetings
2007-04-14T23:49:00Z,Major economies,reduce,imbalances
2007-04-14T23:49:00Z,economies,reduce,imbalances
