2007-05-20T08:55:00Z,Most people,in,transition nations
2007-05-20T09:02:00Z,Ukraine,seeks,hryvnia
2007-05-20T09:32:00Z,$ 40 bln,in,Jan-May
2007-05-20T09:32:00Z,Russian capital inflow,seen at,$ 40 bln Jan-May
2007-05-20T09:32:00Z,capital inflow,seen at,$ 40 bln
2007-05-20T10:49:00Z,Media,faces,private equity bid
2007-05-20T10:49:00Z,Virgin Media,faces,equity bid
2007-05-20T14:28:00Z,Warner,may offer,extra $ 197 mln for EMI
2007-05-20T15:17:00Z,Capitalia chief Matteo Arpe,makes,exit
2007-05-20T17:17:00Z,UniCredit,buy Capitalia in,$ 29 bln deal
2007-05-20T18:20:00Z,Risk-taking,needed for,progress
2007-05-20T22:17:00Z,Siemens,names,Peter Loescher
2007-05-20T22:51:00Z,China,invest,$ 3 billion
2007-05-20T22:54:00Z,Hologic,buy Cytyc for,$ 6.2 billion
2007-05-20T23:25:00Z,U.S.,freeze,assets
2007-05-20T23:56:00Z,CIA briefing SEC,monthly on,terrorists
