2007-12-01T01:36:00Z,PayPal customers ' cash,exposed to,assets
2007-12-01T03:23:00Z,Lennar forms venture,with,Morgan Stanley Real Estate
2007-12-01T06:19:00Z,Citi,sees growth in,2008
2007-12-01T06:19:00Z,strong growth,in,Taiwan business
2007-12-01T09:45:00Z,OPEC,should avoid,flooding markets
2007-12-01T11:49:00Z,Alaska,gets,5 applications for gas
2007-12-01T12:46:00Z,2nd farm support center,in,Rwanda
2007-12-01T12:46:00Z,Starbucks,plans,farm support center in Rwanda
2007-12-01T13:45:00Z,Saudi,sees,oil demand signal on OPEC move
2007-12-01T15:50:00Z,Godiva,recalls,X'mas chocolates in Europe
2007-12-01T15:50:00Z,X'mas chocolates,in,Europe
2007-12-01T15:54:00Z,Stocks ' recovery,turns on,plan
