2007-07-04T07:56:00Z,Carlyle affiliate,begins,trade
2007-07-04T08:07:00Z,Buyout firms,circle,$ 4.2 billion HK property firm
2007-07-04T08:39:00Z,Boeing,may invest in,Japan 's Mitsubishi jet
2007-07-04T08:39:00Z,Japan,in,Mitsubishi jet
2007-07-04T10:00:00Z,Huntsman,gets,bln approach
2007-07-04T10:04:00Z,Roche,files,complaint
2007-07-04T12:54:00Z,Mice,move in,in new New York Times building
2007-07-04T15:46:00Z,RIM,wins,permission sell in China
2007-07-04T15:59:00Z,Data deluge,leaves,bets for UK rates
2007-07-05T04:14:00Z,Oracle,prove,SAP charges
