2007-04-20T00:50:00Z,Nintendo 's Wii,again No.,1 game console
2007-04-20T03:11:00Z,Pet food scare,widens to,new ingredient
2007-04-20T05:42:00Z,Former Qwest CEO,guilty on,19 insider trade counts
2007-04-20T05:46:00Z,Samsung exec,agrees,plead
2007-04-20T10:46:00Z,U.S. stocks,rise after,Google earnings
2007-04-20T11:24:00Z,Private equity,in,$ 22 bln Alliance Boots
2007-04-20T11:28:00Z,UAW union mulls,bid for,DaimlerChrysler
2007-04-20T11:50:00Z,Schlumberger profit,rises,tops Wall Street view
2007-04-20T12:25:00Z,Honeywell profit,raises,forecast
2007-04-20T13:55:00Z,Pfizer,cuts forecast,generics cut
2007-04-20T13:55:00Z,generics,cut,deeper
2007-04-20T15:51:00Z,Foot Locker,buy rival for,$ 1.2 bln
2007-04-20T17:21:00Z,Dollar,edges as,stocks rally
2007-04-20T17:56:00Z,Pet-food recall,continues,widen
2007-04-20T17:56:00Z,recall,continues,widen
2007-04-20T18:57:00Z,Xerox profit,beats,forecast
2007-04-20T19:08:00Z,I,root out,hint of sleaze
2007-04-20T19:09:00Z,Decision,delayed until,next week
2007-04-20T19:31:00Z,BlackBerry outage,blamed on,new storage feature
2007-04-20T20:33:00Z,Indexes,rise on,optimism
2007-04-20T22:37:00Z,AnywhereCD,sues,Warner Music
2007-04-20T22:51:00Z,Texas court,dismisses,Vioxx lawsuit
2007-04-20T22:54:00Z,AmericanEagle,sues,Payless
2007-04-20T23:05:00Z,AMR chief executive,receives,mln
2007-04-20T23:05:00Z,AMR executive,receives mln for,2006
2007-04-20T23:25:00Z,Nasdaq CEO,gets,pay
2007-04-20T23:25:00Z,Ticketmaster,takes,legal action
2007-04-20T23:25:00Z,eBay,against,StubHub
