2007-07-31T01:42:00Z,financials,fuel,Wall St. 's rebound
2007-07-31T02:36:00Z,IMF chief,warns of,globalization risks
2007-07-31T12:15:00Z,Alcan profit,slips on,strong Canada dollar effect
2007-07-31T14:19:00Z,Price pressures,hit,Alcatel-Lucent
2007-07-31T14:27:00Z,Home prices,fell in,May
2007-07-31T15:31:00Z,Bush,back,suits
2007-07-31T15:31:00Z,Enron plaintiffs,ask,Bush
2007-07-31T16:30:00Z,Nike,extend,contracts
2007-07-31T17:58:00Z,Dow Jones,deal expected,Tuesday
2007-07-31T18:25:00Z,American Home Mortgage,plunges,87 pct
2007-07-31T20:34:00Z,Fed,will act on,market slide
2007-07-31T20:37:00Z,Credit,driving,Wall St.
2007-07-31T21:42:00Z,American Home,may liquidate,shares plunge
2007-07-31T22:12:00Z,GM,beats,estimates
2007-07-31T22:47:00Z,FCC,sets,airwaves sale rule
2007-07-31T23:48:00Z,News Corp board,OKs,deal
2007-07-31T23:48:00Z,deal,buy,Dow Jones
2007-07-31T23:49:00Z,MetLife Q2 net,raises,outlook
2007-07-31T23:49:00Z,MetLife Q2 net higher,raises,outlook
