2007-03-19T02:53:00Z,Hill,could visit,North Korea
2007-03-19T05:19:00Z,Dow,in,joint venture talks with Reliance
2007-03-19T05:19:00Z,joint venture talks,with,Reliance
2007-03-19T06:09:00Z,Community Health,almost buys,Triad
2007-03-19T06:13:00Z,Bank,buy Bendigo for,bln
2007-03-19T08:06:00Z,Restructuring industry,foresees,wave of insolvencies
2007-03-19T08:20:00Z,Travel firms,agree,merge
2007-03-19T09:33:00Z,Nokia,files,claims in Europe
2007-03-19T09:33:00Z,claims,in,Europe
2007-03-19T09:37:00Z,Mortgage reset,may boost,foreclosures
2007-03-19T09:37:00Z,U.S. economy,in,still good shape
2007-03-19T13:49:00Z,EGL,agrees to,$ 1.7 bln buyout
2007-03-19T18:38:00Z,ServiceMaster,accepts,bln bid
2007-03-19T18:49:00Z,Barclays,confirm,ABN takeover talks
2007-03-19T18:58:00Z,Home builder sentiment,erodes in,March
2007-03-19T19:10:00Z,Calpers,sees,contagion
2007-03-19T19:24:00Z,CEO,gets,options
2007-03-19T19:36:00Z,CVC,seeks,Boehler-Uddeholm takeover
2007-03-19T19:55:00Z,ABN AMRO,says in,merger talks
2007-03-19T19:55:00Z,exclusive merger talks,with,Barclays
2007-03-19T20:32:00Z,Indexes,rise 's,M&A grabs subprime
2007-03-19T21:04:00Z,Triad,agrees to,$ 5.1 billion
2007-03-19T21:09:00Z,Take-Two,considers,sale amid boardroom battle
2007-03-19T21:29:00Z,CBOT board okays talks,with,ICE
2007-03-19T21:29:00Z,ICE,welcomes,CBOT 's decision for talks
2007-03-19T21:34:00Z,M&A,takes,subprime 's spotlight
2007-03-19T21:42:00Z,Airbus A380 superjumbo jet lands,in,U.S.
2007-03-19T22:08:00Z,EGL,agrees to,$ 1.7 billion buyout
2007-03-19T22:23:00Z,Top five subprime lenders,asked,testify
2007-03-19T22:23:00Z,Top subprime lenders,asked,testify
2007-03-19T22:23:00Z,five subprime lenders,asked,testify
2007-03-19T22:23:00Z,subprime lenders,asked,testify
2007-03-19T22:59:00Z,ABN,in,exclusive $ 160 billion merger talks
2007-03-19T22:59:00Z,exclusive $ 160 billion merger talks,in ABN,Barclays
2007-03-19T23:20:00Z,Court,blocks,$ 40 billion class-action Enron suit
