2007-01-19T00:13:00Z,Japan Tobacco,buys,Gallaher shares
2007-01-19T00:40:00Z,Hilton,plans,Waldorf-Astoria
2007-01-19T00:40:00Z,Waldorf-Astoria,in,Beverly Hills
2007-01-19T01:17:00Z,Schneider Electric Q4 sales,beat,forecasts
2007-01-19T03:06:00Z,energy stocks,drag,markets
2007-01-19T06:09:00Z,Fed officials,see,nagging risks
2007-01-19T06:26:00Z,AT&T,offers,mobile-to-home calling plan
2007-01-19T10:52:00Z,Asian stocks,dip on,tech worries
2007-01-19T10:52:00Z,stocks,dip on,tech worries
2007-01-19T14:51:00Z,UPS,seen,Airbus A380 order
2007-01-19T15:05:00Z,January consumer sentiment,jumps to,3-year high
2007-01-19T15:44:00Z,Inflation,is main risk to,U.S. economy
2007-01-19T16:04:00Z,Jan consumer sentiment,jumps to,high
2007-01-19T18:04:00Z,More ethanol,means,lower gasoline prices
2007-01-19T18:04:00Z,ethanol,means,gasoline prices
2007-01-19T19:02:00Z,GE profit,meets,forecast
2007-01-19T19:05:00Z,Motorola,improve,margins
2007-01-19T20:36:00Z,each,get,6 months
2007-01-19T20:50:00Z,Oil,jumps,3 percent
2007-01-19T21:26:00Z,Citigroup 3 pct profit gain,lags,rivals
2007-01-19T21:26:00Z,Citigroup pct profit gain,lags,rivals
2007-01-19T21:34:00Z,Fed comments,view rates for,now
2007-01-20T05:23:00Z,IBM shares,fall after,results
