2007-10-25T00:35:00Z,Chrysler truck plant,OKs,contract
2007-10-25T05:55:00Z,China growth,more tightening in,store
2007-10-25T06:07:00Z,$ 4 trillion,Falling,real estate
2007-10-25T06:07:00Z,Falling,could cost,$ 4 trillion
2007-10-25T07:37:00Z,Fed,seeks transparency in,deliberations
2007-10-25T08:37:00Z,Microsoft,beats Google to,Facebook stake
2007-10-25T10:07:00Z,Buffett,sees,dollar weakness
2007-10-25T10:58:00Z,Honda,jumps on,CR-V sales
2007-10-25T11:18:00Z,Daimler profit,rises,Mercedes glistens
2007-10-25T12:03:00Z,EMC,reports,higher profit
2007-10-25T12:24:00Z,Google 's CEO,downplays,possible threats
2007-10-25T14:15:00Z,US Airways,reports,profit on fares
2007-10-25T14:39:00Z,Bristol profit,jumps,Plavix continues
2007-10-25T14:39:00Z,Plavix,continues,rebound
2007-10-25T14:46:00Z,EMC,reports,higher profit
2007-10-25T15:23:00Z,Daimler,plays down,impact
2007-10-25T15:23:00Z,U.S. truck rebound,in,Q1
2007-10-25T17:06:00Z,Bayer Trasylol trial halted,advises,doctors
2007-10-25T17:11:00Z,Intel,start,Penryn production
2007-10-25T17:29:00Z,Brokerages,cut,target
2007-10-25T17:29:00Z,analysts,predict,more gloom
2007-10-25T17:30:00Z,Merrill Lynch woes,stir,Bloomberg speculation
2007-10-25T18:00:00Z,New home sales,weak,goods orders sag
2007-10-25T18:01:00Z,profit,beats,estimates
2007-10-25T18:13:00Z,AIG stock,falls over,possible write-down
2007-10-25T18:26:00Z,subscribers,in,cars
2007-10-25T19:40:00Z,UBS Financial Services,fined over,disclosures
2007-10-25T20:23:00Z,patent dispute,with,Verizon
2007-10-25T20:59:00Z,Hartford,posts,earnings
2007-10-25T21:14:00Z,Insured loss,could top,$ 1.6 billion
2007-10-25T21:14:00Z,Insured wildfire loss,could top,$ 1.6 billion
2007-10-25T21:14:00Z,loss,could top,$ 1.6 billion
2007-10-25T21:14:00Z,wildfire loss,could top,$ 1.6 billion
2007-10-25T21:34:00Z,Fed,seen close to,communication steps
2007-10-25T22:00:00Z,Retail,suffers,California wildfires burn
2007-10-25T22:10:00Z,KLA-Tencor net,falls,cautious on industry
2007-10-25T22:33:00Z,Microsoft shares,jump on,outlook
2007-10-25T22:35:00Z,Wall Street,hit,earnings
2007-10-25T23:11:00Z,Bank,quits,mortgage business
2007-10-25T23:58:00Z,BEA,rejects,bid
