2007-10-21T01:07:00Z,Finance chiefs,inch toward,IMF vote agreement
2007-10-21T01:07:00Z,IMF,says,beware of knee-jerk rules
2007-10-21T01:07:00Z,rights changes,in,April
2007-10-21T06:53:00Z,ABN,has,offers
2007-10-21T07:09:00Z,Weber,fears,rise in German inflation
2007-10-21T07:09:00Z,broad-based rise,in,German inflation
2007-10-21T10:32:00Z,$ 30 bln credit,for Barclays,RBS line up Fed
2007-10-21T10:32:00Z,Barclays,line up,Fed
2007-10-21T20:18:00Z,Ex-banker,convicted in,Dominican fraud case
2007-10-21T20:24:00Z,World Bank chief,calls for,direction
2007-10-21T21:18:00Z,Crisis,was,accident
