2007-07-10T03:30:00Z,Chile,at,Collahuasi strike
2007-07-10T08:24:00Z,Taiwan eyes,Boeing for,attack helicopters
2007-07-10T09:30:00Z,Aeon Q1 profit,falls on,Talbots sales
2007-07-10T10:40:00Z,ABN,on,LaSalle
2007-07-10T11:35:00Z,China 's trade surplus,soars,record
2007-07-10T11:57:00Z,SK Telecom,of,interest
2007-07-10T12:05:00Z,Pfizer,wins Lipitor patent case in,Ireland
2007-07-10T14:18:00Z,FCC chief,may back open,platform auction
2007-07-10T14:59:00Z,BHP,seeks,partner
2007-07-10T15:33:00Z,Court,delays,Russian suit against Bank
2007-07-10T16:38:00Z,NYSE Euronext probes trades,in,ABN AMRO stock
2007-07-10T17:23:00Z,Home Depot,sees,bigger profit drop on housing woes
2007-07-10T17:58:00Z,Bernanke-hopeful,can move on,communications policy
2007-07-10T18:01:00Z,Pepsi Bottling posts,raises,outlook
2007-07-10T18:06:00Z,CDOs,could,could Wall Street 's bogeyman
2007-07-10T18:11:00Z,Short-term money-inflation link,is,weak
2007-07-10T18:11:00Z,money-inflation link,is,weak
2007-07-10T18:43:00Z,Alcoa,gets,bln credit line
2007-07-10T19:20:00Z,Michael Dell,says,way go for turnaround
2007-07-10T19:20:00Z,long way,go for,turnaround
2007-07-10T19:20:00Z,way,go for,turnaround
2007-07-10T20:56:00Z,Moody 's eye $ 17.3 bln,in,subprime rating cuts
2007-07-10T20:56:00Z,S&P,bln in,subprime rating cuts
2007-07-10T21:29:00Z,Housing weakness woes,drive,stock indexes
2007-07-10T22:11:00Z,Bond,bears,turn tail
2007-07-10T22:39:00Z,Subprime,quickly reshaping,rate ideas
2007-07-10T23:01:00Z,Banks shares,fall on,subprime woes
2007-07-10T23:35:00Z,Wall St.,tumble,stronger yen
