2007-03-07T00:04:00Z,Boeing,Engineering in,$ 136 million
2007-03-07T00:04:00Z,ST Engineering,in,$ 136 million
2007-03-07T02:02:00Z,Dell,may offer Linux as,alternative to Windows
2007-03-07T02:02:00Z,Factory orders slump,could derail,economic recovery
2007-03-07T02:02:00Z,Paulson,confident of,U.S. economy
2007-03-07T02:02:00Z,S.Korea,says,Paulson
2007-03-07T02:45:00Z,Starbucks memo,stirs,fears
2007-03-07T02:53:00Z,Paulson,confident on,U.S. economy
2007-03-07T03:04:00Z,Sirius,faces,House hearing
2007-03-07T03:35:00Z,Boeing,Engineering in,$ 136 mln conversion deal
2007-03-07T03:35:00Z,ST Engineering,in,$ 136 mln conversion deal
2007-03-07T07:21:00Z,Vivendi 2006 net adjusted profit,meets,target
2007-03-07T07:21:00Z,Vivendi net adjusted profit,meets,target
2007-03-07T07:42:00Z,Adidas,says,2006 sales jump on World Cup
2007-03-07T09:15:00Z,end,near U.S.,South Korea
2007-03-07T10:11:00Z,China,maintain,growth in 2007
2007-03-07T10:11:00Z,rapid growth,in,2007
2007-03-07T10:34:00Z,Cathay 's H2 net,warns of,fuel swings
2007-03-07T12:39:00Z,EU-US air pact,needs,backing
2007-03-07T13:21:00Z,Nikko investors,seen,likely
2007-03-07T15:14:00Z,Microsoft,sees,billions in sales from VoIP shift
2007-03-07T15:14:00Z,billions,in,sales from VoIP shift
2007-03-07T15:34:00Z,Traders,betting,Feb job gain
2007-03-07T16:11:00Z,Ford,mulls,Russian expansion
2007-03-07T16:37:00Z,Home loan refinancing,surges as,rates plunge
2007-03-07T16:47:00Z,tax form,for,bottom line
2007-03-07T17:56:00Z,Nikko 's biggest investor,dismisses,offer
2007-03-07T17:56:00Z,Nikko 's investor,dismisses,offer
2007-03-07T18:07:00Z,Ohio,settles suit for,$ 144 mln
2007-03-07T18:55:00Z,Publicis,acquires,health-care services company
2007-03-07T19:15:00Z,American Eagle February sales,rise,16 pct
2007-03-07T19:15:00Z,Eagle February sales,rise,16 pct
2007-03-07T19:16:00Z,sales,are,strong
2007-03-07T19:16:00Z,same-store sales,are,strong
2007-03-07T20:24:00Z,DR Horton,sees,price stability returning
2007-03-07T20:38:00Z,Nokia,reorganizes,American operations
2007-03-07T20:50:00Z,Consumer credit,rises bln in,January
2007-03-07T21:46:00Z,CEOs,see,stronger growth
2007-03-07T22:11:00Z,Senate panel,scrutinizes,credit card practices
2007-03-07T22:38:00Z,Men 's Wearhouse posts,rise in,income
2007-03-07T22:53:00Z,Fed,spies,signs of slower growth
2007-03-07T22:54:00Z,Wall Street,sags on,bleak housing view
2007-03-07T23:23:00Z,Take-Two investors,plan,board takeover
2007-03-07T23:28:00Z,JetBlue,adds,operations chief
2007-03-07T23:49:00Z,Verizon-Vonage patent case,in,hands of jury
2007-03-08T05:01:00Z,Private equity,poised for,car sector breakthrough
2007-03-08T05:01:00Z,equity,poised for,car sector breakthrough
2007-03-08T05:42:00Z,Exxon,plans,25 projects
