2007-11-04T06:08:00Z,India,for,Eicher stake
2007-11-04T09:08:00Z,Israel 's Hot Telecom,cuts,CNN
2007-11-04T12:15:00Z,Citigroup CEO Prince,losing,his crown
2007-11-04T12:22:00Z,1 mln pounds ground beef,in,U.S.
2007-11-04T12:22:00Z,Cargill,recalls,1 mln pounds ground beef
2007-11-04T13:26:00Z,Boeing vie,order,$ 4 bln
2007-11-04T13:59:00Z,Apax,mulling,bid for ITV
2007-11-04T13:59:00Z,mulling,bid for,ITV
2007-11-04T14:43:00Z,Kuwait,boosts security at,oil fields
2007-11-04T16:25:00Z,Macau,opens,corruption trial
2007-11-04T16:55:00Z,Tesco,opens,Easy store
2007-11-04T18:28:00Z,Mattel shares,could,could poised for rebound
2007-11-04T19:33:00Z,Northern Trust shares,should continue,climb
2007-11-04T20:29:00Z,CIBC analyst,got,death threats on Citigroup
2007-11-04T20:58:00Z,WellCare probe,involves,expense reporting fraud
2007-11-04T22:48:00Z,CIBC,of,capital markets
