2007-05-06T05:42:00Z,Bahrain,takes,full ownership of Gulf Air
2007-05-06T09:52:00Z,ADB,should focus on,core mission
2007-05-06T13:14:00Z,Conrad Black trial,readies for,key witness Radler
2007-05-06T14:34:00Z,RBS trio,propose,bid
2007-05-06T17:35:00Z,Buffett,shareholders like,it
2007-05-06T21:25:00Z,Dow Jones shareholder,opposes,News Corp. bid
2007-05-06T21:25:00Z,Major Dow Jones shareholder,opposes,News Corp. bid
2007-05-06T21:51:00Z,Buffett,buy,huge business
2007-05-06T23:20:00Z,ABN,continue,LaSalle deadline looms
2007-05-06T23:20:00Z,RBS talks,continue,LaSalle deadline looms
2007-05-06T23:55:00Z,Australia 's ASIC,rejects,Qantas bidder application
2007-05-07T04:09:00Z,Fed,hold,rates steady
