2007-04-02T00:53:00Z,INSTANT VIEW 6-BOJ tankan,shows,optimism declines
2007-04-02T00:53:00Z,VIEW 6-BOJ tankan,shows,optimism declines
2007-04-02T01:04:00Z,FACTBOX-Projects,backed by,Russia investment fund
2007-04-02T01:04:00Z,Russia,by,investment fund
2007-04-02T02:07:00Z,America Movil,seek,Telecom Italia deal
2007-04-02T03:28:00Z,Veda Advantage board,agrees to,buyout offer
2007-04-02T05:20:00Z,BOJ,seen on,hold
2007-04-02T05:30:00Z,Free trade,deals,U.S.
2007-04-02T06:10:00Z,Google,interested in,DoubleClick purchase
2007-04-02T09:22:00Z,Mortgage woes,holding US growth below,trend
2007-04-02T09:37:00Z,Airtran,raises,offer for Midwest Air
2007-04-02T09:37:00Z,U.S.-based Airtran,raises,offer for Midwest Air
2007-04-02T11:37:00Z,Starwood Hotels,ousts,executive
2007-04-02T11:51:00Z,First Data,be,sold to KKR for bln
2007-04-02T12:41:00Z,Zell,wins,bidding for Tribune
2007-04-02T16:02:00Z,KKR,bid,$ 25.6 billion
2007-04-02T17:02:00Z,AirTran Airways,raises,offer
2007-04-02T17:36:00Z,EMI,unlocks,software
2007-04-02T18:27:00Z,Fed 's Poole,favors,rate hike
2007-04-02T19:10:00Z,LSI Logic,completes,eyes savings
2007-04-02T21:53:00Z,Wesfarmers,in,raid for stake
2007-04-02T21:53:00Z,stake,in,Coles
2007-04-02T22:06:00Z,Apple,agree to,music catalog deal
2007-04-02T22:06:00Z,EMI,agree to,music catalog deal
2007-04-02T22:22:00Z,EU,charges,Apple
2007-04-02T22:22:00Z,record companies,Apple on,record sales
2007-04-02T23:19:00Z,2 cents,share,charge
2007-04-02T23:19:00Z,cents,share charge to,'07 earnings
2007-04-02T23:37:00Z,L.A. Times staff,uncertain about,owner
2007-04-02T23:40:00Z,New Century,files for,Chapter 11 bankruptcy
2007-04-02T23:58:00Z,Zell,wins,bid for Tribune
2007-04-03T04:16:00Z,South Korea,deal at,last minute
