2007-05-24T00:23:00Z,Greenspan,sees,dramatic drop
2007-05-24T00:23:00Z,dramatic drop,in,Chinese stocks
2007-05-24T03:32:00Z,Qantas eyes sale,buyback after,bid collapse
2007-05-24T03:50:00Z,Lawmakers,prod,China 's Wu
2007-05-24T05:43:00Z,it,rejects,Alcoa bid
2007-05-24T06:58:00Z,Citi,switching,cards
2007-05-24T07:53:00Z,Air France,in,$ 7 billion
2007-05-24T08:13:00Z,Nokia,files,patent action
2007-05-24T08:36:00Z,Currency impasse,overshadows,U.S.-China deals
2007-05-24T08:49:00Z,Air France-KLM,boosts,profit
2007-05-24T09:02:00Z,U.S.,drags down Volvo truck deliveries by,17 pct
2007-05-24T09:05:00Z,Hitachi,join,forces in plasma screens
2007-05-24T09:05:00Z,Matsushita,join,forces
2007-05-24T09:05:00Z,forces,in,plasma screens
2007-05-24T11:18:00Z,Key Bancroft family member,opposes,Murdoch bid
2007-05-24T11:38:00Z,Former EMI CEO,working on,new takeover bid
2007-05-24T12:43:00Z,AnnTaylor profit,falls at,LOFT
2007-05-24T12:58:00Z,Brown Shoe net,falls on,charge
2007-05-24T13:53:00Z,Advanced Medical,interested in,Bausch
2007-05-24T14:56:00Z,16.2 percent,in,April
2007-05-24T14:59:00Z,Toll Brothers profit,falls on,housing downturn
2007-05-24T15:25:00Z,GM,gets,details Delphi exposure
2007-05-24T18:22:00Z,Advanced Medical,mulls,Bausch bid
2007-05-24T18:26:00Z,Citi,in,M&A league table fight
2007-05-24T18:26:00Z,Global deals,help,Citi
2007-05-24T18:26:00Z,deals,help,Citi in M&A league table fight
2007-05-24T18:31:00Z,McDonald 's CEO,speed,restaurant openings
2007-05-24T18:41:00Z,Mortgage industry,reloads,subprime misery lingers
2007-05-24T19:01:00Z,Home Depot,offers apology to,investors
2007-05-24T19:18:00Z,State law,hurdle to,hostile Alcoa bid
2007-05-24T19:26:00Z,Goldman,leads,charge
2007-05-24T21:16:00Z,Wall Street,closes on,rate worries
2007-05-24T21:26:00Z,GE ecomagination unit,gaining,ground
2007-05-24T21:26:00Z,GE green ecomagination unit,gaining,ground
2007-05-25T04:26:00Z,GM,reach,deal
2007-05-25T04:26:00Z,UAW,reach deal on,jobs bank
2007-05-25T04:53:00Z,Adelphia founder,lose,appeal of criminal case
