2007-04-26T00:52:00Z,Apple profit,surges on,MacBook sales
2007-04-26T06:09:00Z,AOL,launches,India portal
2007-04-26T08:13:00Z,Lincoln National,explores,sale
2007-04-26T09:20:00Z,Nintendo,sell,DS software units
2007-04-26T09:58:00Z,Ford,eyed for,start
2007-04-26T10:13:00Z,Thermo Fisher Scientific profit,jumps on,merger
2007-04-26T10:32:00Z,Newell Rubbermaid posts,lower,profit
2007-04-26T12:49:00Z,Comcast profit,rises on,gain
2007-04-26T12:50:00Z,Halliburton profit,rises,in-line
2007-04-26T14:03:00Z,Exxon Mobil profit,boosted by,refineries
2007-04-26T14:28:00Z,3M,posts,stronger-than-expected profit
2007-04-26T15:28:00Z,Apple shares,surge after,earnings
2007-04-26T16:24:00Z,ABB net profit,soars in,Q1
2007-04-26T16:24:00Z,ABB profit,soars in,Q1
2007-04-26T16:46:00Z,$ 2.5 bln,in,financial arm IPO
2007-04-26T16:46:00Z,Sony,raise,bln in arm IPO
2007-04-26T17:02:00Z,Ford,results,beat estimates
2007-04-26T19:04:00Z,Investors,bet despite,soft quarter
2007-04-26T19:12:00Z,US Air posts profit,hits,shares
2007-04-26T21:08:00Z,Microsoft profit,rises on,Vista sales
2007-04-26T22:13:00Z,New Barbie Girls,sashay into,view
2007-04-26T22:13:00Z,view,with,MP-3
2007-04-26T23:42:00Z,McAfee profit,rises on,demand
2007-04-26T23:46:00Z,Citigroup,secures,control
2007-04-27T04:02:00Z,Sam,at,Club
2007-04-27T04:35:00Z,First Data deal,sparks spat between,JPMorgan
