2007-02-16T03:48:00Z,Key dealer,sees,Chrysler pickup truck share
2007-02-16T07:44:00Z,Chrysler CEO,seeks,deals
2007-02-16T07:44:00Z,deals,boost,sales
2007-02-16T09:41:00Z,Chrysler,GM in,talks on vehicle project
2007-02-16T09:41:00Z,GM,in,talks on vehicle project
2007-02-16T10:20:00Z,U.S. housing,are,investor focus
2007-02-16T10:45:00Z,Sapporo fight,fizzes on,Asahi
2007-02-16T11:34:00Z,Wal-Mart Japan unit,sees,return profit
2007-02-16T12:58:00Z,Visteon,posts,quarterly loss
2007-02-16T13:27:00Z,Apple,extend,negotiations
2007-02-16T13:27:00Z,Cisco,extend,negotiations on iPhone name
2007-02-16T14:03:00Z,January housing,starts down,14.3 percent
2007-02-16T14:06:00Z,Producer prices,fell,0.6 percent
2007-02-16T16:46:00Z,Ex Broadcom,may,may charged
2007-02-16T18:20:00Z,Wal-Mart report,should give clues on,year
2007-02-16T18:21:00Z,first profit decline,in,4 years
2007-02-16T19:25:00Z,Campbell,raises,outlook
2007-02-16T19:27:00Z,BBVA,builds U.S. muscle with,bln Compass
2007-02-16T20:48:00Z,U.S. retail sales goals,in,Feburay
2007-02-16T22:02:00Z,CP Rail,declares,force majeure at Vancouver port
2007-02-16T22:38:00Z,Dell,hires Motorola executive for,consumer unit
2007-02-16T23:01:00Z,GM,in,early talks buy
2007-02-16T23:56:00Z,Dow,ends at,scores best week since November
2007-02-16T23:56:00Z,record,week since,November
2007-02-17T05:39:00Z,Goodyear loss,widens,strike weighs
2007-02-17T05:39:00Z,Goodyear quarterly loss,widens,strike weighs
