2007-04-25T00:05:00Z,Amazon,raises,'07 estimates
2007-04-25T00:53:00Z,Medtronic,appeal,patent ruling
2007-04-25T03:05:00Z,attempt,weaken,Sarbanes-Oxley
2007-04-25T05:10:00Z,Jarden,buy K2 for,bln
2007-04-25T08:24:00Z,EU,clears,GE 's buy of two Abbott diagnostics units
2007-04-25T08:26:00Z,ABN AMRO,back,RBS group bid proposal
2007-04-25T08:26:00Z,TCI,urges,ABN AMRO
2007-04-25T09:01:00Z,Reuters Q1 revenue,rises,6.5 pct
2007-04-25T09:01:00Z,Reuters Q1 underlying revenue,rises,6.5 pct
2007-04-25T11:05:00Z,Wall Street,set earnings flow for,start
2007-04-25T11:44:00Z,General Dynamics profit,rises on,sales
2007-04-25T12:19:00Z,Mark,leaving,CEO post
2007-04-25T12:20:00Z,UPS profit,falls due,layoff charges
2007-04-25T13:06:00Z,ConocoPhillips profit,rises on,gains from sales
2007-04-25T13:20:00Z,Durable goods orders,strong,investment
2007-04-25T13:20:00Z,goods orders,strong,investment
2007-04-25T14:03:00Z,New home sales,rise,2.6 pct
2007-04-25T14:38:00Z,Colgate profit rise,meets,view
2007-04-25T15:10:00Z,Alcoa,explores,possible sale of packaging business
2007-04-25T15:50:00Z,Anheuser-Busch profit,misses,view
2007-04-25T17:22:00Z,RBS group,unveils,bln bid plan
2007-04-25T18:25:00Z,Amazon bulls,have,field day
2007-04-25T19:10:00Z,Mexican companies,cap,tortilla prices
2007-04-25T19:10:00Z,companies,cap,tortilla prices
2007-04-25T19:14:00Z,Airbus workers,strike over,profit plan-unions
2007-04-25T19:16:00Z,ConocoPhillips profit,rises on,gains from sales
2007-04-25T19:43:00Z,Mexican government,renews,tortilla price accord
2007-04-25T19:43:00Z,government,renews,tortilla price accord
2007-04-25T20:01:00Z,Conoco,left out of,Venezuela 's Orinoco deals
2007-04-25T20:01:00Z,Venezuela,of,Orinoco deals
2007-04-25T21:22:00Z,Delta Air Lines,exit,bankruptcy
2007-04-25T21:24:00Z,America Movil net profit,jumps,52 pct
2007-04-25T21:24:00Z,America Movil profit,jumps,52 pct
2007-04-25T22:06:00Z,U.S. prosecutors,reviewing,RIM options grants
2007-04-25T22:27:00Z,Apple board,defends Jobs over,options grants
2007-04-25T23:19:00Z,Wendy,considers,possible sale
2007-04-25T23:23:00Z,Qualcomm,says,profit
2007-04-26T04:14:00Z,Boeing,raise,profit
2007-04-26T04:14:00Z,defense firms,raise,profit
