2007-07-17T10:38:00Z,U.S. strength,lifts,shares
2007-07-17T10:59:00Z,Apollo,mulling,exchange listing
2007-07-17T11:41:00Z,KeyCorp net,rises,8 percent on fee income growth
2007-07-17T12:10:00Z,Ford 's China 2007 vehicle shipments,seen up,30 pct
2007-07-17T12:10:00Z,Ford 's China vehicle shipments,seen up,30 pct
2007-07-17T12:15:00Z,Novartis,cuts,outlook
2007-07-17T13:18:00Z,Rebel investor,turn up,heat
2007-07-17T13:30:00Z,News Corp,reach,tentative bln deal
2007-07-17T15:27:00Z,J&J forecast,sours,quarterly results
2007-07-17T15:27:00Z,Weak J&J forecast,sours,strong results
2007-07-17T17:02:00Z,Coca-Cola,posts,profit
2007-07-17T17:27:00Z,Plains,buy,Pogo
2007-07-17T17:32:00Z,Merrill Lynch 's profit,jumps,31 percent
2007-07-17T18:44:00Z,CBOE profit,rises,31 pct
2007-07-17T19:54:00Z,Starbucks,shakes up,management
2007-07-17T19:59:00Z,Motorola,reshuffles,its business units
2007-07-17T20:38:00Z,ABN board member,bought shares before,TCI letter
2007-07-17T21:19:00Z,Dow,ends at,record
2007-07-17T21:20:00Z,Yahoo posts drop,in,profit
2007-07-17T22:03:00Z,Start,revamp of,NY economic arm
2007-07-17T23:30:00Z,Foods CEO,sorry for,Web posts
2007-07-17T23:30:00Z,Whole Foods CEO,sorry for,anonymous Web posts
2007-07-17T23:47:00Z,Intel profit margin woes,overshadow,earnings rise
2007-07-18T04:14:00Z,Air France interest,in,Iberia
2007-07-18T04:14:00Z,BA,shrugs off,Air France interest in Iberia
2007-07-18T04:26:00Z,KeyCorp net,rises,8 percent on fee income growth
