2007-09-28T02:35:00Z,Bidding groups,form for,for Wendy
2007-09-28T06:35:00Z,Freddie CEO,puts U.S. recession chance at,40-45 pct
2007-09-28T09:24:00Z,Greenspan,sees,recession chances
2007-09-28T10:58:00Z,Takeover talk,boosts,UK reinsurer Benfield
2007-09-28T12:31:00Z,Congress,Is missing,boat on credit raters
2007-09-28T14:31:00Z,Martha Stewart,clarifies,Kmart sales figure
2007-09-28T15:30:00Z,Forecasts,lose,shine
2007-09-28T18:46:00Z,GM,commits,$ 30 billion
2007-09-28T21:57:00Z,Fed officials,keep mind on,policy moves
2007-09-28T22:36:00Z,Wall Street,slips on,day of September
2007-09-28T22:52:00Z,GM,trades,jobs for concessions in UAW contract
2007-09-28T22:52:00Z,concessions,in,UAW contract
2007-09-29T04:00:00Z,Fed 's Lockhart,has,open mind
2007-09-29T04:23:00Z,UAW dissidents,ratifying,GM deal
