2007-10-04T00:17:00Z,ArvinMeritor,sees,4th-qtr results
2007-10-04T00:19:00Z,Each,lost,Wall St job costs
2007-10-04T00:49:00Z,Interstate,gets,30 days
2007-10-04T01:13:00Z,Each,lost,Wall St job costs
2007-10-04T08:14:00Z,Citigroup,in,talks with KKR on leveraged debt
2007-10-04T08:14:00Z,talks,with,KKR
2007-10-04T10:37:00Z,Countrywide,provide,option data
2007-10-04T12:46:00Z,Google,says,closing gap with China rival
2007-10-04T12:46:00Z,closing gap,with,China rival
2007-10-04T12:48:00Z,Jobless claims,rise in,latest week
2007-10-04T12:48:00Z,claims,rise in,latest week
2007-10-04T14:28:00Z,Factory orders,fall sharply in,August
2007-10-04T14:55:00Z,Pfizer,names,research chief
2007-10-04T15:13:00Z,Bear Stearns,sees,repricing
2007-10-04T15:13:00Z,Bear Stearns president,says,market tensions
2007-10-04T15:13:00Z,massive repricing,in,credit
2007-10-04T15:38:00Z,GM deal,clears,way for hires
2007-10-04T17:04:00Z,N.Rock loans,may top,$ 20 billion
2007-10-04T18:20:00Z,stability,in,U.S. commercial paper
2007-10-04T18:23:00Z,Countrywide,provide,internal records
2007-10-04T18:30:00Z,P&G,sells PHA technology to,Meredian
2007-10-04T19:03:00Z,Fed 's Fisher,says,credit markets
2007-10-04T19:04:00Z,Shareholders,approve,name change
2007-10-04T19:21:00Z,Wal-Mart,readies for,holiday price wars
2007-10-04T19:35:00Z,Office growth,shows,market
2007-10-04T19:35:00Z,Office rental growth,shows,market
2007-10-04T19:48:00Z,Daimler,gets,name change
2007-10-04T20:48:00Z,GE,restructure,lighting business
2007-10-04T21:36:00Z,Campbell Soup,realigns,North American business
2007-10-04T21:38:00Z,Alcoa,mln in,charges
2007-10-04T21:38:00Z,record $ 845 mln,in,charges
2007-10-04T21:53:00Z,RIM tops profit forecasts,predicts,strength
2007-10-04T21:56:00Z,Toy,recalls,fuel momentum
2007-10-04T21:57:00Z,U.S.,recalls,over 1/2 million toys for lead levels
2007-10-04T23:16:00Z,Nasdaq,amends,debt financing commitment
2007-10-04T23:29:00Z,Momentum,builds toward,ratification
2007-10-04T23:38:00Z,Wall St,bracing for,jobs data
2007-10-05T04:05:00Z,Bear Stearns exec,sees,need for 1 percent rate cut
2007-10-05T04:08:00Z,Merrill,silent on,job cut rumors
