2007-12-06T00:07:00Z,Bush,outline,5-year rate freeze plan
2007-12-06T00:37:00Z,BlackRock,thrives in,credit turmoil
2007-12-06T00:37:00Z,Opportunistic BlackRock,thrives in,credit turmoil
2007-12-06T00:53:00Z,husband,get,18 months
2007-12-06T00:57:00Z,ConAgra Foods,sees,Q2 earnings
2007-12-06T00:57:00Z,Q2 earnings,higher,planned
2007-12-06T01:03:00Z,Bristol,expects,at least 15 percent EPS growth
2007-12-06T03:05:00Z,Shallow first-half recession,seen for,U.S. economy
2007-12-06T03:05:00Z,Shallow recession,seen for,U.S. economy
2007-12-06T03:05:00Z,first-half recession,seen for,U.S. economy
2007-12-06T03:05:00Z,recession,seen for,U.S. economy
2007-12-06T04:42:00Z,Balanced China growth,in,world 's interest
2007-12-06T04:42:00Z,world,in,interest
2007-12-06T06:23:00Z,SIV fund,may,may half planned size
2007-12-06T06:23:00Z,SIV super fund,may,may half planned size
2007-12-06T08:01:00Z,Kazakhstan,has,right intervene
2007-12-06T08:43:00Z,Costco November sales,rise,9 pct
2007-12-06T08:43:00Z,Costco November same-store sales,rise,9 pct
2007-12-06T08:48:00Z,ECB,hold,rates
2007-12-06T09:08:00Z,Nikon,sees,surge
2007-12-06T09:08:00Z,surge,in,demand from LCD makers
2007-12-06T09:21:00Z,Moody,sees,sharp rise in defaults in 2008
2007-12-06T09:21:00Z,sharp rise,in,defaults
2007-12-06T10:03:00Z,OECD,advises,Fed
2007-12-06T11:41:00Z,House prices,falling,30 pct
2007-12-06T12:12:00Z,Group,proposes,mortgage framework
2007-12-06T13:24:00Z,RBS,allays,fears
2007-12-06T13:27:00Z,Washington,falling short on,response
2007-12-06T14:42:00Z,Target,warns on,December sales
2007-12-06T16:32:00Z,Lilly,bullish on,2008 earnings
2007-12-06T16:53:00Z,Polaris,recalls Ranger utility vehicles for,fire hazard
2007-12-06T17:22:00Z,Monster online jobs index,falls in,November
2007-12-06T17:34:00Z,Chrysler CEO,sees,$ 1.6 bln loss
2007-12-06T18:58:00Z,Air France,bidding for,Alitalia
2007-12-06T20:32:00Z,BOE,cuts,rates
2007-12-06T20:38:00Z,Avoiding foreclosures,in,interest of all
2007-12-06T20:50:00Z,30-year mortgage fall,remain,low
2007-12-06T20:50:00Z,mortgage fall,remain,low
2007-12-06T20:51:00Z,Home prices,may see,fall
2007-12-06T21:13:00Z,Coke CEO,designate,concern
2007-12-06T21:13:00Z,Kent,draws,praise
2007-12-06T21:22:00Z,Mortgage foreclosures,set,record
2007-12-06T21:47:00Z,News Corp executive,named,Dow Jones CEO
2007-12-06T21:48:00Z,MBIA,says,looking
2007-12-06T22:02:00Z,Ex-UnitedHealth CEO McGuire,forfeit,over $ 400 million
2007-12-06T22:06:00Z,SuperSIV plan,Is,needed
2007-12-06T22:35:00Z,White House,subprime,rescue plan
2007-12-06T22:37:00Z,Wall Street,flies on,mortgage plan
2007-12-06T22:38:00Z,Motorola,backs,fourth-quarter forecast
2007-12-06T22:47:00Z,Ex-UnitedHealth CEO McGuire,forfeit,over $ 400 million
2007-12-06T23:02:00Z,Subprime plan,may,may too little
2007-12-06T23:10:00Z,Ford,recalls,1.2 million trucks
2007-12-06T23:13:00Z,plan,stem,wave
2007-12-06T23:20:00Z,Americans,criticize plan from,sides
2007-12-06T23:56:00Z,Ex-UnitedHealth CEO McGuire,forfeit,over $ 400 million
2007-12-06T23:58:00Z,Apple iPhone,winning,corporate fans
2007-12-06T23:58:00Z,New Apple store,highlights,geniuses
