2007-01-24T00:28:00Z,Major hotel brands,see,big opportunity
2007-01-24T00:28:00Z,hotel brands,see opportunity in,Asia
2007-01-24T01:17:00Z,AMD,sees,challenging pricing
2007-01-24T02:13:00Z,it,hired,Goldman
2007-01-24T02:29:00Z,News Corp,joins,Chandlers ' bid for Tribune
2007-01-24T02:37:00Z,revenue woes,hurt,stock
2007-01-24T02:46:00Z,5 qtrs,in,red
2007-01-24T02:46:00Z,Sun Microsystems,turns,profit
2007-01-24T02:59:00Z,bid,end,bln Parmalat suit
2007-01-24T08:12:00Z,New York,exchanges close to,agreement
2007-01-24T10:01:00Z,Goldman,seek,Dominion deal
2007-01-24T10:01:00Z,Morgan Stanley,seek,Dominion deal
2007-01-24T11:10:00Z,Yahoo Japan profit,rises,20 pct
2007-01-24T12:43:00Z,Smurfit-Stone,posts,profit
2007-01-24T12:45:00Z,Unisys,posts,loss
2007-01-24T13:17:00Z,Ethan Allen profit,falls,sales slip
2007-01-24T13:17:00Z,Ethan Allen quarterly profit,falls,sales slip
2007-01-24T14:37:00Z,Home Depot,outlines,new CEO 's compensation plan
2007-01-24T15:42:00Z,WellPoint profit,jumps,23 percent
2007-01-24T17:47:00Z,Apple 's Jobs,questioned by,U.S. authorities
2007-01-24T19:37:00Z,McDonald 's net rises,expanding in,Asia
2007-01-24T19:37:00Z,McDonald 's quarterly net rises,expanding in,Asia
2007-01-24T19:48:00Z,Yahoo shares,rise,investors eye faster growth
2007-01-24T20:14:00Z,Wal-Mart,reorganizes,marketing
2007-01-24T20:15:00Z,Lawmakers,question,US Air
2007-01-24T20:15:00Z,US Air,Delta on,merger impact
2007-01-24T22:17:00Z,overseas expansion,in,07
2007-01-24T23:50:00Z,Siemens,makes,software buy
