2007-03-21T01:33:00Z,Colombia,may seek,Chiquita execs on militia payoffs
2007-03-21T06:34:00Z,PayPal customers,in,Europe number near 35 million
2007-03-21T07:36:00Z,Dutch Univar ups Chemcentral,bid price to,mln
2007-03-21T12:30:00Z,Court rules Forbes,defamed,Russia 's richest woman
2007-03-21T12:44:00Z,Police grill Total CEO,in,Iran
2007-03-21T14:56:00Z,JetBlue,cuts,2007 outlook
2007-03-21T15:08:00Z,Home loan demand,drops for,1st time
2007-03-21T18:17:00Z,Fed,holds,rates steady
2007-03-21T18:34:00Z,Morgan Stanley,wins,reversal of bln award
2007-03-21T19:32:00Z,Bush,meet,next week
2007-03-21T20:06:00Z,Starbucks,backs,2007 EPS
2007-03-21T20:41:00Z,Fed,holds,rates steady
2007-03-21T21:12:00Z,Motorola,warns of,Q1 loss
2007-03-21T22:50:00Z,Stocks,end up on,Fed view
2007-03-22T04:21:00Z,Subprime jitters,subside,funding found
