2007-07-23T23:50:00Z,Netflix,reports,first drop
2007-07-23T23:50:00Z,first drop,in,subscriptions
2007-07-24T01:31:00Z,GM 's Allison unit buyout,faces,hurdle
2007-07-24T07:31:00Z,Nissan Q1,keeps,f cast
2007-07-24T10:33:00Z,Stock futures,seen,mixed
2007-07-24T10:33:00Z,earnings,in,focus
2007-07-24T10:42:00Z,Bancrofts,discuss,Murdoch bid
2007-07-24T10:55:00Z,Matsushita,'s JVC,Sparx
2007-07-24T11:06:00Z,CME profit,rises,merger completed
2007-07-24T12:00:00Z,Lilly,beats,forecasts
2007-07-24T13:35:00Z,Lockheed Martin profit,rises on,system sales
2007-07-24T13:40:00Z,Northrop Grumman profit,rises on,tech sales
2007-07-24T14:01:00Z,CORRECTION-Lilly beats,raises,'07 view
2007-07-24T14:01:00Z,beats,raises,'07 view
2007-07-24T14:08:00Z,Lilly,beats,forecasts
2007-07-24T14:08:00Z,OPEC,reassures on,supply
2007-07-24T15:18:00Z,CME profit,rises,CBOT merger completed
2007-07-24T15:43:00Z,KKR,plays,hard ball
2007-07-24T15:44:00Z,benefit,in,China
2007-07-24T18:12:00Z,McDonald,'s structure,CFO retiring
2007-07-24T19:46:00Z,Hotelier Ian Schrager,draws,lessons
2007-07-24T19:48:00Z,widest CDS spreads,in,5 years
2007-07-24T20:45:00Z,Stocks,slide,housing concerns mount
2007-07-24T20:48:00Z,Centex,posts,quarterly loss
2007-07-24T20:53:00Z,proxy contest,with,Ceridian
2007-07-24T21:15:00Z,Subprime,hits,auto sector
2007-07-24T21:24:00Z,Chubb posts,raises,view
2007-07-24T22:31:00Z,AMO,revise,takeover bid
2007-07-24T22:31:00Z,Bausch,asks,AMO
2007-07-24T22:31:00Z,Lomb,asks,AMO
2007-07-24T22:46:00Z,Bancroft Dow Jones decision,seen,next week
2007-07-24T23:20:00Z,Apple,falls on,initial iPhone activation numbers
2007-07-25T04:54:00Z,Skype,seeks,sales
