2007-06-29T01:01:00Z,GM,selling,Allison
2007-06-29T02:13:00Z,Ex-HealthSouth CEO Scrushy,sentenced to,prison
2007-06-29T03:49:00Z,Fed,easing,inflation
2007-06-29T06:31:00Z,Palm profit drops,expects,iPhone effect
2007-06-29T06:31:00Z,Palm quarterly profit drops,expects,iPhone effect
2007-06-29T08:39:00Z,Ex-HealthSouth CEO Scrushy,sentenced to,prison
2007-06-29T10:31:00Z,NBC CEO,says,discipline behind Dow decision
2007-06-29T12:55:00Z,U.S. soldiers,kill,4 Afghan civilians
2007-06-29T14:34:00Z,UAW,announce,Delphi pact vote
2007-06-29T15:47:00Z,UAW members,ratify,deal
2007-06-29T17:01:00Z,Inflation gauge,eases,Midwest activity
2007-06-29T17:39:00Z,Apple,of,iPhone
2007-06-29T17:45:00Z,Regulators,tighten,lending rules
2007-06-29T17:58:00Z,Apple,giving iPhones to,employees
2007-06-29T18:12:00Z,Continental,raise,fees
2007-06-29T18:12:00Z,United,raise fees on,high fuel prices
2007-06-29T19:39:00Z,Bear Stearns,shakes up,asset management unit
2007-06-29T20:29:00Z,Commerce Bancorp,replaces,fixes governance
2007-06-29T20:29:00Z,Commerce Bank CEO,presided,scandal
2007-06-29T21:32:00Z,Wall Street,drops on,credit concerns
2007-06-29T22:40:00Z,Apple iPhone launch,draws,gadget geeks
2007-06-29T22:49:00Z,Female ex-employees,sue,Hallburton
2007-06-29T22:49:00Z,ex-employees,sue,KBR
2007-06-29T23:02:00Z,AT&T,buy Dobson for,$ 2.8 billion
2007-06-29T23:12:00Z,Gadget fans,speak out,out iPhone lines
2007-06-29T23:12:00Z,doors,greeted by,cheers
2007-06-29T23:12:00Z,open doors,greeted by,cheers
2007-06-29T23:19:00Z,U.N. chief,in,Afghanistan
2007-06-29T23:55:00Z,SEC,sues company over,alleged takeover bids
2007-06-29T23:56:00Z,Last state charges,in,HP spying case
2007-06-29T23:57:00Z,SEC,sues firm over,alleged bogus takeover bids
