2007-12-22T00:08:00Z,SEC,launches,Web tool
2007-12-22T00:23:00Z,Banks,abandon,plan
2007-12-22T00:35:00Z,Alcoa,sells packaging unit for,$ 2.7 billion
2007-12-22T02:30:00Z,$ 319 mln,in,back taxes
2007-12-22T03:21:00Z,Goldman 's Blankfein,gets,$ 67.9 million bonus
2007-12-22T11:22:00Z,Home sales,may extend,Santa rally
2007-12-22T11:22:00Z,rates,may extend,Santa rally
