2007-12-31T06:18:00Z,Pakistani stocks,tumble after,Bhutto killing
2007-12-31T06:18:00Z,stocks,tumble after,Bhutto killing
2007-12-31T08:16:00Z,Game Group,sees,year profit
2007-12-31T10:05:00Z,China Development Bank,gets,$ 20 billion state funding
2007-12-31T10:56:00Z,Union,in,talks with UK airport operator on strikes
2007-12-31T10:56:00Z,talks,with,UK airport operator
2007-12-31T12:31:00Z,Pakistan markets,tumble after,Bhutto killing
2007-12-31T13:23:00Z,Mylan,gets,FDA
2007-12-31T14:58:00Z,M/I Homes,sells,land
2007-12-31T14:58:00Z,land,exits,Florida market
2007-12-31T15:57:00Z,largest yearly rise,in,30 years
2007-12-31T19:04:00Z,Wachovia,may face,mortgage write-downs
2007-12-31T19:05:00Z,Merrill,in,talks for bigger boost to capital
2007-12-31T19:29:00Z,Merrill top Wall St underwriters,in,2007
2007-12-31T20:36:00Z,Oil,sees,biggest annual gain
2007-12-31T21:36:00Z,Existing home sales,edge up from,record low
2007-12-31T21:36:00Z,home sales,edge up from,record low
2007-12-31T21:40:00Z,Shares,hurt by,tax selling
2007-12-31T22:10:00Z,Nortel,settle,patent dispute
2007-12-31T22:10:00Z,Vonage,settle,patent dispute
2008-01-01T05:13:00Z,35 percent stake,in,Delta Petroleum
