2007-10-27T00:17:00Z,BEA shares,drop as,Oracle bid deadline approaches
2007-10-27T02:00:00Z,Icahn,threatens,proxy fight
2007-10-27T11:32:00Z,Countrywide projects,return,profit
2007-10-27T14:44:00Z,Chrysler workers,ratify,labor pact
2007-10-27T16:46:00Z,Sony upbeat,sees,larger game loss
