2008-11-02T10:48:00Z,Saudis,offer funds to,IMF
2008-11-02T15:05:00Z,Market woes,overshadow,U.S. election
2008-11-02T15:29:00Z,Lloyds TSB,could face,rival bid for HBOS
2008-11-02T15:37:00Z,Sanyo head,agrees to,Panasonic takeover
2008-11-02T16:25:00Z,Boeing machinists,approve,contract
2008-11-02T19:01:00Z,Cash-strapped West,looks to,wary Gulf funds
2008-11-02T19:01:00Z,West,looks to,wary Gulf funds
2008-11-02T19:02:00Z,UK 's Brown,seeks,cash
2008-11-02T19:04:00Z,Cash-strapped West,looks to,wary Gulf funds
2008-11-02T19:04:00Z,West,looks to,wary Gulf funds
