2008-08-29T02:23:00Z,Mazda,halves,08/09 sales
2008-08-29T05:56:00Z,Michelin,scraps,due slowdown
2008-08-29T06:11:00Z,Dell profits,disappoint,tech spending weakens
2008-08-29T06:12:00Z,Dell,sees,voices
2008-08-29T06:39:00Z,Court,dismisses,lawsuit
2008-08-29T07:10:00Z,Novartis,stopping,trial
2008-08-29T09:47:00Z,Linens,may file,restructuring
2008-08-29T09:47:00Z,Things,may file,restructuring
2008-08-29T11:23:00Z,Suitmakers,hit,retailers want
2008-08-29T11:23:00Z,retailers,want,discounts
2008-08-29T11:47:00Z,Google,go with,Yahoo deal
2008-08-29T13:33:00Z,Carrefour,reassures,investors
2008-08-29T13:41:00Z,Procter CEO compensation,falls,15 percent
2008-08-29T14:20:00Z,Personal income,falls in,July
2008-08-29T14:20:00Z,income,falls unexpectedly in,July
2008-08-29T17:01:00Z,Microsoft,buys,ciao.com
2008-08-29T17:02:00Z,Electric fault,spurs,big GM recall
2008-08-29T17:04:00Z,GM,offers retirement to,U.S. salaried staff
2008-08-29T20:14:00Z,Palin drilling advocate,spars with,oil companies
2008-08-29T20:23:00Z,Dell,warns on,tech spending
2008-08-29T20:23:00Z,Stocks,tumble,Dell warns
2008-08-29T22:55:00Z,More volatility,seen with,hurricane
2008-08-29T22:55:00Z,volatility,seen with,hurricane
2008-08-29T23:31:00Z,Lenders,mulling,new offer in Alabama debt standoff
2008-08-29T23:31:00Z,mulling,new offer in,Alabama debt standoff
2008-08-29T23:31:00Z,new offer,in,Alabama debt standoff
