2008-06-14T00:34:00Z,Consumers ' mood,sinks in,June
2008-06-14T00:52:00Z,CPI,calms,inflation fear
2008-06-14T00:52:00Z,tame CPI,calms,inflation fear
2008-06-14T01:12:00Z,Republic Services,makes,bln bid for Allied Waste
2008-06-14T03:25:00Z,Saudis,planning,July oil output increase
2008-06-14T05:28:00Z,Microsoft,offered search deal for,Yahoo stake
2008-06-14T05:50:00Z,Paulson repeats,support for,dollar
2008-06-14T12:50:00Z,G8,frets over,commodity shock
