2008-03-29T00:08:00Z,IAC 's Diller,wins,court battle with Liberty
2008-03-29T00:08:00Z,court battle,with,Liberty
2008-03-29T01:08:00Z,Channel documents,reveal,credit proposal
2008-03-29T01:08:00Z,Clear Channel documents,reveal,credit proposal
2008-03-29T01:28:00Z,Northwest,gives,Delta merger nod
2008-03-29T01:38:00Z,Stocks,may stumble earnings view on,jobs
2008-03-29T11:45:00Z,German ministry,denies,Bundesbank gold sale report
2008-03-29T11:45:00Z,ministry,denies,Bundesbank gold sale report
2008-03-29T22:50:00Z,Lehman,hit by,fraud
