2008-09-13T11:16:00Z,Bankruptcy chief,calls,urgent Alitalia union talks
2008-09-13T12:36:00Z,Walgreen,buy,Longs
2008-09-13T17:29:00Z,Lehman 's worries,spill over to,nearby businesses
2008-09-13T17:29:00Z,Obama,favors,solution to Lehman woes
2008-09-13T18:28:00Z,India 's Nano car deadlock,continues,talks fail
2008-09-13T18:50:00Z,McCain,favor,private solution to Lehman woes
2008-09-13T18:50:00Z,Obama,favor,solution
2008-09-13T22:31:00Z,Fed 's options,limited,Lehman talks fail
2008-09-13T23:03:00Z,Alitalia,faces,abyss
2008-09-13T23:03:00Z,Berlusconi,calls on,unions
2008-09-13T23:53:00Z,Lehman fate,in,balance
2008-09-14T04:52:00Z,EADS,denies,backing
