2008-04-23T01:18:00Z,Court,upholds,Netflix throttling settlement
2008-04-23T02:01:00Z,Yahoo,overshadows,Microsoft earnings
2008-04-23T02:05:00Z,EBay,sues Craigslist over,alleged stake dilution
2008-04-23T09:10:00Z,Merrill,tap,debt markets
2008-04-23T09:10:00Z,banks,tap debt markets after,losses
2008-04-23T09:10:00Z,other banks,tap debt markets after,losses
2008-04-23T10:00:00Z,Volkswagen 's results,in,line
2008-04-23T10:17:00Z,UBS architect Ospel,leaves,battered bank
2008-04-23T10:29:00Z,Yahoo CEO,open to,deal alternatives
2008-04-23T10:29:00Z,Yahoo profit,beats,estimates
2008-04-23T10:32:00Z,oil prices,are at,Why record high
2008-04-23T10:39:00Z,Ambac,posts,loss
2008-04-23T11:02:00Z,Schering-Plough profit,falls on,merger charges
2008-04-23T12:07:00Z,SEC,refuses,say
2008-04-23T12:12:00Z,Boeing shares,rise on,profit
2008-04-23T12:12:00Z,Dollar,vexes,Infineon
2008-04-23T12:12:00Z,bid talk,boosts,shares
2008-04-23T12:25:00Z,Ambac shares,extend,losses
2008-04-23T12:31:00Z,Jefferies,raises,Yahoo price target
2008-04-23T13:16:00Z,General Dynamics profit,rises on,combat systems
2008-04-23T14:07:00Z,Northwest,loses,$ 4 billion
2008-04-23T14:50:00Z,GM,sees,industry sales
2008-04-23T15:05:00Z,GE,hikes goal to,$ 3 billion
2008-04-23T15:22:00Z,Sovereign Bancorp net,doubles despite,loan losses
2008-04-23T15:27:00Z,Merrill Lynch,warning,UK staff of job losses
2008-04-23T15:55:00Z,Northwest profit,hammered by,fuel
2008-04-23T17:38:00Z,Rice,surges to,new high on supply worries
2008-04-23T17:56:00Z,Microsoft CEO,walk away from,Yahoo bid
2008-04-23T17:58:00Z,Merrill,laying off,energy traders
2008-04-23T18:44:00Z,profit,beats,forecasts
2008-04-23T19:31:00Z,Modelo margins,hurt,Anheuser-Busch profit
2008-04-23T21:55:00Z,Ambac,posts,loss
2008-04-23T22:09:00Z,Apple profit,rises on,iPod sales
2008-04-23T22:37:00Z,Tech sector 's gains,lift,Wall St.
2008-04-23T23:06:00Z,Amazon 's pricing,means,lower margins
2008-04-23T23:09:00Z,Justice Dept,looking at,Google/Yahoo test
2008-04-23T23:23:00Z,Starbucks slashes outlook,blames,housing meltdown
2008-04-23T23:47:00Z,2008 view,disappoints,some
2008-04-23T23:47:00Z,view,disappoints,some
2008-04-23T23:51:00Z,Apple,says,confident
2008-04-23T23:51:00Z,Apple CFO,expects,flat gross margin in 3rd-quarter
2008-04-23T23:51:00Z,Apple profit,margins,letdown
2008-04-23T23:51:00Z,flat gross margin,in,3rd-quarter
2008-04-24T04:04:00Z,UPS,expects,continued U.S. export growth
