2008-10-09T01:55:00Z,Citi,extend,cease-fire
2008-10-09T01:55:00Z,Wells Fargo,extend,cease-fire
2008-10-09T05:58:00Z,Wachovia talks,hit snag over,division of assets
2008-10-09T08:36:00Z,China,ease,property policy
2008-10-09T08:58:00Z,Property,can still bruise,Asia 's banks
2008-10-09T09:24:00Z,Financial crisis,weighs on,executives ' minds
2008-10-09T09:31:00Z,Korean banks,next in,line for government rescue
2008-10-09T09:31:00Z,banks,next in,line for government rescue
2008-10-09T10:45:00Z,LG,Display,Taiwan LCD makers profits
2008-10-09T11:25:00Z,Financial crisis,weighs on,executives ' minds
2008-10-09T11:25:00Z,Iceland,in,crisis
2008-10-09T11:25:00Z,S.Korea,joins,rate cuts
2008-10-09T11:27:00Z,National City,in,sale talks
2008-10-09T11:37:00Z,Aviva,bolster,Aegon
2008-10-09T11:37:00Z,Barclays eyes,own,investors
2008-10-09T11:45:00Z,IBM 's earnings strength,calms,tech jitters
2008-10-09T12:53:00Z,Jobless claims,fall in,latest week
2008-10-09T12:53:00Z,claims,fall in,week
2008-10-09T13:00:00Z,Wall St.,set on,IBM boost
2008-10-09T13:21:00Z,JP Morgan,sees,more large-cap banks
2008-10-09T14:14:00Z,Jobless claims,drop,hurricane impact fades
2008-10-09T14:14:00Z,claims,drop,hurricane impact fades
2008-10-09T14:49:00Z,safe-havens,fall amid,market calm
2008-10-09T14:53:00Z,Mining stocks,in,choppy waters
2008-10-09T15:19:00Z,Funds,favor,vanilla
2008-10-09T15:19:00Z,Oil drop,may hit,supply growth
2008-10-09T15:37:00Z,Pimco,bid,BlackRock
2008-10-09T15:38:00Z,Bush,promises,action
2008-10-09T15:38:00Z,Global auto market,may collapse in,2009
2008-10-09T15:38:00Z,Global auto market may collapse,in,2009
2008-10-09T15:38:00Z,auto market,may collapse in,2009
2008-10-09T15:38:00Z,strong action,in,financial crisis
2008-10-09T16:00:00Z,Hartford,Metlife held,merger talks
2008-10-09T17:27:00Z,Treasury,may capitalize,banks
2008-10-09T17:35:00Z,Nat City,gains on,deal talk
2008-10-09T17:39:00Z,machinist union,resume,talks
2008-10-09T18:29:00Z,PM,urges,calm
2008-10-09T18:29:00Z,Party,is over,over Iceland
2008-10-09T18:29:00Z,UK councils,hit by,storm
2008-10-09T18:41:00Z,Canada,rated,world 's soundest bank system
2008-10-09T19:17:00Z,Recession fears,drag,ADRs lower
2008-10-09T19:25:00Z,GM shares,fall to,level
2008-10-09T19:25:00Z,Global auto market,may collapse in,2009
2008-10-09T19:25:00Z,Global auto market may collapse,in,2009
2008-10-09T19:25:00Z,auto market,may collapse in,2009
2008-10-09T19:46:00Z,GM,skids,24 percent
2008-10-09T19:46:00Z,Oil,hits,demand outweighs OPEC
2008-10-09T19:49:00Z,AIG,on,spending
2008-10-09T19:49:00Z,Insurers shares,sink amid,concerns
2008-10-09T19:49:00Z,Senate,demands,answers
2008-10-09T20:38:00Z,Stock market,plunges in,selloff
2008-10-09T20:58:00Z,Plunge,in,RIM 's shares
2008-10-09T20:58:00Z,RIM,in,shares
2008-10-09T20:58:00Z,gauge,closes at,record
2008-10-09T21:07:00Z,Clothing chains,stumble,shoppers cut back
2008-10-09T21:08:00Z,SEC,charges,Reade execs
2008-10-09T21:26:00Z,Wachovia talks,with,Wells Fargo
2008-10-09T22:23:00Z,Nasdaq interest,falls 10percrent in,late Sept
2008-10-09T22:23:00Z,Nasdaq short interest,falls 10percrent in,Sept
2008-10-09T22:27:00Z,GM shares,drop to,global risks
2008-10-09T22:39:00Z,Citigroup,ends,talks
2008-10-09T22:39:00Z,Wachovia,ends,talks
2008-10-09T23:09:00Z,Stocks,shake,decade 's shadow
2008-10-09T23:44:00Z,Biggest changes,in,Nasdaq
2008-10-09T23:51:00Z,Citi,ends,talks on Wachovia
2008-10-09T23:51:00Z,talks,with,Wells Fargo
2008-10-09T23:54:00Z,Perfect storm,hits markets,G7 meets
2008-10-09T23:56:00Z,Biggest changes,in,NYSE short interest
2008-10-09T23:56:00Z,Dow,dives,678.91
2008-10-10T04:07:00Z,Paulson,considering,bank injections
2008-10-10T04:07:00Z,Treasury,may capitalize,banks
2008-10-10T04:28:00Z,Perfect storm,hits markets,G7 meets
2008-10-10T04:36:00Z,Treasury,may capitalize,banks
