2008-03-30T02:03:00Z,U.S. car companies,go to,black
2008-03-30T08:22:00Z,Abu Dhabi 's Mubadala,in,talks buy into U.S. firm
2008-03-30T14:24:00Z,Stocks,may trip on,jobs
2008-03-30T14:57:00Z,Tesco,puts,brakes
2008-03-30T14:58:00Z,Brigdepoint,plan,bln bid
2008-03-30T21:48:00Z,Lehman,hit by,$ 355 million
