2008-03-07T01:12:00Z,Foreclosures,falls at,record
2008-03-07T01:12:00Z,Many subprime loans,were,misunderstood
2008-03-07T01:12:00Z,household wealth,falls at,record
2008-03-07T01:12:00Z,subprime loans,were,misunderstood
2008-03-07T06:26:00Z,Old grudges,feed,uproar over Airbus tanker
2008-03-07T06:26:00Z,grudges,feed,uproar over Airbus tanker
2008-03-07T06:53:00Z,Saudi oil minister,says,speculation
2008-03-07T06:53:00Z,oil minister,says,speculation
2008-03-07T06:53:00Z,speculation,driving,prices
2008-03-07T07:24:00Z,GE,complains to,U.S. trade body
2008-03-07T07:31:00Z,Fed,faces mix on,prices
2008-03-07T08:32:00Z,Ambac,raises,$ 1.5 billion
2008-03-07T09:20:00Z,Siemens CEO,says,restructure abroad
2008-03-07T10:14:00Z,WaMu,seek,equity cash
2008-03-07T10:14:00Z,lenders,seek,equity cash
2008-03-07T10:14:00Z,other lenders,seek,equity cash
2008-03-07T11:13:00Z,Cohen,faces,battle over funds
2008-03-07T11:13:00Z,Steers,faces,proxy battle
2008-03-07T11:16:00Z,Japan government,picks Muto for,central bank governor
2008-03-07T12:16:00Z,Ford,MoU within,2 weeks
2008-03-07T13:45:00Z,Citigroup,mulls,changes at U.S. consumer unit
2008-03-07T13:48:00Z,Fight,looms over,shares for EADS
2008-03-07T13:50:00Z,Air France,could cut,jobs
2008-03-07T13:52:00Z,MBIA,cuts,price for execs
2008-03-07T14:10:00Z,Citigroup CEO,denies,S.Korea unit sale talk
2008-03-07T14:30:00Z,Apple,unveils,iPhone software creation tools
2008-03-07T14:30:00Z,Apple iPhone,targets RIM with,corporate e-mail
2008-03-07T14:34:00Z,Carlyle affiliate,warns on,cash
2008-03-07T15:30:00Z,Audible shareholder,opposes,proposed Amazon deal
2008-03-07T15:30:00Z,shareholder,opposes,proposed Amazon deal
2008-03-07T15:53:00Z,Intel,fight,EU charges
2008-03-07T16:02:00Z,900 more jobs,in,Brazil
2008-03-07T16:02:00Z,GM,add,900 jobs in Brazil
2008-03-07T16:24:00Z,Fed,expands,auctions
2008-03-07T16:50:00Z,UAL,raises,fuel surcharge
2008-03-07T16:57:00Z,Jobs report,ends,U.S. recession debate
2008-03-07T18:43:00Z,Ambac,raises,$ 1.5 billion
2008-03-07T18:57:00Z,U.S. missteps,weaken influence with,OPEC
2008-03-07T19:06:00Z,CEO,was,How much paid
2008-03-07T19:06:00Z,Goldman Sachs CEO,gets,$ 100 mln
2008-03-07T19:10:00Z,Fed,ease,liquidity pressures
2008-03-07T19:10:00Z,Fed 's Kohn doubts,coordinated,global policy benefit
2008-03-07T19:10:00Z,Fed 's Mishkin-Central banks,must watch,forex swings
2008-03-07T19:10:00Z,Fed 's banks,must watch,forex swings
2008-03-07T19:18:00Z,Modest U.S. sales,rebound,seen
2008-03-07T19:18:00Z,U.S. sales,rebound,seen
2008-03-07T19:18:00Z,seen,at,McDonald
2008-03-07T19:31:00Z,Bush,says,clear
2008-03-07T19:38:00Z,PIMCO 's Gross,bought,Thornburg paper recently-CNBC
2008-03-07T19:57:00Z,ECB officials,warn of,commodity price danger
2008-03-07T19:58:00Z,S&P,sees,U.S. growth slowing
2008-03-07T20:49:00Z,Democrats,slam Bush on,jobs
2008-03-07T22:12:00Z,Recession fears,rise on,more job cuts
2008-03-07T22:39:00Z,GM,says,8 more plants affected by supplier strike
2008-03-07T22:41:00Z,Fewer U.S. companies,planning,job cuts
2008-03-07T22:41:00Z,U.S. companies,planning,job cuts
2008-03-07T23:11:00Z,Congressional panel rips,subprime,CEOs ' pay
2008-03-07T23:11:00Z,panel rips,subprime,CEOs ' lavish pay
2008-03-07T23:44:00Z,job data,deepens,woe
2008-03-07T23:46:00Z,Stocks,may fall anew on,recession fears
2008-03-07T23:48:00Z,Fed,boosts,auction size
2008-03-07T23:51:00Z,Airbus,rejects,backlash over tanker deal
2008-03-08T05:53:00Z,J&J 's disc,implant in for,design changes
2008-03-08T05:53:00Z,J&J 's spinal disc,implant in for,design changes
