2008-11-22T23:22:00Z,free trade,ease,crisis
2008-11-22T23:22:00Z,trade,ease,crisis
2008-11-22T23:23:00Z,China,offers,help
2008-11-22T23:23:00Z,Obama,sees,long haul
2008-11-23T01:55:00Z,S.Korea officials,meet,markets
2008-11-23T04:30:00Z,Virgin America,sees,fuel hedge opportunity
2008-11-23T04:36:00Z,Obama 's Cabinet,take,shape
2008-11-23T11:30:00Z,Geithner 's experience,shapes,him
2008-11-23T12:22:00Z,Fiscal stimulus,tackle,crisis
2008-11-23T13:21:00Z,Jaguar,in,UK govt talks for 1 bln stg loan
2008-11-23T16:53:00Z,Obama taps Geithner,Summers for,top economic jobs
2008-11-23T17:11:00Z,Summers,gets,chance
2008-11-23T19:20:00Z,China,basks in,APEC limelight
2008-11-23T19:20:00Z,Japan PM,seeks,end
2008-11-23T19:20:00Z,island dispute,with,Russia
2008-11-23T19:20:00Z,oil consortium,in,Venezuela
2008-11-23T21:16:00Z,Black Friday sales,intensify in,downturn
2008-11-23T21:16:00Z,Friday sales,intensify in,downturn
2008-11-23T21:49:00Z,APEC leaders,promise,swift action
2008-11-23T21:56:00Z,White House,says,unaware of Citigroup rescue talks
2008-11-23T22:58:00Z,Citi buyout,could boost,Goldman
2008-11-23T23:44:00Z,Retail sales struggle,in,early November
2008-11-23T23:57:00Z,Citi eyes,putting,assets
2008-11-24T05:47:00Z,plan,boost,economy
