2008-08-31T15:48:00Z,180 mmcfd gas,shut in,Gulf
2008-08-31T15:48:00Z,Exxon,says,180 mmcfd gas shut in Gulf
2008-08-31T19:13:00Z,Alitalia,faces,union talks
2008-08-31T19:46:00Z,Terms,details of,Commerzbank/Dresdner deal
2008-08-31T20:26:00Z,Lehman,nears,plan
2008-08-31T21:24:00Z,Gustav,threatens,commods
2008-09-01T04:22:00Z,More volatility,seen with,hurricane
2008-09-01T04:22:00Z,volatility,seen with,hurricane
2008-09-01T04:28:00Z,LOOP,shuts,operations
2008-09-01T04:29:00Z,solace,in,gadgets
