2008-07-10T00:55:00Z,US Airways,drops,in-flight movies
2008-07-10T00:56:00Z,Bloomberg,reorganizes,management
2008-07-10T01:08:00Z,Polished veteran Steel,named,Wachovia CEO
2008-07-10T01:08:00Z,Wachovia names Steel CEO,sees,loss
2008-07-10T01:08:00Z,veteran Steel,named,Wachovia CEO
2008-07-10T05:33:00Z,Sandelman Partners,restructures,master fund
2008-07-10T08:46:00Z,7 years,in,jail
2008-07-10T08:46:00Z,S.Korea,seeks,7 years in jail
2008-07-10T08:46:00Z,Samsung,for,Lee
2008-07-10T11:21:00Z,BoE,keeps,interest rate steady at 5.0 percent
2008-07-10T11:21:00Z,interest rate,steady at,5.0 percent
2008-07-10T12:06:00Z,Banking woes,push stocks towards,low
2008-07-10T12:11:00Z,BoE,holds,interest rates
2008-07-10T12:11:00Z,analysts,see,eventual cut
2008-07-10T13:08:00Z,OPEC nets bumper revenues,in,2007
2008-07-10T14:07:00Z,Commercial paper,falls in,week
2008-07-10T14:07:00Z,Commercial paper outstanding,falls in,latest week
2008-07-10T14:07:00Z,paper,falls in,week
2008-07-10T14:07:00Z,paper outstanding,falls in,latest week
2008-07-10T14:17:00Z,Fannie,spreads on,capital worries
2008-07-10T14:51:00Z,Loomis Sayles,' Fannie,Freddie debt
2008-07-10T15:03:00Z,White House,focusing on,legislation for Fannie
2008-07-10T15:04:00Z,UBS,widens,'08 loss view for Freddie
2008-07-10T15:32:00Z,Abercrombie same-store sales,in,down June
2008-07-10T15:32:00Z,J.C. Penney June sales,fall,2.4 percent
2008-07-10T15:32:00Z,J.C. Penney June same-store sales,fall,2.4 percent
2008-07-10T15:32:00Z,Kohl 's June sales,rise,2.3 percent
2008-07-10T15:32:00Z,Kohl 's June same-store sales,rise,2.3 percent
2008-07-10T15:32:00Z,TJX sales,in,June
2008-07-10T17:28:00Z,New Wachovia CEO,has,pedigree
2008-07-10T18:35:00Z,Freddie,has,enough capital
2008-07-10T18:35:00Z,Freddie woes,reflect,economy
2008-07-10T18:44:00Z,GM CEO,says,speculation of inaccurate
2008-07-10T18:50:00Z,Bernanke,support,U.S. accounting convergence
2008-07-10T18:50:00Z,Paulson,support,U.S. accounting convergence
2008-07-10T18:58:00Z,Tech earnings growth,running out of,steam
2008-07-10T19:18:00Z,Fed,says,private equity good source of capital
2008-07-10T19:30:00Z,Fannie,tells,Bloomberg
2008-07-10T20:06:00Z,GE 's planned spin-off signals,failed,auction
2008-07-10T20:06:00Z,GE 's spin-off signals,failed,auction
2008-07-10T20:06:00Z,GE eyes,spin-off for,consumer-industrial unit
2008-07-10T21:06:00Z,Costco,benefit from,gas sales
2008-07-10T21:22:00Z,AIG,fall on,loss fears
2008-07-10T21:22:00Z,mortgage insurers,fall on,loss fears
2008-07-10T21:22:00Z,other mortgage insurers,fall on,loss fears
2008-07-10T22:06:00Z,Department stores,lead,sales declines
2008-07-10T22:42:00Z,U.S.,needs,overhaul
2008-07-10T22:42:00Z,Yellen,says,Fed rate policy
2008-07-10T22:52:00Z,Chevron,sees loss in,second quarter
2008-07-10T23:15:00Z,Viacom 's Redstone,in,talks buy
2008-07-10T23:27:00Z,Stocks,rise on,Dow Chemical deal
2008-07-10T23:52:00Z,Dow,sees,debt investment grade
2008-07-11T04:03:00Z,Yahoo,offer,its search services
2008-07-11T04:11:00Z,OPEC,sees,lower oil demand
