2008-08-17T13:23:00Z,Morgan Stanley,sees,finance crisis pain
2008-08-17T15:30:00Z,Qwest,come to,agreement with labor union
2008-08-17T15:30:00Z,agreement,with,labor union
2008-08-17T18:40:00Z,American Eagle,could,could investor bargain
2008-08-17T18:40:00Z,Eagle,could,could investor bargain
2008-08-17T18:43:00Z,Broadcom stock,poised,grow
2008-08-17T22:26:00Z,Analysts,expecting,large loss from Lehman
2008-08-17T22:26:00Z,expecting,loss from,Lehman
2008-08-18T04:20:00Z,Oil,'s fall,rise key to gains
2008-08-18T04:20:00Z,Oil 's fall,key to,gains
