2008-06-27T01:12:00Z,Yahoo,reorganizes businesses under,Decker
2008-06-27T02:44:00Z,Investors,see,higher risk
2008-06-27T03:39:00Z,News Corp,may bid on,Premiere
2008-06-27T06:47:00Z,Web animation site aniBoom,raises,$ 10 million
2008-06-27T08:44:00Z,Premiere,says,unaware of News Corp bid plans
2008-06-27T09:08:00Z,China Mobile,says,iPhone talks scale
2008-06-27T09:18:00Z,Futures,point to,recovery
2008-06-27T09:36:00Z,SEC,proposes,gas reporting rules
2008-06-27T10:30:00Z,Bristol-Myers,could,could acquisition target
2008-06-27T13:33:00Z,Anheuser-Busch,sees,profit above analysts ' view
2008-06-27T13:45:00Z,Merrill,falls,3.2 percent
2008-06-27T13:45:00Z,analyst,sees,write-down
2008-06-27T16:37:00Z,U.S. convertible issuance,in,2nd quarter
2008-06-27T16:37:00Z,U.S. corporate bond sales dip,sales at,2000 low
2008-06-27T17:08:00Z,Paine Webber sale,in,review
2008-06-27T17:08:00Z,UBS,considers,Paine Webber sale
2008-06-27T17:14:00Z,Inflation losses,keep,consumers glum
2008-06-27T18:06:00Z,Morgan Stanley shares,fall,Moody 's says
2008-06-27T18:08:00Z,Dow industrials,enter,bear market territory
2008-06-27T18:26:00Z,NYMEX crude oil,extends peak,equities sink
2008-06-27T18:26:00Z,NYMEX oil,extends,peak
2008-06-27T18:27:00Z,Legg manager,support,Yahoo
2008-06-27T18:29:00Z,Dow,crosses into,bear market territory
2008-06-27T19:37:00Z,Anheuser,selling,energy drinks
2008-06-27T19:37:00Z,Anheuser holders,ax,board
2008-06-27T19:37:00Z,Anheuser-Busch,rejecting,InBev
2008-06-27T19:37:00Z,Hostile bid,could get,ugly
2008-06-27T19:37:00Z,InBev,files,suit
2008-06-27T19:37:00Z,bid,could get,ugly
2008-06-27T19:41:00Z,Oil,hits record on,rising investor flows
2008-06-27T19:42:00Z,Global M&A,drops,35 pct
2008-06-27T19:42:00Z,M&A,drops,35 pct
2008-06-27T19:51:00Z,Senior senators,warn on,Fed-SEC bank info deal
2008-06-27T19:51:00Z,senators,warn on,bank info deal
2008-06-27T20:22:00Z,Anheuser,speeded cost cuts after,InBev offer
2008-06-27T20:37:00Z,Market,ends,Dow on cusp of bear market
2008-06-27T21:02:00Z,Consumer spending,jumps,stimulus checks land
2008-06-27T21:43:00Z,Lockheed,gets,US launch contract
2008-06-27T22:21:00Z,Senate,confirms,two others
2008-06-27T22:34:00Z,Fed,SEC on,bank pact
2008-06-27T22:34:00Z,senators,tell,Fed
2008-06-27T23:59:00Z,Senate,confirms,two others
2008-06-28T04:29:00Z,Merrill,may write down,$ 5.4 billion in Q2
