2008-02-09T00:01:00Z,denial,in,U.S. subprime crisis
2008-02-09T02:28:00Z,Yahoo board,strategizes on,Microsoft bid
2008-02-09T04:28:00Z,Feb 9 G7 finmin meeting,in,Tokyo
2008-02-09T04:47:00Z,Wall St,stumbles aversion on,risk
2008-02-09T07:28:00Z,World economy,faces,downside risks
2008-02-09T08:50:00Z,Morgan Stanley,denies,report India BPO
2008-02-09T10:19:00Z,UK,for,FKI
2008-02-09T10:33:00Z,Japan,may submit,BOJ governor plan
2008-02-09T13:01:00Z,Global markets,face,turmoil
2008-02-09T13:01:00Z,Regulators,deliver,assessment
2008-02-09T13:01:00Z,markets,face,turmoil
2008-02-09T14:58:00Z,Europe,keeps up,pressure
2008-02-09T14:58:00Z,G7,gives,China nod
2008-02-09T16:26:00Z,G7 leaders,turn,pessimistic on economy
2008-02-09T17:32:00Z,Canada finmin,wants budget before,election
2008-02-09T18:34:00Z,Yahoo board,set to,rebuff Microsoft bid
2008-02-09T21:29:00Z,Yahoo,rebuff Microsoft bid as,too low
2008-02-09T23:28:00Z,SEC,eyes,disclosure
2008-02-09T23:28:00Z,disclosure,in,subprime probes
2008-02-10T05:47:00Z,Paris broker,released in,SocGen trading case
