2008-05-18T02:53:00Z,Airlines CEO,open to,majority takeover
2008-05-18T02:53:00Z,Austrian Airlines CEO,open to,majority takeover
2008-05-18T07:56:00Z,Dubai 's Tecom,in,talks with Dell
2008-05-18T07:56:00Z,talks,with,Dell
2008-05-18T08:02:00Z,Westpac,boost,St George bid
2008-05-18T12:14:00Z,Garmin,is,mystery bidder for Raymarine
2008-05-18T14:56:00Z,KDB,ends,talks with Goldman
2008-05-18T14:56:00Z,talks,with,Goldman
2008-05-18T18:02:00Z,GM,end,strike
2008-05-18T18:26:00Z,Highlights,with,UAW
2008-05-18T19:11:00Z,Housing,holds,key
2008-05-18T19:11:00Z,recession,Is,off
2008-05-18T20:32:00Z,Investors,laud,Icahn 's Yahoo move
2008-05-18T20:32:00Z,Paulson hedge fund,backs,Icahn 's Yahoo slate
2008-05-18T20:32:00Z,Yahoo,accept,Microsoft bid
2008-05-18T22:36:00Z,Microsoft,proposes,deal
2008-05-19T04:29:00Z,UAW,urges,adoption of cost-cutting Axle deal
2008-05-19T04:59:00Z,Retail properties,dressed for,distress
2008-05-19T04:59:00Z,properties,dressed for,distress
