2008-11-26T20:27:00Z,GM shares,jump on,bailout outlook
2008-11-26T22:56:00Z,Wall Street,jumps on,tech rebound
2008-11-27T00:21:00Z,GM,shedding,Pontiac
2008-11-27T01:28:00Z,Iceland 's Glitnir,seeks,protection
2008-11-27T02:15:00Z,Assets Rio,may look,sell
2008-11-27T03:25:00Z,Wall Street,jumps on,tech rebound
2008-11-27T08:46:00Z,BHP,gloomy on,term
2008-11-27T08:46:00Z,Rio,may have,BHP walks
2008-11-27T10:02:00Z,Euro zone business climate,hits,low
2008-11-27T12:51:00Z,World stocks,hit,2-week highs
2008-11-27T14:50:00Z,Judge,urges,Bank of NY
2008-11-27T14:54:00Z,Nokia,says,shipping first phone
2008-11-27T15:09:00Z,sales,in,Japan
2008-11-27T19:50:00Z,Oil,falls,demand worries weigh
2008-11-27T21:38:00Z,European rate,cut,sought
2008-11-27T21:38:00Z,rate,cut,sought
2008-11-27T22:14:00Z,GM,asks,government
2008-11-27T22:14:00Z,government,block,tracking
2008-11-28T05:16:00Z,700 jobs,in,Germany
