2008-11-13T00:29:00Z,Crocs shares,melt,dour outlook
2008-11-13T01:18:00Z,Intel 's shock warning,sounds,alarm
2008-11-13T04:18:00Z,CB Richard Ellis share sale,could net,$ 180 million
2008-11-13T06:02:00Z,Citigroup,in,talks buy
2008-11-13T07:38:00Z,Top hedge fund managers,face,lawmakers
2008-11-13T07:38:00Z,hedge fund managers,face,lawmakers
2008-11-13T07:45:00Z,U.S.,insure,wholesale deposits
2008-11-13T07:57:00Z,McDonald,well positioned in,face
2008-11-13T07:58:00Z,Japan,offer,IMF
2008-11-13T07:58:00Z,Private equity executives,offer,forecast
2008-11-13T07:58:00Z,equity executives,offer,forecast
2008-11-13T08:47:00Z,opportunity,loom in,2009
2008-11-13T09:15:00Z,NY 's Cuomo,seeking,data
2008-11-13T10:08:00Z,OECD,sees,recession hitting
2008-11-13T10:08:00Z,window shoppers,in,China
2008-11-13T10:08:00Z,world,finds,window shoppers
2008-11-13T11:04:00Z,Germany,falls into,recession
2008-11-13T13:04:00Z,World stocks,hit,low
2008-11-13T13:07:00Z,China,settles,WTO information row
2008-11-13T13:31:00Z,healing,in,credit markets
2008-11-13T13:39:00Z,Euro zone,Nowotny 's,ECB
2008-11-13T13:40:00Z,Credit crisis,threatens,Africa 's development
2008-11-13T14:00:00Z,Jobless claims,higher,expected
2008-11-13T14:00:00Z,claims,higher,expected
2008-11-13T14:29:00Z,Ranieri 's Franklin Bank,files,Chapter 7 bankruptcy
2008-11-13T14:47:00Z,Intel 's shock warning,sounds,alarm
2008-11-13T15:41:00Z,Tech shares,fall after,Intel warning
2008-11-13T16:02:00Z,6 pct,in,08
2008-11-13T16:02:00Z,Fund managers,testify at,Congress
2008-11-13T16:05:00Z,Congress,should amend,auto loan program
2008-11-13T16:07:00Z,Soros,says,recession inevitable possible
2008-11-13T16:07:00Z,deep recession,possible,depression
2008-11-13T16:07:00Z,deep recession inevitable,possible,depression
2008-11-13T16:07:00Z,recession,possible,depression
2008-11-13T16:07:00Z,recession inevitable,possible,depression
2008-11-13T16:20:00Z,Asda,attracts,shoppers
2008-11-13T16:56:00Z,CBS,stabilize,Viacom
2008-11-13T17:31:00Z,Retailers,see,more returns
2008-11-13T17:31:00Z,some,loosen,policy
2008-11-13T17:42:00Z,Private equity executives,offer,forecast
2008-11-13T17:42:00Z,equity executives,offer,forecast
2008-11-13T17:51:00Z,Oil,could rebound in,year
2008-11-13T18:23:00Z,SEC,aiding,deals
2008-11-13T19:08:00Z,Lawmakers,challenge,banks
2008-11-13T19:41:00Z,Fed 's Stern,targeting,asset bubbles
2008-11-13T20:13:00Z,Dodd,backs,auto industry action
2008-11-13T20:36:00Z,$ 2.8 billion loss,in,fiscal 08
2008-11-13T20:36:00Z,U.S. Postal Service,has,loss
2008-11-13T21:10:00Z,quant traders,limit,risk
2008-11-13T21:10:00Z,traders,limit,risk
2008-11-13T21:23:00Z,Congress,should aid,automakers
2008-11-13T21:32:00Z,Germany,feel,pain of downturn
2008-11-13T21:38:00Z,U.S. economy,faces,stress
2008-11-13T22:09:00Z,UK 's Brown,calls for,joint action
2008-11-13T22:19:00Z,Video game makers,predict,jingle bells
2008-11-13T22:32:00Z,Jobless claims,hit,high imports plunge
2008-11-13T22:32:00Z,claims,hit,25-year high imports plunge
2008-11-13T22:44:00Z,Bargain hunters,lift,S&P
2008-11-13T22:44:00Z,Dow 553 points,S&P up,7 percent
2008-11-13T23:36:00Z,Buffett 's Berkshire,falls,share
2008-11-13T23:39:00Z,Nordstrom,cut year views,holidays loom
2008-11-13T23:58:00Z,execs,buy,1.3 million shares
2008-11-13T23:58:00Z,other execs,buy,1.3 million shares
2008-11-14T05:15:00Z,Goldman,suspends,GM rating
