2008-11-17T22:59:00Z,Japan,in,recession
2008-11-18T00:04:00Z,Pressure,cut,bonuses
2008-11-18T00:04:00Z,Wall Street bonus outlook,dims Goldman on,Citi
2008-11-18T03:24:00Z,Detroit,seeks,bailout
2008-11-18T03:24:00Z,Honda,opens,new U.S. plant
2008-11-18T03:55:00Z,SEC,charges,Mark Cuban
2008-11-18T06:49:00Z,Global chip makers eye sales drop,in,2009
2008-11-18T07:18:00Z,Gift card sales,seen down,6 percent
2008-11-18T10:01:00Z,Yahoo,seen,unlikely
2008-11-18T10:24:00Z,Mazda,announces,CEO
2008-11-18T12:43:00Z,Banks,hit,oil slides
2008-11-18T12:43:00Z,economy,hit,stocks
2008-11-18T13:02:00Z,Medtronic net profit,falls,14 percent
2008-11-18T13:02:00Z,Medtronic profit,falls,14 percent
2008-11-18T13:02:00Z,Medtronic quarterly net profit,falls,14 percent
2008-11-18T13:02:00Z,Medtronic quarterly profit,falls,14 percent
2008-11-18T13:42:00Z,HP fourth quarter,results,reassure
2008-11-18T13:42:00Z,HP preliminary fourth quarter,results,reassure
2008-11-18T13:42:00Z,HP preliminary quarter,results,reassure
2008-11-18T13:42:00Z,HP quarter,results,reassure
2008-11-18T14:24:00Z,HP preliminary profit,beats,Wall St. view
2008-11-18T14:24:00Z,HP profit,beats,Wall St. view
2008-11-18T14:42:00Z,October producer prices,fall,record 2.8 percent
2008-11-18T15:55:00Z,Wal-Mart,says,gas price drop
2008-11-18T15:56:00Z,U.S. Sept inflows,swell to,to peak
2008-11-18T15:56:00Z,U.S. Sept net inflows,swell to,to peak
2008-11-18T16:33:00Z,Yahoo shares,soar,Yang agrees
2008-11-18T16:33:00Z,Yang,quit,CEO post
2008-11-18T17:45:00Z,plan,sell,Mazda stake
2008-11-18T17:51:00Z,Global chip makers,lower,2009 sales outlook
2008-11-18T17:51:00Z,chip makers,lower,2009 sales outlook
2008-11-18T18:04:00Z,2009,shaping up worse For,homebuilders
2008-11-18T18:35:00Z,Aegon,may buy,thrift company
2008-11-18T18:50:00Z,Home Depot profit,beats,Wall St. view
2008-11-18T19:29:00Z,Bair,testify on,bailout
2008-11-18T20:29:00Z,Caterpillar CEO,sees,demand
2008-11-18T20:57:00Z,Yahoo shares,soar,Yang agrees
2008-11-18T20:57:00Z,Yang,quit,CEO post
2008-11-18T21:01:00Z,recession fears,drag down,markets
2008-11-18T21:12:00Z,Boeing shares,fall to,5-year low
2008-11-18T21:25:00Z,Citigroup shares,tumble to,low
2008-11-18T21:35:00Z,GE,plans,$ 2 billion in finance arm cuts
2008-11-18T21:54:00Z,Bank,sees,credit card losses
2008-11-18T21:57:00Z,Wall Street barrels,in,late rally
2008-11-18T22:02:00Z,HP,sees,stronger-than-expected 2009
2008-11-18T22:42:00Z,Mexican tycoon Salinas,sets eyes on,Circuit City
2008-11-18T22:42:00Z,tycoon Salinas,sets eyes on,Circuit City
2008-11-18T22:43:00Z,La-Z-Boy posts loss,suspends,forecasts
2008-11-18T22:43:00Z,La-Z-Boy posts wider loss,suspends,forecasts
2008-11-18T22:59:00Z,U.S. insurance regulation,in,focus
2008-11-18T23:05:00Z,KLA-Tencor,cut,jobs
2008-11-18T23:05:00Z,TiVo,cut,jobs
2008-11-18T23:47:00Z,Congress,fund,bailout
2008-11-19T05:01:00Z,Ford,abandons,Mazda control
2008-11-19T05:14:00Z,Producer prices,set,drop
2008-11-19T05:25:00Z,Microchip,drop,hostile bid
