2008-10-25T00:47:00Z,Citadel,end,talk of liquidations
2008-10-25T00:50:00Z,U.S. banks,announce,cash infusions
2008-10-25T00:56:00Z,U.S. changes,announcing,cash infusions
2008-10-25T01:49:00Z,Wall Street,drops on,worries about slowdown
2008-10-25T01:49:00Z,Wall Street demo,gets,traction
2008-10-25T01:55:00Z,U.S. banks,announce,cash infusions
2008-10-25T02:56:00Z,Banks,getting,capital
2008-10-25T14:10:00Z,Bush,urges,common global principles
2008-10-25T16:47:00Z,AIG,borrows,$ 90.3 billion
2008-10-25T16:47:00Z,Company debt costs,may rise,trade sours
2008-10-25T16:47:00Z,Emerging market pain,adds to,bank capital strain
2008-10-25T16:47:00Z,Treasury,seeks,dealer views
2008-10-25T16:47:00Z,banks,receiving,capital
2008-10-25T16:47:00Z,market pain,adds to,bank capital strain
2008-10-25T19:46:00Z,Icelanders,call,PM resign
2008-10-25T19:46:00Z,PM,resign over,crisis
2008-10-25T21:30:00Z,Asia,ease,crisis
2008-10-25T21:30:00Z,Belarus,seeks help in,crisis
2008-10-25T21:30:00Z,Cash-strapped Belarus,seeks,Russian help
2008-10-25T22:10:00Z,Fed,questions,counterparties about Citadel
