2008-12-01T20:36:00Z,Pilgrim 's files,weighs on,rivals
2008-12-02T00:23:00Z,Jury,clears,Chevron of charges
2008-12-02T00:23:00Z,charges,in,Nigeria clash
2008-12-02T02:43:00Z,EU,broaches,stimulus spending
2008-12-02T02:43:00Z,Germany,bares,teeth
2008-12-02T03:37:00Z,Australian PM,says,economic forecasts
2008-12-02T03:37:00Z,PM,says,forecasts at risk
2008-12-02T07:44:00Z,Boeing engineers,approve,work contract
2008-12-02T12:09:00Z,Nokia,unveils,N97 touch screen phone
2008-12-02T12:18:00Z,Aussies,heading,home
2008-12-02T12:18:00Z,Bank,expands,collateral
2008-12-02T12:18:00Z,Crisis,prompts,Credit Suisse
2008-12-02T12:18:00Z,EU Commission,pledges,new bank aid rules
2008-12-02T12:18:00Z,HSBC,axe,bank jobs
2008-12-02T12:20:00Z,Crisis,prompts,Credit Suisse
2008-12-02T12:20:00Z,HSBC,axe,UK jobs
2008-12-02T13:17:00Z,UnitedHealth,sees,enrollment
2008-12-02T13:55:00Z,Tumbling vehicle sales,prompt,output cuts
2008-12-02T13:55:00Z,vehicle sales,prompt,output cuts
2008-12-02T14:42:00Z,Automakers,face,hurdles
2008-12-02T16:07:00Z,Bargain-hunters,save,sales
2008-12-02T16:26:00Z,UBS,widens,Goldman Q4 loss view
2008-12-02T16:32:00Z,Greenberg,wants,more info from AIG on U.S. deal
2008-12-02T16:40:00Z,Delta,cuts,capacity
2008-12-02T16:40:00Z,capacity,deeper,economy bites
2008-12-02T16:55:00Z,Broker analyst,sees,$ 9 billion Goldman write-downs
2008-12-02T17:48:00Z,Government,expands,tax probe
2008-12-02T19:25:00Z,Delta,cuts,capacity
2008-12-02T19:25:00Z,capacity,deeper,economy bites
2008-12-02T20:34:00Z,Oil,drops,4.7 percent down from record
2008-12-02T21:21:00Z,Tiffany,sees,charges in Q4
2008-12-02T21:21:00Z,charges,in,Q4
2008-12-02T21:33:00Z,Europe,bolster,banks
2008-12-02T21:46:00Z,Hoyer,hopes,next week
2008-12-02T22:32:00Z,Shares,rebound with,confidence boost from GE
2008-12-02T22:38:00Z,Chrysler,says,needs emergency bridge loan
2008-12-02T23:07:00Z,Fed officials,play down,risk
2008-12-02T23:14:00Z,British Airways,in,merger talks with Qantas
2008-12-02T23:14:00Z,merger talks,with,Qantas
2008-12-02T23:34:00Z,New York Times,sees,charge
2008-12-02T23:36:00Z,Chevron,optimize,business
2008-12-02T23:50:00Z,AIG,terminate,debt obligations
2008-12-02T23:50:00Z,deal,in AIG,U.S.
2008-12-02T23:53:00Z,Admin repeats,support for,auto aid
2008-12-02T23:53:00Z,Automakers,viability for,aid
2008-12-02T23:53:00Z,Chrysler,says,needs emergency bridge loan
2008-12-02T23:53:00Z,Ford,of,plans submitted to Congress
2008-12-02T23:53:00Z,UAW,calls,Wednesday meeting to brief members
2008-12-02T23:53:00Z,Washington,stands on,auto bailout
2008-12-02T23:53:00Z,company,for,survival
2008-12-03T05:35:00Z,analysts,see,bigger loss
