2008-03-10T06:48:00Z,Strains,drive,bank rates
2008-03-10T08:31:00Z,SAS inks compensation,deal with,Bombardier
2008-03-10T08:31:00Z,aircraft deal,with,Bombardier
2008-03-10T08:36:00Z,HSBC shares,jump,as stake in China BoCom
2008-03-10T08:36:00Z,bigger stake,in,China BoCom
2008-03-10T08:53:00Z,Spain 's Cintra,gets,financing for Texas toll road
2008-03-10T09:03:00Z,Volkswagen,aims by,2018
2008-03-10T09:38:00Z,Fannie Mae CEO,visits investors in,Europe
2008-03-10T09:42:00Z,Bangladesh,buy,8 Boeing planes
2008-03-10T09:51:00Z,Recession woes,rattle,investors
2008-03-10T10:42:00Z,Carlyle Capital,asks for,standstill from lenders
2008-03-10T11:25:00Z,Chevron,develop,two gas projects in Asia
2008-03-10T11:25:00Z,two major gas projects,in,Asia
2008-03-10T11:49:00Z,Global losses,hit,$ 215 billion
2008-03-10T11:49:00Z,Global subprime losses,hit,$ 215 billion
2008-03-10T11:49:00Z,losses,hit,$ 215 billion
2008-03-10T11:49:00Z,subprime losses,hit,$ 215 billion
2008-03-10T11:55:00Z,moguls,plan US car sales in,2009
2008-03-10T12:22:00Z,Wall Street,sees,earnings growth
2008-03-10T12:29:00Z,DuPont,sees,seed market growth
2008-03-10T12:29:00Z,seed market growth,in,Eastern Europe
2008-03-10T13:06:00Z,Countrywide,drops on,FBI probe report
2008-03-10T13:21:00Z,Porsche,seeking,75 pct Volkswagen stake
2008-03-10T13:25:00Z,United Rentals,in,MOU
2008-03-10T14:15:00Z,Verizon Wireless,sees,double-digit revenue growth
2008-03-10T14:17:00Z,Citi,sees,bln writedowns
2008-03-10T14:38:00Z,Bank lending,strained,banks on alert
2008-03-10T15:00:00Z,U.S. wholesale inventories,sales in,up January
2008-03-10T15:00:00Z,sales,in,up January
2008-03-10T15:15:00Z,News Corp 's Murdoch,more pessimistic on,U.S. econ
2008-03-10T15:21:00Z,Markets,working through,excesses
2008-03-10T15:24:00Z,Arab entrepreneurs,seek,riches
2008-03-10T15:24:00Z,entrepreneurs,seek,new riches south of Sahara
2008-03-10T15:24:00Z,new riches,south of,Sahara
2008-03-10T15:24:00Z,riches,south of,Sahara
2008-03-10T15:39:00Z,Fannie Mae CEO,visits investors in,Europe
2008-03-10T15:40:00Z,Dow Jones,buys,Betten Financial News
2008-03-10T15:41:00Z,$ 1.1 bln upgrade deal,in,Q2
2008-03-10T15:41:00Z,studios,see,bln upgrade deal
2008-03-10T15:45:00Z,Anheuser-Busch CEO,awarded,mln
2008-03-10T15:49:00Z,Merck obesity drug,falls,short
2008-03-10T16:32:00Z,Gasoline prices,hit,new high
2008-03-10T17:02:00Z,American Axle,resume in,Detroit
2008-03-10T17:02:00Z,UAW talks,resume in,Detroit
2008-03-10T17:09:00Z,peace,oil on,Mideast trip
2008-03-10T17:18:00Z,U.S. economy,seen,shrinking
2008-03-10T17:20:00Z,Lehman,cutting,5 pct of work force
2008-03-10T17:46:00Z,U.S.,shows,growth
2008-03-10T17:53:00Z,Adidas shares,rise on,talk of Nike interest
2008-03-10T18:10:00Z,Credit markets,are,wrong
2008-03-10T18:31:00Z,Air France-KLM,puts,conditions
2008-03-10T18:49:00Z,US FDA staff,seeks,input on Amgen clot drug risks
2008-03-10T18:56:00Z,Battle,heads to,court
2008-03-10T19:32:00Z,SocGen,raised successfully,5.5 bln euros
2008-03-10T19:34:00Z,Bear Stearns ' Greenberg,dismisses,cash crunch talk
2008-03-10T19:34:00Z,Bear Stearns debt protection,costs,jump
2008-03-10T19:53:00Z,Oil,record,$ 108 on dollar
2008-03-10T20:10:00Z,EU envoy,sees,tanker
2008-03-10T20:10:00Z,Northrop,forecasts,tanker jobs
2008-03-10T21:02:00Z,Exxon,names,Dolan vice president
2008-03-10T22:19:00Z,EU,launches,probe
2008-03-10T22:24:00Z,Market,falls on,credit fears
2008-03-10T23:02:00Z,Exxon Mobil,keep,Argentine assets
2008-03-10T23:37:00Z,Liberty,'s Malone,Diller ran
2008-03-10T23:37:00Z,he,owned,it
2008-03-10T23:53:00Z,Australia 's Challenger,gets,takeover offer
2008-03-11T04:04:00Z,Barclays,add,about 30 commodity traders
2008-03-11T04:08:00Z,Ivory Coast,sees,'08 oil output
2008-03-11T04:09:00Z,Berkshire,sells White Mountains stake for,$ 836 mln
2008-03-11T04:23:00Z,Countrywide shares,fall after,FBI probe reports
2008-03-11T04:37:00Z,Credit Suisse,expands,commodities/energy staff
2008-03-11T04:41:00Z,GM Europe,cut,jobs
2008-03-11T04:46:00Z,Daimler,awaits,light
