2008-11-13T21:50:00Z,Top hedge funds,see,more rules
2008-11-13T21:50:00Z,hedge funds,see,more rules
2008-11-14T00:56:00Z,Intel 's shock warning,sounds,alarm
2008-11-14T00:59:00Z,Citigroup shares,drop,pressure
2008-11-14T01:30:00Z,AMD,backs forecast,Intel warns
2008-11-14T08:40:00Z,Q3,lifts EADS despite,new charge
2008-11-14T08:40:00Z,Strong Q3,lifts EADS despite,charge
2008-11-14T09:49:00Z,Italy,joins,euro zone set
2008-11-14T10:41:00Z,French economy,grew in,Q3
2008-11-14T10:41:00Z,OECD,sees,recession hitting
2008-11-14T10:41:00Z,Pakistan,counts on,China loans
2008-11-14T10:41:00Z,Serbia 's deal,totals,$ 516 million
2008-11-14T10:41:00Z,Serbia 's standby deal,totals,$ 516 million
2008-11-14T10:41:00Z,economy,escaping,recession
2008-11-14T10:43:00Z,China,warns,Sarkozy
2008-11-14T11:52:00Z,Pakistan,seeks,IMF bailout
2008-11-14T12:09:00Z,EU,might complain over,U.S. car plan
2008-11-14T12:09:00Z,Insurers,pull cover from,suppliers to GM
2008-11-14T12:11:00Z,Merrill financial advisers,accept,BofA bonus
2008-11-14T12:11:00Z,Most Merrill financial advisers,accept,BofA bonus
2008-11-14T12:16:00Z,Fed,buy,their paper
2008-11-14T12:16:00Z,Honda,want,Fed
2008-11-14T12:16:00Z,others,want,Fed
2008-11-14T12:17:00Z,Citigroup stock,may stay in,digits
2008-11-14T12:34:00Z,Downturn,may reshuffle banks in,energy
2008-11-14T13:15:00Z,Euro zone,in,recession
2008-11-14T13:59:00Z,J.C. Penney profit,falls,53 percent
2008-11-14T14:20:00Z,Nokia,sees,weaker market
2008-11-14T16:02:00Z,Retail sales,in,record fall
2008-11-14T16:03:00Z,October retail sales,suffer,decline
2008-11-14T16:03:00Z,October sales,suffer,decline
2008-11-14T16:04:00Z,Stunning price drop,lifts,consumers ' mood
2008-11-14T16:04:00Z,price drop,lifts,consumers ' mood
2008-11-14T18:24:00Z,GM failure,already priced by,credit market
2008-11-14T18:24:00Z,White House,speed up,loans
2008-11-14T18:45:00Z,Abercrombie,results,add to fears
2008-11-14T18:45:00Z,Penney,results,add to retail fears
2008-11-14T19:02:00Z,Financial crises,in,last 40 years
2008-11-14T20:22:00Z,G20,must produce,action
2008-11-14T20:29:00Z,Oil,falls on,economic weakness
2008-11-14T20:35:00Z,Paulson,says,additional bank capital
2008-11-14T21:08:00Z,Bretton Woods gold/dollar,peg at,G20
2008-11-14T21:13:00Z,Nokia,sees,cellphone
2008-11-14T21:13:00Z,gear market,falling in,2009
2008-11-14T21:17:00Z,Nokia,sees,cellphone
2008-11-14T21:17:00Z,gear market,falling in,2009
2008-11-14T21:26:00Z,G20,must produce,action
2008-11-14T21:30:00Z,U.S. stocks,fall on,dismal economic outlook
2008-11-14T21:43:00Z,Canada,argue against,global controls
2008-11-14T21:43:00Z,White House,says,Democrats heading for gridlock on autos
2008-11-14T21:46:00Z,W.House,says,Democrats heading for gridlock on autos
2008-11-14T22:10:00Z,Senate,take up,auto bailout
2008-11-14T22:12:00Z,Wall Street,sells off,consumers snap
2008-11-14T22:48:00Z,Europe,in,recession
2008-11-14T22:48:00Z,U.S.,in,pain
2008-11-14T23:11:00Z,G20,support,accounting independence
2008-11-14T23:12:00Z,COO,becomes,head
2008-11-14T23:31:00Z,G20 leaders,rescue,Doha round
2008-11-14T23:34:00Z,Citigroup,cut,10 percent
2008-11-14T23:50:00Z,Reid,says,Bush proposal for unacceptable
2008-11-15T05:15:00Z,Top bankers,say,ready for action
2008-11-15T05:15:00Z,Top central bankers,say,ready for action
2008-11-15T05:15:00Z,bankers,say,ready for action
2008-11-15T05:15:00Z,central bankers,say,ready for action
