2008-06-07T02:24:00Z,Dow,falls on,record oil
2008-06-07T02:29:00Z,Jobless rate,leaps to,3-1/2 year high in May
2008-06-07T02:29:00Z,rate,leaps to,3-1/2 year high
2008-06-07T13:29:00Z,Singapore 's Unisteel,accepts,KKR bid
