2009-07-06T07:58:00Z,China officials,displacing,dollar
2009-07-06T08:54:00Z,Hybrids,boost,Toyota car sales
2009-07-06T10:49:00Z,report,more bidders for,VW package
2009-07-06T11:12:00Z,Brave M&A,rewarded by,market
2009-07-06T11:12:00Z,Brave post-Lehman M&A,rewarded by,market
2009-07-06T11:51:00Z,Resurgent fears,hit,stocks
2009-07-06T11:51:00Z,fears,hit,stocks
2009-07-06T12:35:00Z,2009,remains,dangerous year
2009-07-06T12:35:00Z,Italy,sets G8 evacuation plan in case of,quake
2009-07-06T12:41:00Z,EMC,raises,offer for Data Domain
2009-07-06T15:20:00Z,U.S. service sector,shrinks less in,June
2009-07-06T15:59:00Z,India ups,hits,markets
2009-07-06T15:59:00Z,deficit,hits,markets
2009-07-06T17:34:00Z,EMC,raises,offer for Data Domain
2009-07-06T18:36:00Z,Protectionism,could cause,extended harm
2009-07-06T19:11:00Z,Oil,falls on,economic recovery concerns
2009-07-06T21:21:00Z,2009,remains,dangerous year
2009-07-06T21:25:00Z,Rio,sells U.S. food packaging unit for,$ 1.2 billion
2009-07-06T21:46:00Z,Ricketts,reach,deal for Cubs
2009-07-06T21:46:00Z,Tribune,reach,deal for Cubs
2009-07-06T22:00:00Z,Treasury,twist,arms
2009-07-06T22:15:00Z,Lawyers,make,joust in AIG stock case
2009-07-06T22:15:00Z,final joust,in,AIG stock case
2009-07-06T22:45:00Z,Fitch,cuts debt rating As,California struggles
2009-07-06T23:19:00Z,Goldman breach,said,unrelated
2009-07-06T23:19:00Z,bail,in,theft case
2009-07-06T23:57:00Z,Judge,approves,sale
