2009-08-24T01:26:00Z,Dow Jones unit sale process,in,only early stages
2009-08-24T03:44:00Z,South Korea court,rejects,suit
2009-08-24T03:44:00Z,South Korea high court,rejects,suit
2009-08-24T09:33:00Z,Opel labor leader,threatens,action
2009-08-24T12:22:00Z,China,keep,policy loose
2009-08-24T12:22:00Z,economy,faces,new woes
2009-08-24T13:16:00Z,Opel labor leader,threatens,action
2009-08-24T14:54:00Z,Roubini,warns of,recession
2009-08-24T15:07:00Z,Opel workers,fire,shot
2009-08-24T17:23:00Z,Reader 's Digest,files,prearranged bankruptcy
2009-08-24T17:37:00Z,U.S. senator,wants,SEC market review
2009-08-24T17:47:00Z,AMD shares,rise,nearly 10 pct
2009-08-24T18:06:00Z,U.S. industry,grapples with,security
2009-08-24T18:06:00Z,U.S. payment-card industry,grapples with,security
2009-08-24T19:23:00Z,U.S. home lender Taylor Bean,files for,bankruptcy
2009-08-24T19:25:00Z,Oil prices,touch,10-month high
2009-08-24T20:43:00Z,U.S.,extends,auto clunker deadline
2009-08-24T21:10:00Z,U.S. stocks,falter on,worries
2009-08-24T22:47:00Z,GM,considers,raising
2009-08-24T23:17:00Z,Auto dealers,swamped,trade-in rebate ends
2009-08-24T23:18:00Z,BofA,plead for,Merrill bonus settlement
2009-08-24T23:18:00Z,Ex-Merrill executive,sues,BofA
2009-08-24T23:18:00Z,SEC,plead for,Merrill bonus settlement
2009-08-24T23:18:00Z,Wall Street,ends,flat
2009-08-24T23:18:00Z,investors,pause after,rally
2009-08-24T23:34:00Z,Allen Stanford,must stay in,jail-court
2009-08-25T04:42:00Z,Harvard University mulls,selling,outside holdings
