2009-05-13T01:13:00Z,Ford,raises,$ 1.4 billion
2009-05-13T06:12:00Z,Chrysler bankruptcy,may take up to,two years
2009-05-13T10:34:00Z,Intel 's rivalry,with,AMD
2009-05-13T11:21:00Z,Intel,appeal against,EU antitrust fine
2009-05-13T11:43:00Z,U.S.,looks at,sector pay overhaul
2009-05-13T12:47:00Z,U.S. foreclosures,record,high
2009-05-13T13:20:00Z,pressure,move on,Intel
2009-05-13T14:05:00Z,U.S. retail sales fall,in,April
2009-05-13T14:39:00Z,Citi 's Primerica,seeks,bids for marketing arm
2009-05-13T14:57:00Z,Apple,sets,tech conference date
2009-05-13T15:28:00Z,Geithner,says,system
2009-05-13T16:27:00Z,Rio shares,drop as,talk
2009-05-13T16:42:00Z,U.S. banks,move for,capital
2009-05-13T16:42:00Z,other U.S. banks,BofA move for,capital
2009-05-13T17:08:00Z,We,could exit,TARP
2009-05-13T17:26:00Z,pressure,move on,Intel
2009-05-13T18:03:00Z,Dr Pepper profit,beats,Street view
2009-05-13T19:29:00Z,U.S. officials,force,pay reforms
2009-05-13T20:15:00Z,Verizon,sells,phone lines
2009-05-13T20:18:00Z,IBM,confident despite,economy
2009-05-13T20:32:00Z,Big investors,point to,market recovery
2009-05-13T20:32:00Z,investors,point to,sustained market recovery
2009-05-13T20:35:00Z,U.S. retail sales,hurting,recovery hopes
2009-05-13T20:35:00Z,U.S. sales,hurting,recovery hopes
2009-05-13T20:57:00Z,U.S. regulators,regulating,OTC derivatives
2009-05-13T21:01:00Z,Wall Street,falls,angst resurfaces
2009-05-13T21:04:00Z,AIG,'s CEO,Trustees
2009-05-13T21:04:00Z,AIG 's CEO,called,answer by Congress
2009-05-13T21:27:00Z,U.S. regulators,regulating,OTC derivatives
2009-05-13T21:32:00Z,U.S. banking crisis,may last until,2013
2009-05-13T22:52:00Z,Ford,walks,tightrope
2009-05-13T23:00:00Z,Oil,falls,Wall Street drags
2009-05-13T23:32:00Z,SEC,proposes,suit
2009-05-13T23:45:00Z,Panasonic,posting,loss
2009-05-13T23:47:00Z,U.S. regulators,seek,OTC derivatives crackdown
2009-05-14T04:19:00Z,AT&T,proposes,labor deal
2009-05-14T04:31:00Z,AMD,benefit from,EU aid
2009-05-14T04:31:00Z,EU Commission,on,ruling on Intel
2009-05-14T04:31:00Z,EU exec,slaps record fine on,Intel
2009-05-14T04:31:00Z,Intel,sees up,order improvement
2009-05-14T04:31:00Z,Intel 's antitrust battle,with,EU
2009-05-14T04:31:00Z,Intel 's rivalry,with,AMD
