2009-10-05T00:43:00Z,KKR,leading in,bidding for Northrop unit
2009-10-05T00:48:00Z,Cambodia,rekindles stock market dream After,delays
2009-10-05T02:35:00Z,Goldman,owed,$ 1 billion
2009-10-05T05:27:00Z,U.S.-led consortium,buy,Volvo
2009-10-05T05:27:00Z,consortium,buy Volvo from,Ford
2009-10-05T08:28:00Z,Lehman administrator,dole out,assets
2009-10-05T09:25:00Z,Cautious HSBC CEO,warns,growing
2009-10-05T09:25:00Z,HSBC CEO,warns,growing fast
2009-10-05T09:55:00Z,Web search,buys,unlikely
2009-10-05T11:39:00Z,Second-hand retailers,score during,recession
2009-10-05T11:39:00Z,retailers,score during,recession
2009-10-05T12:05:00Z,U.S. pronouncements,later hurt,bailout
2009-10-05T14:53:00Z,Supreme court,rejects,Qwest ex-CEO Nacchio 's appeal
2009-10-05T15:14:00Z,1st time,in,18 months
2009-10-05T15:14:00Z,U.S. job market,stronger for,1st time in 18 months
2009-10-05T15:16:00Z,U.S. service sector,grows in,September
2009-10-05T15:24:00Z,Chrysler,creates Dodge Ram brand for,trucks
2009-10-05T18:14:00Z,BofA,brings,iconic Merrill Lynch logo
2009-10-05T18:49:00Z,Battle-tested IMF,emerges with,bigger role
2009-10-05T18:49:00Z,IMF,sees,strong outlook for India
2009-10-05T18:50:00Z,CIT,increase,$ 3 billion bondholder loan
2009-10-05T19:11:00Z,U.S.-led group,in,talks buy
2009-10-05T20:30:00Z,World stocks,rally after,two days
2009-10-05T20:31:00Z,Wall St.,rises on,services data
2009-10-05T20:42:00Z,Service sector,grows in,year
2009-10-05T21:08:00Z,HP,may,may ready
2009-10-05T21:50:00Z,U.S. service sector data,lifts,markets
2009-10-05T22:01:00Z,Conde Nast magazines,shut,review bites
2009-10-05T22:59:00Z,Draft bill,frees,some
2009-10-05T23:59:00Z,Fed 's Dudley,says,economy warrants
