2009-12-23T01:28:00Z,FBI probes,cyber,attack
2009-12-23T03:20:00Z,Toronto stocks,seen,climbing steadily in 2010
2009-12-23T03:48:00Z,Microsoft,loses,appeal
2009-12-23T14:36:00Z,Bristol-Myers,lowers,2009 outlook
2009-12-23T14:54:00Z,Personal spending,in,November
2009-12-23T14:59:00Z,Consumer sentiment,improves in,December
2009-12-23T15:42:00Z,New home sales,hit,low
2009-12-23T15:55:00Z,Wal-Mart,continue,discounts
2009-12-23T16:02:00Z,nearer IPO,with,$ 2.2 billion
2009-12-23T16:31:00Z,Gannett,rise on,analyst holiday gift
2009-12-23T16:31:00Z,NY Times,rise on,analyst holiday gift
2009-12-23T16:47:00Z,Wells Fargo,repays,government bailout
2009-12-23T18:26:00Z,Utility rally,reduces,sector 's appeal
2009-12-23T18:27:00Z,Fund manager Shaughnessy,ignores,her index
2009-12-23T19:03:00Z,midnight,in,holiday push
2009-12-23T19:32:00Z,China,ascends in,autos
2009-12-23T19:32:00Z,Volvo,buy,China ascends
2009-12-23T19:46:00Z,Two,charged with,insider trading Chattem deal
2009-12-23T19:46:00Z,insider trading,in,Chattem deal
2009-12-23T19:55:00Z,55 companies,miss,payment of TARP dividends
2009-12-23T19:55:00Z,companies,miss,payment
2009-12-23T21:00:00Z,Citigroup,repays,$ 20 billion
2009-12-23T21:06:00Z,Disney,nominates,Facebook 's Sheryl Sandberg
2009-12-23T21:38:00Z,Wells Fargo,repay TARP money,Citi
2009-12-23T21:55:00Z,New securitization landscape,seen for,ABS
2009-12-23T22:00:00Z,home sales,stifle,S&P
2009-12-23T22:24:00Z,AIG,investigated,executives
2009-12-23T23:05:00Z,U.S. pay czar Feinberg,OKs compensation at,bailout firms
2009-12-23T23:36:00Z,Nikkei,extend,gains
2009-12-24T05:05:00Z,MGIC shares,fall on,insurance denial complaint
