2009-04-27T00:47:00Z,UAW,in,accord
2009-04-27T00:47:00Z,accord,with,Chrysler
2009-04-27T09:21:00Z,New UBS reshuffle,claims,investment banking head
2009-04-27T12:07:00Z,GM,plans,announce
2009-04-27T15:38:00Z,InBev,picks KKR as,buyer of S.Korea brewer
2009-04-27T16:24:00Z,Banks,flu in,view
2009-04-27T16:24:00Z,flu,in,view
2009-04-27T17:39:00Z,Facebook,export,its network
2009-04-27T17:46:00Z,Cost cuts,help,Whirlpool post surprise profit
2009-04-27T17:55:00Z,Wildcard,in,auto bankruptcy
2009-04-27T17:56:00Z,Chrysler,make,progress
2009-04-27T17:56:00Z,unions,make progress,deadline nears
2009-04-27T18:00:00Z,SocGen,denies,report of scandal
2009-04-27T19:34:00Z,flu,threatens,air travel
2009-04-27T20:59:00Z,GM dealers,wait,ax fall
2009-04-27T21:21:00Z,TARP cop,sees,bank tests
2009-04-27T22:06:00Z,Bondholders,say,GM
2009-04-27T22:45:00Z,Daimler,offload,Chrysler
2009-04-27T22:51:00Z,week,at,meeting
2009-04-27T23:47:00Z,GM,offers,final survival plan
2009-04-27T23:47:00Z,brand,falls to,crisis
2009-04-27T23:47:00Z,storied brand,falls,victim
2009-04-27T23:56:00Z,brand,falls to,crisis
2009-04-27T23:56:00Z,storied brand,falls,victim
2009-04-28T04:36:00Z,Wildcard,in,auto bankruptcy
