2009-04-11T01:32:00Z,Rally 's fate,turns on,bank results
2009-04-11T02:08:00Z,FDIC,sets up,bank
2009-04-11T02:38:00Z,Skype founders,eyeing,eBay company
2009-04-12T04:00:00Z,Obama,sees,signs
2009-04-12T04:38:00Z,Steve Jobs,maintains,grip at Apple
