2009-02-02T01:02:00Z,Stimulus items,draw,ire
2009-02-02T03:31:00Z,Obama,unveil,TARP rules
2009-02-02T03:50:00Z,Verizon shares,could rise within,two years
2009-02-02T07:29:00Z,Ryanair posts Q3 loss,outlook to,profit
2009-02-02T08:40:00Z,Panasonic,book,$ 3.9 billion annual loss
2009-02-02T09:18:00Z,ABN AMRO,talked about,buyback
2009-02-02T10:31:00Z,Rio,in,asset sale talks with Chinalco
2009-02-02T10:31:00Z,asset sale talks,with,Chinalco
2009-02-02T11:18:00Z,Hitachi shares,plunge,17 percent
2009-02-02T11:20:00Z,Ford,access,government aid
2009-02-02T11:20:00Z,access,in,late 09
2009-02-02T12:28:00Z,Europe truck makers,face,worse 2009
2009-02-02T13:40:00Z,U.S. court,halt,Santander 's Madoff payout
2009-02-02T15:08:00Z,Construction spending,falls,1.4 percent
2009-02-02T16:17:00Z,Applied Materials,warns of,loss
2009-02-02T16:20:00Z,Consumer spending,falls,savings jump
2009-02-02T19:12:00Z,Chrysler,offers,new buyouts
2009-02-02T19:37:00Z,4 percent,in,job cuts
2009-02-02T19:45:00Z,Mattel shares,slump,profit disappoints
2009-02-02T20:02:00Z,U.S. court,stop,Santander 's Madoff payout
2009-02-02T20:24:00Z,Oil,falls on,gloomy data
2009-02-02T22:35:00Z,GM,cars,leave
2009-02-02T22:59:00Z,Factory decline,eases,consumer spending drops
2009-02-02T23:14:00Z,Dow,drop on,banks
2009-02-02T23:58:00Z,Macy,'s cuts,slashes dividend
2009-02-02T23:58:00Z,Macy 's CEO,sees,rebound
2009-02-03T05:39:00Z,Ford,sell,French plant
