2009-02-07T01:35:00Z,SEC,reassure,investors
2009-02-07T01:56:00Z,Fed 's Yellen,sees,dynamics similar to Depression
2009-02-07T01:56:00Z,dynamics,similar to,Depression
2009-02-07T20:24:00Z,SEC,reassure,investors
2009-02-07T23:01:00Z,U.S.,linking,bank aid
