2009-12-11T02:25:00Z,GM,to,Whitacre
2009-12-11T10:30:00Z,Delayed European troop plane,in,maiden flight
2009-12-11T13:23:00Z,Obama,plans,TARP aid for businesses
2009-12-11T13:37:00Z,1.7 percent,in,November
2009-12-11T15:08:00Z,SEC,determined,hold
2009-12-11T15:28:00Z,discounts,lift,U.S. consumer mood
2009-12-11T18:33:00Z,Dollar rally,undermines,Wall Street
2009-12-11T18:43:00Z,Concord Medical,fall in,New York
2009-12-11T18:43:00Z,KAR fall,in,New York
2009-12-11T19:50:00Z,Apple,clash for,lengthy court battle
2009-12-11T20:18:00Z,NY fund manager,admits,multimillion dollar fraud
2009-12-11T20:20:00Z,Berkshire stock split,could beckon,eager option traders
2009-12-11T21:53:00Z,Financial reforms,could shrink,Fed 's role
2009-12-11T22:17:00Z,Apple,fires battle in,patents
2009-12-11T23:21:00Z,House,approves,financial reforms
2009-12-11T23:29:00Z,Citi execs,imply,willing
