2009-03-22T11:32:00Z,China,welcomes,foreign investment
2009-03-22T18:31:00Z,SocGen,gives up,stock options
2009-03-22T18:34:00Z,Facts,in,downturn
2009-03-22T20:49:00Z,Investors,banking on,plan
2009-03-22T21:38:00Z,Geithner 's big week,offers,chance
2009-03-22T21:38:00Z,Geithner 's week,offers,chance at redemption
2009-03-22T21:53:00Z,AIG,starts,makeover
2009-03-22T21:57:00Z,Treasury investment funds,plan,Monday
2009-03-22T22:36:00Z,Treasury assets,plan on,Monday
2009-03-22T22:36:00Z,Treasury toxic assets,plan on,Monday
2009-03-22T22:47:00Z,Stock futures,rise reports on,toxic asset plan
2009-03-22T23:25:00Z,GM bondholders,raise,concerns with U.S. auto panel
2009-03-22T23:25:00Z,concerns,with,U.S. auto panel
