2009-03-21T00:30:00Z,Stock investors,banking on,plan
2009-03-21T02:36:00Z,U.S.,seizes,top credit union clearinghouse
2009-03-21T08:42:00Z,China,clears Johnson baby products after,probe
2009-03-21T14:28:00Z,Buy-out groups,vie for,Barclays iShares
2009-03-21T15:02:00Z,Germany,is talking to,possible Opel bidders
2009-03-21T17:49:00Z,Washington Mutual,sues,FDIC
2009-03-21T20:10:00Z,U.S. bank rescue plan,could come on,Monday
2009-03-21T22:20:00Z,AIG protesters,take,Connecticut bus tour
2009-03-22T04:44:00Z,rivals,pay,slashed
2009-03-22T04:56:00Z,Paris prosecutor,looking at,BNP Madoff
