2009-03-24T00:24:00Z,Senate push,lose,steam
2009-03-24T02:15:00Z,Stanford CFO Davis,cooperates in,investigation
2009-03-24T03:03:00Z,Nobel laureate Krugman,slams,Geithner bailout plan
2009-03-24T03:03:00Z,Treasury,seek,more bailout funds
2009-03-24T08:12:00Z,Geithner plan,will rob,American taxpayers
2009-03-24T08:34:00Z,U.S.,woos,investors
2009-03-24T08:34:00Z,investors,buy,assets
2009-03-24T10:54:00Z,funds,in,U.S. toxic plan
2009-03-24T11:12:00Z,Goldman,may trim,ICBC stake
2009-03-24T12:16:00Z,AIG bonus fracas,enters,phase
2009-03-24T13:04:00Z,Lawmaker,backs,power
2009-03-24T13:39:00Z,IRS,challenges,AIG unit tax deals
2009-03-24T13:48:00Z,Lawmaker,backs,power
2009-03-24T13:55:00Z,NY Fed 's Dudley,get back,AIG money
2009-03-24T14:04:00Z,Bernanke,speak to,Congress
2009-03-24T14:04:00Z,Dudley,speak to,Congress
2009-03-24T14:04:00Z,Geithner,speak to,Congress
2009-03-24T14:08:00Z,Bernanke,testify on,AIG
2009-03-24T14:08:00Z,Dudley,testify on,AIG
2009-03-24T14:08:00Z,Geithner,testify on,AIG
2009-03-24T15:21:00Z,AIG employees,hand over,bonuses
2009-03-24T17:15:00Z,U.S. Air,sees,business demand
2009-03-24T17:15:00Z,World 's airlines,losing billions,year
2009-03-24T17:28:00Z,U.S. bill,offers,bankruptcy relief
2009-03-24T18:23:00Z,U.S. boardroom group,launches,governance campaign
2009-03-24T18:31:00Z,AIG,shows,urgent need for regulations
2009-03-24T18:44:00Z,U.S. pensions,favoring,bonds over stocks
2009-03-24T18:44:00Z,favoring,bonds over,stocks
2009-03-24T18:45:00Z,Exchanges,call on,SEC
2009-03-24T18:53:00Z,Newell,cuts again,dividend
2009-03-24T18:53:00Z,dividend,offer,notes
2009-03-24T19:10:00Z,U.S. growth,could resume by,year-end
2009-03-24T19:18:00Z,Fed 's Duke,warns on,U.S. regulatory loan crackdown
2009-03-24T19:18:00Z,U.S. growth,should resume,year
2009-03-24T20:09:00Z,Citi reverse split,could keep,it
2009-03-24T20:09:00Z,Citi split,could keep,it
2009-03-24T20:36:00Z,euphoria,fades,long bond rallies
2009-03-24T20:52:00Z,U.S.,may need,drilling falls
2009-03-24T21:03:00Z,Fed 's Duke,warns against,artificial lending curbs
2009-03-24T21:15:00Z,U.S. realtors,see light at,end
2009-03-24T21:30:00Z,U.S.,raising,oil
2009-03-24T21:30:00Z,dealers,await,U.S. stocks
2009-03-24T21:52:00Z,Fed 's Hoenig,warns on,exit strategy
2009-03-24T21:54:00Z,U.S. stocks rally,may have,momentum
2009-03-24T21:54:00Z,Wall St.,slides as,investors reassess government bank plan
2009-03-24T21:54:00Z,latest U.S. stocks rally,may have,momentum
2009-03-24T22:03:00Z,Buffett 's Goldman Sachs warrants,regain,value
2009-03-24T22:14:00Z,AIG,shows,urgent need for regulations
2009-03-24T22:14:00Z,Barclays exec pay,drops,99 pct
2009-03-24T22:14:00Z,Bernanke,speak to,Congress
2009-03-24T22:14:00Z,Dudley,speak to,Congress
2009-03-24T22:14:00Z,Geithner,testify on,AIG
2009-03-24T22:14:00Z,Lawmaker,backs,power
2009-03-24T22:14:00Z,NY Fed 's Dudley,get back,AIG money
2009-03-24T22:14:00Z,banks,scrap,bonuses
2009-03-24T23:14:00Z,U.S. financial firms,want,more
2009-03-24T23:14:00Z,U.S. firms,want,more
2009-03-24T23:27:00Z,Ford family,in,focus
2009-03-24T23:36:00Z,Obama,meets with,bank CEOs
2009-03-25T04:30:00Z,US,' Geithner,Bernanke
2009-03-25T04:30:00Z,US ' Geithner,reject,global currency idea
2009-03-25T04:32:00Z,Citigroup-Wells Fargo case,moves to,NY state court
2009-03-25T04:32:00Z,Two former Wachovia units,fined by,FINRA
2009-03-25T04:34:00Z,Bernanke,reject,currency idea
