2009-02-09T00:00:00Z,Grim results,predicted for,UBS
2009-02-09T00:00:00Z,results,predicted for,UBS
2009-02-09T07:43:00Z,Rio deal,in,sight
2009-02-09T11:35:00Z,EU executive,review,rules
2009-02-09T11:35:00Z,Madoff scandal,spurs,EU executive
2009-02-09T11:46:00Z,strategy,reverse,loss
2009-02-09T13:31:00Z,Falling oil price,could hamper,military
2009-02-09T13:31:00Z,oil price,could hamper,military
2009-02-09T13:35:00Z,Hasbro profit,misses,view
2009-02-09T14:47:00Z,Loews posts loss,hurt by,CNA results
2009-02-09T16:03:00Z,NYSE Euronext,reports,steep loss
2009-02-09T16:11:00Z,GM,in,talks buy back
2009-02-09T18:15:00Z,Rio chairman-elect,quits over,Chinalco deal
2009-02-09T18:25:00Z,Whirlpool profit,falls on,sales slowdown
2009-02-09T18:33:00Z,GE shares,soar,15 percent
2009-02-09T18:34:00Z,Bank shares,rise on,bailout hopes
2009-02-09T18:34:00Z,GE shares,soar,15 percent
2009-02-09T18:37:00Z,Interview,with,Madoff client Ian Thiermann
2009-02-09T18:37:00Z,elderly,forced,work
2009-02-09T19:09:00Z,DreamWorks,set,long-term distribution deal
2009-02-09T20:09:00Z,GE shares,soar on,hopes
2009-02-09T20:28:00Z,GM bankruptcy,could speed,restructuring
2009-02-09T21:13:00Z,Madoff victim,abandons,retirement
2009-02-09T21:13:00Z,Madoff victim aged,abandons,retirement
2009-02-09T21:13:00Z,Retired couple,loses,$ 1 million
2009-02-09T21:13:00Z,couple,loses,$ 1 million
2009-02-09T21:15:00Z,Whirlpool profit,falls on,sales slowdown
2009-02-09T21:25:00Z,Oil,falls on,demand concerns
2009-02-09T22:36:00Z,Starbucks,launches,cheaper coffee-and-food combos
2009-02-09T22:39:00Z,Obama team,works on,bank rescue
2009-02-09T23:13:00Z,Madoff,agrees to,asset freeze
2009-02-09T23:27:00Z,Amazon,unveils,Kindle reader
2009-02-09T23:36:00Z,Recovery package,clears,key Senate hurdle
2009-02-09T23:40:00Z,Boeing,says,Q4 loss
2009-02-09T23:40:00Z,Q4 loss,wider,reported
