2009-06-14T14:18:00Z,Pfizer,raise,emerging markets presence
2009-06-14T19:50:00Z,Test,awaits,Obama
2009-06-14T23:13:00Z,BRIC,seeks voice at,summit
2009-06-14T23:13:00Z,Indian leaders,may meet at,separate summit
2009-06-14T23:13:00Z,leaders,may meet at,separate summit
