2009-11-26T03:38:00Z,Beal Bank,makes,play for Trump casinos
2009-11-26T10:56:00Z,India Mahindra Satyam,hit by,new charges
2009-11-26T11:12:00Z,Dubai debt delay,rattles,stock bond markets
2009-11-26T18:58:00Z,LSE,stops,trading
2009-11-26T23:43:00Z,Dubai,ease,debt default fears
2009-11-27T05:14:00Z,Dubai debt difficulties,hammer,stocks
2009-11-27T05:41:00Z,Bruised Lloyds,gets,OK for record cash call
