2009-12-09T01:48:00Z,Chrysler,takes,view
2009-12-09T08:06:00Z,China,remains,top investment spot
2009-12-09T08:57:00Z,Suzuki,agree,Volkswagen
2009-12-09T09:03:00Z,Slow growth,in,2010
2009-12-09T09:42:00Z,FACTBOX,flirt with,Asian counterparts
2009-12-09T09:42:00Z,Western carmakers,flirt with,Asian counterparts
2009-12-09T11:41:00Z,Japan GDP,revised down,policy response
2009-12-09T11:41:00Z,policy response,in,doubt
2009-12-09T15:03:00Z,BlackRock CEO Fink,sees,danger
2009-12-09T15:47:00Z,Dubai debt concerns,spread beyond,Dubai World
2009-12-09T16:03:00Z,VW,buys,Suzuki stake
2009-12-09T16:54:00Z,U.S. mortgage applications,driven up by,refinancings
2009-12-09T19:28:00Z,Wealth advisers,sell,survive
2009-12-09T21:11:00Z,U.S.,extends,bailout fund
2009-12-09T22:19:00Z,bipartisan effort,boost,jobs
2009-12-09T22:19:00Z,effort,boost,jobs
2009-12-09T22:51:00Z,Wall St,closes up as,risk appetite returns
2009-12-09T23:48:00Z,Citi,could sell soon,$ 20 bln
2009-12-09T23:51:00Z,UK bankers,fume over,bonus levy
2009-12-09T23:53:00Z,HMO stocks,slip amid,concern over new regulations
2009-12-09T23:59:00Z,Bank lobby group,unify,global pay rules
2009-12-10T05:46:00Z,U.S. Treasury,suspends,TCW 's asset fund
