2009-12-31T02:56:00Z,Time Warner Cable,could OK,arbitration with Fox
2009-12-31T02:56:00Z,arbitration,with,Fox
2009-12-31T02:57:00Z,AIG executive,resigns over,pay limits
2009-12-31T03:56:00Z,Japan mulls,merging,JAL 's int
2009-12-31T11:17:00Z,Treasury,dole out,$ 3.8 billion
2009-12-31T11:56:00Z,Iceland parliament,approves,Icesave repayment bill
2009-12-31T13:06:00Z,Geely,gets,China 's support for Volvo
2009-12-31T13:14:00Z,China,hits back at,U.S. steel pipe decision
2009-12-31T14:18:00Z,NYC economy,in,December
2009-12-31T15:33:00Z,General Growth loss,narrows in,November
2009-12-31T15:33:00Z,General Growth net loss,narrows in,November
2009-12-31T15:39:00Z,RUSAL,goes in,pursuit
2009-12-31T15:50:00Z,ConAgra,sues Dean Foods over,Swiss Miss trademark
2009-12-31T15:58:00Z,Pfizer shares,fall after,Prevnar FDA delay
2009-12-31T16:33:00Z,Prudential,closes,$ 4.5 billion brokerage stake sale
2009-12-31T17:06:00Z,Japan 's DBJ,expand,loans
2009-12-31T19:45:00Z,U.S. auto sales,may end,bleak 2009
2009-12-31T20:33:00Z,Oil,ends above,2009 78 percent
2009-12-31T21:45:00Z,Dollar gains,slip,year ends
2009-12-31T21:45:00Z,stocks,slip,year ends
2009-12-31T21:45:00Z,year,ends with,bang
2009-12-31T22:08:00Z,Time Warner Cable,Fox at,impasse
2009-12-31T22:19:00Z,Jobless claims,hit,17-month low
2009-12-31T22:19:00Z,claims,hit,17-month low
2009-12-31T22:52:00Z,Washington DC,calling,cards
2009-12-31T23:33:00Z,Wall St,closes out,'09
2010-01-01T05:23:00Z,U.S. Midwest business growth,robust than,thought
