2009-10-08T00:16:00Z,Alcoa posts,surprise,quarterly profit
2009-10-08T02:21:00Z,Alcoa,sees,aluminum demand
2009-10-08T03:23:00Z,IMS,sees,brighter outlook for global drug sales
2009-10-08T05:29:00Z,BlackRock,competing for,role
2009-10-08T07:36:00Z,Justice Department,opens,IBM probe
2009-10-08T09:44:00Z,ECB,set,caution
2009-10-08T09:44:00Z,caution,hold,rates
2009-10-08T10:26:00Z,Citi management,gets,satisfactory marks
2009-10-08T11:34:00Z,Bank,holds,rates
2009-10-08T12:20:00Z,ECB,holds rates,caution on economy
2009-10-08T12:54:00Z,Jobless claims,hit,9-month low
2009-10-08T12:54:00Z,claims,hit,9-month low
2009-10-08T14:21:00Z,Marriott,sees,pricing pressures
2009-10-08T14:50:00Z,Liz Claiborne,in,exclusive deal with J.C. Penney
2009-10-08T14:50:00Z,exclusive deal,with,J.C. Penney
2009-10-08T15:42:00Z,Strong retail sales,raise,holiday hopes
2009-10-08T15:42:00Z,Strong sales,raise,holiday hopes
2009-10-08T15:42:00Z,retail sales,raise,holiday hopes
2009-10-08T15:42:00Z,sales,raise,holiday hopes
2009-10-08T15:51:00Z,Morgan Stanley,in,back black
2009-10-08T16:17:00Z,Dell,plans,U.S. smartphone with AT&T
2009-10-08T16:17:00Z,first U.S. smartphone,with,AT&T
2009-10-08T18:25:00Z,Gold,record on,weak dollar
2009-10-08T20:38:00Z,Retail experts,take Sept sales with,grain
2009-10-08T20:38:00Z,experts,take,Sept sales
2009-10-08T20:43:00Z,U.S.,falls 3rd in,bank ranking
2009-10-08T21:14:00Z,Gold,rallies to,stocks up
2009-10-08T21:22:00Z,Jobless claims,hit,9-month retail sales rise
2009-10-08T21:22:00Z,claims,hit,low sales rise
2009-10-08T21:35:00Z,Alcoa 's profit,bolsters,optimism
2009-10-08T22:37:00Z,ex-Bear Stearns manager,on,email
2009-10-08T22:55:00Z,Liz Claiborne,in,J.C. Penney deal
2009-10-08T23:29:00Z,Pay czar,stop,BofA CEO pension
2009-10-08T23:30:00Z,Bernanke,sees,policies
2009-10-09T04:06:00Z,sales,miss,view
2009-10-09T04:50:00Z,HMO stocks,sink after,report
2009-10-09T04:54:00Z,Twitter,in,Google
