2009-07-16T09:43:00Z,Sony Ericsson,loses,market share
2009-07-16T11:25:00Z,Talks,break,California budget impasse
2009-07-16T11:57:00Z,Google,faced,landscape
2009-07-16T13:01:00Z,CIT 's bonds,fall on,bankruptcy fears
2009-07-16T14:08:00Z,U.S. claims drop,again skewed by,autos
2009-07-16T14:08:00Z,U.S. jobless claims drop,skewed by,autos
2009-07-16T14:19:00Z,CIT 's troubles,deepen over,past two years
2009-07-16T14:19:00Z,Costs,insure,debt
2009-07-16T14:19:00Z,Geithner upbeat,avoids,comment
2009-07-16T14:51:00Z,Fitch,sees,CIT bankruptcy probable
2009-07-16T15:09:00Z,Porsche,cede,victory
2009-07-16T15:13:00Z,Mortgage rates,drop for,week
2009-07-16T15:30:00Z,Germany,denies,report
2009-07-16T16:20:00Z,China secrets laws,leave,Rio few options
2009-07-16T16:20:00Z,China sweeping secrets laws,leave,Rio few options
2009-07-16T16:20:00Z,Rio Tinto,moves,iron
2009-07-16T16:20:00Z,iron,staff out of,China
2009-07-16T18:03:00Z,Harley,warn on,motorcycle demand
2009-07-16T18:03:00Z,Polaris,warn on,motorcycle demand
2009-07-16T19:25:00Z,Fidelity,may have,CIT losses
2009-07-16T19:33:00Z,Oil prices,rise with,Wall Street
2009-07-16T19:38:00Z,CIT woes,may disrupt,retailers holiday plans
2009-07-16T19:49:00Z,may have collusion,in,BofA deal
2009-07-16T20:15:00Z,Sports financing,could tighten with,CIT bankruptcy
2009-07-16T20:42:00Z,JPMorgan profit tops,view though,credit worsens
2009-07-16T20:59:00Z,IBM,beat,expectations
2009-07-16T21:04:00Z,Wall St,climbs on,tech shares
2009-07-16T21:16:00Z,Lawmakers,slam,Paulson on BofA-Merrill deal
2009-07-16T21:19:00Z,Nokia outlook,seen as,boost
2009-07-16T21:29:00Z,U.S. stocks,stage,rally
2009-07-16T21:47:00Z,CIT failure,would chill,U.S. restaurant operators
2009-07-16T22:33:00Z,Possible CIT failure,could benefit,Steven Madden
2009-07-16T23:00:00Z,Congress,gets,pay bill
2009-07-16T23:15:00Z,Google,sees,YouTube profitable
2009-07-16T23:15:00Z,YouTube,profitable in,near future
2009-07-16T23:21:00Z,Google quarterly results,fail,excite
2009-07-16T23:21:00Z,Google results,fail,excite
2009-07-16T23:21:00Z,IBM,beat,expectations
2009-07-16T23:45:00Z,CIT,secure,lending
2009-07-16T23:50:00Z,Major U.S. exchange chief,urges,SEC-CFTC merger
2009-07-16T23:50:00Z,U.S. exchange chief,urges,SEC-CFTC merger
2009-07-17T04:09:00Z,CIT woes,could have,lining
2009-07-17T04:30:00Z,Jobless claims drop,in,latest week
2009-07-17T04:30:00Z,Philly Fed factory activity,falls in,July
2009-07-17T04:50:00Z,Nokia,cuts,profit
