2009-06-15T05:34:00Z,Bally,reaches,deal
2009-06-15T05:56:00Z,Goodrich,signs,deals
2009-06-15T05:56:00Z,deals,with,Airbus
2009-06-15T10:12:00Z,BRIC,reform at,summit
2009-06-15T11:34:00Z,Obama financial reforms,outlined in,piece
2009-06-15T11:34:00Z,Obama reforms,outlined in,piece
2009-06-15T11:54:00Z,Boeing,sees,mid-2010 plane recovery
2009-06-15T11:54:00Z,Pratt,could make,engine
2009-06-15T11:54:00Z,Qatar,may order,20 Airbus jets
2009-06-15T11:54:00Z,U.S.,pulls,F-22 fighter
2009-06-15T11:54:00Z,U.S. defense firms,look to,international sales
2009-06-15T12:46:00Z,Six Flags,cut,workers
2009-06-15T13:17:00Z,BRIC,seeks voice at,summit
2009-06-15T13:17:00Z,Brazil 's Lula,calls for,world economic order
2009-06-15T13:46:00Z,Citi,in,$ 1.25 billion
2009-06-15T13:46:00Z,trade funding deal,with,IFC
2009-06-15T13:48:00Z,Qatar Airways,buys,24 Airbus jets
2009-06-15T14:13:00Z,Bombardier,sees market for,jets
2009-06-15T14:21:00Z,NY state factory slump,deepens in,June
2009-06-15T15:03:00Z,Lincoln,take,bailout money
2009-06-15T17:04:00Z,U.S. home-builder sentiment,slips in,June
2009-06-15T17:06:00Z,lenders,keep,5 percent of credit risk
2009-06-15T17:49:00Z,Finmeccanica,sees,impact
2009-06-15T17:55:00Z,U.S. Congress,sets,hearings on financial reform
2009-06-15T18:40:00Z,Airbus,nears,Boeing objects
2009-06-15T18:40:00Z,Bell Helicopters,says,strike impact limited
2009-06-15T19:01:00Z,U.S. homebuilder sentiment,lower in,June
2009-06-15T19:31:00Z,Oil,falls near,2 percent on firmer dollar
2009-06-15T19:41:00Z,Major U.S. financial regulators,face,shake-up
2009-06-15T19:41:00Z,Major U.S. regulators,face,shake-up
2009-06-15T20:14:00Z,Goldman 's Cohen,sees,inflation
2009-06-15T20:17:00Z,U.S. credit card defaults,record in,May
2009-06-15T20:36:00Z,IMF chief,roll,stimulus
2009-06-15T20:38:00Z,China,wants,U.S.
2009-06-15T20:38:00Z,U.S.,assume,duty
2009-06-15T20:45:00Z,Syms-Vornado,win Filene with,bid
2009-06-15T20:50:00Z,IMF chief,roll,stimulus
2009-06-15T20:56:00Z,Wall Street,sees in,month
2009-06-15T21:05:00Z,Obama reform,plans,target banks
2009-06-15T21:56:00Z,ATK,says,affordability focus
2009-06-15T21:56:00Z,U.S.,axes,F-22 display
2009-06-15T22:01:00Z,Wall Street,uneasy on,part of Obama credit rating plan
2009-06-15T22:39:00Z,Banks,view regulation plans as,just proposals
2009-06-15T23:05:00Z,Flags plan,would hurt,unsecured creditors
2009-06-15T23:05:00Z,Six Flags plan,would hurt,unsecured creditors
2009-06-15T23:56:00Z,Madoff customers,sentencing judge with,letters
