2009-03-26T05:06:00Z,Europe 's love affair,with,Obama
2009-03-26T06:26:00Z,Roche,controls,96.2 percent
2009-03-26T11:35:00Z,Dr Pepper Snapple profit,beats,Street
2009-03-26T11:39:00Z,Rio,may sell,assets
2009-03-26T13:06:00Z,U.S. workers,hit,record
2009-03-26T13:16:00Z,Agilent,cut,jobs
2009-03-26T13:19:00Z,U.S. GDP,falls,6.3 percent
2009-03-26T13:19:00Z,U.S. fourth-quarter GDP,falls,6.3 percent
2009-03-26T13:26:00Z,U.S. GDP,falls,rise
2009-03-26T14:20:00Z,U.S. senator,sets bar for,bailout money
2009-03-26T17:00:00Z,IRS,launches crackdown on,offshore tax evasion
2009-03-26T17:13:00Z,New York Times,lays off,staff
2009-03-26T17:42:00Z,AIG execs,in,Europe
2009-03-26T17:56:00Z,U.S. recession,could end at,mid-year
2009-03-26T18:47:00Z,Southwest,in,tentative deal
2009-03-26T19:00:00Z,FDIC,seized,firms
2009-03-26T19:00:00Z,Geithner,testifies on,financial regulation reform
2009-03-26T19:03:00Z,New York Times,lays off,staff
2009-03-26T19:35:00Z,Southwest,in,tentative deal
2009-03-26T19:39:00Z,EU,unveil ahead,similar reform
2009-03-26T19:39:00Z,U.S.,unveil,similar reform
2009-03-26T19:58:00Z,U.S. recession,could end at,mid-year
2009-03-26T20:12:00Z,Schapiro,defends,SEC
2009-03-26T20:29:00Z,Fed officials,hint,recession
2009-03-26T20:36:00Z,Circuit City sales,drove,demand
2009-03-26T20:45:00Z,Best Buy shares,jump on,Q4 results
2009-03-26T20:45:00Z,Best shares,jump on,Q4 results
2009-03-26T20:45:00Z,Buy shares,jump on,Q4 results
2009-03-26T20:45:00Z,shares,jump on,Q4 results
2009-03-26T20:46:00Z,AIG bonus info,probes for,misstatements
2009-03-26T20:46:00Z,NJ,gets,probes for misstatements
2009-03-26T20:57:00Z,U.S. economy,shrinks,profits plunge
2009-03-26T20:57:00Z,profits plunge,in,Q4
2009-03-26T21:12:00Z,Google,cut,marketing jobs
2009-03-26T22:29:00Z,Extra U.S. regulation,may stabilize,bank profits
2009-03-26T22:29:00Z,U.S. regulation,may stabilize,big bank profits
2009-03-26T22:55:00Z,Fed analysis,outlines,concerns on proposal
2009-03-26T22:58:00Z,AIG executive,defends,dollar bonuses
2009-03-26T23:14:00Z,IBM-Sun talks,may extend beyond,next week
2009-03-26T23:14:00Z,talks,may extend beyond,week
2009-03-26T23:15:00Z,Washington Post,seek,cost cuts
2009-03-26T23:27:00Z,Senate Democrats,move with,budget plan
2009-03-26T23:35:00Z,Chrysler,extends,buyout deadline for UAW workers
2009-03-26T23:35:00Z,Obama,help,U.S. automakers
2009-03-26T23:38:00Z,Fed,missed,oncoming crisis
2009-03-26T23:50:00Z,U.S. funds,concerned on,rules
2009-03-26T23:50:00Z,U.S. hedge funds,concerned on,rules
2009-03-26T23:51:00Z,U.S. government,tighten,grip on Wall Street
