2009-03-06T04:14:00Z,Qwest 's Nacchio,seeks retrial on,new evidence
2009-03-06T10:46:00Z,Conti board,meets on,Schaeffler
2009-03-06T10:46:00Z,Opel rescue,debated,Conti board meets on Schaeffler
2009-03-06T10:47:00Z,Citadel,marketing,fund
2009-03-06T12:50:00Z,Asia,may face,problems
2009-03-06T12:50:00Z,China,sees,signs of economy
2009-03-06T12:50:00Z,Crisis,could cause,food shortages in China
2009-03-06T12:50:00Z,food shortages,in,rural China
2009-03-06T13:17:00Z,nod,sell,51 percent
2009-03-06T14:27:00Z,U.S. nonfarm payrolls,fall in,February
2009-03-06T14:27:00Z,U.S. payrolls,fall in,February
2009-03-06T15:32:00Z,U.S.,break,cycle
2009-03-06T15:48:00Z,Fed 's Lacker,holds out,hope for recovery
2009-03-06T15:49:00Z,H&R Block profit tops,estimates,tax fees rise
2009-03-06T15:49:00Z,stake,in,Japan broker Monex
2009-03-06T15:58:00Z,GE,shares up,analysts say
2009-03-06T15:58:00Z,GE Capital,buy,$ 1.46 bln bonds
2009-03-06T16:00:00Z,Volcker,chides Merrill execs for,bonuses in crisis
2009-03-06T16:00:00Z,bonuses,in,crisis
2009-03-06T18:32:00Z,AmEx shares,falls below,level since 95
2009-03-06T18:45:00Z,Global stocks,slip on,U.S. jobs data
2009-03-06T18:45:00Z,stocks,slip on,U.S. jobs data
2009-03-06T19:23:00Z,Europe,seeks,specifics
2009-03-06T19:23:00Z,GM,on,plans in region
2009-03-06T19:23:00Z,GM 's plans,in,region
2009-03-06T20:05:00Z,U.S. airlines,pin hopes on,summer vacation travel
2009-03-06T22:03:00Z,Nasdaq,falters on,techs
2009-03-06T22:03:00Z,S&P,buoyed by,oil
2009-03-06T22:30:00Z,Whole Foods,settle on,Wild Oats merger
2009-03-06T22:39:00Z,Dow Chemical,in,talks on disputed deal
2009-03-06T23:14:00Z,75 percent Lloyds stake,in,asset deal
2009-03-06T23:14:00Z,UK,may get,75 percent Lloyds stake
2009-03-06T23:45:00Z,Genentech,offer to,$ 45.7 billion
2009-03-06T23:50:00Z,Madoff,expected,plead to fraud charges
2009-03-07T05:33:00Z,Wells Fargo,cuts,dividend 85 percent
2009-03-07T05:54:00Z,Genentech,offer to,$ 45.7 billion
2009-03-07T05:54:00Z,Roche ups,buy Genentech stake for,$ 45.7 bln
