2009-09-21T03:00:00Z,U.S.,adopt,growth polices
2009-09-21T05:00:00Z,Holiday spending,seen,flat
2009-09-21T08:47:00Z,World Bank head,wants,responsible G20 agenda
2009-09-21T10:24:00Z,Goldman,in,talks buy
2009-09-21T12:02:00Z,Lennar,touts,signs of recovery
2009-09-21T14:15:00Z,Leading indicators,up for,month
2009-09-21T14:15:00Z,indicators,up for,month
2009-09-21T15:55:00Z,China,must accept,IMF advice
2009-09-21T18:01:00Z,IRS,extends,tax amnesty deadline
2009-09-21T18:45:00Z,G20,in,pole position
2009-09-21T19:14:00Z,Oil,falls on,signs demand still weak
2009-09-21T19:17:00Z,bailout plan,considered,AIG stabilizes
2009-09-21T19:17:00Z,new bailout plan,considered,AIG stabilizes
2009-09-21T19:22:00Z,Caterpillar dealer data,shows,stabilization signs
2009-09-21T20:43:00Z,S&P,hit by,commodities
2009-09-21T22:06:00Z,Santander,may make,$ 9 billion IPO week
2009-09-21T22:53:00Z,BofA,meet,deadline
2009-09-21T23:54:00Z,BofA 's legal problems,may push,exec change
2009-09-21T23:54:00Z,BofA 's problems,may push,exec change
2009-09-21T23:54:00Z,BofA board,adds,DuPont 's Holliday
