2009-11-25T01:54:00Z,Bair,urges,lending
2009-11-25T03:23:00Z,Starbucks,sees China after,U.S.
2009-11-25T06:37:00Z,JC Flowers,in,pursuit of UK bank assets
2009-11-25T06:56:00Z,GM,about,Saab
2009-11-25T12:51:00Z,Koenigsegg,pulls out of,deal
2009-11-25T13:39:00Z,U.S. personal spending rises,in,October
2009-11-25T14:51:00Z,October U.S. home sales,seen,rising
2009-11-25T14:51:00Z,October U.S. new home sales,rising,2 percent
2009-11-25T15:31:00Z,Home sales,rise,6 percent
2009-11-25T15:36:00Z,U.S. consumer mood,turns,less bleak November
2009-11-25T16:02:00Z,Dubai World,seeks,debt pause
2009-11-25T16:05:00Z,U.S. home sales,rise sharply in,October
2009-11-25T16:05:00Z,U.S. new home sales,rise in,October
2009-11-25T18:49:00Z,Breakdown,cut,plans for Opel
2009-11-25T18:49:00Z,GM,of,job
2009-11-25T18:49:00Z,Germany,takes,Saab
2009-11-25T18:49:00Z,Saab,in,limbo
2009-11-25T18:49:00Z,brunt,Saab in,limbo
2009-11-25T18:49:00Z,plans,Breakdown of,GM 's job
2009-11-25T18:56:00Z,SEC,probes,derivatives
2009-11-25T18:56:00Z,derivatives,in,insider trading cases
2009-11-25T20:27:00Z,Congress,targets Fed for,changes
2009-11-25T20:27:00Z,Fed,restricts,stock ownership
2009-11-25T21:11:00Z,Dubai,restructure,conglomerate
2009-11-25T21:22:00Z,Tribune lenders,propose,competing plan of reorganization
2009-11-25T23:04:00Z,pact,settle,disputes
2009-11-25T23:04:00Z,units,cut to,junk
2009-11-25T23:50:00Z,labor data,buoy,optimism
2009-11-25T23:52:00Z,Stocks,end higher on,jobless claims
2009-11-26T05:01:00Z,Wal-Mart price pressure,hurts,China workers
