2009-03-11T00:02:00Z,U.S. markets,Bringing,uptick rule
2009-03-11T00:04:00Z,Fed chief,backs,accounting tweak
2009-03-11T00:04:00Z,contender,unwind,giants
2009-03-11T01:56:00Z,rev,falls,66 percent
2009-03-11T07:56:00Z,Madoff,faces life on,11 criminal charges
2009-03-11T09:56:00Z,China businesses,less worried about,growth
2009-03-11T12:31:00Z,UBS ex-CEO Arnold upbeat,sees,stock near low
2009-03-11T13:26:00Z,Toshiba shares,jump as,report of profit surprises
2009-03-11T13:32:00Z,BoE success,may spur,Fed buying of Treasuries
2009-03-11T13:34:00Z,NY,probes,Merrill bonus markdown link
2009-03-11T15:49:00Z,Staples profit,falls on,weak big-ticket sales
2009-03-11T17:37:00Z,Bank,may get by,by asset sales
2009-03-11T17:42:00Z,G20,curbing,bank pay
2009-03-11T18:11:00Z,US,push,stimulus
2009-03-11T19:07:00Z,China exports dive,position for,G20
2009-03-11T20:21:00Z,JPMorgan CEO,sees,signs of recovery
2009-03-11T20:35:00Z,he,nears,plea
2009-03-11T20:59:00Z,Oil,drops,7 percent
2009-03-11T20:59:00Z,U.S. gasoline prices,seen,rising ahead of summer
2009-03-11T21:05:00Z,G20,spend,more
2009-03-11T22:23:00Z,SEC,looks at,short-selling measures
2009-03-11T22:59:00Z,Dimon 's remarks,buoy,banks
2009-03-11T22:59:00Z,U.S. regulator,suspending,mark-to-market
2009-03-11T23:38:00Z,U.S.,nears,mark-to-market accounting guidance
2009-03-11T23:40:00Z,talks,with,Lions Gate
2009-03-11T23:54:00Z,Forbes rich list,with,$ 1 billion
2009-03-11T23:54:00Z,Gates,regains,top spot
