2009-11-28T01:32:00Z,amends,pay for,executives
2009-11-28T02:28:00Z,Audit,would hurt,prospects
2009-11-28T09:57:00Z,world leaders,play down,Dubai debt threat
2009-11-28T12:49:00Z,AB InBev,calls off,sale
2009-11-28T12:49:00Z,Beck,of,beer brand
2009-11-28T14:52:00Z,VW,Scania into,trucks unit
2009-11-28T21:17:00Z,QUOTEBOX,focused on,bargains
