2009-12-04T01:51:00Z,Bernanke,defends,record
2009-12-04T01:51:00Z,record,in,bid for second term
2009-12-04T06:50:00Z,Comcast lands NBC,in,deal
2009-12-04T06:50:00Z,NBC,deal,step toward more focused GE
2009-12-04T08:13:00Z,ANA,ties under,open skies
2009-12-04T10:35:00Z,Boeing,urges,airlines
2009-12-04T11:13:00Z,GM,in,pact booming
2009-12-04T11:13:00Z,pact,in GM,SAIC
2009-12-04T11:33:00Z,China partner,take aim at,booming India market
2009-12-04T12:30:00Z,Prosecutors,investigated,Rajaratnam decade ago
2009-12-04T13:33:00Z,GM,plans,management shakeup
2009-12-04T13:55:00Z,U.S. non-farm payrolls,fall in,November
2009-12-04T13:55:00Z,U.S. payrolls,fall in,November
2009-12-04T14:21:00Z,U.S. non-farm payrolls,fall in,November
2009-12-04T14:21:00Z,U.S. payrolls,fall in,November
2009-12-04T15:04:00Z,inventories,rise in,October
2009-12-04T17:52:00Z,China hints,sticking despite,worries
2009-12-04T18:09:00Z,U.S. companies,celebrating holiday on,cheap
2009-12-04T19:05:00Z,GM Chairman Whitacre,shakes up,senior management
2009-12-04T20:41:00Z,Galleon 's Rajaratnam,was,suspected decade ago
2009-12-04T21:49:00Z,Stocks,end higher as,jobs data brightens outlook
2009-12-04T21:58:00Z,Kraft,starts clock on,unchanged Cadbury bid
2009-12-04T21:59:00Z,stocks,rise on,U.S. labor data
2009-12-04T22:14:00Z,U.S. recovery,appears,firmer
2009-12-04T22:16:00Z,Cisco,set,M&A strategy
2009-12-04T22:16:00Z,M&A strategy,defend,growth target
2009-12-05T05:50:00Z,Kraft posts Cadbury,start,clock ticking
