2009-10-19T07:57:00Z,BAIC,says,man accused of trade theft
2009-10-19T07:57:00Z,leave,in,U.S.
2009-10-19T07:57:00Z,man,accused on,leave in U.S.
2009-10-19T09:26:00Z,Blackstone 's fund,faces,cash shortfall
2009-10-19T09:26:00Z,Blackstone 's new fund,faces,cash shortfall
2009-10-19T09:31:00Z,JAL 's banks,reject,restructure plan
2009-10-19T11:36:00Z,Sri Lankan billionaire 's U.S. arrest,stirs,scrutiny
2009-10-19T12:03:00Z,Rajaratnam arrest,spurs,insider-trading probe
2009-10-19T13:11:00Z,BB&T report,slumps,credit issues weigh
2009-10-19T13:59:00Z,Corning glass output,hurt by,Taiwan plant incident
2009-10-19T15:16:00Z,Eaton profit tops,forecast,shares gain
2009-10-19T15:35:00Z,Insider trading case,puts business school in,spotlight
2009-10-19T17:18:00Z,Groups,urge,U.S.
2009-10-19T17:18:00Z,U.S.,extend,home purchase tax credit
2009-10-19T18:23:00Z,U.S. Treasury,states,decide
2009-10-19T18:32:00Z,Hasbro,gets,Transformers boost
2009-10-19T19:50:00Z,Politics,grows,key markets driver
2009-10-19T20:02:00Z,Insider trading case,puts business school in,spotlight
2009-10-19T20:02:00Z,Rajaratnam 's money,Did find,way to Tamil Tigers
2009-10-19T22:20:00Z,SEC,pursuing,insider cases
2009-10-19T22:27:00Z,U.S.,launches,aid for state housing agencies
2009-10-19T22:28:00Z,Bernanke,calls for,action on imbalances
2009-10-19T22:42:00Z,Boston Scientific,profit up,outlook cut
2009-10-19T22:49:00Z,Icahn,underwrite,loan
2009-10-19T23:24:00Z,shares,hit,record
2009-10-19T23:37:00Z,revenue,beat,Wall St forecasts
2009-10-19T23:42:00Z,McKinsey,shocked by,insider-trading allegations
2009-10-19T23:48:00Z,IBM veteran exec,put after,insider arrest
2009-10-19T23:56:00Z,CME,in,informal talks take
2009-10-19T23:57:00Z,Companies,respond to,insider trading scandal
2009-10-19T23:57:00Z,FACTBOX,respond to,insider trading scandal
2009-10-19T23:57:00Z,U.S.,bring,more insider trading cases
2009-10-20T04:18:00Z,Goldman,in,charity bragging battle
2009-10-20T04:18:00Z,M.Stanley,set tone,wealth management revives
2009-10-20T04:18:00Z,Morgan Stanley,Goldman in,charity bragging battle
