2009-04-13T02:10:00Z,EBay,buys,Korean rival 's stake
2009-04-13T06:29:00Z,India 's Tech Mahindra shares,surge on,Satyam talk
2009-04-13T07:08:00Z,India Company Law Board,sees soon,Satyam approval
2009-04-13T07:10:00Z,India 's Tech Mahindra,wins,bidding for Satyam
2009-04-13T07:15:00Z,India,for,Satyam
2009-04-13T08:22:00Z,Tech Mahindra,joins,India 's top tier
2009-04-13T11:42:00Z,Asia stocks,slides on,demand outlook
2009-04-13T12:20:00Z,Action,may cost,taxpayers
2009-04-13T13:17:00Z,SPX Corp,cuts,2009 profit view
2009-04-13T13:56:00Z,GM,told,prep for bankruptcy filing
2009-04-13T13:59:00Z,GM shares,slump,bankruptcy fear grows
2009-04-13T14:01:00Z,GM,told,prep for bankruptcy filing
2009-04-13T14:51:00Z,bid,acquire,Satyam
2009-04-13T15:28:00Z,Boeing shares,drop,cuts seen
2009-04-13T15:28:00Z,cuts,hitting,earnings
2009-04-13T15:47:00Z,Wellpoint,jumps on,NextRx sale
2009-04-13T16:34:00Z,GM bondholders,prepare,case
2009-04-13T18:46:00Z,Chrysler,discuss,new management
2009-04-13T18:46:00Z,Fiat,discuss,board
2009-04-13T18:52:00Z,SPX Corp shares,fall after,profit view
2009-04-13T18:55:00Z,Citigroup,B of,rise on earnings hope
2009-04-13T19:28:00Z,Obama,hails,signals
2009-04-13T19:28:00Z,signals,mixed in,Asia
2009-04-13T19:41:00Z,IEA cuts,demand,view
2009-04-13T19:41:00Z,Oil,falls,4 percent
2009-04-13T19:50:00Z,Google machine,put,test in quarter
2009-04-13T20:41:00Z,Completion,could drag on,past May
2009-04-13T20:55:00Z,Goldman Sachs,raise,$ 5 billion
2009-04-13T21:10:00Z,Goldman,launches fund for,private equity
2009-04-13T21:27:00Z,eyes,stress,test
2009-04-13T23:25:00Z,$ 1.7 billion profit,plans,$ 5 billion offer
2009-04-13T23:25:00Z,$ profit,plans,offer
2009-04-13T23:25:00Z,profit,plans,offer
2009-04-13T23:28:00Z,GM shares,slump,bankruptcy fear grows
2009-04-14T04:53:00Z,Madoff,for,personal assets
