2009-08-30T11:33:00Z,GM,form,China venture
2009-08-30T15:32:00Z,summer,ends For,stocks
2009-08-30T15:47:00Z,Merkel party ally,urges,delay
2009-08-30T15:47:00Z,delay,in,Opel decision
2009-08-30T16:04:00Z,5 percent stake,in,VW
2009-08-30T17:04:00Z,U.S. judge,may decide as soon,Asarco 's fate
2009-08-30T22:57:00Z,Detroit 's car woes,spread to,California
2009-08-30T23:10:00Z,Japan Democrats ' win,may buoy,dent JGBs
