2009-12-12T01:25:00Z,Punitive contracts,could harm,U.S.-Northrop
2009-12-12T01:25:00Z,contracts,could harm,U.S.-Northrop
2009-12-12T01:43:00Z,Citigroup,sued over,EMI deal
2009-12-12T02:22:00Z,Regulators,shut,three banks
2009-12-12T06:15:00Z,U.S.,froze,$ 2 billion held for Iran
2009-12-12T12:53:00Z,China 's Hu,boosts,energy ties
2009-12-12T12:53:00Z,energy ties,with,Central Asia
2009-12-12T17:13:00Z,Japan,reach,skies aviation pact
2009-12-12T17:58:00Z,Questions,surround,Woods ' future
2009-12-12T21:38:00Z,Venezuela,sign,$ 3 billion in Cuba deals
2009-12-12T21:49:00Z,Goldman Sachs,played role in,AIG trades
