2009-02-26T00:28:00Z,Geithner,slams,bankers
2009-02-26T00:28:00Z,Obama budget,halve,deficit
2009-02-26T01:22:00Z,Obama,urges,action on Wall Street reform
2009-02-26T03:03:00Z,Senate panel,sets,hearing on AIG
2009-02-26T03:06:00Z,Banks,rise,stress test hope
2009-02-26T03:11:00Z,AIG,discuss,unit sale
2009-02-26T06:12:00Z,U.S. regulators,put,big banks
2009-02-26T07:18:00Z,Deutsche Post,says,UPS talks on
2009-02-26T09:39:00Z,U.S.,keep,it
2009-02-26T11:48:00Z,Obama budget,includes,billions
2009-02-26T11:48:00Z,Pentagon,imposes,secrecy
2009-02-26T12:24:00Z,UK,launches,toxic asset insurance for banks
2009-02-26T12:55:00Z,EU,taking U.S. over,auto aid
2009-02-26T12:55:00Z,GM,down after,loss
2009-02-26T12:55:00Z,Investors,urge,Obama
2009-02-26T12:55:00Z,Obama,install,governance regime
2009-02-26T12:55:00Z,Winners,in,Obama budget
2009-02-26T13:15:00Z,Growth-oriented investors,should look beyond,mobile
2009-02-26T13:15:00Z,investors,should look beyond,mobile
2009-02-26T13:41:00Z,Horticulturist Hester,starts,hard pruning
2009-02-26T14:02:00Z,Downfall,casts shadow over,Edinburgh
2009-02-26T14:18:00Z,slump 5.2 pct,in,January
2009-02-26T15:33:00Z,U.S. auto sales,fall,nearly 38 percent
2009-02-26T15:33:00Z,U.S. retail auto sales,fall,nearly 38 percent
2009-02-26T15:39:00Z,Obama budget,has,$ 5 billion for infrastructure bank
2009-02-26T16:07:00Z,Obama,seeks,$ 75.5 billion
2009-02-26T16:07:00Z,SEC,funding,13 percent
2009-02-26T16:16:00Z,Ford,says,liquidity
2009-02-26T16:19:00Z,UK govt,asks,ex-CEO Goodwin
2009-02-26T16:19:00Z,ex-CEO Goodwin,give up,RBS pension
2009-02-26T16:27:00Z,Obama budget,pushes,change
2009-02-26T16:36:00Z,Obama 's budget,supports,drug import plan
2009-02-26T16:49:00Z,Obama healthcare budget,includes,FDA reform
2009-02-26T16:49:00Z,U.S. farmers,face,shrinking markets
2009-02-26T16:50:00Z,Obama,from,first budget
2009-02-26T18:02:00Z,Obama budget,calls for,major U.S. student loan shift
2009-02-26T18:04:00Z,GM CEO 's meeting,with,U.S. auto task force
2009-02-26T18:12:00Z,Analysts,see,U.S. government 's move as net positive
2009-02-26T18:56:00Z,Oil,rises,5 percent on OPEC
2009-02-26T19:36:00Z,GM cuts,in,Europe
2009-02-26T19:56:00Z,college funds,mull damage,Pension
2009-02-26T20:02:00Z,Ford-UAW agreement,affirms,commitment to U.S. plants
2009-02-26T20:02:00Z,agreement,affirms,commitment
2009-02-26T20:28:00Z,Obama budget,has,money for space exploration
2009-02-26T20:48:00Z,Obama,brings back,era of government
2009-02-26T20:50:00Z,Insurers,take,hit under Obama plan
2009-02-26T20:50:00Z,drugmakers,take,hit under Obama plan
2009-02-26T20:55:00Z,Yahoo CEO,reorganizes,company
2009-02-26T21:07:00Z,Oil,jumps,6 percent
2009-02-26T21:27:00Z,Dell,drops after,results
2009-02-26T21:38:00Z,Market winners,losers from,Obama 's budget
2009-02-26T21:38:00Z,Obama,seeks,taxes on equity
2009-02-26T21:45:00Z,GM,posts,loss
2009-02-26T21:45:00Z,auditors,may question,viability
2009-02-26T22:05:00Z,Obama budget,sinks stocks,health sector slumps
2009-02-26T22:15:00Z,U.S. government,easing,aid terms
2009-02-26T22:31:00Z,Banks,could get,more
2009-02-26T22:46:00Z,Obama budget,would boost,SEC
2009-02-26T23:10:00Z,Gap profit,close,stores
2009-02-26T23:10:00Z,Gap quarterly profit,close,stores
2009-02-26T23:41:00Z,Obama healthcare plan,relies on,evidence
2009-02-27T05:10:00Z,RBS,posts,record loss
2009-02-27T05:10:00Z,UK,insures,toxic assets
2009-02-27T05:12:00Z,Obama healthcare plan,relies on,efficiency
2009-02-27T05:23:00Z,U.S. budget,hits,bonds
2009-02-27T05:36:00Z,Obama budget,offers,U.S. economic forecasts
2009-02-27T05:44:00Z,Billions,flow to,water
2009-02-27T05:44:00Z,sewer funds,in,Obama budget
2009-02-27T05:45:00Z,IBM,keeps,2009 outlook
