2009-01-11T02:32:00Z,Daimler CEO,invest throughout,crisis
2009-01-11T07:29:00Z,Canon,had,holiday sales
2009-01-11T07:29:00Z,Sanyo Electric,may cut,group profit
2009-01-11T13:38:00Z,Morgan Stanley,could pay,$ 2-3 billion
2009-01-11T18:17:00Z,GM,says,electric car on track for 2010
2009-01-11T18:22:00Z,U.S. bank earnings,may,may frightful
2009-01-11T18:54:00Z,Ford,introduces,key redesign of Taurus sedan
2009-01-11T21:12:00Z,Tech firms,unveil,new gadgets
2009-01-11T21:31:00Z,Ford,says,talking to potential Volvo bidders
2009-01-11T21:31:00Z,Hyundai,takes,Detroit award
2009-01-11T22:12:00Z,GM,has received,inquiry about Saab brand
2009-01-11T22:13:00Z,Automakers,roll out,electric hopes
2009-01-11T22:13:00Z,GM,says,Chevy Volt on track
2009-01-11T22:49:00Z,U.S. retailers,lose ground to,rivals abroad
2009-01-11T23:11:00Z,German automakers,see opportunity in,U.S.
2009-01-11T23:11:00Z,automakers,see,opportunity
2009-01-11T23:32:00Z,GM,in,talks over possible Saab sale
2009-01-11T23:50:00Z,Ring,in,new year
2009-01-11T23:50:00Z,party,'s over,over automakers
2009-01-12T05:47:00Z,GM,says,Chevy Volt on track
2009-01-12T05:51:00Z,Ford,launch,four new hybrids
