2009-10-07T00:38:00Z,Boeing eyes defense,uses for,trailers
2009-10-07T00:38:00Z,Senate,passes,defense spending bill
2009-10-07T03:35:00Z,former execs,probed on,Starwood documents
2009-10-07T06:12:00Z,Amazon 's Bezos,looks to,digital book era
2009-10-07T07:10:00Z,U.S. banks,absorb,property losses
2009-10-07T07:18:00Z,China 's gold investors,undeterred by,high prices
2009-10-07T07:18:00Z,Gold 's record price rise,finds,response
2009-10-07T12:22:00Z,Investors,may take shine to,silver
2009-10-07T13:38:00Z,Costco profit,beats,Street
2009-10-07T13:53:00Z,Mortgage applications,surge to,4-month high
2009-10-07T14:25:00Z,Monsanto,reports,larger loss
2009-10-07T17:16:00Z,DuPont,sees,profit level return
2009-10-07T17:28:00Z,Baer-ING deal,kicks off,banks ' M&A season
2009-10-07T17:28:00Z,deal,kicks off,private banks ' M&A season
2009-10-07T17:29:00Z,Murdoch,in,Asia
2009-10-07T17:52:00Z,Investors,may take shine to,silver
2009-10-07T17:52:00Z,gold 's currency shine,brightens As,dollar fades
2009-10-07T18:17:00Z,Conoco,sees,lower 2010 budget
2009-10-07T18:50:00Z,SEC,appeal,insider trading ruling
2009-10-07T19:08:00Z,U.S. airline earnings,may show,signs
2009-10-07T19:23:00Z,Dell,brings,fashion designs to PCs
2009-10-07T19:23:00Z,baseball,designs to,PCs
2009-10-07T19:33:00Z,Amazon.com,takes,Kindle global
2009-10-07T20:02:00Z,Oil,falls,U.S. fuel stocks rise
2009-10-07T20:28:00Z,Dell,shut,North Carolina plant
2009-10-07T20:49:00Z,Verisk,surges in,debuts
2009-10-07T20:54:00Z,Alcoa posts,surprise,quarterly profit
2009-10-07T21:23:00Z,Judge,dismisses,WaMu employees
2009-10-07T21:37:00Z,Alcoa posts,surprise,profit
2009-10-07T21:40:00Z,Citi management,gets,satisfactory marks
2009-10-07T22:36:00Z,GE,tests on,US F-35 alternate engine
2009-10-07T23:22:00Z,Dell,plans,U.S. smartphone with AT&T
2009-10-07T23:22:00Z,first U.S. smartphone,with,AT&T
2009-10-08T04:23:00Z,Costco,beat,expectations
2009-10-08T04:23:00Z,Family Dollar,beat,expectations
