2009-09-18T00:01:00Z,Pre,helps,Palm loss
2009-09-18T00:34:00Z,Spirit Air,fined for,alleged consumer violations
2009-09-18T01:15:00Z,Overstock,faces again,SEC scrutiny
2009-09-18T03:14:00Z,SEC rules,take aim at,credit rating agencies
2009-09-18T07:00:00Z,Airbus,faces,two tough years
2009-09-18T07:46:00Z,Citadel,offered lenders debt for,equity
2009-09-18T09:39:00Z,Stanley HK banker,gets,7 years for insider trading
2009-09-18T09:39:00Z,Worst,is over,over world economy
2009-09-18T11:17:00Z,BA,in,talks with Japan Airlines stay
2009-09-18T11:17:00Z,talks,with,Japan Airlines
2009-09-18T11:42:00Z,Equity rally,pauses,dollar rebounds
2009-09-18T14:47:00Z,Arena trial,disappoints,investors
2009-09-18T14:47:00Z,Arena weight-loss trial,disappoints,investors
2009-09-18T17:17:00Z,ways,replenish,deposit fund
2009-09-18T20:06:00Z,UBS,warns,U.S. clients
2009-09-18T20:06:00Z,tax amnesty,nears,end
2009-09-18T20:29:00Z,DOJ,investigating,BofA 's Merrill deal
2009-09-18T21:06:00Z,Google,revamps,DoubleClick exchange
2009-09-18T21:53:00Z,Fed,fight,risk
2009-09-18T23:12:00Z,Stocks ' rise,hinges on,Fed
2009-09-18T23:22:00Z,shareholders,vote on,executive pay
2009-09-18T23:57:00Z,Unpaid bills,mount for,Chrysler executive
2009-09-18T23:57:00Z,bills,mount for,Chrysler executive
2009-09-19T04:55:00Z,American,bolster,JAL
2009-09-19T04:55:00Z,Qantas,in,drive
