2010-01-09T00:30:00Z,Employers,slash,jobs
2010-01-09T00:44:00Z,Twitter,hiring,workers
2010-01-09T00:44:00Z,workers,turn Tweets into,money
2010-01-09T00:54:00Z,UBS whistleblower,in,prison
2010-01-09T14:16:00Z,Aabar,acquire,70 percent stake
