2010-09-11T08:51:00Z,Basel plan,be,calibrated
2010-09-11T08:51:00Z,EBF 's Profumo,wants,Basel plan
2010-09-11T08:51:00Z,U.S. banking group,wants,part
2010-09-11T19:01:00Z,Enbridge,leaking,Illinois pipeline
2010-09-11T19:35:00Z,Iceland panel,wants,charges
2010-09-11T20:13:00Z,BAE,puts,North American units
