2010-05-29T02:11:00Z,2010 tally,hits,78
2010-05-29T02:11:00Z,Regulators,shut,5 banks
2010-05-29T02:11:00Z,tally,hits,78
2010-05-29T02:50:00Z,AIG,sees,$ 30 billion for unit too low
2010-05-29T03:52:00Z,Chipmaker Broadcom stock options,backdating,case ends
2010-05-29T11:57:00Z,ABN CEO,warns on,repayment
2010-05-29T12:02:00Z,ECB 's Stark eyes,end to,policy
2010-05-29T16:15:00Z,Apple inquiry,focuses on,price
2010-05-29T18:00:00Z,Spain labor reform deadline,extended by,one week
2010-05-29T18:25:00Z,U.S.,may choose,bank
2010-05-29T23:39:00Z,British Airways cabin crew,begin,second strike
2010-05-30T04:53:00Z,Texas Rangers lenders,force,bankruptcy
