2010-02-13T00:07:00Z,Consumer watchdog,threatens,financial reform
2010-02-13T01:44:00Z,Army,clears Oshkosh,resume
2010-02-13T12:45:00Z,Euro zone,needs,management
2010-02-13T15:43:00Z,EU 's Juncker,warns against,eurozone drift
2010-02-13T19:07:00Z,Bharti,offers,$ 10.7 billion
2010-02-13T19:09:00Z,Peltz fund value,falls,18 percent
