2010-09-10T05:45:00Z,Foster 's wine,may attract,buyout interest
2010-09-10T06:22:00Z,China 's imports leap,cutting,trade surplus
2010-09-10T10:21:00Z,Chipmakers ' outlooks,stoke,economy concerns
2010-09-10T10:33:00Z,Basel III bank rules,are,How are finalized
2010-09-10T14:36:00Z,new power generation,in,autos
2010-09-10T15:47:00Z,Dubai World,reaches,debt deal
2010-09-10T17:24:00Z,Deutsche Bank,lead,likely Basel cash call charge
2010-09-10T18:03:00Z,Nokia,replace,CEO
2010-09-10T18:39:00Z,others,face,lawsuit
2010-09-10T18:41:00Z,world No. 2,in,2010
2010-09-10T19:22:00Z,BP,evicted from,index
2010-09-10T19:27:00Z,FTSE,cites,human rights
2010-09-10T19:27:00Z,human rights,concerns at,DuPont
2010-09-10T19:27:00Z,rights,concerns at,DuPont
2010-09-10T19:32:00Z,U.S. banking group,wants,part
2010-09-10T19:37:00Z,Genzyme,begins,layoffs
2010-09-10T19:37:00Z,layoffs,cut,costs
2010-09-10T19:49:00Z,July inventories,jump,1.3 percent
2010-09-10T19:49:00Z,July wholesale inventories,jump,1.3 percent
2010-09-10T20:46:00Z,Oil,rises,3 percent
2010-09-10T21:55:00Z,Dollar,rise on,China import data
2010-09-10T21:55:00Z,stocks,rise on,China import data
2010-09-10T22:20:00Z,Geoghegan,replaces,Feinberg
2010-09-10T22:33:00Z,Investors,prepare for,volatility
2010-09-11T04:35:00Z,Regulators,probe,fund-of-funds firms
