2010-07-26T01:31:00Z,China,will open wider to,business
2010-07-26T03:05:00Z,Japan Noda,warns on,debt pile
2010-07-26T10:43:00Z,EU 's Juncker,rejects,criticism
2010-07-26T11:45:00Z,Goldman 's business,may,may combed
2010-07-26T11:45:00Z,Goldman 's derivative business,may,may combed
2010-07-26T14:28:00Z,New home sales,exceed forecasts for,June
2010-07-26T16:28:00Z,Methodology,used for,EU bank stress test
2010-07-26T16:32:00Z,operating profit,in,Q1
2010-07-26T17:29:00Z,BP,hires,two mid-level fuel oil traders
2010-07-26T17:29:00Z,BP 's diplomat Dudley,in,line
2010-07-26T17:29:00Z,Legislation,spurred by,oil spill
2010-07-26T17:29:00Z,two mid-level fuel oil traders,in,Asia
2010-07-26T17:56:00Z,Developments,in,Gulf of Mexico oil spill
2010-07-26T17:57:00Z,Vivendi,argues for,dismissal of jury verdict
2010-07-26T18:02:00Z,FedEx,raises,outlook
2010-07-26T18:11:00Z,gas ops,restart,post-Bonnie
2010-07-26T18:16:00Z,Genzyme,being,sold
2010-07-26T18:33:00Z,25 billion euros,in,capital top-up
2010-07-26T18:33:00Z,Bank funding access,could ease after,Europe tests
2010-07-26T18:33:00Z,EU 's Juncker,rejects,criticism of bank stress tests
2010-07-26T18:33:00Z,EU banks,could seek,25 billion euros in capital top-up
2010-07-26T18:33:00Z,German regulators,brush off,stress test concerns
2010-07-26T18:33:00Z,analysts,say on,Europe bank stress test
2010-07-26T18:33:00Z,regulators,brush off,stress test concerns
2010-07-26T18:55:00Z,Spill,puts,Obama 's oil fund chief
2010-07-26T20:21:00Z,Global economy,still needs,support
2010-07-26T20:21:00Z,economy,still needs,support
2010-07-26T20:42:00Z,U.S. housing data,boosts,stocks
2010-07-26T21:22:00Z,BP,could start,process
2010-07-26T21:22:00Z,final process,kill,week
2010-07-26T21:22:00Z,process,kill,next week
2010-07-26T21:47:00Z,Stocks,gain on,home sales data
2010-07-26T21:48:00Z,WaMu,gets,ex-DOJ official
2010-07-26T22:21:00Z,Home sales surge,in,June
2010-07-26T22:41:00Z,Genzyme,weighs,Sanofi approach
