2010-06-25T05:11:00Z,House,clearing,exemption for finance arms
2010-06-25T05:11:00Z,clearing,exemption for,finance arms
2010-06-25T10:05:00Z,Winners,in,U.S. financial bill
2010-06-25T10:20:00Z,Fed Focus,With,broader powers face
2010-06-25T10:35:00Z,U.S. lawmakers,new rules for,swaps
2010-06-25T12:34:00Z,BP,'S,increased capacity handle
2010-06-25T12:34:00Z,BP lawsuits,in,United States
2010-06-25T12:34:00Z,Developments,in,Gulf of Mexico oil spill
2010-06-25T12:34:00Z,House votes,subpoena,power
2010-06-25T12:34:00Z,Interior Dept,reviews,BP Alaska project plans
2010-06-25T12:34:00Z,Obama,grapples with,crises
2010-06-25T12:34:00Z,Q+A,grapples with,crises
2010-06-25T12:34:00Z,U.S.,reviews,BP 's Alaska project plans
2010-06-25T14:13:00Z,GDP,revised lower to,2.7 percent
2010-06-25T15:35:00Z,Pressure,dilute,bank capital plan
2010-06-25T15:54:00Z,BA,makes,crew offer
2010-06-25T16:13:00Z,Factbox,quotes on,2010 first-half M&A
2010-06-25T16:17:00Z,Goldman Sachs,reclaims,spot
2010-06-25T16:17:00Z,top spot,in,global M&A
2010-06-25T16:21:00Z,Banks,could trade swaps under,new compromise
2010-06-25T16:26:00Z,Europe,drags takeovers to,six-year slump
2010-06-25T17:00:00Z,bear markets,hit,rich
2010-06-25T20:19:00Z,RIM shares,tumble on,concerns
2010-06-25T20:36:00Z,Economic growth,trimmed on,consumer spending
2010-06-25T20:36:00Z,growth,trimmed on,consumer spending
2010-06-25T21:14:00Z,Oracle,lifts,Nasdaq
2010-06-25T21:14:00Z,S&P,rises on,banks
2010-06-25T21:26:00Z,U.S. reform pact caps stocks,' drops,dollar
2010-06-25T22:10:00Z,Storm,disrupt,BP oil-siphoning
2010-06-25T22:10:00Z,U.S. bill,would divert money for,oil spill research
2010-06-25T22:10:00Z,UK 's Cameron-clarity,avoid,BP destruction
2010-06-25T22:15:00Z,Lawmakers,seal deal on,Wall Street reform
2010-06-25T22:34:00Z,Toyota,halting,sales of Lexus HS250h
2010-06-25T22:34:00Z,halting,sales of,Lexus HS250h
2010-06-25T22:34:00Z,sales,in,U.S.
2010-06-25T22:42:00Z,UAL pilot negotiations,hit,snag
2010-06-25T23:08:00Z,U.S.,asks,court
2010-06-25T23:08:00Z,court,keep,deepwater drilling ban
2010-06-25T23:44:00Z,Leaders,play down austerity split on,eve of G20
2010-06-26T04:16:00Z,Europe,drags takeovers to,six-year slump
2010-06-26T04:16:00Z,private equity deals,in,Q2
