2010-08-29T00:38:00Z,BHP sweetener,may,may inhibited by UK regulations
2010-08-29T00:38:00Z,BHP takeover,could cut,Saskatchewan 's take
2010-08-29T00:38:00Z,Fast money,influence,limited
2010-08-29T00:38:00Z,Uncertainty,could hurt,juniors
2010-08-29T00:38:00Z,money,influence,limited
2010-08-29T07:37:00Z,Dubai World,opens,talks with small creditors
2010-08-29T07:37:00Z,talks,with,small creditors
2010-08-29T10:21:00Z,Anglo Irish plan,faces,EU opposition
2010-08-29T15:30:00Z,Investors,embark on,month
2010-08-29T18:58:00Z,Sanofi-Aventis,makes,$ 18.5 billion offer for Genzyme
2010-08-29T22:15:00Z,BHP,could divest,Potash Corp 's assets
2010-08-29T22:28:00Z,Bank,launches,3-year benchmark issue
