2010-05-16T11:58:00Z,parliament,kills,deal
2010-05-16T13:07:00Z,Europe,must tackle,big differences
2010-05-16T13:55:00Z,Euro zone,must tackle,yawning economic gaps
2010-05-16T13:55:00Z,U.S. banks ' role,in,crisis
2010-05-16T18:00:00Z,U.S. economy,still needs,boost
2010-05-16T18:18:00Z,JPMorgan 's Dimon,urges,generation
2010-05-16T18:18:00Z,generation,improve,U.S.
2010-05-16T18:18:00Z,next generation,improve,U.S.
2010-05-16T21:52:00Z,American Express,enters,fray
2010-05-17T04:01:00Z,Euro-zone troubles,may roil,stocks
