2010-07-06T00:51:00Z,BofA director,wanted outsider for,CEO
2010-07-06T01:07:00Z,Deals,hatched at,Sun Valley media confab
2010-07-06T01:50:00Z,Citigroup,moving,traders
2010-07-06T02:08:00Z,Rio Tinto,says,Australia tax
2010-07-06T03:57:00Z,HSBC clients,in,U.S. tax probe
2010-07-06T06:50:00Z,China markets,brace for,AgBank IPO pricing
2010-07-06T11:48:00Z,4.5 percent,in,May
2010-07-06T13:11:00Z,BP,approaches,funds
2010-07-06T13:11:00Z,funds,fend off,takeover bids
2010-07-06T14:59:00Z,Walgreen sales,beat,view
2010-07-06T14:59:00Z,Walgreen same-store sales,beat,view
2010-07-06T15:10:00Z,Non-manufacturing sector growth,slows in,June
2010-07-06T15:10:00Z,sector growth,slows in,June
2010-07-06T17:31:00Z,Europe,outline,bank test methods
2010-07-06T17:36:00Z,China 's AgBank prices,be 's,world
2010-07-06T18:28:00Z,Toyota,issues,U.S. recall
2010-07-06T18:44:00Z,Lockheed,offers,early-exit packages
2010-07-06T19:51:00Z,Storms,aggravate,damage from Gulf oil spill
2010-07-06T20:11:00Z,Developments,in,Gulf of Mexico oil spill
2010-07-06T20:11:00Z,Storms,aggravate,damage from Gulf oil spill
2010-07-06T20:51:00Z,Wall Street,in,modest recovery
2010-07-06T21:08:00Z,World stocks,bounce on,low prices
2010-07-06T22:10:00Z,Ex-IBM exec,in,Galleon case repentant
2010-07-06T22:44:00Z,USW,seeks,safety agreement with oil industry
2010-07-06T22:44:00Z,new safety agreement,with,oil industry
2010-07-06T23:58:00Z,BP shares,soar as,spill spreads
2010-07-07T04:10:00Z,Global PMI sags,in,June
2010-07-07T04:30:00Z,China commentary,slams U.S. for,steel suspicions
