2010-08-20T00:44:00Z,Dell,shake off,slowdown fears
2010-08-20T00:44:00Z,HP,shake off,slowdown fears
2010-08-20T01:12:00Z,Seagate,warns upbeat for,hols
2010-08-20T12:41:00Z,BHP,switches advisers as,bankers eye fee bonanza
2010-08-20T12:41:00Z,Potash Corp,for,suave CEO
2010-08-20T12:41:00Z,RLPC-Pricing,seen on,BHP $ 45 billion loan
2010-08-20T12:41:00Z,Russia 's Kerimov,creates,national potash giant
2010-08-20T12:41:00Z,S&P,may raise Potash Corp,BHP 's bid succeeds
2010-08-20T13:05:00Z,Gulf Arab BlackBerry row,highlights,security fears
2010-08-20T13:06:00Z,India,sees solution,week
2010-08-20T15:21:00Z,Funds,may rebalance auto stocks on,GM IPO
2010-08-20T16:13:00Z,Fidelity,rise in,downturn
2010-08-20T16:13:00Z,retirement fund withdrawals,rise in,downturn
2010-08-20T17:03:00Z,KNOC,in,$ 2.6 bln hostile bid for Dana Petroleum
2010-08-20T17:35:00Z,Tribune bankruptcy,unravels,talks fail
2010-08-20T19:37:00Z,ex-CEO Lewis,deny Cuomo fraud charges,BofA
2010-08-20T19:43:00Z,U.S. Trust,hires,eight wealth management executives
2010-08-20T19:51:00Z,Hormel posts profit beat,raises,forecast
2010-08-20T19:52:00Z,Investors,roll,positions
2010-08-20T20:45:00Z,Barnes proxy war,complicate,sale
2010-08-20T20:45:00Z,earnings,complicate,sale
2010-08-20T21:04:00Z,Expeditors Intl,gets notice from,Brazilian ministry
2010-08-20T21:45:00Z,Potash Corp workers,ask for,hearings
2010-08-20T21:57:00Z,BHP takeover,could shake up,potash pricing control
2010-08-20T23:13:00Z,data,in,spotlight
2010-08-20T23:24:00Z,well-known Chicago,close,Shorebank
2010-08-21T04:29:00Z,Spruced-up work clothes,lure shoppers to,Ann Taylor
2010-08-21T04:29:00Z,work clothes,lure,shoppers
2010-08-21T04:53:00Z,Private investor Klesch,buys,Shell 's Heide refinery
2010-08-21T04:53:00Z,investor Klesch,buys,Shell 's Heide refinery
2010-08-21T04:58:00Z,Dell shares,sink,tech spending jitters persist
2010-08-21T04:58:00Z,HP,sink,tech spending jitters persist
