2010-06-07T01:07:00Z,Bank,expects,delay
2010-06-07T01:07:00Z,delay,in,rate hikes
2010-06-07T08:16:00Z,Hon Hai shares,tumble on,new China wage rise
2010-06-07T09:24:00Z,Exxon execs,warn,curbing
2010-06-07T09:47:00Z,World oil refining capacity,must,must rationalized
2010-06-07T10:37:00Z,BP shares,jump on,first oil spill progress
2010-06-07T11:19:00Z,Airlines body IATA demands unions,quit,picketing
2010-06-07T11:26:00Z,Ratings agencies,concerned about,Hungary
2010-06-07T12:24:00Z,Public stress tests,can,can calming
2010-06-07T13:34:00Z,Prudential,defends,Asia bid amid shareholder anger
2010-06-07T14:58:00Z,Global air industry,sees,profit
2010-06-07T14:58:00Z,air industry,sees,profit
2010-06-07T16:22:00Z,Exxon,in,discussions with China firms on partnership
2010-06-07T16:22:00Z,discussions,with,China firms
2010-06-07T17:16:00Z,EPS,hit due to,currency
2010-06-07T17:39:00Z,BofA 's Countrywide,settles with,FTC
2010-06-07T18:35:00Z,Banks,asked about,GM lending lines pre-IPO
2010-06-07T18:38:00Z,Final act,begins in,Congress
2010-06-07T18:38:00Z,act,begins on,Wall St reform
2010-06-07T20:24:00Z,clear plans,cutting,deficits
2010-06-07T20:24:00Z,plans,cutting,deficits
2010-06-07T21:18:00Z,Stocks,drop as,global recovery
2010-06-07T21:46:00Z,Final act,begins on,Wall Street reform
2010-06-07T21:46:00Z,act,begins on,Wall Street reform
2010-06-07T21:46:00Z,key senator,in,Wall Street reform
2010-06-07T22:24:00Z,Friday jobs data,turns off,buyers
2010-06-07T22:47:00Z,Euro ministers,add,stitch
2010-06-07T23:49:00Z,Apple,fend off,Google
2010-06-07T23:51:00Z,Goldman,subpoenaed by,crisis commission
