2010-10-16T01:02:00Z,Mozilo,settles Countrywide fraud case at,$ 67.5 million
2010-10-16T05:49:00Z,stake,in,Mazda
2010-10-16T06:57:00Z,U.S.,backs off in,currency dispute with China
2010-10-16T06:57:00Z,currency dispute,with,China
2010-10-16T10:25:00Z,SEC,looking at,foreclosure practices
2010-10-16T16:59:00Z,2010 deficit,thins to,$ 1.29 trillion
2010-10-16T16:59:00Z,Fiscal 2010 deficit,thins to,$ 1.29 trillion
2010-10-16T16:59:00Z,Fiscal deficit,thins to,$ 1.29 trillion
2010-10-16T16:59:00Z,deficit,thins to,$ 1.29 trillion
2010-10-16T17:46:00Z,Fed officials,favor,aggressive easing options
2010-10-16T17:46:00Z,Two Fed officials,favor,easing options
2010-10-16T19:16:00Z,Venezuela inks oil deal,with,Belarus
2010-10-17T04:15:00Z,ECB,'s Trichet,Euro zone needs
