2010-11-03T03:15:00Z,G20,in,Seoul
2010-11-03T08:51:00Z,Santander UK CEO,be,Lloyds boss
2010-11-03T12:13:00Z,Lloyds,poaches,Santander 's UK head
2010-11-03T12:52:00Z,Q3 margin,lags,rivals
2010-11-03T13:00:00Z,Canada BHP,ruling,come after 4:30 EDT Wednesday
2010-11-03T13:51:00Z,Analysts,view,Commodities
2010-11-03T13:51:00Z,Fed,about,QE2
2010-11-03T13:51:00Z,Fed policy conundrum,Ebbing,deflation risk
2010-11-03T13:51:00Z,economists,are saying about,Fed 's QE2
2010-11-03T13:53:00Z,BHP,for,Potash bid
2010-11-03T13:56:00Z,Time Warner,raises,outlook
2010-11-03T14:07:00Z,Service sector,grows in,October
2010-11-03T14:08:00Z,Goldman,sees,potential losses at top U.S. banks
2010-11-03T14:23:00Z,Factory orders,rise in,September
2010-11-03T14:59:00Z,BA 's October traffic,wins,staffing court battle
2010-11-03T15:07:00Z,funds,rescued by,market rally
2010-11-03T15:22:00Z,AOL revenue,drops,26 percent
2010-11-03T15:51:00Z,Chrysler,says,October sales
2010-11-03T16:22:00Z,South Korea 's Lee,hopes for,progress on FX
2010-11-03T17:22:00Z,SEC,bans,access to markets
2010-11-03T17:47:00Z,Aetna,beat on,profit
2010-11-03T17:47:00Z,WellPoint,beat on,profit
2010-11-03T18:33:00Z,Lloyds,grabs,Santander 's UK head
2010-11-03T19:13:00Z,Fed,commits,$ 600 billion
2010-11-03T19:50:00Z,GM,expects,Q3 net income
2010-11-03T20:54:00Z,Toyota,lag as,U.S. auto sales gain
2010-11-03T21:00:00Z,Fed,eases,policy
2010-11-03T21:38:00Z,dollar,falls after,Fed 's move
2010-11-03T22:15:00Z,Canada,blocks,deal
2010-11-03T22:40:00Z,Fed,on,even easier policy
2010-11-03T22:54:00Z,Icahn,backs,plan
2010-11-03T23:26:00Z,bold step,bolster,economy
2010-11-03T23:26:00Z,step,bolster,economy
2010-11-03T23:34:00Z,Canada,shows,its limits
