2010-08-05T00:13:00Z,Android phones,sold,day
2010-08-05T01:39:00Z,Google 's Android,leads,U.S. smartphones
2010-08-05T02:41:00Z,Geithner,blasts Bush policies for,debt
2010-08-05T05:13:00Z,SEC,open up,proxy access
2010-08-05T06:40:00Z,Griffin,be named as,head of Time Inc
2010-08-05T11:15:00Z,Barclays profits,impress,skeptics
2010-08-05T11:53:00Z,ECB,keeps rates at,1 percent
2010-08-05T12:11:00Z,Bank,holds,rates steady
2010-08-05T12:11:00Z,rates,steady,expected
2010-08-05T12:15:00Z,Cigna,raises,forecast
2010-08-05T12:15:00Z,results,crush,views
2010-08-05T12:41:00Z,Time Warner Cable,profit up on,Internet
2010-08-05T12:57:00Z,BP,has backup plans,kills fail
2010-08-05T12:57:00Z,Russia oil boss,welcomes,Dudley
2010-08-05T12:57:00Z,some,could fuel,U.S. cars
2010-08-05T13:05:00Z,Bank,holds,rates
2010-08-05T14:06:00Z,Google,reach,Internet traffic deal
2010-08-05T14:06:00Z,Verizon,reach,Internet traffic deal
2010-08-05T14:11:00Z,Greece,passes,long road
2010-08-05T14:28:00Z,BP,pumping cement in,ruptured Gulf
2010-08-05T14:56:00Z,Mortgage rates,hit,record lows
2010-08-05T15:22:00Z,China,acts,tests banks anew
2010-08-05T15:55:00Z,Investors,ask oil majors for,offshore drilling safety plans
2010-08-05T17:22:00Z,Chevron,urges,arbitration
2010-08-05T18:25:00Z,Tepid retail sales,bode for,autumn
2010-08-05T18:25:00Z,Tepid sales,bode ill for,autumn
2010-08-05T18:25:00Z,retail sales,bode for,autumn
2010-08-05T18:25:00Z,sales,bode for,autumn
2010-08-05T19:21:00Z,U.S. employers,hiring,plans
2010-08-05T19:21:00Z,Wary U.S. employers,hiring,plans on hold
2010-08-05T19:34:00Z,Cable,focuses on,Internet
2010-08-05T20:43:00Z,Developments,in,Gulf of Mexico oil spill
2010-08-05T20:50:00Z,Stocks,dip on,jobless claims
2010-08-05T20:56:00Z,Obama,unveils,Ford loan guarantees
2010-08-05T21:44:00Z,Jobless claims,raise,doubts about economy
2010-08-05T21:44:00Z,claims,raise,doubts about economy
2010-08-05T22:54:00Z,BP,cements ahead,Gulf oil
