2010-09-14T03:00:00Z,China,get on,pollution
2010-09-14T07:59:00Z,China economist,tells,U.S.
2010-09-14T10:22:00Z,India,hopes for,resolution
2010-09-14T12:23:00Z,Best Buy shares,advance after,results
2010-09-14T12:23:00Z,Best shares,advance after,results
2010-09-14T12:23:00Z,Buy shares,advance after,results
2010-09-14T12:23:00Z,shares,advance after,results
2010-09-14T12:41:00Z,Australia 's NAB,pulls,AXA unit bid
2010-09-14T13:28:00Z,Buffett 's Dairy Queen,loses,yogurt ruling
2010-09-14T14:16:00Z,Delta,expects revenue in,quarter
2010-09-14T14:32:00Z,Consumer confidence,rises in,September
2010-09-14T15:00:00Z,BlackRock CEO,gives,outlook
2010-09-14T15:32:00Z,Gold 's price,could rise in,2010
2010-09-14T18:41:00Z,RIM,win back,investors
2010-09-14T19:35:00Z,Nokia,hits back amid,turmoil at top
2010-09-14T20:44:00Z,Dollar,breaking,technical levels
2010-09-14T20:56:00Z,IBM CEO blasts HP,defends,old-fashioned image
2010-09-14T21:14:00Z,BofA,must,must volatile
2010-09-14T21:33:00Z,Obama,seeks,more wins in Democratic Congress
2010-09-14T21:33:00Z,few more wins,in,Democratic Congress
2010-09-14T22:33:00Z,small business advances,in,Senate
2010-09-14T22:50:00Z,Retail sales gain,eases,recession fears
2010-09-14T22:50:00Z,sales gain,eases,new recession fears
2010-09-15T04:27:00Z,Cisco shares,trade higher after,report of dividend
