2010-04-19T01:09:00Z,Best,expand Mobile stores in,U.S.
2010-04-19T02:13:00Z,Geithner,confident on,overhaul
2010-04-19T02:49:00Z,World Bank,set for,tough vote talks
2010-04-19T05:38:00Z,Qantas,says,disruptions per day
2010-04-19T05:38:00Z,disruptions,costing,A$ 1.5 million
2010-04-19T08:24:00Z,LCD makers ' outlook,improves on,strong TV demand
2010-04-19T09:31:00Z,Philips Q1,beats,shares
2010-04-19T09:31:00Z,expectations,shares at,23-mnth high
2010-04-19T11:33:00Z,Economic blow,could surpass,Sept. 11
2010-04-19T12:29:00Z,Goldman,faces,possible action
2010-04-19T12:55:00Z,Eli Lilly,sees hit in,2010
2010-04-19T13:12:00Z,Goldman clients,stay for,now
2010-04-19T14:09:00Z,40 percent jump,in,base salary
2010-04-19T14:35:00Z,record high,in,March
2010-04-19T15:15:00Z,Fed 's Evans,sees near-zero rates for,time
2010-04-19T16:28:00Z,United,broaches alliance with,US
2010-04-19T18:18:00Z,Senate,will take up Wall St. bill on,Thursday
2010-04-19T18:51:00Z,U.S.,nears,decision on China currency probe
2010-04-19T19:00:00Z,Big brokerages,lose,market share
2010-04-19T19:00:00Z,brokerages,lose,market share
2010-04-19T19:39:00Z,Wal-Mart CEO,pay down after,stock award
2010-04-19T20:46:00Z,Market,lifted by,profit hopes
2010-04-19T21:15:00Z,Stocks,rebound on,dollar gains
2010-04-19T22:26:00Z,U.S.,nears,decision on China currency probe
2010-04-19T22:45:00Z,Obama,forge ahead on,financial reform
2010-04-19T22:45:00Z,Senate Dems,forge on,financial reform
2010-04-19T22:50:00Z,Citigroup,posts,best results
2010-04-19T22:50:00Z,best results,in,nearly 3 years
2010-04-19T23:02:00Z,Thomson Reuters,launches,global network
2010-04-19T23:19:00Z,European flights,resume,cloud
2010-04-19T23:19:00Z,flights,resume,new ash cloud
