2010-08-17T07:07:00Z,Foreign investment,soars despite,labor woes
2010-08-17T07:07:00Z,investment,soars despite,labor woes
2010-08-17T09:35:00Z,Asian firms,probe,Apple kickback claims
2010-08-17T09:35:00Z,firms,probe,Apple kickback claims
2010-08-17T10:45:00Z,yen,threatens,recovery
2010-08-17T10:50:00Z,Major Santander,deals in,10 years
2010-08-17T11:12:00Z,Santander,renews,merger talks
2010-08-17T11:12:00Z,merger talks,with,M&T
2010-08-17T13:29:00Z,India,gives,operator deadline
2010-08-17T14:39:00Z,Geithner,calls for,housing policy change
2010-08-17T14:41:00Z,Mattel,accused in,Bratz battle spying
2010-08-17T15:39:00Z,Geithner,pushing,housing policy change
2010-08-17T17:22:00Z,Home Depot,sees profit growth,demand lags
2010-08-17T17:43:00Z,American Apparel,raises,going
2010-08-17T17:43:00Z,Apparel,going,concern doubts
2010-08-17T18:13:00Z,Court,OKs,payout
2010-08-17T18:29:00Z,Mattel,accused in,Bratz battle spying
2010-08-17T18:48:00Z,Judge,calls,Barclays settlement sweetheart deal
2010-08-17T19:09:00Z,Housing companies,could face,reform
2010-08-17T20:28:00Z,PIMCO 's Gross,calls,refinance
2010-08-17T21:10:00Z,BHP letter,touts,value certainty
2010-08-17T21:10:00Z,Russians,hold,pricing key
2010-08-17T21:10:00Z,U.S. farmers,rattled by,$ 39 bln BHP bid
2010-08-17T22:44:00Z,GM details commitments,SAIC 's,China
2010-08-17T22:44:00Z,cornerstone sales,in,IPO
2010-08-17T23:01:00Z,Potash Corp,rejects,BHP Billiton 's $ 39 bln bid
2010-08-17T23:01:00Z,Stocks,gain,deal talk
2010-08-17T23:40:00Z,GM IPO,filing,delayed
2010-08-17T23:40:00Z,Obama,seeks,design for housing
2010-08-17T23:40:00Z,senator,seeks,more for retirees
