2010-04-24T00:44:00Z,Greece,cast,long shadow
2010-04-24T03:52:00Z,Toyota,likely logged,09/10 operating profit
2010-04-24T08:07:00Z,Inflation expectations,in,China
2010-04-24T12:26:00Z,Toyota,agrees to,Brazil Corolla recall
2010-04-24T15:23:00Z,Goldman execs,sold,shares
2010-04-24T15:48:00Z,Ford mulls,expanded,partnership with Changan
2010-04-24T15:48:00Z,Global brands,face,threat of China car quality
2010-04-24T15:48:00Z,brands,face,threat of China car quality
2010-04-24T15:48:00Z,partnership,with,Changan
2010-04-24T17:41:00Z,China currency,move,matter
2010-04-24T17:52:00Z,Goldman CEO,lauded profit from,subprime shorts
2010-04-24T18:12:00Z,Ernst,settle,HealthSouth cases
2010-04-24T18:12:00Z,UBS,settle,HealthSouth cases
2010-04-24T18:28:00Z,Japan,warns,debt
2010-04-24T18:28:00Z,fund flows,may hurt,global growth
2010-04-24T18:49:00Z,AXA Rosenberg,finds,error
2010-04-24T18:49:00Z,coding error,in,risk program
2010-04-24T19:28:00Z,Putin,wins,Austrian gas deal
2010-04-24T21:43:00Z,rescue,for races,fear
