2010-08-26T10:12:00Z,BOC,set,ICBC
2010-08-26T11:59:00Z,BHP takeover,could cut,Saskatchewan 's take
2010-08-26T11:59:00Z,Uncertainty,could hurt,juniors
2010-08-26T12:11:00Z,BOJ,go,step on yen
2010-08-26T12:11:00Z,Japan Democrat panel,wants,BOJ
2010-08-26T12:45:00Z,Dell,chase,3PAR
2010-08-26T12:45:00Z,HP,chase,3PAR
2010-08-26T12:45:00Z,Valuation,takes,backseat
2010-08-26T13:03:00Z,BHP sweetener,may,may inhibited by UK regulations
2010-08-26T14:36:00Z,Novartis,push ahead with,Alcon buyout
2010-08-26T14:38:00Z,Mortgage rates,decline to,lowest
2010-08-26T15:55:00Z,Fast money,influence,limited
2010-08-26T15:55:00Z,money,influence,limited
2010-08-26T17:21:00Z,BlackBerry solution,in,India
2010-08-26T17:21:00Z,RIM,suggests,forum on BlackBerry solution in India
2010-08-26T18:15:00Z,BHP,woo,Potash owners
2010-08-26T18:39:00Z,Weekly claims,dip,average rises
2010-08-26T18:39:00Z,Weekly jobless claims,dip,4-week average rises
2010-08-26T21:39:00Z,U.S. banks,lobby Fed on,debit card fee limits
2010-08-26T21:45:00Z,U.S. shares,buck,trend
2010-08-26T22:32:00Z,Oil,rises,day
2010-08-26T22:32:00Z,jobs data,eases,concerns
2010-08-26T22:48:00Z,Dow,ends on,worries
2010-08-26T22:58:00Z,HP,trumps,Dell
2010-08-27T04:02:00Z,Factbox,face in,India
2010-08-27T04:02:00Z,Problems BlackBerry services,face in,India
