2010-03-20T00:01:00Z,Goldman execs,get,2009 fund payouts
2010-03-20T00:45:00Z,Barroso,wants,EU
2010-03-20T00:45:00Z,EU,agree,loans for Greece
2010-03-20T01:45:00Z,MGM,could go,bids disappoint
2010-03-20T02:54:00Z,Sen Dodd,urges,Justice probe of Lehman accounting
2010-03-20T08:56:00Z,Canon stake,hiked after,tender offer
2010-03-20T10:03:00Z,Obama,urges,senators
2010-03-20T10:03:00Z,senators,support,financial reform
2010-03-20T13:00:00Z,Greece,will pay,its debts
2010-03-20T14:22:00Z,Dubai Nakheel woes,may help,Islamic finance
2010-03-20T17:39:00Z,Lehman exec letter,warned on,misleading investors
2010-03-20T23:09:00Z,Novell,rejects,$ 2 billion Elliott Associates offer
2010-03-21T04:02:00Z,Bharti board,approves,$ 9 billion offer
2010-03-21T04:03:00Z,Ex-IMF head,urges,insolvency mechanism
2010-03-21T04:03:00Z,head,urges,insolvency mechanism for states
