2010-01-24T13:53:00Z,White House Bernanke,be,confirmed
2010-01-24T13:53:00Z,White House confident Bernanke,be,confirmed
2010-01-24T18:14:00Z,China 's economy,may surpass,Japan
2010-01-24T22:34:00Z,Citigroup,resumes,operations in Haiti
2010-01-24T22:34:00Z,operations,in,Haiti
2010-01-24T23:22:00Z,Bernanke,for,confirmation to Fed
2010-01-24T23:28:00Z,Infineon 's Wucherer,expects,chairman
2010-01-24T23:33:00Z,Japan manufacturers mood,uncertain,outlook
2010-01-25T05:11:00Z,Iceland,seeks,int l mediation
