2010-02-19T00:48:00Z,Former BofA CEO Lewis,was briefed on,disclosure
2010-02-19T00:49:00Z,Americans,doubt,their stock-market savvy
2010-02-19T04:58:00Z,Financial reform bill,seen,next week
2010-02-19T06:56:00Z,FY,beats,poll
2010-02-19T06:56:00Z,Nestle,sees,higher growth 2010
2010-02-19T11:01:00Z,Media Toyota chief,faces,makeover for U.S.
2010-02-19T11:01:00Z,Media shy Toyota chief,faces,makeover for U.S.
2010-02-19T12:00:00Z,Nestle,outshines,peers
2010-02-19T12:34:00Z,Fed,raises discount rate to,0.75 percent
2010-02-19T12:34:00Z,Rate,return to,normal business
2010-02-19T13:04:00Z,U.S. department stores,in,fight for market share
2010-02-19T14:10:00Z,Schick,fires,new shot
2010-02-19T16:21:00Z,U.S.,enlists,UPS
2010-02-19T16:56:00Z,Investors,seek,sales repair
2010-02-19T18:49:00Z,Rate hike furor,shows,delicate task for Fed
2010-02-19T20:15:00Z,Microsoft,steps up,search assault on Google
2010-02-19T20:27:00Z,Congress,grilling on,recalls
2010-02-19T20:27:00Z,Toyota head,prepares,Congress grilling
2010-02-19T20:46:00Z,15 percent,in,Q4
2010-02-19T20:46:00Z,foreclosing,delinquent at,15 percent in Q4
2010-02-19T21:27:00Z,Tame inflation,supports,Fed 's rate vow
2010-02-19T21:27:00Z,inflation,supports,Fed 's low rate vow
2010-02-19T21:58:00Z,Investors,seek,sales repair
2010-02-19T22:39:00Z,Fed,seeks after,discount rate rise
2010-02-19T23:26:00Z,SEC,consider,new sale curbs
2010-02-19T23:49:00Z,Schlumberger,in,talks buy
2010-02-20T05:16:00Z,Dell,shares,slide on margin concerns
