2010-12-23T02:15:00Z,Starbucks,says,grocery coffee share down since 2004
2010-12-23T08:45:00Z,Riversdale,expects,shareholders
2010-12-23T11:20:00Z,Airgas,rejects,Air Products ' bid
2010-12-23T11:39:00Z,Ruentex,seen,runner
2010-12-23T12:35:00Z,IMF,approves,credit line
2010-12-23T15:38:00Z,Irish government,help,Bank of Ireland
2010-12-23T15:38:00Z,government,help,Bank
2010-12-23T16:00:00Z,Copper market,braces for,more substitution
2010-12-23T16:08:00Z,Lufthansa,plans,takeover
2010-12-23T16:12:00Z,GE,expects,charge
2010-12-23T16:34:00Z,Riversdale,agrees,Rio bid
2010-12-23T18:52:00Z,Fitch,cuts Portugal rating to,A-plus
2010-12-23T20:37:00Z,Data,reinforce,fourth-quarter growth hopes
2010-12-23T21:29:00Z,Boeing,says,787 flight tests resume
2010-12-23T21:35:00Z,Oil,jumps since,2008 crisis
2010-12-23T22:09:00Z,Toyota,settles suit over,California crash
2010-12-23T22:39:00Z,MBIA,wins,key ruling in Bank of America
2010-12-23T22:39:00Z,key ruling,in,Bank of America
2010-12-23T22:55:00Z,FCC chair,proposes,conditional approval
2010-12-23T23:02:00Z,Libya,say,Kuwait
2010-12-24T05:22:00Z,Sensor mat issue,prompts,GM Cadillac recall
