2010-08-03T00:00:00Z,Stereo magnate Harman,buy,Newsweek
2010-08-03T00:43:00Z,Montrica,in,tie-up deal
2010-08-03T00:43:00Z,TPG-Axon,Montrica in,tie-up deal
2010-08-03T05:21:00Z,Houlihan Lockey,endorse,Tribune LBO
2010-08-03T07:18:00Z,Trading,lifts NYSE Euronext profit by,25 percent
2010-08-03T08:24:00Z,BP,sends,Japan 's Mitsui $ 480 million bill
2010-08-03T09:06:00Z,BlackBerry maker,block,porn
2010-08-03T09:06:00Z,Kuwait,asks,BlackBerry maker
2010-08-03T09:22:00Z,Google 's Hong Kong question page,blocked in,China
2010-08-03T11:34:00Z,Pfizer shares,rise after,Q2 results
2010-08-03T12:36:00Z,P&G profit,marketing,items
2010-08-03T12:46:00Z,MasterCard profit,rises,31 percent
2010-08-03T13:38:00Z,Dow Chemical shares,drop after,Q2 profit
2010-08-03T14:14:00Z,Pending home sales,hit,new low
2010-08-03T14:14:00Z,home sales,hit,new low
2010-08-03T15:57:00Z,RIM,unveils,touchscreen
2010-08-03T17:34:00Z,RIM CTO,rely on,BlackBerry
2010-08-03T17:34:00Z,much,ban,it
2010-08-03T17:35:00Z,June home sales,record,low
2010-08-03T17:35:00Z,June pending home sales,record,low
2010-08-03T17:43:00Z,UAE BlackBerry users,set for,Samsung switch
2010-08-03T18:52:00Z,Smart money,in,real estate
2010-08-03T20:13:00Z,Donald Trump,sued over,Trump SoHo condo
2010-08-03T20:22:00Z,Pfizer,reassures on,long-term view
2010-08-03T20:29:00Z,it,markets,new products
2010-08-03T20:31:00Z,Stocks,retreat on,data
2010-08-03T20:50:00Z,Genzyme,has,few takeover defenses
2010-08-03T20:50:00Z,Sanofi investors,oppose,big hike
2010-08-03T20:50:00Z,big hike,in,Genzyme bid
2010-08-03T22:18:00Z,Stocks,pull,dollar falls on growth worries
2010-08-03T22:18:00Z,dollar,falls on,growth worries
2010-08-03T22:42:00Z,BlackBerry,counter,Apple iPhone
2010-08-03T22:42:00Z,RIM,unveils,new BlackBerry
2010-08-03T22:42:00Z,new BlackBerry,counter,Apple iPhone
2010-08-03T22:54:00Z,Dow Chemical profit,misses,estimates
2010-08-04T04:18:00Z,Ford,reports,July sales up 5 percent
