2010-02-25T03:05:00Z,Morgan Stanley 's Mack,concerned about,politics
2010-02-25T07:42:00Z,Microsoft,wins,court approval topple
2010-02-25T11:23:00Z,Toyota,faces road to,redemption
2010-02-25T13:14:00Z,Swiss,seek fix to,money
2010-02-25T14:11:00Z,Durable goods orders surge,in,January
2010-02-25T14:39:00Z,Palm,cuts revenue view on,weak phone sales
2010-02-25T15:45:00Z,$ 3.3 billion stake,in,Garanti
2010-02-25T15:59:00Z,Buffett letter,has,audience
2010-02-25T17:32:00Z,stoic showing,in,Congress
2010-02-25T18:07:00Z,Trump,takes stand in,fight over NJ casinos
2010-02-25T18:37:00Z,Palm,cuts revenue outlook on,weak phone sales
2010-02-25T19:49:00Z,Obama,of,healthcare summit
2010-02-25T19:49:00Z,Participants,in,White House healthcare summit
2010-02-25T19:49:00Z,Republicans,come out,swinging
2010-02-25T19:55:00Z,Prices,with,competitors
2010-02-25T20:19:00Z,Toyota,may miss,N. American production target
2010-02-25T20:46:00Z,Oil,falls over,2 percent
2010-02-25T20:51:00Z,Bernanke,wants,answers on Goldman role
2010-02-25T20:51:00Z,Goldman role,in,Greece
2010-02-25T21:19:00Z,SEC,examines,destabilizing effects
2010-02-25T21:28:00Z,U.S. data,raises,worries about recovery
2010-02-25T21:28:00Z,Weak U.S. data,raises,worries about recovery
2010-02-25T21:41:00Z,Lehman,settles collateral claims with,JPMorgan
2010-02-25T21:59:00Z,Apple,helps,Nasdaq
2010-02-25T22:06:00Z,Areas,disagreement at,health summit
2010-02-25T22:37:00Z,Obama,urges,soul-searching on healthcare
2010-02-25T22:51:00Z,Fed,changing,Wall St pay
2010-02-25T23:32:00Z,Obama,dominates,room
2010-02-25T23:35:00Z,Trump,takes stand in,bid for namesake casinos
2010-02-25T23:46:00Z,Blackstone earnings,beat,expectations
2010-02-25T23:54:00Z,Obama,clash at,health summit
2010-02-25T23:56:00Z,Gap profit,beats,Street
2010-02-25T23:58:00Z,Deal,in,near Senate
2010-02-26T05:13:00Z,Bernanke,wants,answers on Goldman role
2010-02-26T05:13:00Z,Goldman role,in,Greece
2010-02-26T05:51:00Z,hot area,in,slow jobs recovery
