2010-08-18T05:26:00Z,Highland Hospitality,mulls,Chapter 11
2010-08-18T08:51:00Z,Bank,voted,8-1
2010-08-18T09:29:00Z,BHP,switches advisers as,bankers line
2010-08-18T10:27:00Z,Dell CEO,gets,fewest investor votes
2010-08-18T12:10:00Z,BHP,in,loan of over $ 40 billion
2010-08-18T12:35:00Z,GM details commitments,SAIC 's,China
2010-08-18T12:35:00Z,cornerstone sales,in,IPO
2010-08-18T12:35:00Z,senator,seeks,more for retirees
2010-08-18T13:47:00Z,BHP 's Potash bid,seen as,positive
2010-08-18T14:04:00Z,Foxconn,cut,Shenzhen
2010-08-18T15:35:00Z,Iraq 's farmers,fear,gold rush
2010-08-18T15:38:00Z,China,crack,LNG secret
2010-08-18T17:32:00Z,Obama,seeks,design for housing
2010-08-18T17:53:00Z,Health reform,spurs,change for employers
2010-08-18T19:26:00Z,housing crisis,keeps For,local governments
2010-08-18T20:22:00Z,shareholder,in,GM IPO
2010-08-18T20:43:00Z,Stocks,eke out,gain on earnings as oil dips
2010-08-18T21:03:00Z,Consumer stocks,lift Wall St after,Target outlook
2010-08-18T21:04:00Z,BHP,switches advisers as,bankers eye fee bonanza
2010-08-18T21:20:00Z,GM,in,IPO
2010-08-18T21:27:00Z,Duquesne 's Druckenmiller,retiring after,30 years
2010-08-18T21:30:00Z,Four banks,face,losses on repurchases
2010-08-18T21:30:00Z,banks,face,big losses
2010-08-18T21:59:00Z,SEC,meet on,proxy access rules
2010-08-18T22:14:00Z,BHP,goes,hostile
2010-08-18T22:34:00Z,Madoff feeder fund firm,faces,lawsuit
2010-08-18T23:21:00Z,Treasury stake,on Facts,sale considerations
2010-08-18T23:30:00Z,BOJ,considering,steps
2010-08-19T04:55:00Z,Target,sees,sales growth
