2010-12-25T14:17:00Z,World economy,can withstand,$ 100 oil price
2010-12-25T14:18:00Z,China,raises again,interest rates
2010-12-25T14:18:00Z,China fights inflation,with,Christmas rate rise
2010-12-25T21:55:00Z,5.8-6.0 percent,in,fiscal 2010/11
2010-12-25T21:55:00Z,Egypt GDP growth,seen,5.8-6.0 percent in fiscal 2010/11
2010-12-25T22:07:00Z,oil rise,in,festive cheer
