2010-03-22T00:05:00Z,Yuan,in,global FX reserves
2010-03-22T01:35:00Z,BofA CEO Moynihan,makes,trip
2010-03-22T11:02:00Z,China,turning,point
2010-03-22T11:14:00Z,Russia,denies,bid
2010-03-22T11:31:00Z,Microsoft 's browser,loses,market share
2010-03-22T13:27:00Z,Arrow 's Davies,hits target with,Shell bid
2010-03-22T14:45:00Z,Arrow,bows to,$ 3.1 billion
2010-03-22T15:48:00Z,E Trade names,plans,reverse stock split
2010-03-22T17:08:00Z,Health stocks,outpace,market
2010-03-22T18:04:00Z,E Trade names,plans,reverse stock split
2010-03-22T18:50:00Z,Financial reform,must shield,consumers
2010-03-22T20:24:00Z,Google,shifts,China service
2010-03-22T20:33:00Z,Markets,rise to,healthcare uncertainty
2010-03-22T20:52:00Z,Four Rio employees,plead on,China bribes
2010-03-22T20:52:00Z,Rio employees,plead,guilty
2010-03-22T22:17:00Z,Phillips-Van Heusen profit,beats in,quarter
2010-03-22T23:26:00Z,Geithner,calls for,housing finance
2010-03-22T23:39:00Z,China,search,service
2010-03-22T23:52:00Z,Senate panel,backs,financial reform bill
2010-03-23T04:05:00Z,Williams-Sonoma,sees growth as,customers return
