2010-04-26T00:31:00Z,Greece,expects debt aid rescue in,time
2010-04-26T02:47:00Z,Bank,nears,decision on chairman
2010-04-26T09:40:00Z,Canon,raises,2010 outlook on digicams
2010-04-26T12:40:00Z,Banks,face,pressure get
2010-04-26T15:21:00Z,Nielsen 's PE owners,plan,IPO
2010-04-26T15:25:00Z,swaps,in,focus for financial reform bill
2010-04-26T15:28:00Z,Derivatives differences,trigger,alarm bells
2010-04-26T15:49:00Z,Massey Energy director,defends,CEO
2010-04-26T16:09:00Z,CFTC,gets,political lift
2010-04-26T16:41:00Z,Greece aid hope,helps,stocks
2010-04-26T17:56:00Z,Germany 's CDU,keeps,pressure
2010-04-26T18:03:00Z,Caterpillar 's first quarter,beats,Street
2010-04-26T18:03:00Z,Caterpillar 's quarter,beats,Street
2010-04-26T18:14:00Z,Nielsen 's PE owners,plan,IPO
2010-04-26T18:20:00Z,More firms,anticipate,payrolls growth
2010-04-26T18:20:00Z,firms,anticipate,payrolls growth
2010-04-26T18:24:00Z,Treasury,begins,sale
2010-04-26T18:30:00Z,Pay czar,sees,signs Wall Street
2010-04-26T18:36:00Z,General Growth bankruptcy exit plan,hearing,delayed
2010-04-26T19:44:00Z,Massey director,defends,CEO
2010-04-26T19:47:00Z,Major household product makers,poised for,growth
2010-04-26T19:47:00Z,household product makers,poised for,growth
2010-04-26T20:30:00Z,CAT,lifts,Dow
2010-04-26T20:34:00Z,RIM,shows,new operating system
2010-04-26T20:45:00Z,BlackRock 's fund,flows,unnerve investors
2010-04-26T20:45:00Z,Obama,fulfills,Cairo pledge
2010-04-26T20:57:00Z,CEO,hit with,investor lawsuit
2010-04-26T20:57:00Z,Goldman,hit with,investor lawsuit
2010-04-26T22:22:00Z,Germany,sets,terms
2010-04-26T22:22:00Z,Markets,hammer,debt
2010-04-26T22:28:00Z,Citi CEO Pandit,looks abroad for,recovery
2010-04-26T22:44:00Z,Court,strikes,blow
2010-04-26T22:44:00Z,Prudential investor,could scupper,AIA deal
2010-04-26T22:48:00Z,Financial reform bill,stumbles in,Senate
2010-04-26T22:55:00Z,Lehman,dispute over,sale
2010-04-26T22:55:00Z,Trial,begins in,Barclays dispute over sale
2010-04-27T04:23:00Z,Pay czar,sees,signs Wall Street
2010-04-27T04:42:00Z,Treasury,begins,sale
