2010-11-29T00:21:00Z,Starbucks,accuses,Kraft
2010-11-29T01:33:00Z,Treasury,welcomes,aid package for Ireland
2010-11-29T06:52:00Z,Irish bank recap,funding,fears
2010-11-29T06:52:00Z,bank recap,funding,fears
2010-11-29T06:55:00Z,Portugal,in,crosshairs
2010-11-29T06:55:00Z,crosshairs,in Portugal,Spain
2010-11-29T09:42:00Z,BP,sells stake for,$ 7 billion
2010-11-29T12:01:00Z,J&J,must pay,$ 130 million
2010-11-29T12:13:00Z,Greece,gets,repayment extension
2010-11-29T13:05:00Z,Merrill spin-off First Republic,files for,IPO
2010-11-29T13:23:00Z,Roubini,sees,possibly Spain
2010-11-29T14:24:00Z,country,on,bailout
2010-11-29T15:09:00Z,Key staging posts,in,spread of euro zone debt crisis
2010-11-29T15:45:00Z,Developed world,better prepared for,crisis
2010-11-29T15:45:00Z,world,better prepared for,crisis
2010-11-29T16:42:00Z,Norway,may lend,direct
2010-11-29T16:42:00Z,Oil-rich Norway,may lend,direct
2010-11-29T18:35:00Z,Bestselling gadgets,in,November
2010-11-29T19:38:00Z,Retail stocks,shrug off,Friday sales weekend
2010-11-29T19:38:00Z,stocks,shrug off,strong Black Friday sales weekend
2010-11-29T19:39:00Z,Supreme Court,rejects,Tiffany trademark appeal
2010-11-29T22:03:00Z,Labor Department,proposes,target date 401 rules
2010-11-29T22:19:00Z,Wall Street,slips,euro concerns linger
2010-11-29T22:46:00Z,Cyber Monday,sustains,shopping
2010-11-29T23:03:00Z,Analysts,cautious on,PC sales outlook
2010-11-29T23:36:00Z,NY trial,opens in,Goldman trading code case
2010-11-29T23:52:00Z,WikiLeaks,release,U.S. bank 's documents
2010-11-30T05:32:00Z,Morgan Stanley 's Meeker,joins,Kleiner Perkins
2010-11-30T05:42:00Z,4 others,face,EU fines
2010-11-30T05:42:00Z,others,face,EU fines
