2010-10-20T00:32:00Z,Officials,hint,Fed
2010-10-20T03:16:00Z,Surprise rate rise,rattles,banks
2010-10-20T07:07:00Z,Yahoo,disappoints on,revenue forecast
2010-10-20T09:34:00Z,China surprises,with,first rate rise
2010-10-20T11:21:00Z,Sanofi,gets from,U.S. authorities
2010-10-20T11:33:00Z,United Tech,profit up,13 percent
2010-10-20T11:40:00Z,Textron,meets,Wall Street view
2010-10-20T11:41:00Z,US Bancorp profit,rose,50 percent
2010-10-20T11:41:00Z,US Bancorp third-quarter profit,rose,50 percent
2010-10-20T11:47:00Z,BHP 's Potash bid,faces,pressure from province
2010-10-20T13:22:00Z,Wells Fargo profit,rises on,loan losses
2010-10-20T17:05:00Z,Boeing profit,beats on,commercial plane recovery
2010-10-20T17:25:00Z,BlackRock profit tops,estimates on,strong inflows
2010-10-20T17:55:00Z,U.S. industrials,find,growth pockets
2010-10-20T18:14:00Z,Mortgage applications,slump,rates rise
2010-10-20T18:14:00Z,rates,rise from,lows
2010-10-20T18:21:00Z,Britain slashes spending,raises,retirement age
2010-10-20T18:55:00Z,Morgan Stanley wealth,adds,assets
2010-10-20T19:16:00Z,U.S.,wants,G20 commitment let
2010-10-20T20:08:00Z,Banks,see,loan demand
2010-10-20T20:45:00Z,Wall Street,bounces earnings on,weak dollar
2010-10-20T20:46:00Z,Morgan Stanley,overtakes Goldman in,commodity risk
2010-10-20T21:00:00Z,Doves,fight out,it
2010-10-20T21:00:00Z,Economy,grew sluggishly in,weeks
2010-10-20T21:00:00Z,Fed,moves,easing
2010-10-20T21:32:00Z,Alcon profit,falls on,merger costs
2010-10-20T21:32:00Z,Alcon third-quarter profit,falls on,merger costs
2010-10-20T22:32:00Z,Apple,shows off,Mac laptop
2010-10-20T22:54:00Z,EBay beats,sees,improved holiday
2010-10-20T22:54:00Z,raises,sees,holiday
2010-10-20T23:38:00Z,SEC,set,vote
