2010-12-29T08:25:00Z,Kraft,did well in,coffee sales
2010-12-29T08:38:00Z,Noble,end,Nook lawsuit
2010-12-29T10:07:00Z,Copper,are,2010 's winners
2010-12-29T10:20:00Z,SAP,must pay,interest
2010-12-29T11:47:00Z,China,continue,property tightening
2010-12-29T12:29:00Z,China earths quota,hinders,free trade
2010-12-29T12:29:00Z,China rare earths quota,hinders,free trade
2010-12-29T12:29:00Z,industries,use,earth elements
2010-12-29T12:29:00Z,various industries,use,rare earth elements
2010-12-29T13:13:00Z,Rate reforms,can tame,inflation
2010-12-29T13:20:00Z,SEC probes,trading in,Internet firms
2010-12-29T13:21:00Z,Allstate,sues BofA over,Countrywide losses
2010-12-29T15:49:00Z,Spain reins,in,debt issuance ambitions
2010-12-29T15:49:00Z,debt issuance ambitions,in,2011
2010-12-29T16:44:00Z,Microsoft co-founder,relaunches,tech patent suit
2010-12-29T18:16:00Z,Dollar,hits,session lows
2010-12-29T18:27:00Z,Justice Department,seeks,tougher CFTC
2010-12-29T18:42:00Z,Leonard Green,buy,BJ
2010-12-29T19:12:00Z,commods,in,2011
2010-12-29T20:47:00Z,Bond market,seen,firm as year-end approaches
2010-12-29T21:41:00Z,Groupon,raise,$ 950 million
2010-12-29T21:44:00Z,Home foreclosures,jump in,quarter
2010-12-29T22:08:00Z,growth outlook,boosts,risk assets
2010-12-29T22:18:00Z,Insider trading defendants,in,prime time
2010-12-29T23:05:00Z,California woman,arrested in,insider trading case
2010-12-30T05:51:00Z,Chile industry data,reaffirms,rate
2010-12-30T05:51:00Z,Chile industry data soft,reaffirms,rate
