2010-06-15T11:21:00Z,Nestle,sues,Sara Lee
2010-06-15T13:59:00Z,Small banks,fight card fee limits despite,exemption
2010-06-15T13:59:00Z,banks,fight card fee limits despite,exemption
2010-06-15T14:54:00Z,Small banks,fight card fee limits despite,exemption
2010-06-15T14:54:00Z,banks,fight card fee limits despite,exemption
2010-06-15T15:55:00Z,June homebuilder sentiment,falls,post-tax credit
2010-06-15T15:57:00Z,May import prices,post,drop
2010-06-15T15:57:00Z,retailers,eye,assortment cuts
2010-06-15T15:59:00Z,News Corp,seeks to,reel
2010-06-15T18:28:00Z,Airlines,see,Q2 revenue gains
2010-06-15T19:21:00Z,NY manufacturing,grows,import prices slip
2010-06-15T20:25:00Z,Credit card delinquencies,fall to,5-month lows
2010-06-15T20:39:00Z,Lawmakers,blast,oil firms ' drilling plans
2010-06-15T20:42:00Z,Wall Street,jumps as,S&P 500 breaches key level
2010-06-15T21:29:00Z,Euro,rally on,demand for debt
2010-06-15T21:29:00Z,stocks,rally on,demand for European debt
2010-06-15T23:00:00Z,CBOE shares,jump,12 percent
2010-06-15T23:17:00Z,retailers,eye,assortment cuts
2010-06-15T23:54:00Z,Rating agencies,dodge,bullet
