2011-09-21T01:17:00Z,BofA,dismisses,13 investment bankers
2011-09-21T01:19:00Z,Guggenheim,reorganizes,phases out Rydex ETF
2011-09-21T03:27:00Z,Boeing,aims,win
2011-09-21T05:54:00Z,BRIC help,has,echoes
2011-09-21T09:46:00Z,BoE,pump,money
2011-09-21T10:52:00Z,GM CEO,concerned about,U.S. recession risk
2011-09-21T11:44:00Z,UAW,shifts,focus
2011-09-21T12:25:00Z,Boeing,win,half of China 's orders
2011-09-21T12:25:00Z,China,of,orders
2011-09-21T12:37:00Z,Greek parliament,approves,EFSF expansion
2011-09-21T12:37:00Z,parliament,approves,EFSF expansion
2011-09-21T13:04:00Z,banks,risk by,$ 410 billion
2011-09-21T14:30:00Z,Struggling,wins,reprieve
2011-09-21T14:30:00Z,reprieve,Struggling,Saab
2011-09-21T16:00:00Z,Greek reforms,undermined by,stereotypes
2011-09-21T16:00:00Z,reforms,undermined by,stereotypes
2011-09-21T16:11:00Z,Adidas,trounce China sportswear players,Nike
2011-09-21T17:15:00Z,trading,is,dead
2011-09-21T17:55:00Z,Emerging powers,can play,vital world role
2011-09-21T17:55:00Z,powers,can play,world role
2011-09-21T19:34:00Z,Heartland Payment,sees,growth
2011-09-21T19:34:00Z,growth,in,market share
2011-09-21T19:49:00Z,Bankruptcy,claims,trading slows
2011-09-21T19:50:00Z,Holiday retail sales,expected,tepid
2011-09-21T19:50:00Z,Holiday sales,expected,tepid
2011-09-21T19:50:00Z,Italy,cuts,2011-2013 growth forecasts
2011-09-21T19:58:00Z,HP,Is competing,honors
2011-09-21T20:12:00Z,Fed officials,' comments,policy
2011-09-21T20:22:00Z,Convicted trader Goffer,handed,sentence
2011-09-21T20:22:00Z,trader Goffer,handed,10-year sentence
2011-09-21T20:35:00Z,Ex-Goldman employee,charged with,insider trading
2011-09-21T20:35:00Z,employee,charged with,insider trading
2011-09-21T21:10:00Z,World Bank,developing,nations
2011-09-21T21:27:00Z,Fed,cites,economic risks
2011-09-21T21:27:00Z,Wall Street,sinks,3 percent
2011-09-21T21:35:00Z,France 's Sarkozy,says,G20 priority
2011-09-21T21:54:00Z,Money funds,look for,yield boost
2011-09-21T22:00:00Z,Europe,must do,more
2011-09-21T22:07:00Z,U.S.,sees,challenges in cases
2011-09-21T22:07:00Z,challenges,in,financial cases
2011-09-21T22:18:00Z,New October 13 date,set for,Rajaratnam sentencing
2011-09-21T22:18:00Z,New October date,set for,Rajaratnam sentencing
2011-09-21T23:02:00Z,Obama euro zone,end,crisis
2011-09-21T23:02:00Z,Sarkozy,told,Obama euro zone
2011-09-21T23:14:00Z,HP,may oust,CEO
2011-09-21T23:15:00Z,Discovery,in,streaming deal
2011-09-21T23:15:00Z,Netflix,Discovery in,streaming deal
2011-09-21T23:24:00Z,Insiders,handed,four prison terms
2011-09-21T23:36:00Z,IMF,warns on,banks
2011-09-21T23:46:00Z,Ex-Goldman employee,charged with,insider trading
2011-09-21T23:46:00Z,employee,charged with,insider trading
2011-09-21T23:55:00Z,Fed,avoid,U.S. economic slump
2011-09-22T04:01:00Z,SABMiller,seals Foster with,beer
2011-09-22T04:18:00Z,Struggling,wins,reprieve
2011-09-22T04:18:00Z,reprieve,Struggling,Saab
2011-09-22T04:35:00Z,China base metals,demand,growing 10 percent more
2011-09-22T04:35:00Z,growing,more,10 percent
2011-09-22T04:38:00Z,Bank,pump money into,economy
2011-09-22T04:58:00Z,Recession risk,mounts for,developed markets
