2011-04-21T00:37:00Z,Rolls-Royce,sees,sales increase
2011-04-21T00:37:00Z,hefty sales increase,in,Q2
2011-04-21T00:41:00Z,GM 's Baojun lineup,in,China
2011-04-21T00:45:00Z,Hyundai,finds,solution
2011-04-21T00:46:00Z,up strength,in,China
2011-04-21T01:30:00Z,Parts shortages,may delay,Toyota 's IQ launch
2011-04-21T01:30:00Z,U.S. market share,may fall due to,parts
2011-04-21T09:03:00Z,Pru,over,failed AIA bid
2011-04-21T10:42:00Z,Nokia Q1 earnings,beat,expectations
2011-04-21T11:21:00Z,Capital One profit,rises,60 percent
2011-04-21T11:21:00Z,Capital profit,rises,60 percent
2011-04-21T11:27:00Z,DuPont profit,trounces,Wall Street 's expectations
2011-04-21T11:44:00Z,Morgan Stanley,JV to,book
2011-04-21T11:44:00Z,Nokia,start,talks
2011-04-21T12:02:00Z,Morgan Stanley profit,drops,nearly 50 percent
2011-04-21T12:46:00Z,Xerox outlook,calms,profit rises
2011-04-21T12:54:00Z,Jobless claims,fall,week
2011-04-21T12:54:00Z,claims,fall,week
2011-04-21T13:20:00Z,Popular ETFs,give,BlackRock
2011-04-21T13:23:00Z,Medtech companies,post,results
2011-04-21T13:52:00Z,Glencore 's secrecy,pulling,power
2011-04-21T17:05:00Z,GM CEO Akerson,paid,$ 2.53 million
2011-04-21T17:09:00Z,Morgan Stanley clients,re-engage in,stocks
2011-04-21T17:22:00Z,Soaring fuel costs,sap,U.S. airlines ' profits
2011-04-21T17:22:00Z,fuel costs,sap,U.S. airlines ' profits
2011-04-21T17:28:00Z,McDonald,warns of,food inflation
2011-04-21T18:06:00Z,Citi CEO,shed,bank 's survivor image
2011-04-21T18:51:00Z,commods,risk in,Q1
2011-04-21T18:52:00Z,Target store,gets,top-level spies
2011-04-21T18:53:00Z,Economy,struggles,data shows
2011-04-21T20:15:00Z,Amazon,battle for,shoppers
2011-04-21T20:33:00Z,Wall Street,ends,week
2011-04-21T21:07:00Z,Oil,lifted in,trade
2011-04-21T21:12:00Z,BP,in,Gulf spill blame game
2011-04-21T21:12:00Z,Lawsuits,fly in,BP 's Gulf spill blame game
2011-04-21T21:26:00Z,AT&T,touts benefits to,FCC
2011-04-21T21:27:00Z,all-time lows,in,sight
2011-04-21T21:46:00Z,iPhone,helps,enough for some
2011-04-21T22:32:00Z,Rajaratnam defense,in,last shot
2011-04-21T23:35:00Z,Mattel,handed,stunning reversal
2011-04-21T23:36:00Z,Morgan Stanley trading turnaround,makes,progress
2011-04-22T04:15:00Z,DuPont profit,trounces,Wall Street 's expectation
2011-04-22T04:15:00Z,Nokia,sees,times
2011-04-22T04:25:00Z,Fiat,closes in on,Chrysler
2011-04-22T04:47:00Z,Confetti,falls on,otherwise bitter battle
