2011-06-19T01:21:00Z,New engine glitch,hampers,A400M Paris debut
2011-06-19T09:57:00Z,Boeing,hits at,Airbus
2011-06-19T10:28:00Z,1.3 million users,affected by,cyber attack
2011-06-19T10:28:00Z,Sega,says,1.3 million users affected by cyber attack
2011-06-19T12:17:00Z,Buffett-backed carmaker BYD,raises,$ 219 million
2011-06-19T12:17:00Z,carmaker BYD,raises,$ 219 million in China IPO
2011-06-19T12:27:00Z,Trichet,widening,imbalances
2011-06-19T15:57:00Z,Line,drawn in,U.S. stocks ' battle
2011-06-19T16:49:00Z,banks,face risk in,rescue
2011-06-19T17:53:00Z,Germany,urges,role for private creditors
2011-06-19T17:53:00Z,role,in,Greece
2011-06-19T21:01:00Z,Boeing,debuts in,Paris
2011-06-19T21:01:00Z,Boeing 747-8,debuts in,Paris
2011-06-19T21:11:00Z,Fed,will say about,growth
2011-06-19T22:32:00Z,Pratt,sees,widebody options
2011-06-19T22:42:00Z,Europe,meets on,aid
2011-06-19T22:42:00Z,Greek PM,warns against,default
2011-06-19T22:42:00Z,PM,warns,Europe meets
