2011-02-17T00:24:00Z,Tinker,with,fabric
2011-02-17T00:35:00Z,Borders ' landlords,wait for,bankruptcy outcome
2011-02-17T06:26:00Z,Nestle FY,beats,poll
2011-02-17T08:52:00Z,Rothschild,hedge,funds JV
2011-02-17T10:02:00Z,BAE Systems,cautious on,2011
2011-02-17T11:03:00Z,ECB president,can make,difference
2011-02-17T11:03:00Z,strong ECB president,can make,difference
2011-02-17T12:30:00Z,Las Vegas Sands,in,talks build
2011-02-17T13:57:00Z,Jobless claims,rise,last week
2011-02-17T13:57:00Z,claims,rise,last week
2011-02-17T14:17:00Z,Retail sales,will rise in,2011
2011-02-17T14:17:00Z,sales,will rise in,2011
2011-02-17T15:44:00Z,Lear,split,shares
2011-02-17T18:07:00Z,G20,change wording on,sharp fx moves
2011-02-17T18:15:00Z,Clients,pull out,23 percent
2011-02-17T18:15:00Z,Diamondback,of,capital
2011-02-17T18:23:00Z,ICE,in,critical stage talks
2011-02-17T18:23:00Z,Nasdaq,ICE in,critical stage talks
2011-02-17T20:07:00Z,Geithner,warns of,market risk
2011-02-17T20:18:00Z,Treasuries,gain,franc
2011-02-17T20:56:00Z,Republicans,employ,tactic
2011-02-17T21:08:00Z,Mortgage delinquences,fall in,quarter
2011-02-17T21:13:00Z,Fed officials,' comments,policy
2011-02-17T21:17:00Z,Blockbuster,faces,possible evictions
2011-02-17T22:02:00Z,Recent leaders,juice up,Wall Street
2011-02-17T22:02:00Z,investors,Pack,mentality
2011-02-17T22:02:00Z,leaders,juice up,Wall Street
2011-02-17T22:24:00Z,Fed,hands,banks glimmer of hope
2011-02-17T22:31:00Z,U.S.,beefs up,consumer bureau
2011-02-17T22:47:00Z,Ambac,revives,JPMorgan mortgage lawsuit
2011-02-17T23:03:00Z,Starbucks CEO,has,bold plans
2011-02-17T23:41:00Z,Nordstrom,expects,2011 sales gains
2011-02-17T23:41:00Z,Swatch,sues,Bloomberg LP
2011-02-18T05:00:00Z,its muscles,using,U.S. Treasuries
2011-02-18T05:05:00Z,Chevron,asks,Ecuador judge
2011-02-18T05:05:00Z,Ecuador judge,clarify,ruling
2011-02-18T05:09:00Z,Wedgewood 's Rolfe,see,Apple
2011-02-18T05:12:00Z,Transformer troubles,weigh down,SPX Corp shares
2011-02-18T05:41:00Z,Senate banking panel hearing,with,regulators
