2011-11-09T00:52:00Z,Adobe,plans layoffs,focus
2011-11-09T01:15:00Z,Rajaratnam,pay,$ 92.8 million
2011-11-09T08:15:00Z,Rupert Murdoch,takes,chair
2011-11-09T09:05:00Z,AB InBev Q3 profits,rise despite,same beer
2011-11-09T10:18:00Z,Bank,sees,economy stalling in Q4
2011-11-09T10:57:00Z,Italy,to,Berlusconi
2011-11-09T10:57:00Z,Italy 2-year bonds,yield,more
2011-11-09T10:57:00Z,Italy bonds,yield,more than 10-year debt
2011-11-09T10:57:00Z,Italy opposition,want,reforms passed by Nov 14
2011-11-09T10:57:00Z,Russia,backs,questions euro zone plan
2011-11-09T10:57:00Z,Showman Berlusconi,sunk by,markets
2011-11-09T10:57:00Z,margin,call on,Italian debt
2011-11-09T10:57:00Z,reforms,passed by,Nov 14
2011-11-09T11:41:00Z,some,may see,winter lift
2011-11-09T11:54:00Z,MF Global clients,face,shortfall
2011-11-09T11:54:00Z,MF clients,face shortfall despite,protections
2011-11-09T12:08:00Z,Mortgage applications,refinancing,demand
2011-11-09T12:36:00Z,Merkel,calls for,changes in EU Treaty
2011-11-09T12:36:00Z,changes,in,EU Treaty
2011-11-09T14:01:00Z,German men,risking,credibility
2011-11-09T14:01:00Z,German wise men,warn,ECB
2011-11-09T14:01:00Z,men,risking,credibility
2011-11-09T14:01:00Z,wise men,risking,credibility
2011-11-09T15:00:00Z,EU,Failing on,Greece
2011-11-09T15:23:00Z,Euro zone crisis,hammering,developed economies
2011-11-09T15:30:00Z,create,room for,steps
2011-11-09T15:35:00Z,Toyota,restore,Japan output
2011-11-09T17:54:00Z,Europe debt crisis,brings down,Italy 's Berlusconi
2011-11-09T17:54:00Z,world economy risks,lost,decade
2011-11-09T18:10:00Z,Eurogroup chief praises Portugal,wants,Italy
2011-11-09T20:30:00Z,Goldman,faces,lawsuits
2011-11-09T21:15:00Z,SEC,OKs,tougher listing rules for mergers
2011-11-09T21:47:00Z,RIM,investigating,reports
2011-11-09T21:47:00Z,investigating,reports of,BlackBerry delays
2011-11-09T22:08:00Z,Retail marketers,keep,holiday optimism
2011-11-09T22:08:00Z,marketers,keep,holiday optimism
2011-11-09T22:14:00Z,Wall St,sinks,European debt plight worsens
2011-11-09T22:33:00Z,EU 's Barroso,warns about,cost of splitting euro zone
2011-11-09T22:45:00Z,fears,grow of,euro zone split
2011-11-09T22:46:00Z,Cisco Q2 outlook,beats,Street view
2011-11-09T22:50:00Z,Green Mountain revenue,misses,shares plunge
2011-11-09T22:51:00Z,Alabama 's Jefferson County,OKs,bankruptcy filing
2011-11-09T23:03:00Z,Pace,seen,waning into 2012
2011-11-09T23:04:00Z,Japan regulator,talking to,Olympus auditors
2011-11-09T23:04:00Z,Olympus shareholder,calls for,reinstatement of ex-CEO
2011-11-10T05:54:00Z,Debt crisis fells governments,legitimacy in,question
2011-11-10T05:54:00Z,legitimacy,in,question
