2011-01-02T11:40:00Z,China Premier Wen,reiterates,fight
2011-01-02T14:55:00Z,SNB 's Jordan,says,positive
2011-01-02T20:50:00Z,Expedia,dumps,American Airlines listings
2011-01-02T21:38:00Z,Barron,sees,stock market rise
