2011-10-04T03:27:00Z,Dole,settles,lawsuits filed by farm workers
2011-10-04T03:27:00Z,lawsuits,filed by,farm workers
2011-10-04T09:32:00Z,U.S. buyers,shun,conflict minerals
2011-10-04T09:32:00Z,conflict minerals,in,Congo 's east
2011-10-04T11:26:00Z,China 's foreign lawyers,argue,case
2011-10-04T11:26:00Z,China 's lawyers,argue,case
2011-10-04T11:43:00Z,Euro zone,could clear EFSF hurdle,week
2011-10-04T11:44:00Z,Main developments,in,euro zone debt crisis
2011-10-04T12:54:00Z,Pressure,grows on,Europe
2011-10-04T13:22:00Z,IEA,warns of,ballooning world fossil fuel subsidies
2011-10-04T14:35:00Z,funds,suffer through,worst quarter
2011-10-04T14:36:00Z,S&P,enters,bear market territory
2011-10-04T14:36:00Z,S&P 500,enters,bear market territory
2011-10-04T14:44:00Z,WaMu,sees path to,confirmation of Chapter 11 plan
2011-10-04T15:10:00Z,Need reforms,in,mortgage practices
2011-10-04T15:49:00Z,Worker confidence,in,employers
2011-10-04T17:41:00Z,Buffett,sees,record profits
2011-10-04T17:47:00Z,Factory orders,send signals on,outlook
2011-10-04T18:50:00Z,Banks,losing ground on,card security
2011-10-04T19:36:00Z,Analysis,deemed in,land of blind
2011-10-04T19:36:00Z,U.S. stocks,deemed,man
2011-10-04T19:39:00Z,BofA shares,drop to,level
2011-10-04T20:38:00Z,Apple 's iPhone,fails,excite
2011-10-04T20:38:00Z,Apple 's latest iPhone,fails,excite
2011-10-04T21:16:00Z,AMR,seen,ready for bankruptcy
2011-10-04T21:49:00Z,New Apple iPhone,fails,fans
2011-10-04T21:49:00Z,fans,wow,investors
2011-10-04T21:51:00Z,NY,sues BNY Mellon over,forex claims
2011-10-04T21:52:00Z,Economists,see,new recession likely
2011-10-04T22:03:00Z,France,rush to,aid ailing
2011-10-04T22:03:00Z,Muni issuers,drop,Dexia
2011-10-04T22:03:00Z,euro crisis,hits,home
2011-10-04T22:03:00Z,issuers,drop,Dexia
2011-10-04T22:07:00Z,Banks,take,defense of Greek bailout
2011-10-04T22:07:00Z,EU,gives,OK
2011-10-04T22:07:00Z,Finland winner,in,collateral deal
2011-10-04T22:07:00Z,Greek government,urges,unity defiant
2011-10-04T22:07:00Z,Slovakia,end,rift
2011-10-04T22:07:00Z,government,urges,unity
2011-10-04T22:07:00Z,unity,defiant,protesters
2011-10-04T22:08:00Z,Ford,agree on,contract
2011-10-04T22:08:00Z,UAW,agree on,contract with bonuses
2011-10-04T22:08:00Z,contract,with,bonuses
2011-10-04T22:51:00Z,KFC parent Yum,ease,China fears
2011-10-04T23:25:00Z,plan,sell,iPhone
2011-10-04T23:26:00Z,Buyers,rush in as,Wall Street toys with bear market
2011-10-04T23:26:00Z,Wall Street toys,with,bear market
2011-10-04T23:27:00Z,Fed,ready,act
2011-10-04T23:42:00Z,U.S. stocks,stage,rally
2011-10-04T23:53:00Z,EU bank,rescues amid,Greece doubts
2011-10-04T23:53:00Z,EU preparing bank,rescues amid,Greece doubts
2011-10-05T04:12:00Z,Chase 's card chief,rebuilds,business part
2011-10-05T04:12:00Z,Insight,rebuilds by,part
2011-10-05T04:18:00Z,exchanges,must go,global
2011-10-05T04:53:00Z,Highlights,testifies on,economic outlook
