2011-04-13T00:16:00Z,G20,work on,imbalances
2011-04-13T00:59:00Z,TEPCO 's liability,may,may capped
2011-04-13T11:42:00Z,Voluntary Greek debt restructuring,in,next 2 yrs
2011-04-13T13:15:00Z,JPMorgan profit,beats,estimates
2011-04-13T13:15:00Z,JPMorgan quarterly profit,beats,estimates
2011-04-13T15:01:00Z,Japan,cuts,view
2011-04-13T15:08:00Z,P&G,fined,315 million euros
2011-04-13T15:31:00Z,Tyco 's synergies,with,major European industrials
2011-04-13T15:53:00Z,Greece,plans,new measures
2011-04-13T16:53:00Z,Japan,may ask utilities in,limit TEPCO burden
2011-04-13T17:10:00Z,Iceland risks,fall to,junk status on Icesave woe
2011-04-13T17:35:00Z,votes,intensify,debate
2011-04-13T19:04:00Z,Banks,face,wall of maturing debt
2011-04-13T19:04:00Z,IMF 's Shinohara,warns,strong risks to Japan
2011-04-13T19:21:00Z,Lehman,agree on,plan approval timeline
2011-04-13T19:21:00Z,creditors,agree on,plan approval timeline
2011-04-13T19:22:00Z,Schneider,serious about,bidding
2011-04-13T19:46:00Z,Oil,rises,Libya
2011-04-13T20:18:00Z,Deficit-cutting plan,boosts,dollar
2011-04-13T20:18:00Z,plan,boosts,dollar
2011-04-13T21:34:00Z,Toys R Us IPO,in,likely July
2011-04-13T22:00:00Z,Bank regulators,in,pact with mortgage lenders
2011-04-13T22:00:00Z,pact,with,mortgage lenders
2011-04-13T22:01:00Z,Rajaratnam trial prosecutor,raises,temperature
2011-04-13T22:04:00Z,ECB policymakers,urge,policy normalization
2011-04-13T22:04:00Z,Fed,urge,policy normalization
2011-04-13T22:08:00Z,Deutsche Boerse,mull,payouts
2011-04-13T22:08:00Z,NYSE,mull,payouts
2011-04-13T23:15:00Z,Glencore,set listing to,detail plans
2011-04-13T23:15:00Z,lifts,veil on,Glencore
2011-04-13T23:24:00Z,Wall Street,encouraged by,tech less so
2011-04-13T23:36:00Z,Senate panel,slams Goldman in,scathing crisis report
2011-04-13T23:38:00Z,Credit raters,triggered,crisis
