2011-01-03T06:24:00Z,China Premier Wen,reiterates,fight
2011-01-03T07:40:00Z,Hyundai,rise after,strong Dec
2011-01-03T13:28:00Z,China,buy,debt
2011-01-03T13:28:00Z,Japan,from,rise
2011-01-03T15:10:00Z,Construction spending,in,November
2011-01-03T15:23:00Z,Manufacturing sector,grows in,December
2011-01-03T16:02:00Z,Intel,woos Hollywood studios with,microchip
2011-01-03T19:04:00Z,Goldman Sachs,returned to,M&A spot
2011-01-03T19:05:00Z,Apple iPhone alarm woes,continue across,globe
2011-01-03T20:30:00Z,U.S. stock investors eye January,with,caution
2011-01-03T20:47:00Z,December factory output,accelerates in,U.S.
2011-01-03T20:51:00Z,America,of,GSE deal
2011-01-03T20:51:00Z,Bank,leaves,plenty unsettled
2011-01-03T20:51:00Z,plenty unsettled,Bank of,America 's GSE deal
2011-01-03T20:51:00Z,unsettled,Bank of,America 's GSE deal
2011-01-03T21:03:00Z,Consumer bankruptcies,hit,high
2011-01-03T21:26:00Z,Buffett 's Berkshire Hathaway,in,$ 1.5 billion
2011-01-03T21:29:00Z,BofA,settles,sour mortgages
2011-01-03T21:29:00Z,sour mortgages,with,Fannie Mae
2011-01-03T21:40:00Z,Judge,denies,bail for insider trading defendant
2011-01-03T22:18:00Z,investor,Is returning to,stocks
2011-01-03T22:18:00Z,retail investor,Is returning to,stocks
2011-01-03T23:09:00Z,Wall Street,climbs in,session of 2011
2011-01-03T23:27:00Z,Digital Sky,invest in,Facebook
2011-01-03T23:27:00Z,Goldman,invest in,Facebook
2011-01-04T05:41:00Z,Toshiba,launches,tablet
