2011-11-04T01:37:00Z,Corzine,retains,defense lawyer
2011-11-04T06:38:00Z,Japan 's Takeda H1 profit,falls,slashes outlook
2011-11-04T08:29:00Z,Europe breaks,door to,euro exit
2011-11-04T08:29:00Z,Europe breaks taboo,door to,euro exit
2011-11-04T08:29:00Z,G20,calls on,IOSCO
2011-11-04T08:29:00Z,G20 mulls,boosting liquidity through,IMF
2011-11-04T08:29:00Z,unlikely Greece,will exit now,euro
2011-11-04T09:43:00Z,Coming events,in,euro zone debt crisis
2011-11-04T10:05:00Z,China aid,should await,workable plans
2011-11-04T10:19:00Z,BNY Mellon,in,settlement talks over currency lawsuit
2011-11-04T13:33:00Z,Low ad rev,push Washington Post to,loss
2011-11-04T13:33:00Z,ad rev,push,Washington Post
2011-11-04T13:33:00Z,student sign-ups,push Washington Post to,loss
2011-11-04T14:13:00Z,EU debt woes,hit,Q3
2011-11-04T14:42:00Z,bond,buys,temporary
2011-11-04T14:56:00Z,Commerzbank,turns off money tap,Q3 Greece hit
2011-11-04T16:24:00Z,Regulators,dig in at,MF
2011-11-04T17:08:00Z,MF Global rivals,scramble to,vet
2011-11-04T17:08:00Z,MF rivals,scramble to,margin new clients
2011-11-04T17:19:00Z,AIG CEO,defends,company
2011-11-04T18:30:00Z,MF Global client funds,found at,JPMorgan
2011-11-04T18:30:00Z,MF client funds,found at,JPMorgan
2011-11-04T19:47:00Z,Global stocks,slide on,EU bailout doubts
2011-11-04T20:58:00Z,Mutual funds ' bet,tops,$ 1 billion
2011-11-04T20:58:00Z,funds ' bet,tops,$ 1 billion
2011-11-04T21:54:00Z,Jobs,report,hints
2011-11-04T21:56:00Z,confidence vote,in,Greece
2011-11-04T21:57:00Z,United States,gets reprieve,deal
2011-11-04T22:08:00Z,Icahn,nominates directors for,Oshkosh board
2011-11-04T22:38:00Z,MF CEO Jon Corzine,quits,big bet fails
2011-11-04T22:38:00Z,MF Global CEO Jon Corzine,quits,bet fails
2011-11-04T22:44:00Z,Berkshire Hathaway Q3 profit,falls on,derivatives
2011-11-04T23:44:00Z,Groupon,travels road to,Nasdaq
2011-11-05T04:01:00Z,Olympus,removed auditor after,accounting
2011-11-05T04:26:00Z,China,in,call for greater FX flexibility
2011-11-05T04:47:00Z,MF Global trustee,granted,subpoena power
2011-11-05T04:47:00Z,MF trustee,granted,subpoena power
