2011-11-12T02:10:00Z,Italy,fears,ebb
2011-11-12T03:17:00Z,EMI sale,ends,80 years
2011-11-12T04:40:00Z,Free trade,gets,boost
2011-11-12T06:15:00Z,Japan,gets,cautious U.S. welcome
2011-11-12T06:55:00Z,Testy summit exchange,offers peek at,U.S.-China rivalry
2011-11-12T06:55:00Z,summit exchange,offers peek at,U.S.-China rivalry
2011-11-12T09:02:00Z,Japan,steps up,probe
2011-11-12T09:02:00Z,Olympus,dumped by,major shareholder
2011-11-12T09:17:00Z,LME,suspends,MF Global 's steel warrants
2011-11-12T11:18:00Z,Euro states,must give,power
2011-11-12T11:55:00Z,IMF,warns,Asia
2011-11-12T12:32:00Z,Boeing,has,700 provisional commitments for 737 MAX
2011-11-12T13:17:00Z,Junk,beckons after,S&P shift
2011-11-12T16:30:00Z,737 draft orders,reach,700
2011-11-12T16:30:00Z,AIRSHOW-Boeing 737 draft orders,reach,700
2011-11-12T16:30:00Z,AIRSHOW-Boeing draft orders,reach,700
2011-11-12T16:30:00Z,draft orders,reach,700
2011-11-12T20:31:00Z,Rolls-Royce,reports,$ 500 million Saudi order
2011-11-12T20:34:00Z,Insight,erodes in,brokerages
2011-11-12T20:34:00Z,KPMG,shift MF accounts to,RBC
2011-11-12T20:34:00Z,MF Global bust,erodes,trust
2011-11-12T20:34:00Z,MF bust,erodes trust in,brokerages
2011-11-12T20:44:00Z,APEC leaders summit,in,Honolulu
2011-11-12T20:44:00Z,Hu,pitching,trade agendas
2011-11-12T21:08:00Z,China 's Hu,urges,bigger voice
2011-11-12T22:12:00Z,Etihad,may place,$ 2.5-billion deal
2011-11-12T22:12:00Z,Eurofighter,says,pitches Typhoon to UAE
2011-11-12T22:13:00Z,Europe,taking,steps
2011-11-12T22:17:00Z,APEC leaders,comments at,summit in Hawaii
2011-11-12T22:17:00Z,summit,in,Hawaii
