2011-07-03T01:18:00Z,Euro zone,approves,further $ 17.4 billion
2011-07-03T03:31:00Z,Japan officials,draw up,Tepco breakup plan
2011-07-03T05:55:00Z,More questions,raised about,Strauss-Kahn accuser
2011-07-03T05:55:00Z,questions,raised about,Strauss-Kahn accuser
2011-07-03T13:44:00Z,UBS reviewing goals,in,tough conditions
2011-07-03T13:44:00Z,Weber,says,UBS generation change key task
2011-07-03T14:35:00Z,Euro zone,warns,Greeks
2011-07-03T21:54:00Z,Banks,cutting,principal
2011-07-03T22:17:00Z,Australia,grounds,Singapore 's Tiger Airways
