2011-11-22T00:11:00Z,HP,seeks,stability
2011-11-22T10:18:00Z,Spain short-term yields,leap after,election
2011-11-22T10:18:00Z,Spain yields,leap after,election
2011-11-22T10:59:00Z,creditors,seek,outside administrator
2011-11-22T11:40:00Z,Former UBS trader,accused of,fraud
2011-11-22T12:55:00Z,MF Global trustee,doubles,estimates of shortfall
2011-11-22T12:55:00Z,MF trustee,doubles,estimates
2011-11-22T13:56:00Z,5.02 percent stake,in,Danske Bank
2011-11-22T13:56:00Z,Cevian Capital,owns,5.02 percent stake in Danske Bank
2011-11-22T14:09:00Z,China,may post trade deficit,next year
2011-11-22T15:17:00Z,Iraq,signing deal with,Kurdish region
2011-11-22T15:30:00Z,Yakuza crackdown,may derail,effort keep
2011-11-22T16:05:00Z,Italy 's Monti,tells,EU
2011-11-22T16:11:00Z,ECB funding demand,surges,bank strains build
2011-11-22T18:41:00Z,Bank profits,rise,regulators fret
2011-11-22T18:41:00Z,regulators,fret about,Europe
2011-11-22T19:27:00Z,Netflix shares,hurt by,bleak 2012 outlook
2011-11-22T20:51:00Z,Fed,needs,plan
2011-11-22T21:00:00Z,BofA,get,stronger
2011-11-22T21:11:00Z,States,moving on,U.S. mortgage probe deal
2011-11-22T21:35:00Z,$ 1 billion stake,in,Chile unit
2011-11-22T22:09:00Z,Fed officials,warm to,communications changes
2011-11-22T22:27:00Z,Investors,still fixated on,EU
2011-11-22T22:45:00Z,MF Global stake,in,LME
2011-11-22T22:47:00Z,Europeans,plan,Christmas
2011-11-23T05:07:00Z,$ 396 mln power deals,with,Hyundai Engineering
2011-11-23T05:07:00Z,Iraq,in,$ 396 mln power deals with Hyundai Engineering
2011-11-23T05:59:00Z,Nebraska lawmakers,reroute,pipeline
