2011-08-26T00:30:00Z,China,invests,$ 199 billion
2011-08-26T06:45:00Z,Market sentiment,weakened before,downgrade
2011-08-26T08:26:00Z,Greece,sets,rate
2011-08-26T09:36:00Z,Buffett,trades off,his reputation
2011-08-26T10:25:00Z,Jobs exit,door for,Apple rivals
2011-08-26T10:43:00Z,ABN AMRO,cuts,9 percent
2011-08-26T12:15:00Z,Safe haven assets,look,risky
2011-08-26T12:21:00Z,Apple shares,can go without,Jobs
2011-08-26T12:28:00Z,Bernanke,stopping,short of pledge
2011-08-26T12:28:00Z,QE,be,beneficial
2011-08-26T12:28:00Z,additional QE,be,beneficial
2011-08-26T12:30:00Z,CEOs,act,follow
2011-08-26T12:30:00Z,History,shows,CEOs
2011-08-26T12:30:00Z,iconic CEOs,act,follow
2011-08-26T13:02:00Z,QE,be,beneficial
2011-08-26T13:02:00Z,additional QE,be,beneficial
2011-08-26T13:11:00Z,China,mop up,bank liquidity
2011-08-26T13:27:00Z,Tiffany,raises forecast,sales rise worldwide
2011-08-26T13:37:00Z,Europe,risks,new market attacks
2011-08-26T13:43:00Z,America,among,iconic CEOs
2011-08-26T14:06:00Z,Bernanke mum,stresses,jobs
2011-08-26T14:06:00Z,Consumer sentiment,sinks in,August
2011-08-26T14:06:00Z,it,mulls,more easing
2011-08-26T15:18:00Z,Swiss kickstart talks,with,U.S.
2011-08-26T17:46:00Z,Next big drug,takes,shape
2011-08-26T17:46:00Z,Next drug,takes,shape
2011-08-26T17:46:00Z,big drug,takes,shape
2011-08-26T17:46:00Z,drug,takes,shape
2011-08-26T17:46:00Z,shape,big drug against,cholesterol
2011-08-26T17:55:00Z,OECD,cutting,Japan growth forecasts
2011-08-26T18:34:00Z,NYSE,open,Monday
2011-08-26T19:14:00Z,U.S.,needs,business mad at S&P
2011-08-26T19:14:00Z,more stimulus,mad at,S&P
2011-08-26T19:28:00Z,Bernanke,easing,hopes
2011-08-26T19:28:00Z,Gold,rises,Bernanke raises
2011-08-26T19:36:00Z,BofA $ 8.5 billion settlement,may go to,federal court
2011-08-26T19:36:00Z,BofA $ settlement,may go to,court
2011-08-26T19:36:00Z,BofA settlement,may go to,court
2011-08-26T19:50:00Z,Boeing 's Dreamliner,becomes,reality
2011-08-26T20:52:00Z,revised,down to,1 percent
2011-08-26T21:03:00Z,Stocks,rise,dollar dips
2011-08-26T21:19:00Z,Home Depot,get boost from,Irene
2011-08-26T22:39:00Z,Bernanke,quiet on,Fed move
2011-08-26T22:40:00Z,first weekly gain,in,more than month
2011-08-26T23:47:00Z,Gulf oil spill,claims against,BP
2011-08-26T23:47:00Z,Photo,appears on,Web
2011-08-27T04:01:00Z,Italy austerity plan revisions,may need,EU approval
