2011-08-20T01:44:00Z,Wall Street,sinks for,week
2011-08-20T10:01:00Z,Belgium,call for,euro bonds
2011-08-20T10:01:00Z,Belgium Finmin,says,debt crisis bad
2011-08-20T13:35:00Z,Investors,seeing,gold
2011-08-20T14:21:00Z,Commerzbank CEO,calls for,EU finance minister
2011-08-21T04:28:00Z,Germany,rebuffs,euro bond debate
