2011-11-30T00:00:00Z,outlier,in,challenging SEC
2011-11-30T00:20:00Z,EU,mull,trade talks
2011-11-30T00:20:00Z,U.S.,mull,free trade talks
2011-11-30T00:29:00Z,AT&T,pull,merger application
2011-11-30T01:05:00Z,World Bank head,sees,effects from euro woes
2011-11-30T01:16:00Z,Lehman,says,wins support
2011-11-30T01:32:00Z,S&P,cuts,ratings on banks
2011-11-30T01:39:00Z,AMR pension default,would set,record
2011-11-30T01:39:00Z,American Airlines,draws bankruptcy judge in,NY
2011-11-30T01:39:00Z,U.S. airport bonds,eyed in,American Airlines bankruptcy
2011-11-30T01:39:00Z,Wall St,said On,eve
2011-11-30T02:05:00Z,Policy uncertainty,hitting,job creation
2011-11-30T03:20:00Z,American Airlines,files for,bankruptcy
2011-11-30T03:43:00Z,Goldman,raises money,invest in hedge funds
2011-11-30T09:06:00Z,Funds,ponder,oil Armageddon
2011-11-30T09:06:00Z,oil Armageddon,war on,Iran
2011-11-30T09:06:00Z,refiners,ponder,war
2011-11-30T12:17:00Z,Greece,ignored Amid,wider euro crisis
2011-11-30T12:27:00Z,China,cuts,banks ' reserves
2011-11-30T12:51:00Z,Mortgage applications,tumbled,week
2011-11-30T13:00:00Z,BOJ 's Nishimura,warns of,risk
2011-11-30T13:01:00Z,Japan,into,disgraced Olympus
2011-11-30T14:09:00Z,Story,in,Asia
2011-11-30T14:22:00Z,Top banks,avoid,liquidity crunch
2011-11-30T14:22:00Z,Top central banks,avoid,global liquidity crunch
2011-11-30T14:22:00Z,banks,avoid,liquidity crunch
2011-11-30T14:22:00Z,central banks,avoid,liquidity crunch
2011-11-30T14:26:00Z,U.S.,slash,euro zone debt
2011-11-30T14:26:00Z,UK investors,slash,euro zone debt
2011-11-30T14:44:00Z,Boeing,sees AMR bankruptcy as,long-term
2011-11-30T14:46:00Z,S&P downgrades,hit,counterparty cost
2011-11-30T14:50:00Z,Arrests,could take,weeks
2011-11-30T15:32:00Z,European ministerial meetings,in,2011
2011-11-30T16:02:00Z,Chinese cave,got,How listed
2011-11-30T16:02:00Z,cave,got,How listed
2011-11-30T16:41:00Z,Euro zone,will integrate,fall
2011-11-30T16:51:00Z,Geithner,aid,Europe
2011-11-30T18:28:00Z,Central banks,offer aid,Europe crisis intensifies
2011-11-30T18:28:00Z,banks,offer aid,Europe crisis intensifies
2011-11-30T18:34:00Z,Euro zone,expects,ECB support
2011-11-30T18:38:00Z,Pfizer,keep,one-third of Lipitor pie
2011-11-30T18:39:00Z,American Airlines,seeks,engines
2011-11-30T18:39:00Z,engines,shed,planes
2011-11-30T20:10:00Z,Consumer agency,sees,confusion
2011-11-30T20:12:00Z,Boeing,union in,early deal
2011-11-30T20:12:00Z,union,in,early deal
2011-11-30T21:41:00Z,Groupon,sells,500 percent more holiday deals
2011-11-30T21:41:00Z,holiday deals,more,500 percent
2011-11-30T21:48:00Z,Clearwire,reaching,Sprint funding deal
2011-11-30T21:54:00Z,Boeing,union in,early deal
2011-11-30T21:54:00Z,union,in,early deal
2011-11-30T22:00:00Z,November auto sales,seen in,over 2 years
2011-11-30T22:15:00Z,Ex-FBI chief pledges,independence in,MF Global case
2011-11-30T22:15:00Z,Ex-FBI chief pledges independence,in,MF Global case
2011-11-30T22:17:00Z,Fed,says,moderate
2011-11-30T22:30:00Z,everyone,cares about,dollar liquidity swaps
2011-11-30T22:48:00Z,Warren Buffett,picks up,newspaper
2011-11-30T22:49:00Z,China,cuts,bank reserves
2011-11-30T22:50:00Z,Global stocks,rally on,joint central bank action
2011-11-30T22:50:00Z,It,'s game on,on Zynga initial offering
2011-11-30T23:00:00Z,U.S. defense industry,braces for,times
2011-11-30T23:03:00Z,Appeal,sped up,MBS accord
2011-11-30T23:15:00Z,Goldman CEO,can testify in,insider case
2011-11-30T23:18:00Z,Analysis,face in,their largest market
2011-11-30T23:18:00Z,Auditors,face shakeup in,their market
2011-11-30T23:43:00Z,U.S.,could pay pension bill,it restructures
2011-11-30T23:43:00Z,routes,need,work
2011-11-30T23:44:00Z,Central banks,act,euro zone crisis rages
2011-11-30T23:44:00Z,banks,act,euro zone crisis rages
2011-11-30T23:55:00Z,Wall St.,rallies on,banks ' help for Europe
2011-12-01T05:22:00Z,AMR,affirm,plane order
2011-12-01T05:24:00Z,Rajaratnam,seeks delay,reporting
