2011-08-02T00:31:00Z,Air Canada,reaches,pact with union
2011-08-02T00:31:00Z,tentative pact,with,union
2011-08-02T00:40:00Z,debt deal,clears,way for trade
2011-08-02T01:05:00Z,Investors,push McGraw-Hill for,changes
2011-08-02T05:54:00Z,euro,lose,clout
2011-08-02T08:26:00Z,Japan,primes markets for,yen intervention
2011-08-02T11:17:00Z,borrowing,tighten,policy
2011-08-02T11:17:00Z,yuan borrowing,tighten,policy
2011-08-02T11:20:00Z,ECB,eyed for,signs of rate hike caution
2011-08-02T12:21:00Z,Debt,threat to,global economy
2011-08-02T12:21:00Z,Deficit deal,raises,concerns
2011-08-02T12:21:00Z,FAA shutdown,falter in,Senate
2011-08-02T12:21:00Z,Republican 2012 hopefuls,mostly decry,debt deal
2011-08-02T12:21:00Z,Republican hopefuls,decry,debt deal
2011-08-02T12:21:00Z,Top Senate Republican key figure,in,debt deal
2011-08-02T12:38:00Z,Japan,primes,markets
2011-08-02T12:50:00Z,Consumer spending,falls in,June
2011-08-02T13:26:00Z,Toyota,cautious after,quake
2011-08-02T15:06:00Z,UBS,urge,JPMorgan
2011-08-02T16:51:00Z,Star Alliance shelves,induct,Air India
2011-08-02T17:10:00Z,Nine Google complainants,in,EU probe
2011-08-02T17:26:00Z,Worsening euro crisis,may force,bigger rescue fund
2011-08-02T17:26:00Z,euro crisis,may force,rescue fund
2011-08-02T18:01:00Z,ratings agencies,judge,world
2011-08-02T18:27:00Z,Pfizer drug sales fall,spark,concern
2011-08-02T18:27:00Z,Pfizer global drug sales fall,spark,concern
2011-08-02T18:43:00Z,UBS,urge,JPMorgan
2011-08-02T19:55:00Z,Fed,boost,growth
2011-08-02T19:57:00Z,Shadowy shell companies,targeted by,Senate bill
2011-08-02T19:57:00Z,shell companies,targeted by,Senate bill
2011-08-02T20:47:00Z,Fitch,keeps,U.S. AAA rating
2011-08-02T22:21:00Z,Hedge fund manager Skowron,might plead,guilty
2011-08-02T22:21:00Z,fund manager Skowron,might plead,guilty
2011-08-02T22:27:00Z,Automakers,warn of,demand
2011-08-02T22:35:00Z,Moodys,keeps,U.S. AAA rating
2011-08-02T23:16:00Z,Moody,confirms,U.S. rating
2011-08-02T23:16:00Z,U.S. rating,depends on,economy
2011-08-02T23:17:00Z,Massive rout spells,trouble for,Wall Street
2011-08-02T23:17:00Z,gold,hits,record
2011-08-02T23:17:00Z,rout spells,trouble for,Wall Street
2011-08-03T04:52:00Z,Debt-limit hike,has votes,pass
2011-08-03T04:52:00Z,hike,has enough votes,pass
