2011-12-03T00:07:00Z,Congress,subpoenas Corzine on,MF Global collapse
2011-12-03T00:23:00Z,drop,in,jobless rate
2011-12-03T12:23:00Z,Debt funds,needed in,eurozone states
2011-12-03T16:30:00Z,Italy 's Monti,seeks,support
2011-12-03T22:52:00Z,JP Morgan,was,SAP advisor in SuccessFactors
2011-12-03T22:52:00Z,SAP advisor,in,SuccessFactors
