2011-05-27T00:42:00Z,Goldman,restructures,hotel debt
2011-05-27T02:50:00Z,EBay,sue,Google
2011-05-27T02:50:00Z,PayPal,sue Google over,trade secrets
2011-05-27T06:57:00Z,SAIC Motor,expects,slowdown in China vehicle market
2011-05-27T06:57:00Z,sharp slowdown,in,China vehicle market
2011-05-27T07:37:00Z,G8,says,world economy
2011-05-27T08:39:00Z,Toyota global output halves,in,April
2011-05-27T10:20:00Z,Deutsche Bank banker,carrying,gun
2011-05-27T10:38:00Z,HSBC,faces,pay
2011-05-27T11:48:00Z,Obama,backs,efforts on eurozone debt woes
2011-05-27T12:03:00Z,Japan,continue,reform efforts
2011-05-27T12:19:00Z,Yandex over-allotment option,takes,IPO
2011-05-27T13:01:00Z,Consumer spending tepid,in,April
2011-05-27T14:10:00Z,Spyker 's Saab,restarts,production
2011-05-27T14:32:00Z,Pending home sales dive 11.6 percent,in,April
2011-05-27T15:13:00Z,bid,toss,MBIA lawsuit
2011-05-27T15:42:00Z,HSBC shareholders,vent anger over,pay plan
2011-05-27T18:31:00Z,Fitch,cuts,Japan credit rating outlook
2011-05-27T18:31:00Z,Japan city,grapples with,doubts
2011-05-27T19:15:00Z,Greeks,fail,agree on debt measures amid aid threat
2011-05-27T19:22:00Z,P&G,sues,Vi-Jon
2011-05-27T20:09:00Z,Ex-Nvidia analyst,admits,insider trading charge
2011-05-27T20:16:00Z,Two more,plead in,expert network insider probe
2011-05-27T20:16:00Z,more,plead in,network insider probe
2011-05-27T20:20:00Z,Gasoline prices,erode,spending
2011-05-27T20:32:00Z,U.S. oil,ends up,gasoline soars
2011-05-27T20:32:00Z,gasoline,soars,pre-holiday
2011-05-27T21:06:00Z,U.S. dollar,falls on,data
2011-05-27T21:43:00Z,Pentagon F-35 review,postponed until,mid-June
2011-05-27T22:19:00Z,Pending home sales plunge,in,April
2011-05-28T04:27:00Z,Tensions,grow over,capital controls for banks
