2011-02-16T00:41:00Z,D.Boerse,unveils,NYSE deal
2011-02-16T08:17:00Z,spying,concern over,China
2011-02-16T09:00:00Z,Amicus,has,sights on Genzyme disease patients
2011-02-16T09:38:00Z,Cost cuts,drive,Heineken
2011-02-16T10:18:00Z,EADS,share,probe
2011-02-16T13:52:00Z,Sanofi 's patient CEO,lands,his prey
2011-02-16T14:14:00Z,GM,recalls Cadillac CTS sedans for,wheel problem
2011-02-16T15:19:00Z,BHP,puts off,big takeovers
2011-02-16T15:58:00Z,outlook,lacks,detail
2011-02-16T16:23:00Z,Comcast,results,trump expectations
2011-02-16T16:41:00Z,Toyota,opens,new Japan plant
2011-02-16T18:26:00Z,Draghi,tipped for,ECB
2011-02-16T19:08:00Z,Fed,confident in,recovery
2011-02-16T20:15:00Z,NYC bank tax revenue,shoots up,48 percent
2011-02-16T21:09:00Z,Tropicana orange juice,in,bottles
2011-02-16T21:24:00Z,Banks,may split,$ 125 million
2011-02-16T21:34:00Z,inflation,seen,muted
2011-02-16T22:16:00Z,Fed,confident in,recovery
2011-02-17T05:14:00Z,Dell shares,jump on,profit
2011-02-17T05:15:00Z,Republicans,hit,crisis panel
