2011-12-05T02:38:00Z,China 's loans,may increase slightly in,2012
2011-12-05T02:38:00Z,China 's new loans,may increase slightly in,2012
2011-12-05T03:03:00Z,HSBC China services PMI,falls,slowdown spreads
2011-12-05T03:25:00Z,Lehman Brothers,naming,new board
2011-12-05T07:13:00Z,Dexia,provisionally secures,temporary guarantees
2011-12-05T09:47:00Z,Chinese bank,in,Saab rescue talks
2011-12-05T09:49:00Z,Troubled bank Dexia,gets,financing lifeline
2011-12-05T09:49:00Z,bank Dexia,gets,financing lifeline
2011-12-05T09:57:00Z,Zynga Nexon 's Tokyo IPO,set at,$ 1.2 billion
2011-12-05T09:57:00Z,Zynga rival Nexon 's Tokyo IPO,set at,$ 1.2 billion
2011-12-05T10:13:00Z,Greek haircut,was,terrible mistake
2011-12-05T10:13:00Z,haircut,was,terrible mistake
2011-12-05T11:19:00Z,Euro zone economy,heading for,contraction in Q4
2011-12-05T11:19:00Z,steep contraction,in,Q4
2011-12-05T12:15:00Z,Germany,drop,treaty change demand
2011-12-05T13:08:00Z,Italy PM Monti,unveils,sweeping austerity package
2011-12-05T13:08:00Z,Lehman Brothers,naming,new board
2011-12-05T13:26:00Z,GM,declares,Opel strategy failure
2011-12-05T14:02:00Z,European businesses,call ECB bond buying for,fiscal union
2011-12-05T14:02:00Z,businesses,call ECB bond buying for,fiscal union
2011-12-05T14:13:00Z,MetLife,going soon to,Fed
2011-12-05T16:21:00Z,Comcast,selling,Verizon mobile early 2012
2011-12-05T16:27:00Z,Service sector growth,slows in,November
2011-12-05T17:56:00Z,EU,'S,Rehn
2011-12-05T17:56:00Z,EU 'S Rehn,calls,ambitious
2011-12-05T17:56:00Z,Fed,may give,loans
2011-12-05T18:06:00Z,American Airlines,must find,Chapter 11 path
2011-12-05T18:48:00Z,Fed,on,secret loans overcounts
2011-12-05T19:10:00Z,2.2 billion euro,in,aid
2011-12-05T19:10:00Z,IMF,releases,2.2 billion euro in aid
2011-12-05T19:46:00Z,S&P,warns,6 euro zone nations of possible downgrade
2011-12-05T20:14:00Z,Apple vs. Samsung ruling,divulges,details
2011-12-05T20:32:00Z,CFTC,tightens,limits
2011-12-05T20:32:00Z,limits,using,customer funds
2011-12-05T21:17:00Z,U.S. Postal Service,end,mail
2011-12-05T21:35:00Z,Lockheed,move on,F-35 contract
2011-12-05T21:35:00Z,Pentagon,move on,F-35 contract
2011-12-05T22:09:00Z,IMF chief,warns,Greece
2011-12-05T22:15:00Z,S&P,places negative,its Italy ratings
2011-12-05T22:22:00Z,Japan 's Olympus,faces moment in,accounting
2011-12-05T22:29:00Z,Rajaratnam,begins,insider trading sentence
2011-12-05T22:47:00Z,S&P,warns of,broad euro zone downgrade
2011-12-05T22:57:00Z,Lehman hearing,may herald,end
2011-12-05T23:11:00Z,Monti,warns of,Greek-style risk
2011-12-05T23:43:00Z,France,rules out,austerity
2011-12-06T05:04:00Z,EU,thinks,about Iran oil ban
2011-12-06T05:38:00Z,Paris,push for,EU treaty change
