2011-08-24T03:36:00Z,Apple,readies iPhone for,growth markets
2011-08-24T06:36:00Z,China COSCO,reassure shipowners over,bills
2011-08-24T06:39:00Z,Japan,boosts,FX monitoring
2011-08-24T07:07:00Z,contagion,spreading to,Japan
2011-08-24T07:39:00Z,G20,do,more
2011-08-24T08:10:00Z,Japan,boosts,FX monitoring
2011-08-24T08:47:00Z,WPP,cautious on,2012
2011-08-24T08:47:00Z,emerging markets,help,2011
2011-08-24T08:47:00Z,markets,help,2011
2011-08-24T09:59:00Z,German Ifo business morale,plummets in,August
2011-08-24T09:59:00Z,Ifo business morale,plummets in,August
2011-08-24T11:04:00Z,China,appeal,materials WTO case
2011-08-24T11:15:00Z,gold bulls,say,time in rally overdone
2011-08-24T11:15:00Z,time,in,rally overdone
2011-08-24T11:16:00Z,BHP H2 profit,misses,forecasts
2011-08-24T11:17:00Z,BHP,warns on,costs
2011-08-24T11:17:00Z,H2 profits,break,records
2011-08-24T11:27:00Z,Japan PM contender Maehara,looks to,powerbroker Ozawa
2011-08-24T11:27:00Z,Moody 's cuts,blames,politics
2011-08-24T12:07:00Z,U.S. housing,faces,drag
2011-08-24T12:11:00Z,economy,hit,profits
2011-08-24T13:14:00Z,July durable goods orders,rise,4.0 percent
2011-08-24T13:14:00Z,July goods orders,rise,4.0 percent
2011-08-24T13:45:00Z,Bernanke Jackson Hole speech,could rattle,markets
2011-08-24T14:07:00Z,Budget deal slices deficits,in,nearly half
2011-08-24T14:20:00Z,Germany,rethink,euro crisis stance
2011-08-24T14:23:00Z,CBO head,warns of,negative data
2011-08-24T14:30:00Z,BHP,warns on,costs
2011-08-24T15:13:00Z,U.S. airlines,trim,capacity
2011-08-24T15:13:00Z,capacity,in,Q4
2011-08-24T15:45:00Z,Moody 's analyst,pay,$ 34.6 million
2011-08-24T15:45:00Z,Vanished Moody 's analyst,pay,$ 34.6 million
2011-08-24T17:20:00Z,Nasdaq,NYSE for,in quiet profit rise amid selloff
2011-08-24T17:29:00Z,their assets,grow in,grain belt
2011-08-24T18:02:00Z,July durable goods orders,rise,4.0 percent
2011-08-24T18:02:00Z,July goods orders,rise,4.0 percent
2011-08-24T19:07:00Z,Verizon Wireless customers,lose in,court
2011-08-24T19:37:00Z,U.S. budget deal,brightens,outlook
2011-08-24T19:52:00Z,LinkedIn,slay,Monster.com
2011-08-24T19:58:00Z,Sprint,selling,iPhone 5 mid-October
2011-08-24T20:57:00Z,Goldman 's Blankfein,tapped,lawyer
2011-08-24T21:09:00Z,Mortgage probe split,puts,banks
2011-08-24T21:14:00Z,BofA shares,rise,capital debate continues
2011-08-24T21:37:00Z,Deficit panelists,studying,others ' work
2011-08-24T21:37:00Z,Deficit super panelists,studying,others ' work
2011-08-24T23:35:00Z,investors,flee,gold
2011-08-24T23:49:00Z,Gold posts,drop since,1980
2011-08-24T23:53:00Z,Steve Jobs,resigns from,Apple
2011-08-25T04:23:00Z,GE,Amex about,jobs proposal
2011-08-25T04:29:00Z,CBO report,shows,improved fiscal picture
2011-08-25T04:51:00Z,Black box hedge funds profit,in,volatile markets
