2011-06-01T05:25:00Z,Toyota,fix,gearbox
2011-06-01T08:08:00Z,AXA eyes profit boost,sells,Canadian unit
2011-06-01T08:11:00Z,German report,casts doubt on,IMF payout for Greece
2011-06-01T08:11:00Z,report,casts doubt on,IMF payout for Greece
2011-06-01T08:21:00Z,Greek state firms,could,could poison for investors
2011-06-01T08:21:00Z,state firms,could,could poison
2011-06-01T08:36:00Z,German report,casts doubt on,IMF payout for Greece
2011-06-01T08:36:00Z,report,casts doubt on,IMF payout for Greece
2011-06-01T09:51:00Z,Hedge funds,faltering,U.S. banks
2011-06-01T09:52:00Z,bargains,in,discount retail
2011-06-01T10:33:00Z,Republicans,in,debt fight
2011-06-01T11:34:00Z,Planned layoffs,in,May
2011-06-01T11:56:00Z,SAC,faces,insider trading probe
2011-06-01T12:49:00Z,Greek state firms,could,could investors ' poison
2011-06-01T12:49:00Z,state firms,could,could investors ' poison
2011-06-01T12:51:00Z,Macy 's May sales,beat,estimates
2011-06-01T13:01:00Z,estimates,in,May
2011-06-01T13:49:00Z,Several UBS investment bankers,leave,firm
2011-06-01T13:49:00Z,UBS investment bankers,leave,firm
2011-06-01T14:26:00Z,Factory growth,slows in,May
2011-06-01T14:42:00Z,Germany,sees,IMF
2011-06-01T14:42:00Z,Greek state firms,could,could investors ' poison
2011-06-01T14:42:00Z,state firms,could,could investors ' poison
2011-06-01T14:42:00Z,staying,involved in,Greece
2011-06-01T15:58:00Z,Nokia,calls,report
2011-06-01T16:27:00Z,Hedge funds,see,bargains
2011-06-01T16:27:00Z,Promise,drama in,Yahoo 's Asian assets
2011-06-01T16:27:00Z,Yahoo,in,Asian assets
2011-06-01T16:27:00Z,bargains,in,discount retail
2011-06-01T16:27:00Z,drama,in,Yahoo 's Asian assets
2011-06-01T16:40:00Z,Promise,drama in,Yahoo 's Asian assets
2011-06-01T16:40:00Z,Yahoo,in,Asian assets
2011-06-01T16:40:00Z,drama,in,Yahoo 's Asian assets
2011-06-01T16:45:00Z,Hedge funds,see,bargains
2011-06-01T16:45:00Z,Promise,drama in,Yahoo 's Asian assets
2011-06-01T16:45:00Z,Yahoo,in,Asian assets
2011-06-01T16:45:00Z,bargains,in,discount retail
2011-06-01T16:45:00Z,drama,in,Yahoo 's Asian assets
2011-06-01T17:16:00Z,Government,recoup,more auto bailout money
2011-06-01T17:58:00Z,French prosecutor,opens,investigation into UBS
2011-06-01T17:58:00Z,prosecutor,opens,investigation
2011-06-01T18:18:00Z,Sealed Air,adds,cleaning products
2011-06-01T18:28:00Z,Tiny tax,bite for,12 U.S. corporations
2011-06-01T19:10:00Z,UBS bankers,join Citi,talent bleed continues
2011-06-01T19:52:00Z,Greece,dismisses,drachma talk
2011-06-01T20:37:00Z,NYSE bid,would give,Markit OTC biz
2011-06-01T21:25:00Z,June,teetering,Wall Street
2011-06-01T21:40:00Z,Recovery fears,mount factory data after,jobs
2011-06-01T22:20:00Z,May auto sales,dip,price strategy backfires
2011-06-02T04:41:00Z,Dollar General,misses,estimates
