2011-10-26T00:11:00Z,More challenges,seen for,Netflix
2011-10-26T00:11:00Z,Option traders,caught off,guard
2011-10-26T00:11:00Z,challenges,seen for,Netflix
2011-10-26T00:32:00Z,Brazil,rejects,Europe debt purchase plan
2011-10-26T00:41:00Z,Tokyo Electric,may announce Q2 results,Nov 14
2011-10-26T01:03:00Z,Nomura,debating,cost-cutting drive
2011-10-26T01:21:00Z,Boeing,says,comfortable
2011-10-26T01:35:00Z,Arcelor,leaves Peabody with,solo Macarthur bid
2011-10-26T02:17:00Z,BOJ,of,policy board members
2011-10-26T02:17:00Z,Chronology,moves since,1999
2011-10-26T02:17:00Z,policy,moves since,1999
2011-10-26T02:30:00Z,Japan policymakers,' quotes,economy
2011-10-26T05:21:00Z,BOJ Gov,says,JGB
2011-10-26T05:21:00Z,JGB,buying,huge
2011-10-26T05:49:00Z,Lehman 's Chapter 11 plan,gets,creditor support
2011-10-26T05:49:00Z,Lehman 's Chapter plan,gets,creditor support
2011-10-26T06:38:00Z,BOJ,debate,easing
2011-10-26T07:56:00Z,Japan finmin,urges,conclusion on Europe debt
2011-10-26T07:59:00Z,Italy,keeps Europe over,reform
2011-10-26T08:46:00Z,Nintendo H1 loss,seen at,$ 1.32 billion
2011-10-26T08:46:00Z,Nintendo H1 recurring loss,seen at,$ 1.32 billion
2011-10-26T08:47:00Z,China,of Bank,HK
2011-10-26T09:10:00Z,Banks,inch toward,50 pct Greek debt haircut deal
2011-10-26T09:11:00Z,talks,with,investors
2011-10-26T11:09:00Z,Mortgage applications,bounced,week
2011-10-26T12:42:00Z,Durable goods orders,rise in,September
2011-10-26T12:42:00Z,Nazi jokes,highlight,Greek despair
2011-10-26T12:42:00Z,goods orders,rise in,September
2011-10-26T12:42:00Z,jokes,highlight,despair
2011-10-26T13:00:00Z,Banks,haggle ahead over,debt
2011-10-26T13:17:00Z,Ireland,capitalize on,euro fund deal
2011-10-26T13:22:00Z,Bundestag,passes,EFSF motion
2011-10-26T13:22:00Z,German Bundestag,passes,EFSF motion
2011-10-26T14:09:00Z,New home sales rise,in,September
2011-10-26T14:17:00Z,Dreamliner,carries,its passengers
2011-10-26T14:21:00Z,New home sales rise,in,September
2011-10-26T14:22:00Z,Draghi,pursue,ECB bond
2011-10-26T14:27:00Z,Boeing profit,lifted by,commercial defense sales
2011-10-26T14:38:00Z,Amazon.com shares,slump,costs weigh on outlook
2011-10-26T14:38:00Z,costs,weigh on,outlook
2011-10-26T17:09:00Z,Lehman,sees bankruptcy end With,support
2011-10-26T17:10:00Z,Defense companies,post,profits
2011-10-26T17:34:00Z,Durable goods demand,shows,economy strengthening
2011-10-26T17:34:00Z,goods demand,shows,economy strengthening
2011-10-26T17:45:00Z,Endless summits,take toll on,EU leaders
2011-10-26T17:45:00Z,summits,take toll on,EU leaders
2011-10-26T17:59:00Z,Nokia,proclaims dawn with,Windows phones
2011-10-26T17:59:00Z,Volcker pay curbs,spark,fears of Wall St. exodus
2011-10-26T18:23:00Z,Highlights,comments on,debt crisis
2011-10-26T18:27:00Z,Euro zone,aims to,leverage EFSF
2011-10-26T18:45:00Z,Merkel,wins,euro fund vote
2011-10-26T19:35:00Z,Wall Street,watches,CEO word games
2011-10-26T19:43:00Z,BlackBerry maker delays,tablet update in,setback
2011-10-26T19:49:00Z,WellPoint CFO,sees up,health insurer M&A heating
2011-10-26T19:52:00Z,100 billion euro cut,in,private sector Greek debt
2011-10-26T19:52:00Z,Euro zone,eyes,100 billion euro cut
2011-10-26T20:46:00Z,Ex-Goldman director Gupta,charged in,insider case
2011-10-26T21:50:00Z,Quidel,reports,Q3 results
2011-10-26T21:59:00Z,Olympus chairman,quits as,Japan watchdog probes firm
2011-10-26T22:11:00Z,Investors,show,interest in foreclosure plan
2011-10-26T22:11:00Z,interest,in,foreclosure plan
2011-10-26T22:14:00Z,Olympus chairman,quits as,Japan watchdog probes firm
2011-10-26T22:18:00Z,Boeing profit,lifted by,sales
2011-10-26T23:55:00Z,Euro zone summit,stalls on,banks
