2011-01-10T02:38:00Z,China,may launch property tax in,Q1
2011-01-10T04:52:00Z,Central banker,urges,China
2011-01-10T04:52:00Z,China,cut,U.S. debt holdings
2011-01-10T04:58:00Z,China 's trade surplus dips,taking off,yuan
2011-01-10T07:21:00Z,Credit Suisse,takes,tougher stance
2011-01-10T08:34:00Z,70 million euros,hit from,weather
2011-01-10T08:34:00Z,Air France,sees,70 million euros hit
2011-01-10T09:43:00Z,Portuguese bank shares,tumble on,debt jitters
2011-01-10T09:43:00Z,bank shares,tumble on,debt jitters
2011-01-10T10:40:00Z,ECB,seen,buying
2011-01-10T11:46:00Z,Danisco chairman,name,other bidders
2011-01-10T11:49:00Z,Sanofi 's shares,reveals,Genzyme talks
2011-01-10T14:05:00Z,Fed,mull,exit
2011-01-10T14:59:00Z,Sara Lee,shares up,2.5 percent on takeover talk
2011-01-10T19:16:00Z,ECB 's Costa,urges,growth strategy
2011-01-10T19:31:00Z,Sanofi talks,hopes,cool
2011-01-10T19:49:00Z,Fed,turns over,record profits
2011-01-10T20:11:00Z,Some,optimistic about,sales in 2011
2011-01-10T20:11:00Z,retail sales,in,2011
2011-01-10T20:19:00Z,Genome,sees,multibillion-dollar sales
2011-01-10T20:19:00Z,Human Genome,sees,sales
2011-01-10T20:32:00Z,Regulatory costs,loom over,bank earnings
2011-01-10T20:32:00Z,costs,loom over,bank earnings
2011-01-10T20:54:00Z,DuPont bets,fuel with,Danisco deal
2011-01-10T20:54:00Z,fuel,with,Danisco deal
2011-01-10T21:49:00Z,SEC,sues fund manager in,Galleon case
2011-01-10T23:17:00Z,Alcoa,posts,Q4 profit
2011-01-10T23:27:00Z,U.S. carmakers,steal,Day One spotlight
2011-01-11T05:46:00Z,Fed,turns over,record profits
