2011-02-08T00:02:00Z,execs,leave,firm Gerson Lehrman
2011-02-08T00:43:00Z,Hyundai,holds line as,sales rise
2011-02-08T09:09:00Z,Debt rating agencies,sending,right message
2011-02-08T09:52:00Z,blown engine,won,Airbus
2011-02-08T09:52:00Z,engine,won,Airbus
2011-02-08T11:32:00Z,China,raises rates by,1/4 point
2011-02-08T12:48:00Z,Defence firms,vie for,India orders
2011-02-08T13:01:00Z,steel,rebound from,squeeze
2011-02-08T13:39:00Z,Obama,woo,business
2011-02-08T13:44:00Z,NYSE Euronext,sees,trading
2011-02-08T13:44:00Z,economic rebound,in,2011
2011-02-08T15:39:00Z,UBS,sees,strong rise
2011-02-08T15:39:00Z,strong rise,in,2011
2011-02-08T18:08:00Z,Fed,should rethink,stimulus
2011-02-08T18:58:00Z,McDonald 's rebounds,in,Europe
2011-02-08T18:59:00Z,U.S. manufacturers,see,emerging
2011-02-08T19:02:00Z,Calpers,sues execs over,mortgage risks
2011-02-08T20:09:00Z,NYSE Euronext,poised,grow
2011-02-08T21:57:00Z,U.S.,starts,amnesty
2011-02-08T22:09:00Z,Dow,rises for,seventh day
2011-02-08T22:14:00Z,Fed officials,see bar for,bond
2011-02-08T22:39:00Z,China,raises,rates
2011-02-08T22:47:00Z,Ex-SAC Capital employees,trading,probe
2011-02-08T22:56:00Z,Defense firms,vie for,India orders
2011-02-08T23:06:00Z,Harry survival,in,doubt
2011-02-08T23:16:00Z,Blast rocks Enterprise natgas plant,in,Texas
2011-02-08T23:54:00Z,Wells Fargo CFO,retires,successor
2011-02-08T23:58:00Z,Probe,clears,Toyota electronics
2011-02-08T23:58:00Z,U.S.,raise,cost
2011-02-09T05:16:00Z,NYSE Euronext,points After,tough year
