2011-02-24T02:41:00Z,JPMorgan media fund,raises,$ 1.22 billion
2011-02-24T02:41:00Z,JPMorgan social media fund,raises,$ 1.22 billion
2011-02-24T07:35:00Z,Treasury officer,leaves,post
2011-02-24T07:35:00Z,Treasury restructuring officer,leaves,post
2011-02-24T11:17:00Z,RBS recovery,undermined by,Irish losses
2011-02-24T13:08:00Z,Foreclosure home sales fall,in,2010
2011-02-24T13:59:00Z,Putin,says,high oil prices
2011-02-24T14:19:00Z,Jobless claims,drop,signals improvement
2011-02-24T14:19:00Z,claims,drop,signals improvement
2011-02-24T14:51:00Z,Obama,pushes,multibillion-dollar mortgage pact
2011-02-24T15:24:00Z,U.S. oil companies ' interests,in,Libya
2011-02-24T15:24:00Z,growth risk,in,oil surge
2011-02-24T15:24:00Z,oil surge,in risk,inflation
2011-02-24T15:52:00Z,contest,intensifies for,labor
2011-02-24T16:05:00Z,Fed officials,' comments,policy
2011-02-24T18:28:00Z,Saudi,in,talks fill
2011-02-24T19:21:00Z,12.6 percent,in,January
2011-02-24T20:16:00Z,Food prices,could reach,2008 level
2011-02-24T21:05:00Z,Gap,beats,profit expectations
2011-02-24T21:28:00Z,Lawmakers,urge,Obama
2011-02-24T21:28:00Z,Obama,release,emergency oil
2011-02-24T21:37:00Z,Fed balance sheet,grows,record in week
2011-02-24T21:40:00Z,Gold,is,dead
2011-02-24T21:40:00Z,oil retreat,is,dead
2011-02-24T22:07:00Z,Canada,helping,profit
2011-02-24T22:09:00Z,Boeing,wins,U.S. tanker competition
2011-02-24T22:09:00Z,Pentagon,nears,contract
2011-02-24T22:09:00Z,Timeline,nears in,air tanker saga
2011-02-24T22:24:00Z,SEC,may file,charges against Freddie Mac exec
2011-02-24T22:32:00Z,Ford,says,well-positioned for gas prices
2011-02-24T22:34:00Z,New Sears CEO,needs,image
2011-02-24T22:34:00Z,image,fix,sales
2011-02-24T22:46:00Z,Wall St,recovers off,lows on oil drop
2011-02-24T23:18:00Z,U.S. foreclosure deal,slowed by,infighting
2011-02-24T23:21:00Z,Geithner,quell,fears
2011-02-24T23:28:00Z,SEC,sets,charges
2011-02-24T23:28:00Z,charges,in,portfolio
2011-02-24T23:31:00Z,Toyota,recalls,2.2 million more autos
2011-02-24T23:31:00Z,U.S.,ends,probe
2011-02-24T23:42:00Z,Disappointed EADS,sees,U.S. business
2011-02-24T23:42:00Z,EADS,sees U.S. business beyond,tankers
2011-02-24T23:52:00Z,Boeing bests EADS,in,surprise U.S. aerial tanker
2011-02-24T23:55:00Z,Oil,falls from,$ 120
2011-02-25T05:22:00Z,Gamble,raise,prices
2011-02-25T05:22:00Z,Procter,raise,prices
