2011-03-29T00:27:00Z,inflation,tops,5 percent
2011-03-29T01:05:00Z,Rajaratnam brother,removed,Galleon records
2011-03-29T02:32:00Z,Goldman Sachs partner share sales,cut,ownership stake
2011-03-29T05:37:00Z,Key facts,in,Wal-Mart discrimination case
2011-03-29T10:06:00Z,Japan,mulls,Tokyo Electric nationalization
2011-03-29T10:25:00Z,China bank regulator,warns of,property bubble risks
2011-03-29T12:10:00Z,return,taking,time
2011-03-29T12:10:00Z,time,return to,full output
2011-03-29T13:04:00Z,Fed 's Bullard,speaks on,policy debate in Prague
2011-03-29T13:04:00Z,policy debate,in,Prague
2011-03-29T13:37:00Z,Asia,rises,spice up McCormick profit
2011-03-29T13:37:00Z,price,rises,spice up McCormick profit
2011-03-29T14:19:00Z,Consumer confidence,falls in,March
2011-03-29T14:29:00Z,S&P,cuts Portugal credit rating to,to just junk
2011-03-29T14:47:00Z,Nokia,files,case against Apple
2011-03-29T15:45:00Z,Consumer confidence,slips from,highs
2011-03-29T18:02:00Z,Renault,talks about,mess
2011-03-29T18:02:00Z,Renault talks,get,aired
2011-03-29T18:19:00Z,Homebuilder Lennar,'s revenue,orders
2011-03-29T19:16:00Z,GE,moves deeper into,energy
2011-03-29T20:05:00Z,U.S. regulators,define,safe home loan
2011-03-29T20:10:00Z,key ruling,in,Agility fraud case
2011-03-29T20:18:00Z,Toyota,curtails,parts in North America
2011-03-29T20:18:00Z,certain parts,in,North America
2011-03-29T20:47:00Z,Wal-Mart,gets,sympathetic court bias case hearing
2011-03-29T21:13:00Z,Levi Strauss,pay,wages
2011-03-29T21:30:00Z,Standard,'s Greece,Portugal
2011-03-29T21:42:00Z,Oil,rises on,technicals
2011-03-29T21:48:00Z,UAW,vying for,new GM products
2011-03-29T21:48:00Z,new GM products,in,contract talks
2011-03-29T22:14:00Z,Meg Whitman,joins,VC firm Kleiner Perkins
2011-03-29T22:21:00Z,Japan,could cause,auto supply chain rethink
2011-03-29T22:26:00Z,Tech firms,fret,disruption
2011-03-29T22:32:00Z,Consumer morale,ebbs,home prices near 2009 lows
2011-03-29T22:34:00Z,he,gave,his boss tips
2011-03-29T23:44:00Z,Qantas,cut,capacity
2011-03-29T23:44:00Z,management,offset,fuel
