2011-02-22T02:29:00Z,big gas deal,with,BP
2011-02-22T02:45:00Z,Best,close,stores
2011-02-22T06:01:00Z,BP partners Reliance,in,$ 7.2 billion
2011-02-22T06:01:00Z,Russia Sechin,wants,Rosneft
2011-02-22T06:13:00Z,Wal-Mart,must prove executives on,recovery
2011-02-22T06:50:00Z,Japan reform,needs,stable government leadership
2011-02-22T07:57:00Z,Credit Suisse banker,arrested in,U.S.
2011-02-22T09:45:00Z,Chinese workers,appeal over,health worries
2011-02-22T09:45:00Z,workers,appeal over,health worries
2011-02-22T10:36:00Z,Moody,warns of,Japan ratings
2011-02-22T11:46:00Z,Spain,hopeful for,EFSF fund
2011-02-22T11:46:00Z,Weber,has,doubts
2011-02-22T15:58:00Z,December home prices,slip for,6th straight month
2011-02-22T15:59:00Z,Consumer confidence,hits,high
2011-02-22T16:05:00Z,Airline shares,tumble on,soaring oil prices
2011-02-22T16:48:00Z,Bankruptcy,claims,trading
2011-02-22T16:59:00Z,Medtronic,trims,2011 view
2011-02-22T17:41:00Z,Best,close,stores
2011-02-22T18:05:00Z,$ 100 oil,loom over,talks
2011-02-22T18:05:00Z,$ oil,loom over,Saudi talks
2011-02-22T18:05:00Z,Oil,may trigger,'08 repeat
2011-02-22T18:05:00Z,oil,loom over,talks
2011-02-22T18:38:00Z,U.S. oil companies ' interests,in,Libya
2011-02-22T19:43:00Z,Barnes,cuts,dividend
2011-02-22T19:43:00Z,Noble,cuts,dividend
2011-02-22T20:03:00Z,Citi,hand off,Madoff exposure
2011-02-22T20:10:00Z,Former Wall Street star,struggles for,votes
2011-02-22T20:10:00Z,votes,in,Peru
2011-02-22T20:59:00Z,First bids,come in for,Warner Music assets
2011-02-22T20:59:00Z,First round bids,come in for,Warner Music assets
2011-02-22T20:59:00Z,bids,come in for,Warner Music assets
2011-02-22T20:59:00Z,round bids,come in for,Warner Music assets
2011-02-22T21:46:00Z,Oil,holds,gains
2011-02-22T21:51:00Z,Oil gains,fall on,Libya fears
2011-02-22T21:51:00Z,stocks,fall on,Libya fears
2011-02-22T21:52:00Z,Credit Suisse banker,arrested in,United States
2011-02-22T22:04:00Z,Weber,has,doubts
2011-02-22T22:09:00Z,Chesapeake quarterly profit,short of,Street
2011-02-22T22:38:00Z,Vivendi,wins,significant narrowing of U.S. lawsuit
2011-02-22T22:50:00Z,TMX chief,warns,Canada of risk
2011-02-22T22:59:00Z,Morgan Stanley,hires,former Representative Harold Ford
2011-02-22T23:58:00Z,Investors,crowd Wall St exits on,Libyan unrest
2011-02-23T05:53:00Z,Home Depot,raises outlook,customers renovate
