2012-07-31T05:19:00Z,GM,signs,Man United deal day
2012-07-31T06:03:00Z,Jefferies,poised for,promotion
2012-07-31T07:04:00Z,Loan cost divide,highlights,euro zone 's problems
2012-07-31T08:39:00Z,Real estate,bouncing back from,investor pariah status
2012-07-31T08:39:00Z,estate,bouncing from,investor pariah status
2012-07-31T09:20:00Z,Italy 's Monti,sees,hope to euro crisis
2012-07-31T09:23:00Z,Manchester United,sets,IPO terms
2012-07-31T09:23:00Z,Manchester United fans group,slams,Glazers ' IPO plan
2012-07-31T09:28:00Z,Bond gains,prop up,Japan banks
2012-07-31T09:30:00Z,China,step up policy fine-tuning in,second-half
2012-07-31T10:43:00Z,Credit funds,get boost from,JP Morgan loss
2012-07-31T11:31:00Z,Daimler,warns of,fire risk
2012-07-31T11:41:00Z,China,swings in,quarter
2012-07-31T11:41:00Z,China swings,in,second quarter
2012-07-31T12:17:00Z,Deutsche Bank Libor probe,clears,management
2012-07-31T12:17:00Z,Deutsche Bank internal Libor probe,clears,management
2012-07-31T12:34:00Z,Employment,costs up modestly in,quarter
2012-07-31T12:56:00Z,Terumo,sues Olympus over,shareholder value
2012-07-31T13:25:00Z,Capital,flees,Spain
2012-07-31T13:37:00Z,Deutsche Bank CEO,says,profits
2012-07-31T13:37:00Z,profits,nearing,scenario
2012-07-31T14:01:00Z,Home prices,rise in,May
2012-07-31T14:04:00Z,Employment,costs up modestly in,quarter
2012-07-31T14:10:00Z,Consumer confidence,rises in,July
2012-07-31T14:32:00Z,India bank,holds,rates ups inflation forecast
2012-07-31T14:32:00Z,India central bank,holds,rates ups inflation forecast
2012-07-31T15:33:00Z,Facebook,punish,Europe 's banks
2012-07-31T15:38:00Z,BP results,show,strain
2012-07-31T17:20:00Z,General Atlantic,invests,$ 100 million in Box
2012-07-31T17:21:00Z,PIMCO 's Gross prophesies death,in,August
2012-07-31T17:43:00Z,Buffett 's Berkshire,gets,nod for Industrial Insulation deal
2012-07-31T18:14:00Z,shares,flirt with,five-year high
2012-07-31T18:59:00Z,UBS 's Facebook loss,throws,doubt
2012-07-31T18:59:00Z,UBS 's huge Facebook loss,throws,doubt
2012-07-31T19:02:00Z,Nissan,at,Mississippi plant
2012-07-31T19:02:00Z,UAW,invokes rights at,Nissan 's Mississippi plant
2012-07-31T19:23:00Z,Rising home prices,show,traction in housing recovery
2012-07-31T19:23:00Z,home prices,show,traction in housing recovery
2012-07-31T19:23:00Z,traction,in,housing recovery
2012-07-31T19:48:00Z,Greeks,paying,expensive bribes
2012-07-31T20:47:00Z,traders,gear up for,Fed
2012-07-31T20:58:00Z,Stocks,dip,ECB
2012-07-31T20:58:00Z,markets,hedge,bets
2012-07-31T21:10:00Z,deals,spur,July auto sales
2012-07-31T21:55:00Z,hope,fades for,quick ECB cure
2012-08-01T04:44:00Z,Audi,cautions on,pricing pressures
