2012-10-13T00:12:00Z,Wall Street posts,weigh,week since June
2012-10-13T00:12:00Z,banks,weigh,week
2012-10-13T00:27:00Z,PayPal,plans,job cuts since 2008 crisis
2012-10-13T02:15:00Z,Bankrupt Solyndra,seeks,$ 1.5 billion in damages
2012-10-13T02:15:00Z,Solyndra,seeks,$ 1.5 billion in damages from Chinese peers
2012-10-13T06:54:00Z,Draghi,sees,ECB euro zone supervision operational
2012-10-13T06:54:00Z,ECB euro zone supervision,operational in,2014
2012-10-13T09:10:00Z,Spain,says,investors ' mood improving strong
2012-10-13T10:24:00Z,Deutsche Telekom,aims MetroPCS deal in,second-quarter 2013
2012-10-13T11:34:00Z,$ 4 billion fund,bolster,emerging
2012-10-13T11:34:00Z,EBRD,plans,$ 4 billion fund
2012-10-13T11:34:00Z,fund,bolster,emerging
2012-10-13T12:00:00Z,Investors,turn,earnings picture dims
2012-10-13T12:23:00Z,Spanish aid request,seen in,November
2012-10-13T12:23:00Z,aid request,seen in,November
2012-10-13T12:26:00Z,Iran,denies,plunge in oil exports
2012-10-13T12:26:00Z,steep plunge,in,oil exports
2012-10-13T12:27:00Z,FTC,moving closer,sources
2012-10-13T12:59:00Z,IMF,meetings in,Tokyo
2012-10-13T12:59:00Z,World Bank meetings,in,Tokyo
2012-10-13T13:53:00Z,U.S. court delays,ruling on,MTN
2012-10-13T14:37:00Z,Spain,may spark,market correction
2012-10-13T17:41:00Z,ECB 's Draghi,keep up,reforms
2012-10-13T17:45:00Z,Greek PM,sees austerity deal by,October 18
2012-10-13T17:45:00Z,PM,sees austerity deal by,October 18
2012-10-14T04:45:00Z,Collusion lawsuit,in,U.S.
