2012-01-04T00:33:00Z,China mulls,boost,domestic consumption
2012-01-04T02:27:00Z,Tata Nano,gain,traction
2012-01-04T03:02:00Z,Ecuador court,upholds,ruling
2012-01-04T13:31:00Z,Gross 's bond fund,bleeds,$ 1.4 billion
2012-01-04T14:23:00Z,Paris,end of,triple-A era
2012-01-04T15:19:00Z,ECB rate,cut,expectations
2012-01-04T15:51:00Z,UniCredit rights issue,priced at,huge discount
2012-01-04T16:43:00Z,3 Swiss bankers,in,tax evasion case
2012-01-04T17:32:00Z,Small business payrolls,rise in,December
2012-01-04T17:32:00Z,business payrolls,rise in,December
2012-01-04T18:14:00Z,November factory orders,rise,business spending
2012-01-04T18:40:00Z,wife,over,dollar trade
2012-01-04T19:37:00Z,Gross,predicts,market activity in 2012
2012-01-04T19:37:00Z,paranormal market activity,in,2012
2012-01-04T20:38:00Z,U.S. holiday,spending up,15 percent
2012-01-04T20:38:00Z,U.S. online holiday,spending up,15 percent
2012-01-04T21:18:00Z,Kodak,prepares for,Chapter 11 filing
2012-01-04T21:59:00Z,Automakers,see,slower U.S. sales growth in 2012
2012-01-04T21:59:00Z,slower U.S. sales growth,in,2012
2012-01-04T22:16:00Z,Mosaic earnings,beat,Street 's forecast
2012-01-04T22:16:00Z,Mosaic quarterly earnings,beat,Street 's forecast
2012-01-04T22:39:00Z,Blackstone,megafundraising,finish line
2012-01-04T22:41:00Z,Foreclosure lawyer Stern,sued by,his old company
