2012-07-08T03:05:00Z,rare growth,in,2011
2012-07-08T05:35:00Z,Lease,funding for,Barangaroo towers
2012-07-08T06:16:00Z,Dubai Duty Free,wins,expanded $ 1.75 billion loan
2012-07-08T09:32:00Z,Clariant CEO,confirms goals despite,markets
2012-07-08T11:18:00Z,Deutsche Bank,suspends,two over Libor
2012-07-08T11:29:00Z,Egyptian judges,recommend,halt
2012-07-08T11:29:00Z,judges,recommend halt to,TMG land deal
2012-07-08T11:54:00Z,Boeing,overtake,Airbus sales
2012-07-08T12:49:00Z,Bombardier,swoops on,AirAsia
2012-07-08T12:50:00Z,Barclays,limit,Diamond pay-off
2012-07-08T12:50:00Z,UK 's Cable,urges,Barclays
2012-07-08T13:09:00Z,Microsoft loss,reflects,Web display ad world 's woes
2012-07-08T14:18:00Z,Euro crisis,hurting,German consumption
2012-07-08T14:31:00Z,British banks,are throttling,recovery
2012-07-08T14:31:00Z,banks,are throttling,recovery
2012-07-08T14:55:00Z,Cathay,ease,A350 drought
2012-07-08T15:08:00Z,Canada 's Bombardier,gets,aircraft order
2012-07-08T15:23:00Z,Sikorsky,eyes,foreign deals
2012-07-08T16:58:00Z,China 's Hebei Steel,gets,approval invest
2012-07-08T18:31:00Z,change,save,auto sector
2012-07-08T18:31:00Z,structural change,save,auto sector
2012-07-08T18:53:00Z,U.S.,sign,$ 7.3 billion Hawk order
2012-07-08T21:06:00Z,Australian mining magnate Rinehart,makes,media push
2012-07-08T21:06:00Z,mining magnate Rinehart,makes,media push
2012-07-08T21:12:00Z,China slowdown,weighs on,market funds
2012-07-08T21:20:00Z,chief,offers,tough love
2012-07-08T21:20:00Z,new chief,offers,love
2012-07-08T22:31:00Z,Macau 's gambling junkets,losing,their game
2012-07-08T23:05:00Z,World business confidence,cools,U.S. bright spot
2012-07-08T23:08:00Z,European buyouts,hit by,regional debt crisis
2012-07-08T23:08:00Z,buyouts,hit by,debt crisis
2012-07-08T23:15:00Z,measures,help,euro
