2012-12-07T02:49:00Z,Morgan Stanley,reward,growth
2012-12-07T03:21:00Z,T-Mobile USA,ditch,phone subsidies
2012-12-07T03:37:00Z,Apple,in,2013
2012-12-07T04:08:00Z,Japan sales,dropping,20 percent
2012-12-07T07:55:00Z,Apparel factory fire,reveals,brands ' shadowy supply chains
2012-12-07T08:33:00Z,Bundesbank,cuts growth outlook,crisis bites
2012-12-07T08:50:00Z,China insurer PICC debut,shines through,Hong Kong IPO gloom
2012-12-07T09:45:00Z,AXA,seeks,buyers for U.S. life insurance assets
2012-12-07T09:54:00Z,SE Asian governments,making,cheap labor cheap
2012-12-07T09:54:00Z,SE governments,making,labor cheap
2012-12-07T10:16:00Z,China 's mini Apple,takes,slice
2012-12-07T10:30:00Z,ECB funding,edges lower in,November
2012-12-07T10:41:00Z,South Africa 's Standard Bank,appeal,$ 60 million
2012-12-07T10:46:00Z,Investindustrial,confirms,Aston Martin stake buy
2012-12-07T11:32:00Z,EU,sets,December 20 deadline
2012-12-07T12:08:00Z,Deutsche Bank directors,seek,answers on valuation claims-sources
2012-12-07T12:13:00Z,Raiding claims,keep,broker recruiting
2012-12-07T12:13:00Z,claims,keep broker recruiting in,check
2012-12-07T12:21:00Z,Greek banks,taking,part
2012-12-07T12:21:00Z,banks,taking part in,buyback-sources
2012-12-07T12:54:00Z,ECB,says,rate cut
2012-12-07T12:54:00Z,ECB rate,cut,possible
2012-12-07T12:54:00Z,Euribor rates,fall,ECB says
2012-12-07T12:59:00Z,U.S. refiner PBF,switches up,Saudi routes
2012-12-07T13:19:00Z,Toyota,for,Chinese sales
2012-12-07T13:50:00Z,investments,soften,dividend blow
2012-12-07T13:59:00Z,ECB,warns Hungary again over,bank independence
2012-12-07T14:32:00Z,Boeing,books,cancellations
2012-12-07T14:35:00Z,ECB rate,cut,possible
2012-12-07T14:39:00Z,Aetna,reaches,$ 120 million settlement
2012-12-07T15:05:00Z,Consumer confidence,plunges in,December
2012-12-07T15:10:00Z,Greece 's National Bank,taking,part
2012-12-07T15:15:00Z,Aetna,reaches,$ 120 million settlement
2012-12-07T15:18:00Z,Consumer confidence,plunges in,December
2012-12-07T15:21:00Z,Lego,goes,digital
2012-12-07T16:11:00Z,Spain 's bad bank,swerves,critical questions
2012-12-07T16:11:00Z,Spain 's bank,swerves,critical questions
2012-12-07T16:18:00Z,Airbus orders surge,in,November
2012-12-07T16:21:00Z,hopeful key meetings,will disperse,regulatory fog
2012-12-07T16:21:00Z,hopeful meetings,will disperse,fog
2012-12-07T16:21:00Z,key meetings,will disperse,fog
2012-12-07T16:21:00Z,meetings,will disperse,fog
2012-12-07T16:37:00Z,Consumer confidence,plunges fears on,fiscal cliff
2012-12-07T16:51:00Z,Boeing books,jet,order cancellations
2012-12-07T17:01:00Z,China regulator,frets over,confidence crisis
2012-12-07T17:16:00Z,U.S. multinationals,fear,fallout from U.S. China audit row
2012-12-07T18:19:00Z,Fisker,hired,Evercore
2012-12-07T18:19:00Z,rules,seek,partners
2012-12-07T18:50:00Z,Hester,faces,grind
2012-12-07T18:59:00Z,Aetna,reaches,$ 120 million settlement
2012-12-07T20:21:00Z,Goldman Sachs,fined,$ 1.5 million
2012-12-07T21:02:00Z,Merrill,sweetens,settlement
2012-12-07T21:02:00Z,US Air,makes,Jan deal possible
2012-12-07T21:31:00Z,big score,with,new car ad in Super Bowl 2013
2012-12-07T21:31:00Z,new car ad,in,Super Bowl 2013
2012-12-07T21:33:00Z,Dow,rise on,jobs
2012-12-07T21:43:00Z,Global stocks,dollar after,strong jobs data
2012-12-07T22:50:00Z,BofA,can,can sued
2012-12-07T22:50:00Z,Fiscal cliff woes,could extend into,2014-BofA
2012-12-07T22:50:00Z,cliff woes,could extend into,2014-BofA
2012-12-07T22:51:00Z,SEC,wrestles with,Internet age
2012-12-07T23:09:00Z,Lululemon,faces,rivals on sides
2012-12-07T23:34:00Z,AMR pilots,approve,labor deal
2012-12-08T05:48:00Z,China nod,clears,way
2012-12-08T05:48:00Z,Glencore,for,Viterra purchase
2012-12-08T05:48:00Z,Richardson,sees approval by,year end
2012-12-08T05:55:00Z,Investor,finds,territory in over-35 entrepreneurs
2012-12-08T05:55:00Z,fertile territory,in,over-35 entrepreneurs
