2012-03-25T12:38:00Z,China 's CCB posts,higher,loan quality
2012-03-25T14:08:00Z,Sinopec Q4 net profit,falls,30 percent
2012-03-25T14:08:00Z,Sinopec Q4 profit,falls,30 percent
2012-03-25T15:11:00Z,capacity,in,low-cost countries
2012-03-25T20:58:00Z,BATS founder,pushes for,IPO
2012-03-25T23:05:00Z,Investment banks,invest,areas
2012-03-25T23:36:00Z,U.S. regulator,feels,pressure
