2012-08-01T00:23:00Z,decisive action,in,euro-zone debt crisis
2012-08-01T00:46:00Z,iPhone crafters,are,maniacal
2012-08-01T02:34:00Z,China HSBC PMI,hits rosier,49.3
2012-08-01T03:23:00Z,Office building sales rebound,hits,speed bump
2012-08-01T05:42:00Z,U.S. Treasury Secretary,calls for,action from EU leaders
2012-08-01T07:06:00Z,China big city spenders,confound,global gloom
2012-08-01T07:06:00Z,China city spenders,confound,global gloom
2012-08-01T07:50:00Z,Greece,may issue,more T-bills
2012-08-01T09:08:00Z,Governments,overestimate,cenbank 's capacity
2012-08-01T09:46:00Z,Banking license,is,wrong
2012-08-01T09:46:00Z,hope,fades for,quick ECB cure
2012-08-01T10:57:00Z,Small-business borrowing,falls in,June
2012-08-01T11:50:00Z,Czech factories,Polish resist,euro zone plunge
2012-08-01T12:07:00Z,investors,avoid,selling
2012-08-01T12:55:00Z,consumers,rein in,spending
2012-08-01T13:49:00Z,Lenovo executive,dismisses Nokia bid talk as,joke
2012-08-01T15:00:00Z,S&P,affirms,Spain 's sovereign rating
2012-08-01T15:27:00Z,World factories,cut jobs,sector shrinks in July
2012-08-01T15:27:00Z,sector,shrinks again in,July
2012-08-01T15:59:00Z,ISS,recommends,two Icahn nominees for Forest board
2012-08-01T16:24:00Z,China PMI,shows,factory sector
2012-08-01T16:24:00Z,China official PMI,shows,factory sector
2012-08-01T17:06:00Z,Zynga,shakes up,management
2012-08-01T17:39:00Z,Obama EU,act on,summit decisions
2012-08-01T18:01:00Z,Greek leaders,agree,budget cuts
2012-08-01T18:01:00Z,leaders,agree,budget cuts
2012-08-01T18:24:00Z,Toyota,raises,2012 production target on demand
2012-08-01T18:36:00Z,Ex-Morgan Stanley housing chief launches,foreclosed,home fund
2012-08-01T18:58:00Z,ISS,recommends,two Icahn nominees for Forest board
2012-08-01T19:23:00Z,Obama,welcomes,European resolve on euro-zone crisis
2012-08-01T19:29:00Z,U.S. auto sales,remain,soft
2012-08-01T20:23:00Z,California judge rules,in,favor of HP
2012-08-01T20:23:00Z,favor,in,Itanium server case
2012-08-01T20:28:00Z,MF Global customers,may reclaim,90 percent
2012-08-01T20:28:00Z,MF customers,may reclaim,90 percent of funds
2012-08-01T20:35:00Z,Wall Street,slips after,Fed
2012-08-01T20:56:00Z,MetLife,rise on,gains
2012-08-01T20:56:00Z,Prudential profits,rise on,gains
2012-08-01T21:21:00Z,Madoff trustee,block,$ 410 million Merkin accord
2012-08-01T23:05:00Z,U.S.,raises,pressure for euro zone crisis action
2012-08-01T23:22:00Z,Ford,sues Dana over,part linked
2012-08-02T04:08:00Z,Leaked emails,embarrass,government
2012-08-02T04:08:00Z,emails,embarrass,government
2012-08-02T04:14:00Z,Italy PM,sees,euro rescue fund
2012-08-02T04:57:00Z,investors,pay,lend
