2012-01-13T00:54:00Z,GE,defend,lawsuit
2012-01-13T00:54:00Z,lawsuit,tied to,2008 crisis
2012-01-13T02:18:00Z,Kodak,eyes bankruptcy cash from,Citigroup
2012-01-13T06:00:00Z,BofA,mulling,retreat
2012-01-13T06:47:00Z,China,in,FX reserves
2012-01-13T06:47:00Z,Dip,in,China 's FX reserves
2012-01-13T10:42:00Z,$ 34 billion LNG project,in,Australia
2012-01-13T10:42:00Z,Total,approve,LNG project in Australia
2012-01-13T11:00:00Z,Italy,sells,4.75 billion euros
2012-01-13T12:28:00Z,McDonald,extends Olympic sponsorship to,2020
2012-01-13T12:32:00Z,fees,size of,$ 4.7 billion
2012-01-13T12:34:00Z,target,dividend until,aid
2012-01-13T13:20:00Z,Italy bond auction,match,success
2012-01-13T14:52:00Z,Merkel,broadens,diplomatic drive for EU March summit
2012-01-13T14:54:00Z,luxury car brand,nears,end
2012-01-13T15:07:00Z,Spain,look to,growth
2012-01-13T15:07:00Z,austerity,look to,growth
2012-01-13T15:09:00Z,Slovakia,be,downgraded
2012-01-13T18:02:00Z,Sarkozy,committed,growth
2012-01-13T18:21:00Z,Rome,call,keep
2012-01-13T18:36:00Z,crackdown lands,in,Supreme Court
2012-01-13T18:38:00Z,others,downgrade,France
2012-01-13T19:13:00Z,Greeks,warn of,disaster
2012-01-13T19:40:00Z,Apple 's supplier list,contains,few surprises
2012-01-13T20:24:00Z,JPMorgan profit,sees,hope in economy
2012-01-13T20:33:00Z,Angelides,lead,mortgage firm
2012-01-13T22:00:00Z,S&P,takes rating actions on,16 euro zone sovereigns
2012-01-13T22:31:00Z,France,leaves,Germany
2012-01-13T22:31:00Z,S&P,leaves,Germany
2012-01-13T22:32:00Z,It,'s earnings versus,Europe
2012-01-13T22:33:00Z,Claimants,challenge,holdback
2012-01-13T22:33:00Z,holdback,in,BP oil spill case
2012-01-13T22:49:00Z,Wall Street,slips on,reports
2012-01-13T23:11:00Z,France 's loss,badge,blow to Sarkozy
2012-01-13T23:11:00Z,Greek debt impasse,hit,euro zone
2012-01-13T23:11:00Z,debt impasse,hit,euro zone
2012-01-13T23:12:00Z,Apple,reveals,details conditions
2012-01-13T23:16:00Z,World stocks,fall to,S&P cuts
2012-01-13T23:30:00Z,BofA,told,Fed
2012-01-13T23:56:00Z,FTC,expands,Google antitrust probe
2012-01-14T05:01:00Z,France,rating by,one notch
2012-01-14T05:52:00Z,Greek bond swap negotiators,less optimistic on,deal
2012-01-14T05:52:00Z,bond swap negotiators,optimistic on,deal
