2012-02-13T18:51:00Z,Europe,torn between,outrage on Greece
2012-02-13T19:30:00Z,ECB,'S,Nowotny
2012-02-13T19:30:00Z,need,progress for,Greek payout
2012-02-14T02:27:00Z,Greece,must meet terms,stay in euro zone
2012-02-14T04:23:00Z,BOJ,eases,policy
2012-02-14T07:39:00Z,Google,gets,U.S.
2012-02-14T07:39:00Z,U.S.,buy,Motorola Mobility
2012-02-14T08:34:00Z,Italy debt,fall at,auction
2012-02-14T10:08:00Z,Monsanto,says,appeal
2012-02-14T10:37:00Z,China,under,shadow
2012-02-14T10:37:00Z,aircraft,arms under,China 's shadow
2012-02-14T11:53:00Z,ECB 's Greek profit,could ease,debt burden
2012-02-14T11:53:00Z,ECB 's profit,could ease,debt burden
2012-02-14T12:00:00Z,aggressive policy,sets,inflation goal
2012-02-14T12:52:00Z,Italy,fall as,ECB cash outweighs downgrades
2012-02-14T12:52:00Z,Spain debt costs,fall as,ECB cash outweighs downgrades
2012-02-14T13:06:00Z,China,non-committal despite,Merkel plea
2012-02-14T14:13:00Z,$ 22.4 billion order,with,Lion Air
2012-02-14T14:13:00Z,Boeing signs,record,order with Lion Air
2012-02-14T14:17:00Z,German economy,pulls away from,European pack
2012-02-14T14:17:00Z,economy,pulls away from,pack
2012-02-14T14:36:00Z,Wynn,downplays,SEC inquiry
2012-02-14T15:58:00Z,U.S. slowdown,raise,cost
2012-02-14T16:02:00Z,Euro zone,puts,Greek plan
2012-02-14T17:39:00Z,Fed,must keep,policy throttle wide open
2012-02-14T18:28:00Z,Brazil,of,Vale
2012-02-14T18:28:00Z,Vale,for,Colombian coal ops
2012-02-14T18:35:00Z,bid,dismiss,Gucci trademark case
2012-02-14T18:37:00Z,Greece,heads,economy slumps
2012-02-14T18:44:00Z,Alibaba talks,called off,Yahoo
2012-02-14T18:49:00Z,Europe,handle,crisis
2012-02-14T18:49:00Z,it,cut,AAA-rating
2012-02-14T20:01:00Z,Fed,could hike,interest rates
2012-02-14T21:49:00Z,Shares,finish in,rally
2012-02-14T22:03:00Z,stocks,unsettled by,Greek debt crisis
2012-02-14T23:21:00Z,Europe crisis,hit U.S. growth in,major way
2012-02-14T23:21:00Z,Geithner,hit in,major way
2012-02-14T23:21:00Z,Retail sales,rise,0.4 percent
2012-02-14T23:21:00Z,sales,rise in,January
2012-02-14T23:46:00Z,Greek leaders,blow,chance of quick EU bailout approval
2012-02-14T23:46:00Z,leaders,blow,chance of quick EU bailout approval
2012-02-15T05:31:00Z,Wall Street fights,in,lawsuits
2012-02-15T05:55:00Z,Duquesne alumni,reveal,holdings at Point State
