2012-08-17T01:01:00Z,AMR creditors,urge,air crew unions
2012-08-17T01:01:00Z,air crew unions,reach,consensual contracts
2012-08-17T01:29:00Z,Chevron appeals Brazil ban,seeks,oil field
2012-08-17T02:25:00Z,Japan caps spending,targets,growth
2012-08-17T02:25:00Z,growth,in,2013-14 budget
2012-08-17T02:55:00Z,Fed hawks,make case against,further easing
2012-08-17T05:02:00Z,Goldman independent research arm,shunned by,clients
2012-08-17T05:02:00Z,Goldman research arm,shunned by,clients
2012-08-17T05:08:00Z,Shareholder,sues,Wal-Mart
2012-08-17T05:08:00Z,Wal-Mart,get,Mexico bribery documents
2012-08-17T05:09:00Z,Ex-Dewey partners,pay,at least $ 50 million
2012-08-17T05:09:00Z,partners,pay,at least $ 50 million
2012-08-17T08:31:00Z,Japan eyes,end to,decades
2012-08-17T09:32:00Z,Spain 's bank bad loans,hit in,June
2012-08-17T09:32:00Z,Spain 's bank loans,hit,high
2012-08-17T12:29:00Z,Commission,wants,ECB
2012-08-17T12:29:00Z,ECB,supervise,major euro banks
2012-08-17T13:23:00Z,possible airbag defect,in,2012 Nissan Versa
2012-08-17T13:49:00Z,New York Times Co CEO,make,$ 5 million
2012-08-17T14:02:00Z,U.S. economic indicators,rise in,July
2012-08-17T14:02:00Z,U.S. indicators,rise in,July
2012-08-17T14:02:00Z,U.S. leading economic indicators,rise in,July
2012-08-17T14:02:00Z,U.S. leading indicators,rise in,July
2012-08-17T14:18:00Z,PetroSA,deal for,South Africa
2012-08-17T14:22:00Z,Consumer sentiment,in,early August
2012-08-17T17:22:00Z,Goldman,conflicted in,Amerigroup/WellPoint deal
2012-08-17T17:33:00Z,Auto insurers ' driver tracking,hits,wall in California
2012-08-17T17:33:00Z,wall,in,California
2012-08-17T17:37:00Z,Shell California refinery,restarted flexicoker,Wednesday
2012-08-17T17:45:00Z,future,in,euro zone
2012-08-17T17:58:00Z,JPMorgan loan growth drive,leads to,BofA territory
2012-08-17T18:14:00Z,N.Y. Times CEO,make,$ 6 million
2012-08-17T18:40:00Z,trade activity,in,Africa
2012-08-17T18:49:00Z,Glencore,seen,sticking to its guns
2012-08-17T18:53:00Z,Caterpillar workers,ratify,contract
2012-08-17T18:59:00Z,U.S. court,upholds,higher blend in gasoline
2012-08-17T19:16:00Z,U.S. oil demand,dipped to,near 4-year low
2012-08-17T19:21:00Z,Groupon,hits low price target on,Evercore downgrade
2012-08-17T19:27:00Z,Consumer sentiment,in,early August
2012-08-17T19:27:00Z,Fed officials,' comments,policy
2012-08-17T19:28:00Z,Germany 's Bosch,shorten,work hours
2012-08-17T20:27:00Z,Global stocks,rise on,German backing
2012-08-17T20:27:00Z,stocks,rise on,German backing
2012-08-17T20:56:00Z,Goldman,conflicted in,Amerigroup/WellPoint deal
2012-08-17T21:17:00Z,U.S.,tightens,reins on Fannie Mae
2012-08-17T21:28:00Z,Baseball star Eddie Murray,settles,SEC insider trading charges
2012-08-17T21:57:00Z,Investors,take,profits
2012-08-17T22:02:00Z,Brown Brothers Harriman,closes,research business
2012-08-17T22:21:00Z,push,void,pilot contracts
2012-08-17T23:05:00Z,Heineken,declines,comment on talk of bid for Tiger beer
2012-08-17T23:37:00Z,fear index,hits,five-year low
2012-08-18T04:44:00Z,Chance,rises to,60 percent
2012-08-18T04:45:00Z,Facebook shares,drop,4 percent
