2012-03-16T01:25:00Z,Barclays,buys of,MF Global claims
2012-03-16T01:25:00Z,Seaport eye bulk,buys of,MF Global claims
2012-03-16T01:26:00Z,Barclays,buys of,MF Global claims
2012-03-16T01:26:00Z,MF Global customers,may see,payback
2012-03-16T01:26:00Z,MF customers,may see,payback
2012-03-16T01:26:00Z,Seaport eye bulk,buys of,MF Global claims
2012-03-16T02:39:00Z,SEC,releases,analysis
2012-03-16T10:23:00Z,Britain,set,agree on emergency oil stocks
2012-03-16T11:11:00Z,cautious return,risk,assets
2012-03-16T11:11:00Z,return,risk,assets
2012-03-16T11:21:00Z,Dynegy,disappointed with,examiner 's report
2012-03-16T11:21:00Z,examiner,with,report
2012-03-16T11:31:00Z,UPS,make,offer
2012-03-16T12:27:00Z,domestic e-payments market,in,China
2012-03-16T12:40:00Z,Banks eye AIG assets,held by,NY Fed
2012-03-16T12:40:00Z,Banks eye AIG toxic assets,held by,NY Fed
2012-03-16T12:47:00Z,RUSAL,picks,new chairman
2012-03-16T12:58:00Z,Iceland,repay,loans
2012-03-16T13:47:00Z,European shares,advance,highs
2012-03-16T13:47:00Z,shares,advance,highs
2012-03-16T15:01:00Z,Consumer mood dips,in,March
2012-03-16T15:23:00Z,Worldspreads,suspends shares over,possible irregularities
2012-03-16T15:43:00Z,RUSAL,picks,new chairman
2012-03-16T15:52:00Z,Goldman letter,deepens,banks ' trust deficit
2012-03-16T17:42:00Z,TIPS breakeven rates,recede after,CPI data
2012-03-16T19:01:00Z,risks,in,siren
2012-03-16T19:30:00Z,Apple,cements,market lead
2012-03-16T19:30:00Z,tablet market lead,with,new iPad
2012-03-16T19:47:00Z,Glencore,would divide Viterra in,3 parts
2012-03-16T20:08:00Z,Lawmakers,urge,Obama
2012-03-16T20:08:00Z,Obama,act on,China auto parts
2012-03-16T20:31:00Z,S&P,ends with,day
2012-03-16T20:31:00Z,S&P 500,ends with,day
2012-03-16T20:45:00Z,Oil,climbs on,dollar
2012-03-16T20:47:00Z,Hungary,avoid,recession
2012-03-16T21:12:00Z,workers,take,retirement offer
2012-03-16T21:17:00Z,Boeing CEO compensation,rose in,2011
2012-03-16T21:26:00Z,Greece,would face,euro exit
2012-03-16T21:30:00Z,CBO,sees,near-term deficits under Obama plan
2012-03-16T21:44:00Z,Iran sanctions,spurring,more Saudi oil sales
2012-03-16T22:16:00Z,Bank stress tests,highlight,Ally Financial 's challenges
2012-03-16T22:20:00Z,LightSquared,gets,$ 65 million
2012-03-16T22:39:00Z,Goldman,finds,friend in New York 's mayor
2012-03-16T22:39:00Z,New York,in,mayor
2012-03-16T22:39:00Z,friend,in,New York 's mayor
2012-03-16T22:53:00Z,workers,take,retirement offer
2012-03-16T23:24:00Z,Goldman,reviews,conflict-of-interest policies
2012-03-16T23:29:00Z,Lehman,gets,$ 850 million
2012-03-16T23:30:00Z,Goldman person,leaked,Apple
2012-03-16T23:32:00Z,MF Global customers,streamline,liquidation
2012-03-16T23:32:00Z,MF customers,streamline,liquidation
2012-03-16T23:53:00Z,Rakoff,turns,ex-colleague for appeal
