2012-08-18T00:11:00Z,Small states,squabble over,euro zone 's future
2012-08-18T00:11:00Z,euro zone,over,future
2012-08-18T00:11:00Z,states,squabble over,euro zone 's future
2012-08-18T01:13:00Z,Judge,rejects,Facebook settlement
2012-08-18T11:08:00Z,Lululemon patent claim,highlights,yoga world
2012-08-18T12:43:00Z,place,in,top share index
2012-08-18T17:52:00Z,Deutsche Bank,investigated in,U.S.
2012-08-18T20:16:00Z,Automaker Fisker,cooling,fan issue
2012-08-18T21:13:00Z,ECB,could assume,supervision
2012-08-18T21:13:00Z,supervision,in,bank union
2012-08-18T21:42:00Z,Lonmin,mulls,rights issue backed by Xstrata
