2012-03-21T05:02:00Z,stake,in,Chinese trust firm
2012-03-21T07:01:00Z,Turning point,in,currency war
2012-03-21T07:35:00Z,Olympus foreign shareholders,renew,call for chairman
2012-03-21T07:35:00Z,Olympus shareholders,renew,call for chairman
2012-03-21T09:32:00Z,excavator capacity,in,China
2012-03-21T10:26:00Z,Olympus,unveils,devices
2012-03-21T10:26:00Z,Scandal-hit Olympus,unveils,devices
2012-03-21T11:08:00Z,Electric car revolution,increasing,headwinds
2012-03-21T12:25:00Z,China outsider,banks on,Linsanity
2012-03-21T12:56:00Z,Generali,targets,5 billion euro operating profit
2012-03-21T13:59:00Z,The Wall Street gold rush,in,foreclosed homes
2012-03-21T17:35:00Z,BofA,sells,European credit cards
2012-03-21T20:33:00Z,Amazon,runs,big daily deal
2012-03-21T20:52:00Z,Home sales,show,strength
2012-03-21T21:58:00Z,Allen Stanford,seeks,trial
2012-03-21T23:13:00Z,Greece,unveils,details
2012-03-21T23:16:00Z,Developing nations,name,two candidates
2012-03-21T23:16:00Z,nations,name,two candidates
2012-03-21T23:18:00Z,Deutsche Bank,changes,legal status of U.S. unit
2012-03-21T23:30:00Z,BofA,cuts,cap markets
2012-03-21T23:36:00Z,Zynga,buys OMGPOP games company for,$ 200 million
2012-03-21T23:47:00Z,Transocean,charged in,Brazilian oil spill
2012-03-22T04:10:00Z,EU,aims,govt contract curbs at China
