2012-09-08T03:05:00Z,China,re-launches ABS program for,time
2012-09-08T10:12:00Z,EU 's Rehn,welcomes,ECB bond buying plan
2012-09-08T10:35:00Z,Madrid,gear for,rival casino
2012-09-08T11:04:00Z,China,vows,environment for investment
2012-09-08T11:13:00Z,Russia,Japan back,LNG
2012-09-08T11:20:00Z,Bank 's Dale,warns about,risks of loose policy
2012-09-08T12:39:00Z,Lufthansa union,makes,strike threat
2012-09-08T15:14:00Z,UK 's RBS,faces,Libor fine
2012-09-08T16:21:00Z,Amazon,eBay in,transaction value
2012-09-08T16:21:00Z,eBay,in,transaction value
2012-09-08T17:02:00Z,deal,keep,Greece
2012-09-08T18:29:00Z,Steelworkers,reach,agreement with ArcelorMittal U.S.
2012-09-08T18:29:00Z,agreement,with,ArcelorMittal U.S.
2012-09-08T21:07:00Z,Germany,should growth,euro-Soros
