2012-06-25T02:48:00Z,Morgan Stanley 's German head,offers,resignation
2012-06-25T02:48:00Z,Morgan Stanley 's head,offers,resignation
2012-06-25T02:57:00Z,India,revive,retail reform plan
2012-06-25T05:25:00Z,GM 's female manufacturing chief,faces,truck test
2012-06-25T05:25:00Z,GM 's manufacturing chief,faces,truck test
2012-06-25T06:20:00Z,UniCredit CEO,joins,calls
2012-06-25T06:41:00Z,Samsung,expects,Galaxy S III sales
2012-06-25T06:46:00Z,Hollande,may lose,euro battle
2012-06-25T06:46:00Z,Merkel,holds,firm
2012-06-25T07:38:00Z,Europe 's Tower,hampers,euro solution
2012-06-25T08:38:00Z,VW,seal,Porsche purchase
2012-06-25T09:42:00Z,Exxon,close,crude unit
2012-06-25T10:24:00Z,Spain,requests,European aid
2012-06-25T10:24:00Z,Spanish bank bailout deal,in,weeks
2012-06-25T10:48:00Z,Spain,requests,bank aid
2012-06-25T11:06:00Z,AB InBev,declines,comment
2012-06-25T11:12:00Z,Spain,will take,growth measures
2012-06-25T11:32:00Z,Samsung,sees,Q2 handset earnings
2012-06-25T11:37:00Z,EU aid,shows,drop
2012-06-25T11:59:00Z,downgrade,in,next hours-sources
2012-06-25T12:06:00Z,EU watchdog,publishes,draft derivatives rules
2012-06-25T12:07:00Z,China,'s target,property curbs
2012-06-25T13:52:00Z,Mexico 's Supreme Court,take up,Carlos Slim TV case
2012-06-25T13:58:00Z,Modelo,shares surge on,report of AB InBev purchase
2012-06-25T14:23:00Z,Porsche CEO,keen on,speedy VW tie-up
2012-06-25T14:34:00Z,Consumer confidence,falls in,quarter
2012-06-25T15:05:00Z,Danish PM,calls for,stimulus in Europe
2012-06-25T15:05:00Z,PM,calls for,stimulus in Europe
2012-06-25T15:05:00Z,more stimulus,in,Europe
2012-06-25T15:26:00Z,AB InBev,says in,talks with Corona brewer Modelo
2012-06-25T15:26:00Z,talks,with,Corona brewer Modelo
2012-06-25T15:29:00Z,Fed 's Lacker,opposes,stimulus
2012-06-25T15:37:00Z,EU,affirms,Iran oil ban
2012-06-25T15:39:00Z,Cyprus,make,bailout bid
2012-06-25T15:39:00Z,Spanish yields,rise,summit hopes
2012-06-25T15:39:00Z,yields,rise,summit hopes
2012-06-25T15:42:00Z,Investors eye,increased,Shell bid for Cove
2012-06-25T16:13:00Z,RIM,considers,splitting business
2012-06-25T17:27:00Z,Money 's retreat home,threatens,globalization
2012-06-25T17:48:00Z,Credit Suisse,make,job cuts in Europe
2012-06-25T17:48:00Z,heavy job cuts,in,Europe
2012-06-25T18:03:00Z,ECB,has done,lot on crisis
2012-06-25T19:02:00Z,U.S. businesses,borrow,more
2012-06-25T19:02:00Z,more,buy,equipment
2012-06-25T19:46:00Z,futures,end on,heat
2012-06-25T19:51:00Z,Cyprus,seeks EU bailout for,banks
2012-06-25T20:33:00Z,Wall Street,tumbles on,summit skepticism
2012-06-25T20:40:00Z,Greece,work with,EU
2012-06-25T20:40:00Z,Obama,urges,Greece
2012-06-25T21:04:00Z,Global stocks,slide on,European summit doubts
2012-06-25T22:20:00Z,AB InBev,in,talks buy
2012-06-25T22:20:00Z,Modelo,holding cards in,AB InBev talks
2012-06-25T22:56:00Z,Spain,requests,bank aid
2012-06-25T22:56:00Z,Spain requests,banks 's,Moody
2012-06-25T22:56:00Z,U.S.,wants,flesh on bone
2012-06-25T22:59:00Z,Chesapeake,fall on,report of land price plot
2012-06-25T22:59:00Z,Encana shares,fall on,report
2012-06-25T23:06:00Z,Summit,drive up,Spain 's debt costs
2012-06-25T23:35:00Z,Facebook taps COO Sandberg,be woman on,board
2012-06-25T23:42:00Z,Cyprus,seeks,EU aid
2012-06-26T04:30:00Z,EU exec,sets,steps to tax 2.4 trillion
2012-06-26T04:39:00Z,Italy government,buying,bank bonds
2012-06-26T04:40:00Z,Pernod Ricard,defies gloom in,Spain
2012-06-26T04:50:00Z,Greek finance minister,resigns,crisis deepens
2012-06-26T04:50:00Z,New home sales race,in,May
2012-06-26T04:50:00Z,finance minister,resigns,crisis deepens
2012-06-26T04:58:00Z,European shares,in,worst one-day fall
