2012-05-02T00:22:00Z,CME Group,fires with,22-hour grains trade
2012-05-02T02:25:00Z,AMR,eliminates,five senior management jobs
2012-05-02T02:57:00Z,last two employees,in,pork scandal
2012-05-02T05:16:00Z,leeway,get,reforms on track
2012-05-02T06:05:00Z,GM,taking over,one-third of Isuzu
2012-05-02T07:12:00Z,StanChart,confident on,income growth
2012-05-02T09:20:00Z,ADB,secures,$ 12.4 billion
2012-05-02T09:20:00Z,region,for,poorest countries
2012-05-02T10:15:00Z,German inflation angst returns,in,new threat to Europe
2012-05-02T10:32:00Z,Cherkizovo,freezes,new pork investments
2012-05-02T11:01:00Z,Economic stimulus,added over,4 percent
2012-05-02T11:10:00Z,German court rules,in,Motorola patent fight
2012-05-02T11:26:00Z,German car maker Daimler,warning,strike
2012-05-02T11:26:00Z,car maker Daimler,warning,strike
2012-05-02T12:30:00Z,S&P,lifting,it
2012-05-02T13:02:00Z,CVS Caremark ups outlook,grabs,Walgreen patrons
2012-05-02T13:16:00Z,EU,to,budget
2012-05-02T13:16:00Z,it,comes to,EU 's budget
2012-05-02T13:20:00Z,UBS shares,jump,private bank proves
2012-05-02T13:20:00Z,bank,proves,its appeal
2012-05-02T13:20:00Z,private bank,proves,its appeal
2012-05-02T13:52:00Z,Rosneft,beats poll with,$ 3.81 billion
2012-05-02T14:18:00Z,Factory orders,suffer,largest drop
2012-05-02T14:32:00Z,Telenor chairman,quits over,TV2 deal
2012-05-02T14:41:00Z,Carlyle Group,lowers,IPO price range
2012-05-02T15:31:00Z,Greek bank,sues,Reuters
2012-05-02T15:31:00Z,MasterCard profit,rises,21 percent
2012-05-02T15:31:00Z,bank,sues Reuters over,report
2012-05-02T16:54:00Z,China factories,bottoming out,HSBC PMI signals
2012-05-02T17:16:00Z,Biotech targets,fight back as,Big Pharma circles
2012-05-02T17:16:00Z,targets,fight as,Big Pharma circles
2012-05-02T17:18:00Z,Shale,causes,rise in waste gas pollution
2012-05-02T17:18:00Z,rise,in,waste gas pollution
2012-05-02T17:28:00Z,Comcast profit,beats on,Internet
2012-05-02T17:45:00Z,effort,develop,original TV shows
2012-05-02T19:46:00Z,Natgas futures,end down,5 percent
2012-05-02T20:16:00Z,Nokia,files patent lawsuits against,HTC
2012-05-02T20:41:00Z,Stocks,slip after,weak data
2012-05-02T21:13:00Z,Bausch,weighs,increase of U.S. loan
2012-05-02T21:13:00Z,Lomb,weighs,increase of U.S. loan
2012-05-02T21:27:00Z,CEO,says after,breakup report
2012-05-02T21:27:00Z,Vivendi,says after,breakup report
2012-05-02T21:28:00Z,Enbridge,takes,write-down
2012-05-02T21:41:00Z,Settlement,with,HP
2012-05-02T22:04:00Z,Natgas trading legend Arnold,ending,era
2012-05-02T23:21:00Z,Law firm Dewey,loses,5 more partners
2012-05-02T23:21:00Z,LeBoeuf,loses,5 more partners
2012-05-02T23:44:00Z,ways,boost,value
2012-05-02T23:47:00Z,Visa Inc,beats,estimates with higher profit
2012-05-02T23:47:00Z,estimates,with,higher profit
2012-05-03T04:38:00Z,Warning strikes,hit,German engineering sector
2012-05-03T04:41:00Z,Private-sector hiring,slows in,April
2012-05-03T04:41:00Z,hiring,slows in,April
