2012-09-03T00:40:00Z,Shareholders,sue,RBS
2012-09-03T01:10:00Z,China official services PMI,rises in,August
2012-09-03T01:10:00Z,China services PMI,rises in,August
2012-09-03T03:15:00Z,China HSBC PMI,drops worst to,47.6
2012-09-03T03:44:00Z,CIC,sells,most of its BlackRock stake
2012-09-03T06:50:00Z,Cambodia,considers,request on Pirate Bay co-founder
2012-09-03T07:28:00Z,Hyundai Motor sales,fall,first time in over 3 years
2012-09-03T07:28:00Z,first time,in,over 3 years
2012-09-03T08:00:00Z,China 's biggest search engine Baidu,enters,browser fight
2012-09-03T08:00:00Z,China 's search engine Baidu,enters,browser fight
2012-09-03T10:42:00Z,China ex-minister,says,foreign auto JV policy
2012-09-03T11:27:00Z,economic growth,easing into,Q3
2012-09-03T11:27:00Z,growth,easing into,Q3
2012-09-03T11:27:00Z,signal economic growth,easing into,Q3
2012-09-03T11:27:00Z,signal growth,easing into,Q3
2012-09-03T11:37:00Z,Middle East,driving,investment bank
2012-09-03T11:44:00Z,German court,holds,euro zone fate
2012-09-03T11:44:00Z,court,holds,euro zone fate
2012-09-03T13:11:00Z,Slovakia,says against,ECB bond buying
2012-09-03T14:08:00Z,it,catch,Toyota
2012-09-03T14:23:00Z,Lufthansa cabin crew,threaten,further strikes
2012-09-03T14:53:00Z,Global shares,gain eyes on,bank hopes
2012-09-03T14:53:00Z,shares,gain,eyes on ECB
2012-09-03T15:45:00Z,Spain 's Andalucia,seeks,1 billion euro lifeline
2012-09-03T17:20:00Z,ECB,should supervise,big banks
2012-09-03T17:20:00Z,German finance minister,casts,doubt
2012-09-03T17:20:00Z,finance minister,casts,doubt
2012-09-03T17:41:00Z,Spain bank rescue fund,approves,Bankia aid
2012-09-03T18:45:00Z,Swiss help Germans,dodge,tax pact
2012-09-03T18:45:00Z,help Germans,dodge,tax pact
2012-09-03T21:16:00Z,Nomura 's Vereker,quits,top role
2012-09-03T22:44:00Z,Canaccord,hires,top London banker
2012-09-03T23:45:00Z,Hyundai Motor union,OKs,wage deal
2012-09-04T04:39:00Z,Berlin,differ over,ECB bank supervision
2012-09-04T04:39:00Z,Commission,differ over,ECB bank supervision
2012-09-04T04:49:00Z,Portugal,shows,euro rescue
