2012-07-17T00:02:00Z,Hungary,welcomes IMF for,talks
2012-07-17T00:32:00Z,2012 rebound,in,Angola economy
2012-07-17T00:32:00Z,IMF,sees,2012 rebound in Angola economy
2012-07-17T00:49:00Z,440 jobs,in,Australia
2012-07-17T01:22:00Z,Brazil,says,Chevron fine
2012-07-17T01:49:00Z,Fortescue iron ore project costs,jump to,$ 9 billion
2012-07-17T05:28:00Z,Shell,drops,bid
2012-07-17T05:28:00Z,Thai PTT,win,Cove
2012-07-17T10:09:00Z,Universal,offer,EMI label sales
2012-07-17T10:22:00Z,Opel,pick,turnaround expert
2012-07-17T11:02:00Z,Chesapeake board changes,could trigger,bonus windfall
2012-07-17T12:49:00Z,Consumer prices,unchanged in,June
2012-07-17T12:55:00Z,Mayer 's background,in,products
2012-07-17T13:10:00Z,Google,to,Mayer
2012-07-17T13:10:00Z,Yahoo,turns to,Google 's Mayer
2012-07-17T13:16:00Z,G4S CEO,admits,Olympic failure
2012-07-17T14:26:00Z,Bernanke,few details on,stimulus
2012-07-17T14:45:00Z,Barbie,lift,Mattel profit
2012-07-17T14:45:00Z,Batman,lift,Mattel profit
2012-07-17T14:45:00Z,cost cuts,lift,Mattel profit
2012-07-17T15:06:00Z,Finland,agree on,bailout collateral
2012-07-17T15:06:00Z,Spain,agree on,bailout collateral
2012-07-17T16:20:00Z,Banks,still seen after,start of crisis
2012-07-17T17:36:00Z,Coca-Cola 's global reach,offset,European weakness
2012-07-17T17:36:00Z,Coca-Cola 's reach,offset,European weakness
2012-07-17T18:15:00Z,GM,of,Opel
2012-07-17T18:39:00Z,Shell,faces,$ 5 billion fine
2012-07-17T18:56:00Z,Goldman Sachs commodities,risk in,8 years
2012-07-17T19:14:00Z,FedEx risks,losing,Post Office contract
2012-07-17T19:56:00Z,Chevron,could restart,output from Brazil spill field
2012-07-17T20:34:00Z,Gasoline prices,dampen,inflation
2012-07-17T20:44:00Z,Barclays,was in,denial
2012-07-17T20:44:00Z,J&J,hit by,CEO eyes pruning units
2012-07-17T21:09:00Z,Bernanke,few new hints,easing
2012-07-17T21:30:00Z,Coke,earnings for,Wall Street
2012-07-17T21:34:00Z,stocks,euro after,Bernanke economy view
2012-07-17T22:22:00Z,Facebook,diverge,Nasdaq
2012-07-17T22:37:00Z,Draghi,gave,evidence
2012-07-17T22:37:00Z,Greece,needs,scrambles for more cuts
2012-07-17T22:49:00Z,HSBC,'S,group compliance head
2012-07-17T23:31:00Z,5 percent rise,in,2013 iron ore output
2012-07-17T23:45:00Z,Lawyers eye payday,in,record credit card settlement
2012-07-17T23:47:00Z,Mexico bank regulator,defends,role in HSBC scandal
2012-07-17T23:47:00Z,role,in,HSBC scandal
2012-07-17T23:59:00Z,Levinsohn,skip,Yahoo 's Q2 earnings call
2012-07-18T04:22:00Z,Spain debt,costs,fall
2012-07-18T04:22:00Z,Spanish royals,take,pay cut
2012-07-18T04:22:00Z,royals,take,pay cut
2012-07-18T04:24:00Z,Burberry,plays,ball
