2012-01-01T07:22:00Z,Exxon,awarded,$ 908 million
2012-01-01T18:04:00Z,U.S.,is,2012 property investment pick
2012-01-01T20:03:00Z,U.S. consumer,in,slow lane
2012-01-01T23:39:00Z,Hyundai,rise in,2012
2012-01-01T23:39:00Z,Kia eye 6 percent sales rise,in,2012
2012-01-02T05:33:00Z,austerity,calls,mark euro anniversary
