2012-05-13T00:27:00Z,Porsche CEO,drops,plan for entry-level model
2012-05-13T00:30:00Z,Swiss bank Pictet,being probed by,U.S.
2012-05-13T00:30:00Z,bank Pictet,being probed by,U.S.
2012-05-13T08:04:00Z,Asian powers,agree on,trade pact talks
2012-05-13T08:04:00Z,East Asian powers,agree on,trade pact talks
2012-05-13T08:04:00Z,East powers,agree on,trade pact talks
2012-05-13T08:04:00Z,powers,agree on,trade pact talks
2012-05-13T08:40:00Z,53-percent stake,in,Arabtec
2012-05-13T08:40:00Z,Abu Dhabi fund Aabar,owns,stake in Arabtec
2012-05-13T09:03:00Z,Nokia,falls on,patents
2012-05-13T09:43:00Z,spotlight,in,Hong Kong
2012-05-13T12:18:00Z,Facebook IPO,has,halo effect
2012-05-13T13:50:00Z,Euro zone turmoil,boosts,London property stampede
2012-05-13T14:24:00Z,Fears,linger despite,banking plan
2012-05-13T14:24:00Z,Spain banking plan,should dispel,doubts
2012-05-13T16:10:00Z,Chevron,signs,LNG deal
2012-05-13T16:10:00Z,Chevron signs,with,Tohoku Electric
2012-05-13T18:19:00Z,Ally Financial 's mortgage unit,nears,bankruptcy
2012-05-13T19:28:00Z,Spain 's banks,detail,cost
2012-05-13T19:58:00Z,Chevron Richmond refinery unit,in,planned shutdown
2012-05-13T20:39:00Z,India telco regulator,sticks to,auction plans
2012-05-13T22:53:00Z,JPMorgan executives,leave over,loss
2012-05-13T23:07:00Z,Europe 's woes,hit,global demand
2012-05-13T23:27:00Z,Louis Dreyfus,set for,capital market debut
