2012-04-02T00:44:00Z,BOJ tankan,shows,Japan business mood
2012-04-02T01:21:00Z,Sino Forest 's largest shareholder,proposes,restructuring plan
2012-04-02T01:21:00Z,Sino Forest 's shareholder,proposes,restructuring plan
2012-04-02T01:41:00Z,company,owning,sex traffic site
2012-04-02T03:45:00Z,Firm,dropped by,Visa
2012-04-02T05:05:00Z,DBS boss Gupta,faces,test in Indonesia
2012-04-02T05:05:00Z,biggest test,in,Indonesia
2012-04-02T05:14:00Z,Pinnacle Airlines,flies into,bankruptcy
2012-04-02T05:52:00Z,Europe,ponders,trade
2012-04-02T06:05:00Z,investments,hit,H1 profit
2012-04-02T08:58:00Z,Ranbaxy,starts,Lipitor shipments
2012-04-02T09:34:00Z,U.S.,restrictions at,WTO
2012-04-02T09:52:00Z,Bitcoin,toy ',financial traders
2012-04-02T10:16:00Z,Emerging Europe factories surprise,in,March
2012-04-02T10:56:00Z,U.S. automakers,expect,sales
2012-04-02T13:16:00Z,CIT,reduce cost debt by,$ 500 million
2012-04-02T14:20:00Z,Wells Fargo,opens,business
2012-04-02T17:22:00Z,Coty,has staying power in,bid
2012-04-02T18:01:00Z,Euro zone unemployment,reaches near,15-year high
2012-04-02T19:36:00Z,Avon traders,take,views
2012-04-02T20:22:00Z,U.S. CEOs ' pay,climbs on,stock awards
2012-04-02T20:22:00Z,U.S. CEOs ' take-home pay,climbs on,stock awards
2012-04-02T20:28:00Z,Wall Street,starts,quarter
2012-04-02T21:11:00Z,Manufacturing sector,picks up in,March
2012-04-02T21:18:00Z,UBS,reshuffles,Europe teams
2012-04-02T21:46:00Z,Apple,',iPad tops Consumer Reports
2012-04-02T22:11:00Z,PIMCO,attract,$ 8 billion
2012-04-02T22:18:00Z,Goldman,names Schiro as,director
2012-04-02T22:33:00Z,GM March US sales,boosted by,models
2012-04-02T23:35:00Z,News Corp,faces,proxy call for chairman
2012-04-02T23:41:00Z,Avon,rejects,$ 10 billion takeover bid
2012-04-02T23:43:00Z,Pinnacle Airlines,files in,U.S.
2012-04-02T23:46:00Z,MF Global judge,weighs,release of insurance money
2012-04-02T23:46:00Z,MF judge,weighs,release
2012-04-03T04:46:00Z,BP,shuts,platform
