2012-09-11T01:49:00Z,Honda Motor,sets,Accord prices
2012-09-11T02:17:00Z,CFTC,finding,false records
2012-09-11T02:17:00Z,delay,in,Peregrine payout
2012-09-11T03:57:00Z,More problems,raised at,Pentagon F-35 fighter review
2012-09-11T03:57:00Z,problems,raised at,Pentagon F-35 fighter review
2012-09-11T03:59:00Z,Australia,break,its boom-bust cycle
2012-09-11T05:33:00Z,Treasury,sells,big chunk
2012-09-11T05:47:00Z,Impala Platinum workers,demand,second wage
2012-09-11T07:47:00Z,Insurers,risk,crackdown
2012-09-11T09:40:00Z,Impala Platinum workers,demand,second wage
2012-09-11T10:46:00Z,China,meet,2012 growth target
2012-09-11T10:56:00Z,cliff,temper,U.S. hiring outlook
2012-09-11T10:56:00Z,fiscal cliff,temper,U.S. outlook
2012-09-11T11:02:00Z,UK banks,face bill,claims soar
2012-09-11T11:54:00Z,Walmart,plans,3-5 India wholesale stores
2012-09-11T12:02:00Z,Small business confidence,rises in,August
2012-09-11T12:02:00Z,business confidence,rises in,August
2012-09-11T12:27:00Z,BlackRock,fined,$ 15 million
2012-09-11T12:52:00Z,Philips,steps up,cost cuts
2012-09-11T13:06:00Z,Wells Fargo,expects,interest decline in third quarter
2012-09-11T13:06:00Z,net interest decline,in,third quarter
2012-09-11T13:07:00Z,European crisis,darkens,Asian growth outlook
2012-09-11T13:07:00Z,crisis,darkens further,growth outlook
2012-09-11T13:43:00Z,Apple,turns guns on,retailer A.pl
2012-09-11T13:44:00Z,Dollar,in,broad sell-off
2012-09-11T13:44:00Z,Moody,after,warning
2012-09-11T13:44:00Z,Moody 's warning,euro at,four-month high
2012-09-11T13:47:00Z,Burberry profit,warning,chills luxury rivals
2012-09-11T13:55:00Z,Wal-Mart,plans,3-5 more India wholesale stores
2012-09-11T13:58:00Z,IBM,review,August trading glitch
2012-09-11T13:58:00Z,Knight,hires,IBM
2012-09-11T14:01:00Z,German court,rejects,delay
2012-09-11T14:01:00Z,German top court,rejects,delay
2012-09-11T14:01:00Z,court,rejects,delay
2012-09-11T14:01:00Z,top court,rejects,delay to euro ruling
2012-09-11T14:14:00Z,Wells Fargo,sees,net interest decline
2012-09-11T14:32:00Z,Job openings,slip in,July
2012-09-11T14:57:00Z,value,makes,comeback
2012-09-11T15:13:00Z,Moody,says,looking for U.S. debt trajectory
2012-09-11T15:38:00Z,Pain,prescribed as,Deutsche duo slice jobs
2012-09-11T15:44:00Z,Investors,reduce,neutral positions on Treasuries
2012-09-11T17:13:00Z,Pain,prescribed as,Deutsche duo slice bonuses
2012-09-11T17:22:00Z,Wells Fargo,sees,net interest decline
2012-09-11T17:22:00Z,net interest decline,in,3rd qtr-CFO
2012-09-11T17:31:00Z,Citi,expects,$ 2.9 billion after-tax charge on brokerage deal
2012-09-11T17:56:00Z,Fed,may backtrack again on,forecasts
2012-09-11T17:56:00Z,Over-optimistic Fed,may backtrack again on,forecasts
2012-09-11T18:22:00Z,Trade gap,widens as,exports
2012-09-11T19:05:00Z,Citigroup,settle,brokerage dispute
2012-09-11T19:07:00Z,ResCap 's exclusive right,extended to,December 20
2012-09-11T19:07:00Z,ResCap 's right,extended to,December 20
2012-09-11T19:08:00Z,David Resnick,joins Third Avenue as,president
2012-09-11T19:18:00Z,ECB,should stick to,max bond
2012-09-11T20:04:00Z,PCs,Do have,future
2012-09-11T20:12:00Z,Black Merrill brokers,lose appeal over,bias in bonuses
2012-09-11T20:12:00Z,Merrill brokers,lose appeal over,bias in bonuses
2012-09-11T20:12:00Z,bias,in,bonuses
2012-09-11T20:41:00Z,Fed,easing,outlook
2012-09-11T20:44:00Z,Egan-Jones,affirms,negative outlook
2012-09-11T21:17:00Z,AIG,may consider,next year
2012-09-11T21:18:00Z,U.S.,earn,$ 15.1 billion
2012-09-11T21:58:00Z,Avatar effects shop,weighs,Digital Domain bid
2012-09-11T21:58:00Z,Avatar special effects shop,weighs,Digital Domain bid
2012-09-11T22:13:00Z,GM,names,Peck director of Chevrolet advertising
2012-09-11T22:13:00Z,Peck director,in,U.S
2012-09-11T22:19:00Z,Retail trade group,fight,swipe fee settlement
2012-09-11T22:19:00Z,trade group,fight,swipe fee settlement
2012-09-11T22:30:00Z,Whistleblower,gets,record $ 104 million
2012-09-11T23:02:00Z,Ford board,readies for,2013 Mulally retirement
2012-09-11T23:54:00Z,Abdalla,named,president
2012-09-11T23:57:00Z,Dow,climbs since,2007
