2012-10-27T01:20:00Z,Consumers,drive,growth
2012-10-27T03:46:00Z,Star Silicon Valley analyst,felled by,Facebook IPO fallout
2012-10-27T05:54:00Z,Shanghai banking regulator,says,steel trade loans
2012-10-27T08:55:00Z,African mine,strikes ease at,Amplats
2012-10-27T08:55:00Z,South African mine,strikes,ease
2012-10-27T08:55:00Z,mine,strikes ease at,Amplats
2012-10-27T09:31:00Z,Reebok,eyes sales rebound in,2013
2012-10-27T09:31:00Z,Reebok eyes,in,2013
2012-10-27T10:42:00Z,Merkel,urges,financial regulation
2012-10-27T14:35:00Z,African mine strikes,wind down with,Amplats deal
2012-10-27T14:35:00Z,South African mine strikes,wind down with,Amplats deal
2012-10-27T14:35:00Z,mine strikes,wind down with,Amplats deal
