2012-04-14T00:45:00Z,U.S.,asks,court
2012-04-14T00:45:00Z,court,force,J&J executive
2012-04-14T02:32:00Z,Google 's stock split,raises,questions
2012-04-14T05:15:00Z,Lockheed,wins deal for,2 more U.S. F-35s
2012-04-14T10:55:00Z,staff names,in,U.S. tax row
2012-04-14T18:18:00Z,IMF,welcomes,China 's currency changes
2012-04-14T23:02:00Z,China,gives,more freedom with new reform
2012-04-14T23:02:00Z,more freedom,with,new reform
