2012-12-09T01:19:00Z,China 's Wanxiang,wins,auction
2012-12-09T07:46:00Z,China November factory output,jumps to,eight-month high
2012-12-09T17:18:00Z,China 's Wanxiang,wins,auction
2012-12-09T18:05:00Z,Health workers,march,reforms
2012-12-09T18:05:00Z,Spain,in,capital
2012-12-09T19:53:00Z,Britain 's business minister,sees,risk of triple-dip recession
2012-12-09T20:04:00Z,euro zone woes,depress,lending
2012-12-09T20:05:00Z,Fed 's monetary stimulus,meets,fiscal cliff
2012-12-09T20:05:00Z,Fed 's stimulus,meets,cliff
2012-12-09T20:48:00Z,Debt,buy back,procedure
2012-12-09T20:48:00Z,Investors,offer,$ 38.8 billion in debt buyback
2012-12-09T20:54:00Z,Japan 's TV giants,hawk,$ 3 billion of assets
2012-12-09T20:54:00Z,Japan 's TV giants hawk,In,giant garage sale
2012-12-09T21:26:00Z,Greece mulls,reopening,debt buyback invitation-sources
2012-12-09T21:39:00Z,Obama,met over,fiscal cliff
2012-12-09T22:35:00Z,Apple,JPMorgan among,Barron 's top 10 picks
2012-12-09T22:35:00Z,Barron,among,top 10 picks
2012-12-09T23:38:00Z,Wanxiang,wins,bid
2012-12-10T05:01:00Z,ThyssenKrupp,may seek,compensation
2012-12-10T05:10:00Z,Cliff worries,may drive,tax selling
