2012-04-10T00:54:00Z,Companies,use,popular provision
2012-04-10T01:48:00Z,CME,looking to,futures exchange
2012-04-10T01:48:00Z,open futures exchange,in,London
2012-04-10T03:30:00Z,$ 670 million trade surplus,in,Q1
2012-04-10T03:32:00Z,Olympus investors,urged,accounts
2012-04-10T03:32:00Z,accounts,oppose,new leadership
2012-04-10T03:57:00Z,Bank,easing,expected
2012-04-10T07:46:00Z,Honda,eyes,new models
2012-04-10T07:46:00Z,Honda eyes,growth in,China
2012-04-10T07:46:00Z,strong growth,in,China
2012-04-10T10:55:00Z,Honda,eyes,new models
2012-04-10T10:55:00Z,Honda eyes,growth in,China
2012-04-10T10:55:00Z,strong growth,in,China
2012-04-10T11:23:00Z,Flow,slows,sanctions bite
2012-04-10T12:08:00Z,China surprises,with,export-led March trade surplus
2012-04-10T12:12:00Z,Oil firms,hurt by,Gulf spill
2012-04-10T12:21:00Z,Troubled euro zone,states at,risk from high oil
2012-04-10T12:21:00Z,euro zone,states most at,risk from oil
2012-04-10T12:52:00Z,Bourses,head off,rules
2012-04-10T13:34:00Z,Russia,with,Rosinter
2012-04-10T13:34:00Z,deal,with,Russia 's Rosinter
2012-04-10T14:14:00Z,Wholesale inventories,rise in,February
2012-04-10T14:14:00Z,inventories,rise on,petroleum
2012-04-10T14:53:00Z,Household debt,casts,economic shadow
2012-04-10T15:24:00Z,battle,bring MTN case in,U.S
2012-04-10T15:31:00Z,February job openings,rise to,3.5 million
2012-04-10T15:46:00Z,Wholesale stocks,rise,boosts Q1 GDP forecasts
2012-04-10T15:46:00Z,stocks,rise,boosts Q1 GDP forecasts
2012-04-10T16:00:00Z,China records,surprise trade surplus in,March
2012-04-10T16:17:00Z,Chevron,finds,leak in Petrobras oil field
2012-04-10T16:17:00Z,leak,in,offshore Petrobras oil field
2012-04-10T17:10:00Z,Fannie,write,downs possible
2012-04-10T17:10:00Z,Freddie loan,write,downs possible
2012-04-10T17:30:00Z,Court rules Pfizer,can face,asbestos suits
2012-04-10T19:46:00Z,insurers,go,weather gets
2012-04-10T19:46:00Z,weather,gets,biblical
2012-04-10T20:40:00Z,Dow,fall for,fifth day
2012-04-10T21:15:00Z,Sony,sees,record loss on tax hit
2012-04-10T21:22:00Z,Nike,settle,suit
2012-04-10T21:22:00Z,Reebok,settle,suit
2012-04-10T21:46:00Z,Alcoa,ups,2012 aerospace demand forecast
2012-04-10T21:59:00Z,Best Buy CEO,resigns during,conduct probe
2012-04-10T21:59:00Z,Best CEO,resigns during,personal conduct probe
2012-04-10T21:59:00Z,Buy CEO,resigns during,conduct probe
2012-04-10T21:59:00Z,CEO,resigns during,conduct probe
2012-04-10T22:25:00Z,State Street 's Connecticut FX,trades under,review
2012-04-10T22:35:00Z,Broker bonus bidding war,comes at,cost
2012-04-10T23:17:00Z,Carlyle,boasts,fund gains with IPO
2012-04-10T23:17:00Z,fund gains,with,IPO set
2012-04-10T23:19:00Z,Best Buy CEO,resigns during,conduct probe
2012-04-10T23:19:00Z,Best CEO,resigns during,personal conduct probe
2012-04-10T23:19:00Z,Buy CEO,resigns during,conduct probe
2012-04-10T23:19:00Z,CEO,resigns during,conduct probe
2012-04-10T23:20:00Z,10 percent stake,in,IPO
2012-04-10T23:26:00Z,NY,pushes,objection
2012-04-10T23:32:00Z,Alcoa,continues,look for more capacity cuts
2012-04-10T23:32:00Z,Alcoa surprises Wall Street,with,first-quarter profit
2012-04-10T23:38:00Z,10 percent stake,in,IPO
2012-04-10T23:43:00Z,UBS,fends off,lawsuit of billionaire tax
2012-04-10T23:45:00Z,10 percent stake,in,IPO
2012-04-10T23:59:00Z,DOJ,may sue,Apple
2012-04-11T04:09:00Z,Best,Buy,CEO Brian Dunn 's tenure
2012-04-11T04:09:00Z,TIMELINE-Outgoing Best,Buy,CEO Brian Dunn 's tenure
2012-04-11T04:29:00Z,Ruling,moves closer,Tribune
