2012-10-17T00:00:00Z,U.S. Postal Service,borrowing,limit
2012-10-17T00:01:00Z,Pandit,leaving,Citi
2012-10-17T01:27:00Z,Murdoch,reelected at,meeting
2012-10-17T03:31:00Z,China commerce minister,says,incentives keep
2012-10-17T05:28:00Z,Xstrata,of,$ 5.9 billion Tampakan project
2012-10-17T06:17:00Z,Ford,reprogram,air bags
2012-10-17T06:25:00Z,Hong Kong 's former development secretary,charged with,fraud
2012-10-17T06:38:00Z,Standard Chartered,'s Kay,overseer of $ 1 billion Indonesia loan
2012-10-17T07:40:00Z,Peugeot,support,banking unit
2012-10-17T07:48:00Z,BBC scandal,creates,waves
2012-10-17T07:57:00Z,Berlin,withholds,loan for Airbus A350
2012-10-17T09:11:00Z,UK bank lobby,appoints,Nigel Wicks
2012-10-17T09:47:00Z,Japan Advisory,show for,Tokyo insider trading hearing
2012-10-17T10:08:00Z,India,of,Kingfisher
2012-10-17T10:14:00Z,U.S. market drinkers,lift,Diageo sales
2012-10-17T11:44:00Z,Merkel,fully agrees with,Schaeuble
2012-10-17T11:52:00Z,BlackRock profit,rises,8 percent
2012-10-17T11:52:00Z,BlackRock third-quarter profit,rises,8 percent
2012-10-17T11:59:00Z,Grexit,could spark,economic crisis
2012-10-17T12:03:00Z,Berlin,wants,step
2012-10-17T12:46:00Z,Citi,replace Corbat in,EMEA top job
2012-10-17T12:54:00Z,Germany,chops,2013 growth forecast on euro crisis
2012-10-17T13:02:00Z,Housing,starts surge to,fastest pace
2012-10-17T14:30:00Z,Japan 's Softbank,close,U.S. deal
2012-10-17T14:37:00Z,higher mortgage,repurchase claims in,2013
2012-10-17T14:37:00Z,mortgage,repurchase claims in,2013
2012-10-17T15:12:00Z,PepsiCo,keeps,2012 outlook
2012-10-17T15:18:00Z,fourth quarter,looks,tough
2012-10-17T15:18:00Z,quarter,looks,tough
2012-10-17T15:22:00Z,St. Jude,sees,possible FDA warning letter
2012-10-17T15:51:00Z,Obama,slams,Romney
2012-10-17T16:56:00Z,BHP Billiton,says,Australia coal expansions
2012-10-17T16:58:00Z,Huawei,says,U.S. probe unlikely
2012-10-17T17:21:00Z,Cyprus,expects,swift start to bailout talks
2012-10-17T17:52:00Z,Foxconn,says,workers used in China plant
2012-10-17T17:52:00Z,underage workers,used in,China plant
2012-10-17T17:52:00Z,workers,used in,China plant
2012-10-17T18:36:00Z,Spain,sets,limit for bad bank
2012-10-17T18:37:00Z,ASML,buys,Cymer
2012-10-17T19:27:00Z,Housing,starts,surge in sign
2012-10-17T19:27:00Z,surge,in,positive sign for economy
2012-10-17T21:19:00Z,Och-Ziff hedge fund,exit,landlord business
2012-10-17T21:35:00Z,Bank,ekes out,profit
2012-10-17T21:43:00Z,10 year prison sentence,in,Gupta insider case
2012-10-17T21:44:00Z,Sales stumbles,raise,fresh worry for America
2012-10-17T21:56:00Z,New Citigroup CEO,sets,reporting lines
2012-10-17T21:59:00Z,787 plant,in,South Carolina
2012-10-17T21:59:00Z,Boeing,faces union drive at,787 plant in South Carolina
2012-10-17T22:08:00Z,Obama-Romney debate,watched by,65.6 million
2012-10-17T22:08:00Z,Obama-Romney second debate,watched by,65.6 million
2012-10-17T22:08:00Z,debate,watched on,TV
2012-10-17T22:08:00Z,second debate,watched by,65.6 million
2012-10-17T22:14:00Z,Obama,comes out,swinging
2012-10-17T22:45:00Z,France 's Hollande,urges,euro zone growth effort
2012-10-17T22:46:00Z,Corporate cutbacks,hold back,Amex profit
2012-10-17T22:46:00Z,cutbacks,hold back,Amex profit
2012-10-17T22:57:00Z,EBay,posts,strong results
2012-10-18T04:00:00Z,Satcon Technology,files for,bankruptcy
