2012-12-02T08:15:00Z,Toyota China sales,tumble again,pace eases
2012-12-02T10:41:00Z,France,for,Hollande
2012-12-02T10:41:00Z,Steel reprieve,comes at,price
2012-12-02T12:22:00Z,Britain 's Osborne,says,sticking with austerity plan
2012-12-02T14:34:00Z,Fed trio,spars on,policy
2012-12-02T14:38:00Z,Greek deal,puts,euro zone
2012-12-02T14:38:00Z,deal,puts,euro zone
2012-12-02T14:49:00Z,SEC 's Schapiro,delayed,JOBS Act rule
2012-12-02T19:03:00Z,France,for,Hollande
2012-12-02T19:03:00Z,Steel reprieve,comes at,price
2012-12-02T19:12:00Z,industry,out of,shadow
2012-12-02T20:25:00Z,Republicans,yield on,taxes
2012-12-02T20:57:00Z,More mannequins,clutter at,heart of JC Penney plan
2012-12-02T21:11:00Z,Wall Street,finds,foreign detour
2012-12-02T23:38:00Z,Delta,in,talks for Virgin Atlantic stake
