2012-11-18T13:26:00Z,Ryanair,may go to,court
2012-11-18T13:27:00Z,GM ups capacity,in,no-frills China car market
2012-11-18T13:32:00Z,Chery,start,construction of car factory
2012-11-18T14:01:00Z,US consumer stocks,cheer,investors
2012-11-18T15:54:00Z,Germany,for,MAG Group
2012-11-18T15:54:00Z,Sinomach,compete,Komatsu
2012-11-18T16:36:00Z,Glencore deal,nears,finish line
2012-11-18T18:43:00Z,ITW Chairman,dies after,illness
2012-11-18T19:33:00Z,ECB 's Asmussen,sees,aid deal
2012-11-18T21:03:00Z,world,at,most expensive bank
2012-11-18T21:05:00Z,Chery Auto,lives off With,kids
2012-11-18T21:07:00Z,Singapore hotels,feel,squeeze
