2012-07-19T00:19:00Z,US Airways,lays,groundwork for possible merger
2012-07-19T00:25:00Z,IBM,raises earnings outlook despite,tech spending
2012-07-19T01:02:00Z,Yum 's profit,hurt by,China costs
2012-07-19T02:59:00Z,China big four banks ' new loans,in,double early July
2012-07-19T03:15:00Z,rates,are,how set
2012-07-19T03:58:00Z,South Korea,widens,rate-fixing probe
2012-07-19T05:11:00Z,One,killed over,90 injured in Maruti factory unrest
2012-07-19T07:53:00Z,retail rules,keep,IKEA
2012-07-19T07:53:00Z,rules,keep,IKEA
2012-07-19T08:13:00Z,Libor,needs,scrapping
2012-07-19T08:18:00Z,Hungary,differ on,2013-14 path
2012-07-19T08:18:00Z,lenders,differ on,2013-14 economic path
2012-07-19T08:40:00Z,UK retailers,feel,summer washout
2012-07-19T09:45:00Z,Japan,remain,slashed
2012-07-19T11:56:00Z,Italian parliament,approves,euro zone bailout fund
2012-07-19T11:56:00Z,parliament,approves,euro zone bailout fund
2012-07-19T12:34:00Z,Textron earnings,soar past,Wall Street target
2012-07-19T13:18:00Z,Travelers,sees,industry Q2 disaster losses
2012-07-19T14:34:00Z,Travelers profit,misses,estimates on disaster losses
2012-07-19T14:59:00Z,Philly Fed factory activity,shrinks for,third month
2012-07-19T15:08:00Z,fund industry assets,sink,performance ebbed
2012-07-19T15:08:00Z,performance,ebbed in,second-quarter
2012-07-19T15:30:00Z,Exasperated lenders,get,blunt
2012-07-19T15:30:00Z,lenders,get,blunt
2012-07-19T15:43:00Z,France auctions,show,gap
2012-07-19T15:43:00Z,Spain,show,widening gap in euro zone
2012-07-19T15:43:00Z,widening gap,in,euro zone
2012-07-19T15:52:00Z,China,trade,ties
2012-07-19T17:08:00Z,UnitedHealth,sees pressures as,even profit beats
2012-07-19T17:22:00Z,India 's Maruti shares,sink after,riot shuts car plant
2012-07-19T17:45:00Z,Morgan Stanley brokerage,boosts,profit margin
2012-07-19T17:48:00Z,Blackstone bets,buys,homes-for-rent
2012-07-19T17:53:00Z,Key cooperator,in,Galleon insider cases
2012-07-19T18:35:00Z,AMR,keep,reins
2012-07-19T18:35:00Z,Court,allows,AMR
2012-07-19T18:39:00Z,GM,announces,production of Chevrolet Trax
2012-07-19T18:39:00Z,production,in,Mexico
2012-07-19T19:13:00Z,recovery,be,muted
2012-07-19T19:19:00Z,Southwest profit,beats Street on,higher fares
2012-07-19T19:19:00Z,profit,beats demand on,fares
2012-07-19T19:48:00Z,Fitch,affirms,outlook negative
2012-07-19T19:48:00Z,Italy,'s rating,outlook negative
2012-07-19T20:29:00Z,Wal-Mart chiefs,deepen,relationship
2012-07-19T20:32:00Z,Earnings,lift,stocks
2012-07-19T20:47:00Z,Oil,jumps on,Middle East worries
2012-07-19T21:21:00Z,KKR,catches up on,funds
2012-07-19T21:25:00Z,T2 Partners fund managers,ending,relationship
2012-07-19T21:27:00Z,Foreign banks,scooped up,U.S. Treasuries
2012-07-19T21:27:00Z,Foreign central banks,scooped up,U.S. Treasuries
2012-07-19T21:27:00Z,banks,scooped up,U.S. Treasuries
2012-07-19T21:27:00Z,central banks,scooped up,U.S. Treasuries
2012-07-19T21:30:00Z,Ford,recalls,1.6-liter Ford Escape
2012-07-19T21:30:00Z,owners,stop,driving
2012-07-19T21:50:00Z,Yahoo CEO Mayer,make over,$ 40 million
2012-07-19T21:51:00Z,Google 's Internet biz,roars,even ad rates slide
2012-07-19T21:55:00Z,Morgan Stanley,plans,further staff cuts on outlook
2012-07-19T22:31:00Z,Microsoft,beats,Wall Street
2012-07-19T22:53:00Z,Factory,show,economy mired in weakness
2012-07-19T22:53:00Z,economy,mired in,weakness
2012-07-19T22:53:00Z,jobs data,show,economy
2012-07-19T22:58:00Z,Mayer,gets,$ 70 million pay package
2012-07-19T23:17:00Z,Euro zone woes,spur,UK property bargain hunt
2012-07-19T23:17:00Z,UK,unblock,credit
2012-07-20T04:13:00Z,UAW,loses,grievance
2012-07-20T04:17:00Z,Credit Suisse,cut,more jobs
2012-07-20T04:24:00Z,Allen Stanford,moved to,high-security Florida prison
2012-07-20T04:41:00Z,Morgan Stanley commodities,risk,revenue
2012-07-20T04:42:00Z,Key cooperator,in,Galleon insider cases
