2012-02-12T08:32:00Z,Schaeuble,warns,promises
2012-02-12T11:37:00Z,TUI AG,agree,Hapag-Lloyd deal
2012-02-12T12:53:00Z,Wing cracks,could cost,100 million euros
2012-02-12T13:36:00Z,Airlines,urge,U.N. deal
2012-02-12T13:36:00Z,U.N. deal,avert,carbon trade war
2012-02-12T16:15:00Z,protesters,in,Athens
2012-02-12T22:35:00Z,Sun arrests,pile,pressure on Murdoch media empire
2012-02-12T23:35:00Z,Apple,launches,attack on Samsung phones
2012-02-12T23:37:00Z,China,tells,banks
2012-02-12T23:37:00Z,China 's premier,start fine-tuning policy in,Q1
2012-02-12T23:37:00Z,banks,roll over,government loans
2012-02-12T23:43:00Z,Greek lawmakers,approve austerity bill as,Athens burns
2012-02-12T23:43:00Z,lawmakers,approve,austerity bill
2012-02-12T23:56:00Z,Greek parties,expel,rebel deputies
2012-02-12T23:56:00Z,parties,expel,rebel deputies
