2012-08-26T10:18:00Z,Kuwaiti firm,alleges Carlyle fund without,license
2012-08-26T10:18:00Z,firm,alleges Carlyle fund without,license
2012-08-26T10:26:00Z,Julius Baer CEO,confirms,new client data theft
2012-08-26T11:07:00Z,UniCredit unit HVB,probed over,Iran sanctions
2012-08-26T12:27:00Z,Bundesbank chief,says,ECB bond buying like drug
2012-08-26T12:38:00Z,Qatar fund,remains,Xstrata buyer at prices
2012-08-26T13:40:00Z,Iraq pipeline delays,threaten,Shell 's Majnoon
2012-08-26T15:34:00Z,Merkel,backs,Weidmann
2012-08-26T17:05:00Z,Apple patent victory,boosts,Microsoft
2012-08-26T18:27:00Z,Merkel,calm storms over,Greece
2012-08-26T19:05:00Z,Fed,deliver,expected growth boost
2012-08-26T20:10:00Z,Nomura,banking in,strategic reset
2012-08-26T20:10:00Z,investment banking,in,strategic reset
2012-08-26T21:42:00Z,Japan,of,decline
