2012-01-25T00:50:00Z,Chipmaker AMD,expects,revenue in PC market
2012-01-25T00:50:00Z,lower revenue,in,weak PC market
2012-01-25T00:59:00Z,Ford,marks turnaround juncture with,new slogan
2012-01-25T01:19:00Z,Blackstone 's estate fund,passes,$ 6 billion
2012-01-25T01:19:00Z,Blackstone 's new estate fund,passes,$ 6 billion
2012-01-25T01:19:00Z,Blackstone 's new real estate fund,passes,$ 6 billion
2012-01-25T01:19:00Z,Blackstone 's real estate fund,passes,$ 6 billion
2012-01-25T10:31:00Z,EFSF,combining,ESM
2012-01-25T10:31:00Z,public sector,may,may needed in restructuring
2012-01-25T10:31:00Z,sector,may,may needed in Greek restructuring
2012-01-25T10:45:00Z,Hedgies,braving,battered markets
2012-01-25T10:45:00Z,battered markets,go,it
2012-01-25T10:45:00Z,markets,go alone,it
2012-01-25T10:56:00Z,more cuts,in,securities
2012-01-25T11:38:00Z,Germany,avoid,recession
2012-01-25T11:49:00Z,EU exec,sticks to,size of taxpayer part of 2nd bailout
2012-01-25T12:14:00Z,Mortgage applications,retreated,last week
2012-01-25T12:28:00Z,SAP,bullish on,2012
2012-01-25T13:33:00Z,Apple,results,point
2012-01-25T13:33:00Z,Stellar Apple,results,point
2012-01-25T13:49:00Z,U.S.,break up,Bank of America
2012-01-25T13:59:00Z,Global firms,sharpen currency hedging on,euro concern
2012-01-25T13:59:00Z,firms,sharpen,currency hedging
2012-01-25T14:38:00Z,Xerox,sees,2012 EPS growth
2012-01-25T14:41:00Z,Japan 's first trade deficit,raises,debt doubts
2012-01-25T14:41:00Z,Japan 's trade deficit,raises,debt doubts
2012-01-25T14:41:00Z,US Air,beat Street views,Delta
2012-01-25T16:06:00Z,Merrill,fined,$ 1 million
2012-01-25T16:19:00Z,Thirty cities,get,half of global property dollars
2012-01-25T16:19:00Z,cities,get,half of global property dollars
2012-01-25T16:28:00Z,Deflation risk,in,up G20 states
2012-01-25T17:45:00Z,trades,in,shares
2012-01-25T18:09:00Z,PIMCO,'S,Gross
2012-01-25T19:18:00Z,Fed officials,' comments,policy
2012-01-25T20:17:00Z,Roche,in,$ 5.7 billion
2012-01-25T20:33:00Z,Elephants,in,Davos Ski Lodge
2012-01-25T20:57:00Z,Airbus,confirms,A380 cracks
2012-01-25T21:36:00Z,Boeing 2012 earnings,be,hit
2012-01-25T21:36:00Z,Boeing earnings,be hit by,pension expense
2012-01-25T22:16:00Z,stocks,rise on,Fed rate vow
2012-01-25T22:21:00Z,slowdown,in,sales
2012-01-25T22:22:00Z,Apple,results,point
2012-01-25T22:22:00Z,Greece,focused on,quick debt deal
2012-01-25T22:22:00Z,Public sector,take,part
2012-01-25T22:22:00Z,Senate,investigating HSBC for,money laundering
2012-01-25T22:22:00Z,Stellar Apple,results,point
2012-01-25T22:32:00Z,Geithner,denies U.S. hostility to,banks
2012-01-25T22:38:00Z,Apple,restart,Wall Street 's advance
2012-01-25T22:38:00Z,Fed,restart,Wall Street 's advance
2012-01-25T22:42:00Z,it,pays,U.S. savers suffer
2012-01-25T23:06:00Z,Netflix shares,surge,customer base grows
2012-01-25T23:57:00Z,Penney,overhauls,pricing
2012-01-25T23:57:00Z,pricing,stores in,makeover
2012-01-25T23:57:00Z,stores,in,major makeover
2012-01-26T05:14:00Z,Morgan Stanley CEO,sees markets in,2012
2012-01-26T05:28:00Z,Fed,treads path with,housing push
