2012-01-03T01:31:00Z,Giant Vale ship,completes,maiden journey to China
2012-01-03T01:31:00Z,Vale ship,completes,maiden journey
2012-01-03T03:17:00Z,BofA,cuts,India 's M&M
2012-01-03T07:45:00Z,BMW,sees,2012 premium market growth
2012-01-03T11:23:00Z,austerity,calls,mark euro anniversary
2012-01-03T12:14:00Z,Bloated banks,cut back on,ECB loans
2012-01-03T12:14:00Z,banks,cut back on,ECB loans
2012-01-03T13:03:00Z,Sears,names,ex-Brookstone CEO merchandising chief
2012-01-03T14:29:00Z,FDA,clears,Enfamil formula
2012-01-03T15:03:00Z,Same-store sales,seen up,4.3 percent
2012-01-03T15:03:00Z,sales,seen in,December
2012-01-03T15:33:00Z,Devon,in,$ 2.2 billion
2012-01-03T15:41:00Z,Germany,remain haven despite,rating cut
2012-01-03T15:58:00Z,Starbucks,raises,prices
2012-01-03T15:58:00Z,prices,in,Northeast
2012-01-03T16:17:00Z,BP,challenges,Halliburton court request on spill
2012-01-03T16:55:00Z,Factory sector,strengthens in,December
2012-01-03T16:55:00Z,World 's factory sector,grows in,December
2012-01-03T19:27:00Z,IT,chief as,chief operating officer
2012-01-03T19:40:00Z,JPMorgan,sued for,$ 95 million over mortgage securities
2012-01-03T19:53:00Z,Manufacturing index,hits,high
2012-01-03T20:57:00Z,Starbucks,raises,prices
2012-01-03T20:57:00Z,prices,in,U.S. Northeast
2012-01-03T20:58:00Z,Total,pour,$ 4.5 billion
2012-01-03T21:00:00Z,Regulators,inching on,Dodd-Frank rules
2012-01-03T21:08:00Z,Same-store sales,seen up,3.4 percent
2012-01-03T21:08:00Z,sales,seen in,December
2012-01-03T22:03:00Z,Groupon shares,drop on,concern about merchants
2012-01-03T23:37:00Z,Gross 's bond fund,bleeds,$ 1.4 billion
2012-01-03T23:45:00Z,BofA 's Countrywide,gets,boost
2012-01-03T23:45:00Z,MBIA fraud case,gets,boost
2012-01-03T23:47:00Z,three Swiss bankers,in,tax evasion case
2012-01-03T23:50:00Z,Wall Street,starts on,signs
2012-01-03T23:51:00Z,Oil,jumps,4 percent
2012-01-04T05:10:00Z,Sears,names,ex-Brookstone CEO merchandising chief
