2013-04-11T00:07:00Z,Obama,signs,order for $ 109 billion
2013-04-11T00:23:00Z,Chesapeake Energy,wins,dismissal
2013-04-11T02:32:00Z,Three more top executives,leave,J.C. Penney
2013-04-11T02:32:00Z,more top executives,leave,J.C. Penney
2013-04-11T03:05:00Z,U.S.,revives,probe
2013-04-11T03:05:00Z,media,of,handling of economic data
2013-04-11T09:41:00Z,Cyprus fallout,union at,Dublin talks
2013-04-11T09:51:00Z,Austrian finance minister,turns,spotlight
2013-04-11T09:51:00Z,U.S.,in,bank secrecy row
2013-04-11T09:51:00Z,UK,U.S. in,bank secrecy row
2013-04-11T09:51:00Z,finance minister,turns spotlight on,UK
2013-04-11T10:03:00Z,Plosser,pitches,his plan for Fed
2013-04-11T10:32:00Z,Kirch dispute,in,sight
2013-04-11T11:43:00Z,Billionaire Steinmetz,sues,former adviser
2013-04-11T13:01:00Z,Weak petroleum prices,subdue,U.S. inflation pressures
2013-04-11T13:01:00Z,petroleum prices,subdue,U.S. imported inflation pressures
2013-04-11T13:59:00Z,Deutsche Bank,faces shareholder ire over,legal disputes
2013-04-11T14:40:00Z,U.S.,bridge,accounting body cash gap
2013-04-11T15:15:00Z,Goldman,explores,sale
2013-04-11T15:40:00Z,Billionaire Steinmetz,sues,ex-adviser
2013-04-11T15:50:00Z,Global economy,muted again in,2013
2013-04-11T15:50:00Z,economy,muted in,2013
2013-04-11T17:32:00Z,Slovenia,aims,buyback
2013-04-11T17:32:00Z,U.S.,warns,WTO trade talks hurtling
2013-04-11T17:32:00Z,WTO global trade talks,hurtling towards,irrelevance
2013-04-11T17:32:00Z,WTO trade talks,hurtling towards,irrelevance
2013-04-11T17:32:00Z,buyback,nip,debt doubts
2013-04-11T17:32:00Z,debt doubts,with,auction
2013-04-11T17:49:00Z,Cyprus,help,bailout
2013-04-11T18:03:00Z,Qatar Airways,hopes,its Dreamliners
2013-04-11T18:22:00Z,analysts,rekindle,turnaround doubts
2013-04-11T18:25:00Z,Major global recalls,in,auto industry
2013-04-11T18:39:00Z,States,moved in,2012
2013-04-11T18:40:00Z,Morgan Stanley,sell,Hub
2013-04-11T18:55:00Z,SEC,tells,banks
2013-04-11T18:55:00Z,banks,improve,structured note disclosures
2013-04-11T19:36:00Z,Obama,talks about,economy
2013-04-11T19:36:00Z,economy,immigration in,meeting with bankers
2013-04-11T19:36:00Z,immigration,in,meeting with bankers
2013-04-11T19:36:00Z,meeting,with,bankers
2013-04-11T20:27:00Z,Japan,on,liquidity surge
2013-04-11T20:41:00Z,Royalty Pharma,considers,deal for Elan
2013-04-11T20:43:00Z,Jobless claims data,calms jitters over,labor market
2013-04-11T20:43:00Z,claims data,calms jitters over,labor market
2013-04-11T20:45:00Z,way,cut,U.S. exposure
2013-04-11T21:03:00Z,Qatar Airways,hopes,its Dreamliners fly again
2013-04-11T21:03:00Z,its Dreamliners fly,in,April
2013-04-11T21:14:00Z,Japan carmakers,recall,3.4 million vehicles
2013-04-11T21:26:00Z,Fed,sends,you
2013-04-11T21:28:00Z,Retailers,have,start to spring
2013-04-11T22:30:00Z,Ford,introduces,fifth version
2013-04-11T23:12:00Z,Ackman,concedes,JC Penney management mistakes
2013-04-11T23:17:00Z,U.S.,charges,ex-KPMG auditor
2013-04-11T23:27:00Z,J.C. Penney,hires Blackstone as,adviser
2013-04-11T23:27:00Z,bid,dismiss,Macy 's contract claim
