2013-06-13T00:53:00Z,World Bank,cuts,growth outlook
2013-06-13T00:53:00Z,world,enters,normal
2013-06-13T01:23:00Z,Bell,win,multibillion-dollar contract for 99 V-22s
2013-06-13T01:23:00Z,Boeing,win,multibillion-dollar contract for 99 V-22s
2013-06-13T02:00:00Z,Silicon Valley,intensifies,lobbying
2013-06-13T02:25:00Z,CEO,before,surprise departure
2013-06-13T02:25:00Z,Lululemon chairman,sold,stock
2013-06-13T02:51:00Z,Sobeys,buys Safeway Canada in,$ 5.7 billion
2013-06-13T05:08:00Z,Cows,path toward,Canada-EU trade deal
2013-06-13T05:37:00Z,Russia,out of,Aeroflot
2013-06-13T07:28:00Z,RBS shares,sag,4 percent
2013-06-13T07:36:00Z,Divisive Elan boss Martin,faces,ownership showdown
2013-06-13T07:36:00Z,Elan boss Martin,faces,ownership showdown
2013-06-13T08:20:00Z,RBS,shares slump after,shock ousting of CEO Hester
2013-06-13T08:46:00Z,GE,makes,concessions
2013-06-13T08:46:00Z,concessions,seeking,EU approval of Avio deal
2013-06-13T10:14:00Z,EU regulators,put,Visa Europe 's concessions
2013-06-13T10:17:00Z,Barneys building,in,Chicago
2013-06-13T10:17:00Z,Building,sells,Barneys building in Chicago
2013-06-13T10:17:00Z,IDB 's Property,sells,Barneys building in Chicago
2013-06-13T10:41:00Z,Mulberry,defends,price rises
2013-06-13T10:41:00Z,pins,hopes on,Asia push
2013-06-13T10:53:00Z,G8,may discuss,role of banks
2013-06-13T12:34:00Z,Retail sales,beat expectations as,automobiles surge
2013-06-13T12:34:00Z,sales,beat expectations as,automobiles surge
2013-06-13T12:49:00Z,GE,meet,demand
2013-06-13T12:50:00Z,Chrysler,working on,loan refinancing
2013-06-13T13:39:00Z,spring,hit,operating profit
2013-06-13T13:39:00Z,wet spring,hit,operating profit
2013-06-13T14:27:00Z,Southwest Air,sees,key revenue measure weakening in second quarter
2013-06-13T15:05:00Z,EU,files WTO complaint over,stainless steel duty
2013-06-13T15:23:00Z,Airbus,in,advanced talks for $ 10 billion
2013-06-13T15:35:00Z,VW car,recalls,show hazards of growth
2013-06-13T15:46:00Z,change,in,chief risk office
2013-06-13T16:09:00Z,Banks,seized,U.S. homes
2013-06-13T17:04:00Z,car,is,next major tech platform
2013-06-13T17:21:00Z,bond investors,think,time
2013-06-13T17:26:00Z,struggle,find CEO amid,meddling
2013-06-13T17:32:00Z,jobs data,underlying,strength
2013-06-13T17:33:00Z,Bombardier,about,CSeries jetliner
2013-06-13T17:34:00Z,Gannett,surges to,five-year high on deal
2013-06-13T17:43:00Z,Goldman,offers,top clients
2013-06-13T18:17:00Z,EU,weaken,U.S. financial services rules
2013-06-13T18:55:00Z,Monte Paschi,calls,shareholder meeting vote
2013-06-13T18:56:00Z,Coty,fails in,market debut
2013-06-13T19:02:00Z,change,in,chief risk office
2013-06-13T19:07:00Z,bond investors,think,time
2013-06-13T19:29:00Z,Arkansas,sue Exxon over,Pegasus pipeline spill
2013-06-13T19:29:00Z,U.S.,sue Exxon over,Pegasus pipeline spill
2013-06-13T19:33:00Z,Ford,may develop models as,part
2013-06-13T19:35:00Z,EADS boss,sees,Airbus orders
2013-06-13T19:53:00Z,Toyota Industries,invest,$ 3 billion
2013-06-13T19:55:00Z,Microsoft,open Windows stores within,Best
2013-06-13T20:01:00Z,executives,be,named soon
2013-06-13T20:01:00Z,other executives,be,named
2013-06-13T20:49:00Z,Clearwire shareholders,vote against,Sprint deal
2013-06-13T20:49:00Z,ISS,urges,Clearwire shareholders
2013-06-13T21:14:00Z,J.C. Flowers,bid for,Allstate unit
2013-06-13T21:21:00Z,Royalty,wins injunction as,bid
2013-06-13T22:07:00Z,EU,persuade,France
2013-06-13T22:07:00Z,France,back,U.S. trade talks
2013-06-13T22:51:00Z,Nallen,named,CFO of 21st Century Fox
2013-06-13T23:03:00Z,Wall St.,rallies on,technical factors
2013-06-13T23:15:00Z,delays,in,gas export
2013-06-13T23:56:00Z,New York,reaches deal on,casino revenue
2013-06-14T04:21:00Z,Austrian banker,charged in,bribe case
2013-06-14T04:21:00Z,Austrian central banker,charged in,bribe case
2013-06-14T04:21:00Z,banker,charged in,bribe case
2013-06-14T04:21:00Z,central banker,charged in,bribe case
2013-06-14T04:27:00Z,change,in,chief risk office
