2013-05-22T00:16:00Z,Sony shares,hit,high
2013-05-22T00:31:00Z,Apple,for,low tax rate
2013-05-22T00:31:00Z,Ireland,rejects,blame
2013-05-22T00:40:00Z,Dimon,clings to,JPMorgan chairman title
2013-05-22T00:54:00Z,Japan exports,disappoint yet,full benefits
2013-05-22T01:15:00Z,Ex-strategist,can sue UBS as,whistleblower
2013-05-22T06:07:00Z,$ 5 billion share buyback agreement,with,Goldman Sachs
2013-05-22T06:37:00Z,Foreign banks,in,Russia
2013-05-22T06:40:00Z,Russian banker,has,his eye
2013-05-22T06:40:00Z,banker,has,his eye
2013-05-22T07:35:00Z,Rolls-Royce,wins engine order from,U.S. lessor CIT
2013-05-22T08:25:00Z,Airbus,wins Oman Air order for,three A330 planes
2013-05-22T08:26:00Z,BOJ Kuroda,from,news conference
2013-05-22T09:28:00Z,DBS-Danamon deal,hinges,Singapore 's invite to Indonesian banks
2013-05-22T09:28:00Z,Singapore,invite to,Indonesian banks
2013-05-22T09:28:00Z,deal,hinges,Singapore 's invite
2013-05-22T09:54:00Z,Mercedes dealer review,opens,home front
2013-05-22T09:54:00Z,home front,in,luxury war
2013-05-22T09:56:00Z,Bank,vows,market steps
2013-05-22T11:33:00Z,UK wine retailer First Quench,in,$ 242 million
2013-05-22T12:09:00Z,interest,in,777X
2013-05-22T12:23:00Z,Ireland,feels,heat
2013-05-22T12:30:00Z,Zale,taps,rival 's ex-CEO
2013-05-22T12:54:00Z,Boeing,return,80 percent
2013-05-22T13:28:00Z,State-backed UK banks,gain,approval
2013-05-22T13:28:00Z,UK banks,gain,approval
2013-05-22T14:23:00Z,Suntech 's creditors,claim,$ 2.5 billion
2013-05-22T14:23:00Z,Suntech 's local creditors,claim,$ 2.5 billion
2013-05-22T14:26:00Z,Boeing defense chief,sees,R&D
2013-05-22T14:29:00Z,Toll Brothers profit,beats on,home prices
2013-05-22T14:53:00Z,Iraq,in,largest oilfield
2013-05-22T15:09:00Z,SocGen,fire Rosbank CEO after,arrest
2013-05-22T15:10:00Z,Target,cuts forecast after,first quarter
2013-05-22T15:29:00Z,Fiat Industrial,says,500 million euro tax loss reports false
2013-05-22T15:33:00Z,bonds sell-off,may beckon,economy strengthens
2013-05-22T15:36:00Z,25 pct stake,in,Middle East venture
2013-05-22T15:42:00Z,787 battery,retrofits done by,next week
2013-05-22T15:42:00Z,battery,retrofits,done
2013-05-22T15:42:00Z,interest,in,777X
2013-05-22T16:03:00Z,production,in,North America
2013-05-22T16:13:00Z,Prosecutors,using,racketeering law against SAC
2013-05-22T17:02:00Z,Lowe 's sales,improve after,start to spring
2013-05-22T17:09:00Z,State-backed UK banks,gain,approval
2013-05-22T17:09:00Z,UK banks,gain,approval
2013-05-22T17:30:00Z,production,in,North America
2013-05-22T17:48:00Z,Carrefour,sells stake for,$ 683 million
2013-05-22T17:48:00Z,stake,in,Middle East venture
2013-05-22T17:52:00Z,Irish,hold,line
2013-05-22T18:04:00Z,Monte Paschi director,accused of,insider trading
2013-05-22T18:06:00Z,sales,improving after,weak first quarter
2013-05-22T18:16:00Z,Delta,will wait,planes prove
2013-05-22T18:16:00Z,new planes,prove,themselves
2013-05-22T18:16:00Z,planes,prove,themselves
2013-05-22T18:18:00Z,Vatican body,investigating,possible money laundering
2013-05-22T18:18:00Z,Vatican financial body,investigating,possible money laundering
2013-05-22T18:53:00Z,Delta Airlines,wants,stop
2013-05-22T18:53:00Z,Ex-Im,help on,big jets
2013-05-22T19:02:00Z,Europe,targets Switzerland in,fight
2013-05-22T19:13:00Z,Fed officials,want,more progress
2013-05-22T20:51:00Z,Global stocks,fall after,Bernanke
2013-05-22T21:02:00Z,Wall Street,falters in,volatile session
2013-05-22T21:09:00Z,Home sales,close in,in three-and-a-half year
2013-05-22T21:32:00Z,Bernanke,says,progress needed before stimulus pullback
2013-05-22T21:32:00Z,more progress,needed before,stimulus pullback
2013-05-22T21:32:00Z,progress,needed before,stimulus pullback
2013-05-22T21:41:00Z,PepsiCo,attract,daily buyers
2013-05-22T21:51:00Z,Electric carmaker Tesla,pays off,U.S. loan
2013-05-22T22:02:00Z,Midwest gasoline prices,cool after,spike
2013-05-22T22:50:00Z,Clearwire,brace for,fight over Sprint bid
2013-05-22T22:50:00Z,shareholders,brace for,fight over Sprint bid
2013-05-22T22:52:00Z,HP,raises,2013 outlook
2013-05-22T22:52:00Z,Whitman 's plan,takes,hold
2013-05-22T22:59:00Z,Borders gift card holders,deserve,judge rules
2013-05-22T23:02:00Z,center,at Apple,former Washington wallflower
2013-05-22T23:54:00Z,U.S. House,force,approval
2013-05-23T04:01:00Z,they,are,where based
2013-05-23T04:18:00Z,Spain banks,raise,money
2013-05-23T04:42:00Z,EU leaders,talk,tough
2013-05-23T04:51:00Z,Delta Airlines,stop,Ex-Im bank help on big jets
