2013-08-27T00:05:00Z,Court,reverses,ruling on Sentinel loan
2013-08-27T00:58:00Z,$ 98 million settlement,with,Maxam fund
2013-08-27T00:58:00Z,Madoff trustee,reaches,$ 98 million settlement with Maxam fund
2013-08-27T01:08:00Z,Barnes 's head,sells,shares
2013-08-27T01:08:00Z,Barnes 's retail head,sells,shares
2013-08-27T01:50:00Z,Four-way Latin America bloc,remove,trade tariffs
2013-08-27T01:50:00Z,Latin America bloc,strikes,deal
2013-08-27T01:56:00Z,49 percent,in,Myanmar 's Asian Wings Airways
2013-08-27T01:56:00Z,Myanmar,in,Asian Wings Airways
2013-08-27T03:51:00Z,Daimler 's Mercedes-Benz,outlines,strategic plan for China growth
2013-08-27T07:19:00Z,China August PMI,hitting,high
2013-08-27T07:19:00Z,China August official PMI,hitting,high
2013-08-27T08:53:00Z,German business sentiment,surges to,highest
2013-08-27T08:53:00Z,business sentiment,surges in,16 months
2013-08-27T09:48:00Z,China,urges,caution in Fed policy
2013-08-27T09:48:00Z,caution,in,Fed policy
2013-08-27T10:40:00Z,Indian rupee,hits,record low
2013-08-27T10:40:00Z,confidence,in,government
2013-08-27T10:40:00Z,rupee,hits,record low as confidence
2013-08-27T11:02:00Z,McDonald 's Japan,appoints,new leader
2013-08-27T11:41:00Z,Russia,rebukes,Belarus
2013-08-27T12:15:00Z,China appliance makers,flip,retail switch survive
2013-08-27T13:05:00Z,China,investigates,PetroChina executives
2013-08-27T13:37:00Z,Pimco 's El-Erian,warns against,risks of debt ceiling fight
2013-08-27T14:09:00Z,U.S. consumer confidence,rises in,August
2013-08-27T14:18:00Z,J&J,puts businesses there under,one chairman
2013-08-27T15:07:00Z,Russia-Belarus potash dispute,ignites,diplomatic row
2013-08-27T15:12:00Z,Indian rupee,hits,record low
2013-08-27T15:12:00Z,confidence,in,government
2013-08-27T15:12:00Z,rupee,hits,record low as confidence
2013-08-27T17:10:00Z,J&J,puts businesses under,local chairman
2013-08-27T17:31:00Z,Russian airshow,kicks off with,Superjet deals
2013-08-27T17:31:00Z,airshow,kicks off with,Superjet deals
2013-08-27T18:03:00Z,Dubai court,dismisses,Kuwaiti Sheikh 's claim
2013-08-27T18:15:00Z,Nissan,begin by,2020
2013-08-27T18:16:00Z,JPMorgan 's former London Whale ' supervisor,arrested in,Spain
2013-08-27T18:16:00Z,SEC,duping,compliance officer
2013-08-27T18:26:00Z,Wal-Mart,offers,health benefits
2013-08-27T19:19:00Z,J.P.Morgan,snare,$ 764 million California GOs
2013-08-27T19:32:00Z,Government mortgage fraud lawsuit,headed to,trial
2013-08-27T19:38:00Z,Farm income,poised in,2013
2013-08-27T20:28:00Z,N.Y. appeals court,revives,claims against Charles Schwab
2013-08-27T21:05:00Z,Currency collapse,confounds,India Inc
2013-08-27T21:16:00Z,U.S.,seeking $ 6 billion from,JPMorgan
2013-08-27T21:18:00Z,SEC,reviews,Nasdaq
2013-08-27T21:45:00Z,Tiffany 's China sales,offset,tepid Americas business
2013-08-27T21:45:00Z,Tiffany 's strong China sales,offset,tepid Americas business
2013-08-27T21:54:00Z,March trial,in,airline merger challenge
2013-08-27T21:54:00Z,U.S.,asks for,March trial
2013-08-27T22:01:00Z,German Finance Minister,says,11 billion euros aid estimate for Greece
2013-08-27T22:27:00Z,Entergy focus,may shift to,New York nuclear fight
2013-08-28T04:18:00Z,Brazil,UBS in,dispute over $ 38 million
2013-08-28T04:18:00Z,UBS,in,dispute over $ 38 million
2013-08-28T04:39:00Z,Ackman,turns back on,J.C. Penney
2013-08-28T04:54:00Z,Court,lifts Mercedes sales ban in,blow to France
