2013-10-05T01:35:00Z,BlackBerry,hit with,securities shareholder class action
2013-10-05T03:10:00Z,Detroit union,wins,victory refund
2013-10-05T03:46:00Z,LAN pilots,refuse,overtime
2013-10-05T03:46:00Z,overtime,press,labor dispute
2013-10-05T05:39:00Z,Apollo,close,$ 2.5 billion deal
2013-10-05T05:39:00Z,Cooper Tire,asks,court
2013-10-05T05:39:00Z,court,compel,Apollo
2013-10-05T09:16:00Z,Alior,interested in,Rabobank 's BGZ
2013-10-05T09:16:00Z,Rabobank,in,BGZ
2013-10-05T13:39:00Z,Audit,in,Niger
2013-10-05T14:00:00Z,Dubai,wants,center for business
2013-10-05T20:28:00Z,Greece mulls,swapping bailout loans with,bond issue
2013-10-05T23:33:00Z,China,gambles on,theme park
2013-10-05T23:44:00Z,Facebook cloud Twitter,of,IPO
2013-10-06T04:22:00Z,Chevron,returning,workers
