2013-10-16T00:52:00Z,deliberations,in,Mark Cuban insider trading trial
2013-10-16T02:28:00Z,Yahoo,keep,stake in Alibaba
2013-10-16T02:28:00Z,larger stake,in,Alibaba
2013-10-16T02:41:00Z,China securities regulator,calls for,retail investor protection
2013-10-16T03:02:00Z,Fuselage panel,falls from,Boeing 787 Dreamliner
2013-10-16T03:47:00Z,Yahoo 's Alibaba stake,takes heat off,weak forecast
2013-10-16T08:04:00Z,French banks,face,foe
2013-10-16T08:04:00Z,banks,face,foe
2013-10-16T08:04:00Z,tobacconists,offer,cheap accounts
2013-10-16T08:22:00Z,LVMH,says,Vuitton growth
2013-10-16T09:06:00Z,it,cut,U.S. credit rating
2013-10-16T10:23:00Z,700 jobs,in,savings drive
2013-10-16T10:23:00Z,French bank Natixis,cut,700 jobs
2013-10-16T10:23:00Z,bank Natixis,cut,700 jobs in savings drive
2013-10-16T12:16:00Z,Italy,of,loan audit
2013-10-16T12:16:00Z,UniCredit CEO,confirms,Bank of Italy 's loan audit
2013-10-16T12:24:00Z,Analysts,raise,Yahoo price targets
2013-10-16T13:58:00Z,Body panel,falls off in,flight
2013-10-16T15:25:00Z,Merrill Lynch clients,eased trading in,quarter
2013-10-16T15:32:00Z,Europe 's car market,grows from,record levels
2013-10-16T15:39:00Z,CFM,says,jet engine testing
2013-10-16T16:56:00Z,ANA,over,choice between Airbus
2013-10-16T16:56:00Z,Insight,looms over,ANA 's choice between Airbus
2013-10-16T16:56:00Z,Japan politics,looms over,ANA 's choice between Airbus
2013-10-16T17:16:00Z,BNY Mellon,gets,$ 10 billion
2013-10-16T17:37:00Z,CFM,says,jet engine testing
2013-10-16T17:41:00Z,Tennessee VW workers,say,company
2013-10-16T17:41:00Z,them,join,UAW
2013-10-16T17:44:00Z,U.S. prosecutors grill ex-Countrywide exec,in,BofA mortgage trial
2013-10-16T17:47:00Z,EU,allow,Alitalia rescue plan
2013-10-16T17:47:00Z,confident EU,allow,Alitalia rescue plan
2013-10-16T17:48:00Z,Apple,cuts,orders of iPhone 5C
2013-10-16T17:48:00Z,consumers,prefer,5S
2013-10-16T18:02:00Z,OppenheimerFunds,brave,muni badlands
2013-10-16T18:09:00Z,S&P,initiates,coverage
2013-10-16T18:31:00Z,Alcoa,says,potline
2013-10-16T18:31:00Z,potline,suspended at,Saudi smelter
2013-10-16T18:32:00Z,SNC-Lavalin shares,sink on,profit warning
2013-10-16T18:32:00Z,shares,sink on,profit warning
2013-10-16T19:03:00Z,Grocer Loblaw,eliminate,about 275 jobs
2013-10-16T19:10:00Z,Bernanke,testify in,AIG bailout lawsuit
2013-10-16T19:27:00Z,Fed,mulls,capital surcharge
2013-10-16T19:27:00Z,banks,owning,commodity assets
2013-10-16T19:27:00Z,posts profit,fueled by,consumer banking
2013-10-16T19:38:00Z,UBS taps Langford,run,global resources group
2013-10-16T20:23:00Z,United Rentals profit,buy back,$ 500 million
2013-10-16T20:33:00Z,Toys R Us,picks CEO for,post
2013-10-16T20:54:00Z,Kinder Morgan,has,distribution
2013-10-16T20:54:00Z,Morgan,has,higher quarterly profit
2013-10-16T21:05:00Z,SEC battles,with,industry fund
2013-10-16T21:53:00Z,EBay holiday quarter outlook,disappoints on,U.S. weakness
2013-10-16T22:08:00Z,Ford,offers,auto writers
2013-10-16T22:12:00Z,Facebook,lifts,restriction on teen users sharing
2013-10-16T22:19:00Z,Noble Corp profit tops,estimates with,rig rate rise
2013-10-16T22:19:00Z,Toys R Us,picks,CEO
2013-10-16T22:26:00Z,U.S. prosecutors grill ex-Countrywide exec,in,BofA mortgage trial
2013-10-16T22:45:00Z,U.S. economy,was,steady
2013-10-16T22:48:00Z,Select Comfort,hit by,costs
2013-10-16T22:51:00Z,debt crisis,largely business For,hedge funds
2013-10-16T23:02:00Z,London 's Tech City,picks,first 25 firms
2013-10-16T23:06:00Z,Jos A Bank chairman,sees,strong investor support for Men 's Wearhouse bid
2013-10-16T23:06:00Z,Jos Bank chairman,sees,strong investor support
2013-10-16T23:06:00Z,Men,for,Wearhouse bid
2013-10-16T23:21:00Z,Stage set,in,Asia
2013-10-16T23:37:00Z,IBM revenue,misses Street on,China woes
2013-10-16T23:37:00Z,IBM third-quarter revenue,misses Street on,China woes
2013-10-16T23:45:00Z,Prosecutors,appeal to,sense
2013-10-16T23:53:00Z,Chevron case,in,Ecuador
2013-10-16T23:54:00Z,Lockheed,lay off,600 workers
2013-10-17T04:15:00Z,Germany,of,TAG
2013-10-17T04:23:00Z,French banks,face,foe
2013-10-17T04:23:00Z,banks,face,foe
2013-10-17T04:23:00Z,tobacconists,offer,accounts
2013-10-17T04:36:00Z,business,may take hit,companies plan for U.S. default
2013-10-17T04:36:00Z,companies,plan for,U.S. default
2013-10-17T04:55:00Z,Advance Auto,expands repair shop business with,buy
