2013-03-29T00:30:00Z,Ford,sued for,cars
2013-03-29T01:26:00Z,Boeing,plans,standards jobs
2013-03-29T01:26:00Z,standards jobs,cut,pilot training
2013-03-29T02:38:00Z,S&P,after,milestone
2013-03-29T06:55:00Z,Sony,venture as,regulatory approval on hold
2013-03-29T07:35:00Z,Commission,considers,good of banking
2013-03-29T08:50:00Z,Quarter,in,China
2013-03-29T09:05:00Z,Bakrie,for,media unit
2013-03-29T09:05:00Z,Indonesia 's CT Corp,proposes,deal
2013-03-29T10:07:00Z,FAA,return,787
2013-03-29T10:07:00Z,Japan 's ANA,keeps,Boeing 787
2013-03-29T10:18:00Z,ECB 's Knot,backs,Dijsselbloem comments on bank
2013-03-29T13:23:00Z,Deutsche Bank probe,finds,data
2013-03-29T13:23:00Z,data,given to,prosecutors
2013-03-29T13:23:00Z,incomplete data,given to,prosecutors
2013-03-29T14:13:00Z,SAC Capital 's Steinberg,indicted on,insider trading charges
2013-03-29T14:37:00Z,Consumer sentiment,jumps in,March
2013-03-29T15:35:00Z,Power firm CEZ,files,complaint
2013-03-29T15:35:00Z,complaint,with,EU
2013-03-29T15:51:00Z,Consumer data,support,growth picture
2013-03-29T16:03:00Z,Indonesia,should ban,private cars
2013-03-29T17:17:00Z,New York state,passes budget on,time year
2013-03-29T18:07:00Z,Italy court,oversee,Parmalat
2013-03-29T18:35:00Z,Cohen,for,SAC Capital
2013-03-29T19:03:00Z,Investors,shun,market funds
2013-03-29T19:03:00Z,Q1,nears,end
2013-03-29T19:38:00Z,Treasury 's Lew,heading for,talks on economy
2013-03-29T19:44:00Z,Big depositors,in,Bank of Cyprus
2013-03-29T19:50:00Z,Fiat CEO,probed for,violation of workers ' rights
2013-03-29T19:58:00Z,Proxy firms,pile on,pressure for MetroPCS-T-Mobile deal
2013-03-29T20:16:00Z,Big depositors,in,Cyprus
2013-03-29T21:35:00Z,Justice Department,wants,states
2013-03-29T21:35:00Z,states,decide,S&P lawsuits
2013-03-29T22:03:00Z,Judge,finds for,banks
2013-03-29T22:03:00Z,most claims,in,Libor lawsuits
2013-03-29T22:11:00Z,Huntington Ingalls,wins,U.S. Navy carrier
2013-03-29T23:37:00Z,McClendon,set,leave
2013-03-30T04:31:00Z,Loeb 's Third Point,outperforms,fund rivals
