2013-05-21T01:15:00Z,JPMorgan,gives up vote information under,pressure
2013-05-21T01:29:00Z,U.S. Air Force,move,target date
2013-05-21T01:36:00Z,Tesla Motors,may repay U.S. loan by,Wednesday
2013-05-21T07:59:00Z,Credit Suisse,replaces Morgan Stanley as,No. 2 Asia prime broker
2013-05-21T10:57:00Z,U.S.,asks,judge
2013-05-21T10:57:00Z,judge,deny,S&P 's motion
2013-05-21T12:00:00Z,Apple,for,low tax rate
2013-05-21T12:09:00Z,Vodafone,says,comfortable
2013-05-21T13:19:00Z,long winter,leads to,repairs
2013-05-21T13:19:00Z,winter,leads to,repairs
2013-05-21T13:47:00Z,Kerry,visits,Oman
2013-05-21T13:47:00Z,Kerry visits,talks on,Syria
2013-05-21T15:26:00Z,Yahoo,buying Tumblr for,$ 1.1 billion
2013-05-21T15:35:00Z,Glencore,'s exec,first exit since takeover-sources
2013-05-21T15:35:00Z,Glencore 's top aluminum exec,exit since,takeover-sources
2013-05-21T16:16:00Z,Sprint,receives SoftBank waiver,consider
2013-05-21T16:17:00Z,Goldman,exits,China 's ICBC
2013-05-21T16:19:00Z,Yahoo 's rise,in,Asia offsets
2013-05-21T16:45:00Z,U.S.,asks,judge
2013-05-21T16:45:00Z,judge,deny,S&P 's motion
2013-05-21T17:48:00Z,Vodafone chief Colao,says,happy with Verizon stake
2013-05-21T18:18:00Z,EU,exclude,utilities
2013-05-21T18:22:00Z,U.S. court studies,wiretaps in,director 's insider case
2013-05-21T18:22:00Z,U.S. court studies wiretaps,in,ex-Goldman director 's insider case
2013-05-21T18:22:00Z,ex-Goldman director,in,insider case
2013-05-21T19:47:00Z,EU,wants,market opening
2013-05-21T20:17:00Z,Global shares,end,eyes turn to Fed
2013-05-21T20:17:00Z,eyes,turn to,Fed
2013-05-21T20:17:00Z,shares,end higher,eyes turn to Fed
2013-05-21T20:18:00Z,EU leaders,end,tax avoidance schemes
2013-05-21T21:23:00Z,Sprint,raises,Clearwire offer
2013-05-21T22:10:00Z,Apple,behind,low tax bill
2013-05-21T22:10:00Z,Ireland,rejects,blame
2013-05-21T22:43:00Z,Dimon,bruising,battle
2013-05-21T22:44:00Z,Dow,end at,records on Fed officials ' reassurance
2013-05-21T23:04:00Z,Sony,un-Japanese,enough
2013-05-21T23:10:00Z,UK opposition party leader,says,wrong
2013-05-21T23:20:00Z,Mexican tycoon Slim,seeks,funding details
2013-05-21T23:20:00Z,tycoon Slim,seeks,funding details
2013-05-21T23:50:00Z,Prosecutors,using,racketeering law against SAC
2013-05-21T23:52:00Z,Bob Lutz,in,bid buy
2013-05-21T23:52:00Z,bid,in Lutz,Chinese
2013-05-21T23:59:00Z,Fed officials,dampen,talk of imminent bond buying cutback
2013-05-22T04:02:00Z,multinationals,face,parliament
2013-05-22T04:26:00Z,Buy,sees,investments
2013-05-22T04:26:00Z,investments,squeezing,profits
