2013-10-20T01:11:00Z,JPMorgan,in,tentative $ 13 billion deal with U.S. Justice Department
2013-10-20T01:11:00Z,tentative $ 13 billion deal,with,U.S. Justice Department
2013-10-20T03:24:00Z,Haunted house business,gets boost as,techs up thrill ante
2013-10-20T03:24:00Z,house business,gets,boost
2013-10-20T11:26:00Z,Rates,could rise,amount
2013-10-20T11:33:00Z,Big data,heralds,return of Cray supercomputer
2013-10-20T11:33:00Z,data,heralds,return
2013-10-20T12:18:00Z,Rio dream,does too,Brazil 's Batista falters
2013-10-20T13:28:00Z,Karnit Flug,named,governor
2013-10-20T13:28:00Z,governor,Bank of,Israel
2013-10-20T14:11:00Z,Mexico,drives,auto investment
2013-10-20T14:14:00Z,U.S. economy,bruised by,fiscal fight
2013-10-20T17:08:00Z,Berlin,of,new airport
2013-10-20T17:17:00Z,Deutsche Bank,talking over,Libor
2013-10-20T18:08:00Z,U.S.,outshining,Europe
2013-10-20T20:46:00Z,U.S. housing regulators,seek,$ 6 billion
2013-10-20T21:07:00Z,Vietnam airlines,plan fleet boom as,roads
2013-10-20T22:11:00Z,Scotland,of,Grangemouth refinery
2013-10-20T23:37:00Z,Aussie shares,hit,high
2013-10-20T23:37:00Z,shares,hit,dollar near low
