2013-10-19T00:56:00Z,Boeing,slows,production of 747
2013-10-19T08:06:00Z,TPG,pays,Murdoch unit
2013-10-19T08:46:00Z,2014 Swiss watch exports,grow,5-10 percent
2013-10-19T08:46:00Z,Swiss watch exports,grow,5-10 percent
2013-10-19T11:56:00Z,Haunted house business,gets boost as,techs up thrill ante
2013-10-19T11:56:00Z,house business,gets,boost
2013-10-19T12:40:00Z,GM,has restarted,production
2013-10-19T12:49:00Z,Bundesbank head,warns Merkel on,state spending
2013-10-19T19:24:00Z,Draghi,asked,EU
2013-10-19T19:24:00Z,EU,keep state aid rules for,banks
2013-10-19T19:24:00Z,Pope Francis,holds,talks
2013-10-19T19:24:00Z,talks,with,ECB head Draghi
2013-10-19T22:13:00Z,JPMorgan,in,tentative $ 13 billion deal with U.S. Justice Department
2013-10-19T22:13:00Z,tentative $ 13 billion deal,with,U.S. Justice Department
