2013-04-01T01:28:00Z,Panasonic unit,in,U.S. bribery investigation
2013-04-01T07:26:00Z,Ex-Morgan Stanley manager,launches,Japanese equity hedge fund
2013-04-01T09:30:00Z,Novartis India,file for,patents
2013-04-01T10:08:00Z,Abenomics,lifts,households ' inflation expectations
2013-04-01T11:00:00Z,India,hails,historic Supreme Court drug patent ruling against Novartis
2013-04-01T13:03:00Z,best quarter,in,2 years
2013-04-01T14:38:00Z,Supreme Court,sends,consumer lawsuit on Whirlpool washers
2013-04-01T15:58:00Z,Chesapeake ex-CEO McClendon,be deposed in,bond dispute
2013-04-01T17:24:00Z,Walmart U.S.,woo,shoppers
2013-04-01T17:32:00Z,Lear,settles with,activist investors
2013-04-01T18:13:00Z,GM,expects,truck buyers
2013-04-01T18:13:00Z,truck buyers,choose,features
2013-04-01T19:01:00Z,lawsuit,washing,machines
2013-04-01T20:00:00Z,Novartis,loses,landmark India cancer drug patent case
2013-04-01T21:07:00Z,IAG,in,talks with Airbus on A350 order for British Airways
2013-04-01T21:07:00Z,talks,with,Airbus
2013-04-01T21:12:00Z,Goldman,registers,credit fund
2013-04-01T22:02:00Z,MetroPCS,promotes,T-Mobile deal
2013-04-01T22:02:00Z,advisers,pan,it
2013-04-01T22:12:00Z,SAC 's Steinberg,seeks,new judge
2013-04-01T22:16:00Z,GM,trump Ford with,pickup trucks
2013-04-01T23:03:00Z,Wall Street,falls,week 's records
2013-04-01T23:28:00Z,Judge,questions,fairness of Citigroup
2013-04-02T04:00:00Z,American Airlines,dispute over,distribution costs
2013-04-02T04:39:00Z,Cyprus,plans,tax breaks
2013-04-02T04:42:00Z,Chesapeake Energy,will on,will budget year
