2013-02-10T00:27:00Z,Boeing,completes,uneventful test flight
2013-02-10T09:18:00Z,Emirates,sees,777 model
2013-02-10T11:59:00Z,Saudi Arabia,buy patrol boats from,firm
2013-02-10T16:31:00Z,Egyptians,turn to,market
2013-02-10T18:27:00Z,Ford,offer,match for dealer investment
2013-02-10T19:52:00Z,Apple,frenemies for,life
2013-02-10T20:59:00Z,deal,seen within,week
2013-02-10T22:38:00Z,Novo Nordisk,to,U.S. hopes
2013-02-11T05:30:00Z,big U.S. business bets,in,China
