2013-07-19T00:16:00Z,atmosphere,marked by,distrust
2013-07-19T06:58:00Z,investors,remain on,edge
2013-07-19T08:40:00Z,Euro,gains,currency
2013-07-19T08:46:00Z,BP veteran Browne,builds,US Gulf oil acreage
2013-07-19T08:56:00Z,China,widens,drug industry probe
2013-07-19T09:21:00Z,Daimler CEO,buy,$ 1.5 million in stock
2013-07-19T10:18:00Z,Former brokers,in,UK court on Libor fraud charges
2013-07-19T11:11:00Z,GSK emerging markets,handle,China crisis
2013-07-19T11:11:00Z,GSK markets,handle,China crisis
2013-07-19T11:24:00Z,Google shares,set,open lower on margin decline
2013-07-19T11:49:00Z,China,liberalizes,bank lending rates
2013-07-19T13:39:00Z,GlaxoSmithKline,missed,red flags in China
2013-07-19T13:39:00Z,red flags,in,China
2013-07-19T13:51:00Z,Airbus,raises,2013 order target
2013-07-19T14:02:00Z,Morgan Stanley stock traders,rebuild,bridges
2013-07-19T14:39:00Z,GSK,sends,three executives
2013-07-19T14:39:00Z,three executives,handle,crisis
2013-07-19T14:44:00Z,Former brokers,in,UK court on Libor fraud charges
2013-07-19T14:47:00Z,Baker,hit at,home
2013-07-19T15:48:00Z,carriers,remove,787 emergency beacons
2013-07-19T15:52:00Z,Dolce,shut,shops
2013-07-19T15:52:00Z,Gabbana,shut,shops
2013-07-19T16:03:00Z,Morgan Stanley stock traders,rebuild,burned bridges
2013-07-19T16:21:00Z,U.S. fuel export surge,gives,refiners surprise summer blockbuster
2013-07-19T18:30:00Z,NYC funds,pick,State Street
2013-07-19T18:30:00Z,State Street,replace,BNY Mellon
2013-07-19T19:01:00Z,Honeywell,cutting,drives profit
2013-07-19T19:15:00Z,ManpowerGroup profit,jumps as,restructuring gains pace
2013-07-19T20:37:00Z,shares,waver after,equity rally
2013-07-19T20:53:00Z,latest risk,in,Tourre trial
2013-07-19T20:59:00Z,China,frees up lending rates in,major reform
2013-07-19T21:24:00Z,Fed,reviewing,banks ' commodities trading
2013-07-19T21:48:00Z,Avio,of,aviation business
2013-07-19T21:48:00Z,FTC,approves,GE purchase
2013-07-19T21:53:00Z,Dow,slip on,tech weakness
2013-07-19T21:56:00Z,Fed,takes,backseat
2013-07-19T21:57:00Z,Samsung,with,FBI
2013-07-19T22:14:00Z,SEC,ban,SAC 's Cohen
2013-07-19T22:21:00Z,settlement,with,fund manager Phil Falcone
2013-07-19T22:33:00Z,Bangladesh,restore,trade benefits
2013-07-19T22:36:00Z,Electrolux,see,rebounding Europe
2013-07-19T22:45:00Z,Microsoft shares,hit by,biggest sell-off
2013-07-19T22:56:00Z,Microsoft,in,talks with ValueAct over board seat
2013-07-19T22:56:00Z,talks,with,ValueAct
2013-07-19T23:47:00Z,Fed,rethinks,move allowing
2013-07-19T23:47:00Z,banks,trade,physical commodities
2013-07-19T23:58:00Z,FAA,seeks,inspections of Boeing 787 rescue beacons
2013-07-20T04:48:00Z,Buyout firm GTCR,sell,Six3 Systems
