2013-09-02T02:53:00Z,sour months,in,August
2013-09-02T02:53:00Z,up first time,in,sour months
2013-09-02T05:09:00Z,BOJ,hold,policy
2013-09-02T08:39:00Z,Falling,adds to,rupee 's woes
2013-09-02T08:39:00Z,rupee,to,woes
2013-09-02T09:08:00Z,suicide,thwart,Zurich performance drive
2013-09-02T09:13:00Z,Everbright pain,seen as,industry gain
2013-09-02T09:13:00Z,investors,look to,side
2013-09-02T09:18:00Z,EU,approves,revamp
2013-09-02T09:39:00Z,derivatives,rule,avoid
2013-09-02T11:32:00Z,Central Europe factory jump,shows,recovery
2013-09-02T11:32:00Z,recovery,gaining,pace
2013-09-02T14:10:00Z,U.N.,avert carbon trade war with,aviation deal
2013-09-02T14:24:00Z,Flagship British scheme,boost,bank lending
2013-09-02T14:24:00Z,Flagship scheme,boost,bank lending
2013-09-02T14:57:00Z,Barclays,may launch,cash call on anniversary of U.S. Lehman deal
2013-09-02T17:07:00Z,Cooper 's Chinese workers,lock out,U.S. managers
2013-09-02T17:07:00Z,Cooper 's workers,protest,Indian buyout
2013-09-02T17:34:00Z,Colao,says After,deal
2013-09-02T17:34:00Z,Vodafone,to,next chapter
2013-09-02T18:06:00Z,Syria,fears,ebb
2013-09-02T19:05:00Z,Spain,for,EVO Banco
2013-09-02T19:37:00Z,Vittorio Colao caps Vodafone,revamp with,U.S. megadeal
2013-09-02T20:01:00Z,ThyssenKrupp,denies,report
2013-09-02T21:08:00Z,Airbus,loosen,Boeing 's grip
2013-09-02T21:12:00Z,firms,Rattled by,investigations
2013-09-02T21:12:00Z,foreign firms,in,China
2013-09-02T21:15:00Z,China,by,banks
2013-09-02T21:15:00Z,Stock,offering,plans by China 's banks
2013-09-02T21:16:00Z,patience,pays off with,payday
2013-09-02T22:20:00Z,Hybrid bond,help,rating
2013-09-02T22:24:00Z,Vodafone,agree,Wireless deal
2013-09-02T23:05:00Z,Complaints,rise by,15 percent
2013-09-02T23:17:00Z,Asia markets,benefit from,global data
2013-09-02T23:21:00Z,Verizon,enter,Canadian market
