2013-05-15T05:58:00Z,shortage,'s For,debt
2013-05-15T05:59:00Z,Lonmin 's South Africa workers,strike for,day
2013-05-15T06:06:00Z,India 's IT sector,in,again unwelcome spotlight
2013-05-15T07:02:00Z,China premier,says,room for policy stimulus
2013-05-15T08:09:00Z,Bank documents,portray Cyprus as,Russia 's favorite haven
2013-05-15T08:09:00Z,Insight,portray as,Russia 's favorite haven
2013-05-15T08:09:00Z,Russia,as,favorite haven
2013-05-15T10:14:00Z,Abenomics ' pain,comes For,Japan lenders
2013-05-15T10:20:00Z,CEO,detained over,suspected kickbacks
2013-05-15T10:20:00Z,SocGen,of,Russia unit
2013-05-15T10:43:00Z,UK banks,avoid,investigation by competition authority
2013-05-15T12:01:00Z,M&S 's clothing strategy,gets,early thumbs-up
2013-05-15T12:01:00Z,M&S 's make-or-break clothing strategy,gets,thumbs-up
2013-05-15T12:37:00Z,Airbus,picked by,Kuwait Airways
2013-05-15T12:54:00Z,Indonesia 's Lion Air,should review,procedures
2013-05-15T13:20:00Z,Industrial output,suffers decline in,April
2013-05-15T13:20:00Z,output,suffers,broad decline
2013-05-15T13:24:00Z,AT&T,expects,better results in mobile business in second quarter
2013-05-15T13:24:00Z,better results,in,second quarter
2013-05-15T13:27:00Z,Amazon UK,pays,tax
2013-05-15T13:41:00Z,Bloomberg,accessed,user data
2013-05-15T13:52:00Z,CEO,held over,suspected kickbacks
2013-05-15T14:06:00Z,revenue,faces,pressure
2013-05-15T14:33:00Z,UBS Americas,hires,experts
2013-05-15T15:12:00Z,African union,urges,Lonmin workers
2013-05-15T15:12:00Z,Lonmin workers,end,strike
2013-05-15T15:12:00Z,South African union,urges,Lonmin workers
2013-05-15T15:12:00Z,union,urges,Lonmin workers
2013-05-15T15:57:00Z,Fund managers,offload investments following,crisis
2013-05-15T16:07:00Z,Amazon,lure,business
2013-05-15T17:47:00Z,Lonmin 's African platinum workers,end,strike
2013-05-15T17:47:00Z,Lonmin 's South African platinum workers,end,strike
2013-05-15T17:47:00Z,Lonmin 's platinum workers,end,strike
2013-05-15T18:37:00Z,French bank,avert,takeovers
2013-05-15T18:37:00Z,French public bank,could,could used
2013-05-15T18:37:00Z,bank,avert,foreign takeovers
2013-05-15T18:37:00Z,public bank,avert,takeovers
2013-05-15T18:49:00Z,U.S. group,lashes out As,Bangladesh accord
2013-05-15T20:20:00Z,Daimler,unveils,make-or-break S-Class flagship
2013-05-15T20:29:00Z,Wells Fargo,pay,$ 203 million
2013-05-15T20:34:00Z,Macy,'s profit,sales
2013-05-15T20:35:00Z,Wall Street,extends,euro
2013-05-15T20:53:00Z,Discount employee stock plans,offer,outsiders trading tips
2013-05-15T21:14:00Z,Dow,end at,record highs again
2013-05-15T21:55:00Z,EU oil price probe,puts Platts in,spotlight
2013-05-15T23:00:00Z,shares,rise on,outlook
2013-05-15T23:16:00Z,Google,launches ahead,streaming music service
2013-05-16T04:00:00Z,U.S. group,criticizes,Bangladesh safety accord
2013-05-16T04:00:00Z,U.S. retail group,criticizes,Bangladesh safety accord
2013-05-16T04:02:00Z,U.S. group,criticizes,Bangladesh safety accord
2013-05-16T04:02:00Z,U.S. retail group,criticizes,Bangladesh safety accord
2013-05-16T04:08:00Z,Southwest Air,boosts,dividend
2013-05-16T04:17:00Z,JPMorgan,in,talks resolve
2013-05-16T04:17:00Z,talks,in JPMorgan,Portugal
2013-05-16T04:26:00Z,insurers,settle,claims
2013-05-16T04:32:00Z,BNP Paribas,sees,staff cuts in France
2013-05-16T04:32:00Z,significant staff cuts,in,France
