2013-08-25T07:31:00Z,Australia 's mining boom,rolls on for,entrepreneur
2013-08-25T07:31:00Z,Chinese entrepreneur,in,outback
2013-08-25T11:11:00Z,Motorola,set for,round trial
2013-08-25T11:11:00Z,patents,over Microsoft,Motorola set for second round of trial
2013-08-25T13:11:00Z,case,In,bustling Houston
2013-08-25T13:11:00Z,it,'s case of,Build baby
2013-08-25T16:29:00Z,Argentina,says,continue
2013-08-25T17:06:00Z,Questions,in,background at Jackson Hole
2013-08-25T17:13:00Z,Emerging market slump,highlights,Fed 's global reach
2013-08-25T17:13:00Z,market slump,highlights,Fed 's reach
2013-08-25T18:41:00Z,Donald Trump investment school,sued by,NY attorney general
2013-08-25T23:28:00Z,Amgen,bolster,drug pipeline
2013-08-25T23:55:00Z,Eyes,count,cost
2013-08-25T23:55:00Z,milk powder firms,count,cost of China probes
