2013-10-17T00:03:00Z,Chevron case,in,Ecuador
2013-10-17T02:43:00Z,China trade,faces challenges in,coming months
2013-10-17T02:46:00Z,debt crisis,largely business For,hedge funds
2013-10-17T09:37:00Z,Corruption watchdog,slams,Chinese firms ' lack of transparency
2013-10-17T10:05:00Z,Washington,becomes,biggest risk
2013-10-17T10:21:00Z,China,slowing,demand
2013-10-17T11:18:00Z,Lagardere,says to,part
2013-10-17T11:18:00Z,part,with,10 magazines
2013-10-17T11:59:00Z,estimates,Slimmed down,supermarket chain Supervalu
2013-10-17T12:46:00Z,Fed,of,easy money policy
2013-10-17T12:46:00Z,Getty,captures,risks of Fed 's easy money policy
2013-10-17T13:31:00Z,Chinese abstinence,hits,drinks firms
2013-10-17T13:31:00Z,abstinence,hits,drinks firms
2013-10-17T13:38:00Z,Nestle CEO,says,5-6 percent sales growth doable
2013-10-17T13:38:00Z,Nestle CFO,still sees,input cost increase
2013-10-17T13:53:00Z,U.S. commercial paper market,shrinks in,week
2013-10-17T13:53:00Z,U.S. paper market,shrinks in,week
2013-10-17T13:54:00Z,U.S. commercial paper market,shrinks in,week
2013-10-17T13:54:00Z,U.S. paper market,shrinks in,week
2013-10-17T14:03:00Z,Fiscal policy fight,may dampen,U.S. growth
2013-10-17T14:03:00Z,policy fight,may dampen,U.S. economic growth
2013-10-17T14:26:00Z,Italy 's chocolate king,faces,succession questions
2013-10-17T14:45:00Z,Rafale,deal,year
2013-10-17T15:16:00Z,EU 's Barnier,warns,U.S.
2013-10-17T15:21:00Z,Twitter,hires,Google executive
2013-10-17T15:40:00Z,sales,in,tough markets
2013-10-17T15:46:00Z,Lagardere,with,10 magazines
2013-10-17T17:07:00Z,New details,emerge in,court case
2013-10-17T17:07:00Z,details,emerge in,court case
2013-10-17T17:14:00Z,U.S. claims,fall,mid-Atlantic manufacturing expands
2013-10-17T17:14:00Z,U.S. jobless claims,fall,mid-Atlantic manufacturing expands
2013-10-17T17:17:00Z,UnitedHealth,sees,Medicare payment shortfall
2013-10-17T17:51:00Z,Camry,sedans in,U.S
2013-10-17T17:51:00Z,Toyota,recalls,Venza sedans in U.S
2013-10-17T17:51:00Z,Venza sedans,in,U.S
2013-10-17T18:14:00Z,Fed,taper until,2014
2013-10-17T18:35:00Z,HSBC,hit with,judgment
2013-10-17T19:03:00Z,Wells Fargo,cuts,925 mortgage jobs
2013-10-17T19:22:00Z,Witness claims U.S. lawyer,used estimate in,Chevron case
2013-10-17T19:22:00Z,claims U.S. lawyer,used in,Chevron case
2013-10-17T19:27:00Z,Awash,in,oil
2013-10-17T19:41:00Z,revenue,beat,Wall Street estimates
2013-10-17T20:02:00Z,HSBC,hit with,record $ 2.46 billion judgment
2013-10-17T20:02:00Z,record $ 2.46 billion judgment,in,U.S. class action
2013-10-17T20:04:00Z,Fed,needs,couple
2013-10-17T20:32:00Z,Stryker 3rd-quarter net profit,falls,due
2013-10-17T20:32:00Z,Stryker 3rd-quarter profit,falls,due
2013-10-17T20:32:00Z,Stryker net profit,falls,due
2013-10-17T20:32:00Z,Stryker profit,falls,due
2013-10-17T20:40:00Z,IBM 's China-driven slump,sparks,executive shakeup
2013-10-17T20:40:00Z,IBM 's slump,sparks,executive shakeup
2013-10-17T20:55:00Z,Capital One profit,beats,estimates
2013-10-17T20:55:00Z,Capital profit,beats,estimates
2013-10-17T21:04:00Z,Australia 's Rinehart family feud risks,spilling over,over business
2013-10-17T21:13:00Z,China,announce,reforms of pension system
2013-10-17T21:29:00Z,SAC 's Cohen,unload,stake in Kadmon Pharmaceuticals
2013-10-17T21:29:00Z,stake,in,Kadmon Pharmaceuticals
2013-10-17T21:36:00Z,Former Global employee,avoids jail in,insider case
2013-10-17T21:36:00Z,Former Primary Global employee,avoids jail in,insider case
2013-10-17T21:36:00Z,Former Primary employee,avoids,jail
2013-10-17T21:36:00Z,Former employee,avoids,jail
2013-10-17T21:44:00Z,Former Monte Paschi chief,freed from,house arrest
2013-10-17T22:05:00Z,Chipotle profits,get,boost from increased traffic
2013-10-17T22:13:00Z,SAC Capital deal,with,U.S. prosecutors
2013-10-17T22:47:00Z,Goldman slashes,pay as,revenue drops
2013-10-17T23:24:00Z,Blackstone 's solar unit,gets,$ 540 million in financing
2013-10-17T23:24:00Z,Blackstone 's unit,gets,$ 540 million
2013-10-17T23:31:00Z,U.S.-based money market funds,have,$ 43 billion outflow
2013-10-17T23:31:00Z,money market funds,have,$ 43 billion outflow
2013-10-17T23:40:00Z,investors,count,costs of U.S. shutdown
2013-10-17T23:45:00Z,stock,flirts,level
2013-10-18T04:12:00Z,GM 's global sales,rise in,first nine months
2013-10-18T04:12:00Z,GM 's sales,rise in,nine months
2013-10-18T04:18:00Z,analysts,cut,price targets
