2013-05-20T05:15:00Z,Shrinking deficit,pressure for,budget deal
2013-05-20T05:15:00Z,deficit,pressure for,budget deal
2013-05-20T07:40:00Z,Japan,up,inbound FDI
2013-05-20T10:34:00Z,Gulf wealth funds,raising,private equity investments
2013-05-20T10:59:00Z,Vodafone,withdraws from,BT mobile partner talks
2013-05-20T11:05:00Z,Monster machines,fan out on,U.S. farms
2013-05-20T12:36:00Z,Fed 's bond buying,helped,economy
2013-05-20T13:02:00Z,CEO,lobbying,group SIFMA
2013-05-20T14:37:00Z,U.S. justices rule,in,overseas tax case
2013-05-20T14:48:00Z,GE Capital,pay,$ 6.5 billion
2013-05-20T15:10:00Z,Wildcat strike,hits,Mercedes South African plant
2013-05-20T16:09:00Z,shale oil boom,of margins,tempered euphoria
2013-05-20T16:42:00Z,SAC Capital 's Cohen,gets subpoena,testify
2013-05-20T16:48:00Z,North Dakota,for,fracking-water market
2013-05-20T17:03:00Z,Morgan Stanley,sued in,pay-to-play retirement plan case
2013-05-20T17:12:00Z,U.S. homeland security notice,weighs on,OSI Systems ' contracts
2013-05-20T18:04:00Z,Pactera insiders,make,offer
2013-05-20T18:08:00Z,Britain 's Cameron,tells,others
2013-05-20T18:08:00Z,Paris,show,flyby
2013-05-20T18:08:00Z,others,play,fair
2013-05-20T18:17:00Z,9 percent,in,April
2013-05-20T18:28:00Z,Bankia compensation qualms signal loss,in,Spain 's banks
2013-05-20T18:28:00Z,Spain,in,banks
2013-05-20T19:28:00Z,Elan bid,ultimatum to,shareholders
2013-05-20T19:28:00Z,Royalty,raises,issues ultimatum
2013-05-20T19:55:00Z,Goldman,exits,China 's ICBC
2013-05-20T20:04:00Z,Citi,names,heads of mortgages
2013-05-20T20:42:00Z,Shares,grind,yen rebounds on minister 's remarks
2013-05-20T20:42:00Z,minister,on,remarks
2013-05-20T21:05:00Z,Apple,argue for,tax reform
2013-05-20T21:24:00Z,Wall Street,ends,flat
2013-05-20T21:39:00Z,U.S. Air Force,move,target date
2013-05-20T21:53:00Z,Rockwood pigments businesses,attract,private equity bids
2013-05-20T22:13:00Z,SAC,of,Cohen puzzles defense lawyers
2013-05-20T22:30:00Z,JPMorgan,gives polling information under,pressure
2013-05-20T22:57:00Z,U.S. court ruling,favors Cubist in,patent case
2013-05-20T23:05:00Z,Apple,spar over,taxes
2013-05-20T23:39:00Z,Raytheon,sign,U.S. officials
2013-05-20T23:55:00Z,Yahoo,buying Tumblr for,$ 1.1 billion
2013-05-21T04:09:00Z,road,is littered with,road-kill
2013-05-21T04:41:00Z,Biggest traders,helping,EU oil probe
2013-05-21T04:41:00Z,traders,helping,EU oil probe
2013-05-21T04:56:00Z,Chesapeake Energy,hires,Anadarko executive
