2013-03-24T01:05:00Z,Deutsche Bank co-CEO,asked for,two million euro pay cut
2013-03-24T02:30:00Z,Southeast Asia budget airlines,bet,big on growth
2013-03-24T03:24:00Z,Japan Airlines,may buy,20 Airbus A350 jets
2013-03-24T10:43:00Z,New models,help,carmaker BYD bounce back
2013-03-24T10:54:00Z,Cyprus president,save,economy
2013-03-24T12:21:00Z,Norway,going off,course
2013-03-24T13:07:00Z,Switzerland,denies banking deal in,principle reached
2013-03-24T15:29:00Z,Merkel ally,backs hike in,tax rate
2013-03-24T15:54:00Z,Emerging nations,risk,Cyprus contagion
2013-03-24T15:54:00Z,nations,risk,Cyprus contagion
2013-03-24T19:08:00Z,emerging markets,thrive,euro zone suffers
2013-03-24T19:08:00Z,markets,thrive,euro zone suffers
2013-03-24T21:15:00Z,Global telecoms ZTE,sees gold in,roots
2013-03-24T21:15:00Z,Global telecoms giant ZTE,sees,gold
2013-03-24T21:15:00Z,telecoms ZTE,sees gold in,Chinese roots
2013-03-24T21:15:00Z,telecoms giant ZTE,sees,gold
2013-03-24T21:22:00Z,we,know,it
2013-03-24T21:39:00Z,Cyprus,limits ATM withdrawals to,100 euros
2013-03-24T21:39:00Z,Dell 's board,evaluates,rival bids
2013-03-24T21:39:00Z,Euro zone meeting,delayed for,further talks
2013-03-24T21:53:00Z,Cypriot president,threatens,resignation
2013-03-24T21:53:00Z,president,threatens,resignation in bailout talks
2013-03-24T21:53:00Z,resignation,in,bailout talks
2013-03-24T21:57:00Z,Indonesia,solve,politically toxic fuel subsidy problem
2013-03-24T22:14:00Z,Hapag-Lloyd merger,with,Hamburg-Sued called
2013-03-24T22:29:00Z,Apple,buys,Silicon Valley startup WiFiSlam
2013-03-24T23:58:00Z,Cyprus,agree,draft proposal
2013-03-24T23:58:00Z,EU,agree to,rescue banks
2013-03-25T04:18:00Z,Sinopec,in,JV
