2013-06-30T08:27:00Z,Fund firms ' boycott threat,could hurt,Lloyds stock sale
2013-06-30T10:44:00Z,Irish banker,apologizes for,taped comments
2013-06-30T10:44:00Z,banker,apologizes for,comments
2013-06-30T10:57:00Z,Spain lenders,brace,new rules bite
2013-06-30T11:21:00Z,Bickenbach chairman,throws in,towel
2013-06-30T11:21:00Z,Schmolz,throws in,towel
2013-06-30T11:52:00Z,Bahrain economic growth,accelerates strongly in,quarter
2013-06-30T11:52:00Z,Bahrain growth,accelerates in,quarter
2013-06-30T13:09:00Z,Bakries ' stake,in,market
2013-06-30T13:09:00Z,Bumi,selling,Bakries ' stake
2013-06-30T15:40:00Z,action,handling,gas export applications
2013-06-30T15:52:00Z,VDM sale,attracts,bids from investors
2013-06-30T17:23:00Z,Cuba 's co-ops,debut amid,move toward markets
2013-06-30T17:23:00Z,Cuba 's non-farm co-ops,debut amid,move toward markets
2013-06-30T18:27:00Z,China,churn,already choppy waters
2013-06-30T18:27:00Z,Fed,churn,already choppy waters
2013-06-30T19:27:00Z,Bear market,in,gold
2013-06-30T21:31:00Z,Toyota heir,takes,centre stage
2013-06-30T22:06:00Z,GSK,for,Lucozade
2013-06-30T22:23:00Z,Greece,resume,talks on 8.1 billion euro bailout tranche
2013-06-30T22:23:00Z,lenders,resume,talks on 8.1 billion euro bailout tranche
2013-06-30T23:13:00Z,Alabama county,end,bankruptcy
2013-06-30T23:45:00Z,Nokia,buy,Siemens ' stake in NSN joint venture
2013-06-30T23:45:00Z,Siemens ' stake,in,NSN joint venture
2013-06-30T23:47:00Z,Onyx,explores,possible sale
2013-07-01T04:31:00Z,Brazil,raise,taxes
