2013-02-28T00:03:00Z,Pentagon F-35 program chief,lashes,Lockheed
2013-02-28T00:45:00Z,Groupon shares,crumple after,dismal outlook
2013-02-28T00:49:00Z,UAW,meets,organizing
2013-02-28T01:07:00Z,Shell,abandons,Alaska drilling for year
2013-02-28T01:11:00Z,Chinese owners,give,Nexen oil unit freedom
2013-02-28T01:11:00Z,owners,run,operations
2013-02-28T04:40:00Z,Boeing,maker at,odds over 787 fix
2013-02-28T04:55:00Z,SEC subpoenas Kimco,in,Wal-Mart probe
2013-02-28T06:31:00Z,Pentagon F-35 program chief,lashes,Lockheed
2013-02-28T08:24:00Z,China,nears,approval
2013-02-28T09:02:00Z,U.S. firms,set for,greater competition ahead
2013-02-28T09:17:00Z,UBS,sued by,two traders fired in Singapore
2013-02-28T10:05:00Z,ANA,puts Dreamliner fleet architect in,charge
2013-02-28T10:13:00Z,Allianz German unit,focuses on,growth
2013-02-28T10:59:00Z,emerging market smokers,try,brands
2013-02-28T10:59:00Z,market smokers,try,brands
2013-02-28T12:34:00Z,Opel revamp deal,expected,week
2013-02-28T13:36:00Z,Jobless claims,improving,labor market
2013-02-28T13:36:00Z,claims,improving,labor market
2013-02-28T14:17:00Z,Analysis,punches in,ECB 's euro defenses
2013-02-28T14:17:00Z,Berlin,of,austerity mantra
2013-02-28T14:17:00Z,ECB,in,euro defenses
2013-02-28T14:17:00Z,Italy,vote,arms critics
2013-02-28T14:17:00Z,Italy election,punches,hole
2013-02-28T14:36:00Z,EU,cap,bankers ' bonuses
2013-02-28T15:34:00Z,RBS,feels,pinch
2013-02-28T15:34:00Z,UK regulator,steps up,pressure
2013-02-28T15:52:00Z,Chances,buying,assets
2013-02-28T15:52:00Z,rising,Bank of,England
2013-02-28T16:05:00Z,Consumer debt,rises for,first time in 4 years
2013-02-28T16:05:00Z,first time,in,4 years
2013-02-28T16:08:00Z,Budget cuts,could impair,trade agenda
2013-02-28T16:11:00Z,Domino 's profit rises,boosted by,new pan pizzas
2013-02-28T16:15:00Z,Peregrine boss Wasendorf,moves to,high-security federal prison
2013-02-28T16:21:00Z,Spain 's Bankia,shows,recovery signs
2013-02-28T16:59:00Z,IMF,cut,growth forecasts
2013-02-28T16:59:00Z,U.S. spending,is,cut
2013-02-28T17:45:00Z,Regulators,looking at,Heinz derivatives
2013-02-28T17:58:00Z,F-35,in,future
2013-02-28T18:48:00Z,US Airways flight attendants,ratify,contract
2013-02-28T19:04:00Z,Fiat CEO,sees,50 percent chance of Chrysler IPO
2013-02-28T20:24:00Z,U.S. deal,has,Brazil
2013-02-28T21:46:00Z,Wall Street,ends,late fade
2013-02-28T22:06:00Z,Budget cuts,could impair,trade agenda
2013-02-28T22:37:00Z,CEO,admits,failure
2013-02-28T22:37:00Z,failure,in,candid memo
2013-02-28T22:57:00Z,Peregrine boss Wasendorf,starts,50-year jail term
2013-02-28T23:14:00Z,Blame game,gets,budget cuts looking
2013-02-28T23:14:00Z,Lockheed,sees,earnings
2013-02-28T23:14:00Z,budget cuts,looking,inevitable
2013-02-28T23:14:00Z,game,gets louder,budget cuts looking
2013-03-01T05:15:00Z,Regulators,move forward on,foreclosure relief
2013-03-01T05:26:00Z,Economy,expands in,days ahead
2013-03-01T05:39:00Z,Telefonica surprises,with,signs of Spanish turnaround
