2013-01-23T01:27:00Z,Google 's fourth-quarter results,shine after,ad rate decline
2013-01-23T01:27:00Z,Google 's results,shine after,ad rate decline
2013-01-23T02:49:00Z,Steve Jobs,enforce,no-hire policy
2013-01-23T03:32:00Z,Boeing 787 battery woes,put,FAA approval
2013-01-23T03:32:00Z,Boeing battery woes,put FAA approval under,scrutiny
2013-01-23T03:51:00Z,IBM,'s shines,2013 outlook
2013-01-23T03:51:00Z,IBM 's shines,with,fourth quarter
2013-01-23T06:07:00Z,damaged battery,in,ANA 787 flight
2013-01-23T08:45:00Z,$ 5 trillion new revenue,in,low-growth world
2013-01-23T08:45:00Z,Davos bosses,hunt,$ 5 trillion revenue in low-growth world
2013-01-23T11:07:00Z,Renault,keeps,pressure
2013-01-23T13:38:00Z,flight,in,2013
2013-01-23T13:59:00Z,EU banks,write,will
2013-01-23T13:59:00Z,Top EU banks,write,living will
2013-01-23T14:12:00Z,Boeing 's Dreamliner delay,hits,Hainan Airlines
2013-01-23T15:10:00Z,Japan,raises,view
2013-01-23T15:10:00Z,PM,pushes,Abenomics
2013-01-23T16:48:00Z,Motorola Solutions,expects,growth in government business
2013-01-23T16:48:00Z,growth,in,government business
2013-01-23T18:46:00Z,China 's chicken scare,hit,McDonald 's sales
2013-01-23T18:46:00Z,China 's tainted chicken scare,hit,McDonald 's sales
2013-01-23T18:51:00Z,House,extend,debt limit
2013-01-23T18:56:00Z,Options market,sees,move in Apple shares
2013-01-23T18:56:00Z,big move,in,Apple shares
2013-01-23T19:24:00Z,Government,did,right thing
2013-01-23T19:24:00Z,right thing,with,Boeing 787 review
2013-01-23T19:53:00Z,World economy,set for,slightly brighter year
2013-01-23T20:07:00Z,Debt limit extension bill,passes,House
2013-01-23T20:23:00Z,Options market,sees,move in Apple shares
2013-01-23T20:23:00Z,big move,in,Apple shares
2013-01-23T20:59:00Z,Japan,For,ANA
2013-01-23T21:25:00Z,Abbott results,bode well for,AbbVie
2013-01-23T22:07:00Z,slide,jump after,profit reports
2013-01-23T22:49:00Z,Bank,appoints,two directors
2013-01-23T23:06:00Z,Netflix shares,soar after,profit
2013-01-23T23:07:00Z,Goldman,cleared of,charges in doomed Dragon sale
2013-01-23T23:22:00Z,U.S.,cites,damage
2013-01-23T23:22:00Z,thermal damage,in,787 battery involved
2013-01-24T05:00:00Z,CEO job,in,2010
2013-01-24T05:00:00Z,GM 's American chief,considered for,CEO job
2013-01-24T05:00:00Z,GM 's North American chief,considered for,CEO job
2013-01-24T05:00:00Z,GM 's chief,considered for,CEO job in 2010
2013-01-24T05:02:00Z,Dimon,apologizes for,whale loss
2013-01-24T05:24:00Z,Eaton Corp,collaborating into,Dreamliner fuel leak
2013-01-24T05:30:00Z,Boeing engineer,says,confident
