2013-10-02T05:52:00Z,Poland,get,compensation for Dreamliner glitches
2013-10-02T06:30:00Z,AstraZeneca,to,Nexium
2013-10-02T06:30:00Z,U.S. court,lifts block on,competitor to AstraZeneca 's Nexium
2013-10-02T06:43:00Z,Tesco,posts,flat UK sales
2013-10-02T06:47:00Z,Poland,get,compensation for Dreamliner glitches
2013-10-02T07:49:00Z,Pre-electoral feuding,threatens,Nigeria 's economy
2013-10-02T07:49:00Z,feuding,threatens,Nigeria 's economy
2013-10-02T08:25:00Z,2013,on,big rotations
2013-10-02T08:31:00Z,freed pending trial,in,Greece
2013-10-02T09:47:00Z,EU,approves,20.5 million euro aid
2013-10-02T10:29:00Z,Exclusive UAE bourses,hire,advisors
2013-10-02T10:29:00Z,UAE bourses,hire,advisors
2013-10-02T10:29:00Z,merger,gathers,steam
2013-10-02T11:02:00Z,U.S. mortgage applications,dip,rates fall
2013-10-02T11:41:00Z,3 percent,in,first nine months
2013-10-02T14:13:00Z,Central European profit plunge,hits,Tesco 's recovery drive
2013-10-02T14:13:00Z,Central profit plunge,hits,Tesco 's recovery drive
2013-10-02T14:13:00Z,European profit plunge,hits,Tesco 's recovery drive
2013-10-02T14:13:00Z,profit plunge,hits,Tesco 's recovery drive
2013-10-02T16:25:00Z,KKR,buys,stake in appliance maker
2013-10-02T16:25:00Z,stake,in,biggest China deal
2013-10-02T18:03:00Z,Activist investor Loeb,calls,quit
2013-10-02T18:03:00Z,Sotheby,on,CEO
2013-10-02T18:38:00Z,bond-buying,would,would premature
2013-10-02T18:38:00Z,trimming bond-buying,would,would premature
2013-10-02T18:53:00Z,Cerberus,interested in,BlackBerry
2013-10-02T19:34:00Z,Fed,ensure,banks
2013-10-02T19:55:00Z,Greece 's Frigoglass,moves,parts production
2013-10-02T20:02:00Z,General Motors,takes,look
2013-10-02T20:02:00Z,Tesla,under,hood
2013-10-02T20:08:00Z,Iamgold CEO,committed to,gold
2013-10-02T20:23:00Z,Danone,wants compensation after,recall
2013-10-02T20:45:00Z,BlackBerry shares,rise on,possible Cerberus bidding interest
2013-10-02T21:10:00Z,Property database delay,frustrates,China 's drive
2013-10-02T21:11:00Z,Fed chair,will prevent,asset bubbles
2013-10-02T21:11:00Z,asset bubbles,focus on,jobs
2013-10-02T21:47:00Z,U.S. shutdown,continues,next week
2013-10-02T22:02:00Z,16 percent,in,September
2013-10-02T22:09:00Z,Wall Street,ends lower on,worries
2013-10-02T22:39:00Z,U.S. companies,warn of,furloughs from shutdown
2013-10-02T22:39:00Z,delays,furloughs from,shutdown
2013-10-02T22:43:00Z,Brazil,'s bets,eyes oil reform
2013-10-02T22:54:00Z,Adidas,calls in,fitness experts
2013-10-02T23:41:00Z,Italian prosecutors,seek,JPMorgan indictment for Paschi-Antonveneta deal
2013-10-02T23:41:00Z,prosecutors,seek,JPMorgan indictment
2013-10-03T04:18:00Z,Apple iPad Mini,with,sharper display
2013-10-03T04:29:00Z,Nasdaq,routs orders after,brief glitch
2013-10-03T04:38:00Z,Slow frequency,shift from,FX
2013-10-03T04:38:00Z,frequency,shift from,FX
