2013-10-07T00:15:00Z,China,of,oil company
2013-10-07T01:17:00Z,Fairholme,opens,hedge fund
2013-10-07T06:36:00Z,U.S. firms,urge,Washington
2013-10-07T07:29:00Z,Italy,in,two minds about foreign investors
2013-10-07T09:09:00Z,ties,with,Japan aerospace firms
2013-10-07T10:00:00Z,World Bank,cuts,East Asia growth forecasts
2013-10-07T11:17:00Z,Russia,halts,dairy imports
2013-10-07T11:18:00Z,Bernard Madoff 's circle,goes on,trial
2013-10-07T11:18:00Z,Bernard Madoff 's inner circle,goes on,trial
2013-10-07T11:50:00Z,Darling,buys,Vion 's ingredients unit
2013-10-07T14:08:00Z,World Bank,cuts,Ukraine 2013 growth forecast
2013-10-07T14:44:00Z,South Africa labor,unstable after,strike ends
2013-10-07T14:47:00Z,Top UK prosecutor,wants,law change
2013-10-07T14:47:00Z,UK prosecutor,wants,law change
2013-10-07T14:47:00Z,law change,snare,more companies
2013-10-07T14:55:00Z,Greek budget,sees end,year
2013-10-07T14:55:00Z,budget,sees end to,recession
2013-10-07T16:26:00Z,Cooper,disagree,wrinkles emerge
2013-10-07T17:05:00Z,Sberbank,cover,potential loans
2013-10-07T17:18:00Z,U.S. venture funds,raise,$ 4.1 billion
2013-10-07T17:38:00Z,VW labor chief,backs,UAW union bid for U.S.
2013-10-07T18:12:00Z,Mark Cuban,tells,insider trading trial share sale
2013-10-07T18:45:00Z,Monte Paschi,toughens up,revival plan win
2013-10-07T19:57:00Z,UK 's Cable,says,Labour
2013-10-07T20:57:00Z,Ford,targets,one-third increase in capacity
2013-10-07T20:57:00Z,one-third increase,in,capacity
2013-10-07T21:01:00Z,Independent analysts,take bite in,Asia
2013-10-07T21:01:00Z,analysts,take bite in,Asia
2013-10-07T21:08:00Z,U.S. justices,divided in,Allen Stanford Ponzi scheme case
2013-10-07T21:21:00Z,big jump,in,automotive turbos
2013-10-07T22:00:00Z,Twitter,buy rating,even listing
2013-10-07T22:11:00Z,Many U.S. investment advisers,fall short on,record-keeping
2013-10-07T22:11:00Z,U.S. investment advisers,fall short on,record-keeping
2013-10-07T22:17:00Z,Defense shares,end,mixed
2013-10-07T22:17:00Z,Pentagon,recalls,workers
2013-10-07T23:01:00Z,Greek budget,sees end,year
2013-10-07T23:01:00Z,budget,sees end to,recession
2013-10-07T23:07:00Z,SEC,sees,flaws in Treasury asset manager report
2013-10-07T23:07:00Z,flaws,in,new Treasury asset manager report
2013-10-07T23:10:00Z,Fund manager Falcone,banned from,insurance unit
2013-10-07T23:29:00Z,Dollar,enters,second week
2013-10-07T23:29:00Z,U.S. shutdown,enters,week
2013-10-07T23:59:00Z,BP,spars spill over,size of Gulf of Mexico
