2013-03-19T00:05:00Z,Cyprus,overshadows banking union,ECB prepares
2013-03-19T00:05:00Z,ECB,prepares for,watchdog role
2013-03-19T01:13:00Z,Paulson hedge fund,seeks,dismissal of Abacus lawsuit
2013-03-19T02:59:00Z,Cohen 's SAC,tells,investors
2013-03-19T03:56:00Z,Boeing engineers,ratify,labor deal
2013-03-19T03:56:00Z,Boeing technical engineers,ratify,labor deal
2013-03-19T06:19:00Z,Rift,prompted,resignation
2013-03-19T07:25:00Z,More homeowners,got,back above water
2013-03-19T07:25:00Z,homeowners,got,water
2013-03-19T07:35:00Z,Cyprus stock exchange,suspends,trade
2013-03-19T07:54:00Z,Standard Chartered,hires,Nomura 's Southeast Asia M&A head
2013-03-19T08:41:00Z,European car sales,fall,10.2 percent
2013-03-19T08:41:00Z,car sales,fall,10.2 percent
2013-03-19T09:45:00Z,Cypriot draft bill,drops,levy
2013-03-19T09:52:00Z,Cypriot bank levy,would lead to,deposit outflows
2013-03-19T10:12:00Z,Cypriot bonds,CDs for,depositors
2013-03-19T10:12:00Z,Debt expert,stretching,Cypriot bonds
2013-03-19T10:34:00Z,IMF,backs,Cyprus bid
2013-03-19T10:44:00Z,Samsung,working on,wristwatch
2013-03-19T11:06:00Z,BMW,sees,2013 pretax profits
2013-03-19T11:09:00Z,Japan,to,deflation
2013-03-19T11:48:00Z,ThyssenKrupp,plans,$ 1.3 billion-plus share sale
2013-03-19T11:51:00Z,Cyprus,plan,risks system collapse
2013-03-19T14:38:00Z,Porsche SE,dampens,hopes
2013-03-19T15:20:00Z,Ryanair,expresses,interest in next-generation 737
2013-03-19T15:20:00Z,interest,in,next-generation 737
2013-03-19T15:46:00Z,Visa Europe members,exploring,sale
2013-03-19T15:46:00Z,exploring,sale to,Visa
2013-03-19T17:37:00Z,Farallon hedge fund,launches,estate vehicle
2013-03-19T17:39:00Z,Nokia,wins,patent ruling against HTC
2013-03-19T18:32:00Z,Ryanair,lifts Boeing with,$ 16 billion
2013-03-19T18:39:00Z,HSBC,hires,sources
2013-03-19T18:53:00Z,Cyprus furor,is rocky start for,new Mr Euro
2013-03-19T18:53:00Z,ECB,wins watchdog role under,cloud over Cyprus deposit levy
2013-03-19T18:53:00Z,PIMCO,cuts,euro exposure
2013-03-19T18:53:00Z,Russia,ease,concerns over Cyprus levy
2013-03-19T18:53:00Z,UK,sends plane-load to,Cyprus
2013-03-19T18:53:00Z,investors,decry,Cyprus bailout plan
2013-03-19T19:11:00Z,Judge OKs Hostess,'s Twinkies,Ding Dongs sale
2013-03-19T19:30:00Z,Lawmakers,worry about,fare hikes
2013-03-19T19:34:00Z,ECB,says After,Cyprus vote
2013-03-19T20:04:00Z,Microsoft,backs,review of foreign bribery allegations
2013-03-19T20:34:00Z,Starbucks,buys,coffee farm
2013-03-19T21:00:00Z,Housing,growing,momentum
2013-03-19T21:25:00Z,Ex-Oregon governor candidate,charged in,Facebook IPO fraud
2013-03-19T21:25:00Z,governor candidate,charged in,Facebook IPO fraud
2013-03-19T22:43:00Z,Yahoo,in,talks buy
2013-03-19T22:43:00Z,stake,in,video site Dailymotion
2013-03-19T23:05:00Z,Cyprus lawmakers,reject,bank tax
2013-03-19T23:05:00Z,bailout,in,disarray
