2013-07-20T01:25:00Z,Fed move,allowing,banks
2013-07-20T01:25:00Z,Fed rethinking move,allowing,banks
2013-07-20T01:25:00Z,banks,trade,physical commodities
2013-07-20T11:16:00Z,G20 soft pedals,in,favor of growth
2013-07-20T11:21:00Z,Ex-Monte Paschi executives,investigated in,tax fraud case
2013-07-20T12:01:00Z,South Sudan,shut down oil production by,end
2013-07-20T12:14:00Z,Japan fiscal plans,escape,mention
2013-07-20T12:14:00Z,Japan plans,escape,mention in G20 communique
2013-07-20T12:14:00Z,mention,in,G20 communique
2013-07-20T14:24:00Z,G20,puts growth before,austerity
2013-07-20T15:52:00Z,Rival,accuses,Germany 's Merkel
2013-07-20T20:46:00Z,Fed move,allowing,banks
2013-07-20T20:46:00Z,Fed rethinking move,allowing,banks
2013-07-20T20:46:00Z,banks,trade,physical commodities
