2013-03-17T01:53:00Z,Mexico,has learned,stick with flexible peso
2013-03-17T03:54:00Z,India,wrestles with,dilemma
2013-03-17T08:26:00Z,Cypriot president,postpones,briefing on bank levy
2013-03-17T08:26:00Z,president,postpones,briefing on bank levy
2013-03-17T10:22:00Z,Malls,survive in,Internet era
2013-03-17T17:11:00Z,M&S,in,spotlight
2013-03-17T17:12:00Z,Republicans,differ on,flexibility on taxes
2013-03-17T17:12:00Z,taxes,with,Obama
2013-03-17T17:30:00Z,military personnel,hit by,Cyprus bank levy
2013-03-17T17:30:00Z,personnel,hit by,Cyprus bank levy
2013-03-17T19:35:00Z,world,for,central banks
2013-03-17T20:18:00Z,BIS concerned markets,getting on,stimulus
2013-03-17T20:18:00Z,BIS markets,getting on,stimulus
2013-03-17T21:01:00Z,Raid,shakes,Europeans ' faith
2013-03-17T21:06:00Z,Cyprus discussing changes,in,bank tax levy
2013-03-17T22:04:00Z,Dow Jones,investigates,bribery allegations against WSJ China
2013-03-17T22:06:00Z,Cyprus,works on,deal
2013-03-17T22:19:00Z,Mexico 's Slim,welcomes,telecoms reform
2013-03-17T23:13:00Z,Airbus,wins,landmark Lion Air order
2013-03-17T23:30:00Z,BNK Petroleum,sell,shale assets
2013-03-17T23:43:00Z,China,replaces Britain in,world 's five arms exporters
2013-03-17T23:43:00Z,world,in,top five arms exporters
2013-03-18T04:37:00Z,Airbus,sign,French government
2013-03-18T04:57:00Z,German experts,question,legality of ECB bank supervision plans
2013-03-18T04:57:00Z,experts,question,legality
